{
  "operationConfig" : {
    "name" : "prGetRegisteredEstmt3170",
    "type" : "MappedToBackend",
    "cachable" : false,
    "smsEnabled" : false,
    "security" : "authorized_app_user",
    "responseEncoding" : "UTF-8",
    "httpMethod" : "GET",
    "decodeResponseBody" : false,
    "iMapping" : "<?xml version=\"1.0\" encoding=\"UTF-8\" standalone=\"yes\"?><mapper xmlns=\"http://www.kony.com/ns/mapper\">              <map inputpath=\"request_in\" outputpath=\"request_out\">                            <set-param inputpath=\"custId\" outputpath=\"custId\"/>              </map></mapper>",
    "oMapping" : "<?xml version=\"1.0\" encoding=\"UTF-8\" standalone=\"yes\"?><mapper xmlns=\"http://www.kony.com/ns/mapper\">          <map inputpath=\"response_in\" outputpath=\"response_out\">                    <set-param inputpath=\"p_sec_email_id\" outputpath=\"p_sec_email_id\"/>                    <set-param inputpath=\"ErrorCode\" outputpath=\"ErrorCode\"/>                    <set-param inputpath=\"p_primary_email_id\" outputpath=\"p_primary_email_id\"/>          </map></mapper>",
    "applyCommonMapping" : false,
    "backendMeta" : {
      "serviceVersion" : "1.0",
      "operationName" : "prGetRegisteredEstmt",
      "serviceName" : "BOJGetRegisteredEstmt"
    },
    "relationshipHierarchyMapping" : {
      "children" : [ ],
      "name" : "User",
      "selected" : true
    },
    "requestXmlMappingOverride" : true,
    "responseXmlMappingOverride" : true
  }
}