{
    "@class": "com.kony.gen.viz.model.component.KVizButton",
    "DNDConfig": null,
    "__parentReadjusting__": false,
    "_bottom_": {
        "type": "string",
        "value": "8%"
    },
    "_height_": {
        "type": "string",
        "value": "50dp"
    },
    "_left_": {
        "type": "string",
        "value": "0dp"
    },
    "_margin_": [
        6,
        6,
        6,
        6
    ],
    "_padding_": [
        0,
        0,
        0,
        0
    ],
    "_skin_": "s51d68053cae4eba826625de179be4ae",
    "_text_": "",
    "_width_": {
        "type": "string",
        "value": "90%"
    },
    "canUpdateUI": true,
    "centerx": {
        "type": "string",
        "value": "50%"
    },
    "containerweight": 100,
    "contentalignment": 5,
    "disabledSkins": {
        "focusSkin": "s10149300144466da99cbf92f4fdacc8"
    },
    "displaytext": true,
    "id": "btnSubmit",
    "ide_onClick": "AS_Button_dec623cea8e743d5b9e9ec1871843416",
    "info": null,
    "isvisible": true,
    "kuid": "e1e53fa3316f4852831a6f870baee1e6",
    "name": "kony.ui.Button",
    "parent": "frmCancelCardKA",
    "pf": "frmCancelCardKA",
    "texti18n": "i18n.NUO.Submit",
    "wType": "Button",
    "zindex": 1
}