{
    "DNDConfig": null,
    "__parentReadjusting__": false,
    "_height_": {
        "type": "string",
        "value": "1%"
    },
    "_left_": {
        "type": "string",
        "value": "18dp"
    },
    "_margin_": [
        0,
        0,
        0,
        0
    ],
    "_orientation_": 6,
    "_padding_": [
        0,
        0,
        0,
        0
    ],
    "_percent_": true,
    "_skin_": "s5fffad2a0224af1a22b124837a52422",
    "_top_": {
        "type": "number",
        "value": "229"
    },
    "_width_": {
        "type": "string",
        "value": "78%"
    },
    "allboxes": [],
    "autogrowmode": 0,
    "canUpdateUI": true,
    "children": [],
    "clipbounds": true,
    "containerweight": 100,
    "enablescrolling": true,
    "id": "flxBorderTransferType",
    "info": null,
    "isvisible": false,
    "kuid": "gd14b189c22b4dfea49ef8d11b8cc9ac",
    "layouttype": 2,
    "name": "kony.ui.FlexContainer",
    "parent": "flxCardCancel",
    "pf": "frmCancelCardKA",
    "snapgridsize": 10,
    "snaptogrid": true,
    "wType": "FlexContainer",
    "widgetalignment": 1,
    "zindex": 1
}