{
    "DNDConfig": null,
    "__parentReadjusting__": false,
    "_height_": {
        "type": "string",
        "value": "50dp"
    },
    "_left_": {
        "type": "string",
        "value": "15dp"
    },
    "_margin_": [
        0,
        0,
        0,
        0
    ],
    "_orientation_": 6,
    "_padding_": [
        0,
        0,
        0,
        0
    ],
    "_percent_": true,
    "_skin_": "s388f0c575ef4d08ac3a5ed0a4b90085",
    "_top_": {
        "type": "string",
        "value": "150dp"
    },
    "_width_": {
        "type": "string",
        "value": "90%"
    },
    "allboxes": [],
    "autogrowmode": 0,
    "canUpdateUI": true,
    "children": [
        "lstCardReason",
        "lblReason",
        "lblCardNumber",
        "lblCardType",
        "lblCustID",
        "lblReasonCode",
        "btnDropDown",
        "flxUnderlineBillerCategory"
    ],
    "clipbounds": true,
    "containerweight": 100,
    "enablescrolling": true,
    "id": "flxCardReason",
    "ide_onClick": "AS_FlexContainer_a9f74fe969d642f8b92aba3878a964e6",
    "info": null,
    "isvisible": true,
    "kuid": "g9e41fb28eb446edb275d47f32560987",
    "layouttype": 2,
    "name": "kony.ui.FlexContainer",
    "parent": "flxCardCancel",
    "pf": "frmCancelCardKA",
    "snapgridsize": 10,
    "snaptogrid": true,
    "wType": "FlexContainer",
    "widgetalignment": 1,
    "zindex": 5
}