{
    "DNDConfig": null,
    "__parentReadjusting__": false,
    "_height_": {
        "type": "string",
        "value": "70%"
    },
    "_left_": {
        "type": "string",
        "value": "0%"
    },
    "_margin_": [
        0,
        0,
        0,
        0
    ],
    "_orientation_": 6,
    "_padding_": [
        0,
        0,
        0,
        0
    ],
    "_percent_": true,
    "_skin_": "s3f548bda3524e0388552e16122dc6fa",
    "_top_": {
        "type": "string",
        "value": "10%"
    },
    "_width_": {
        "type": "string",
        "value": "100%"
    },
    "allboxes": [],
    "allowhorizontalbounce": false,
    "allowverticalbounce": true,
    "bounces": false,
    "canUpdateUI": true,
    "children": [
        "flxCreditCardNumber",
        "flxUpgradeCard",
        "flxSuplementryCardType",
        "flxAccountNumber",
        "flxCardHolder",
        "flxRelationShip",
        "flxAge",
        "flxReason",
        "flxColor",
        "flxLimitType",
        "flxSuplementryCardLimit",
        "flxEmploymentStatus",
        "flxProfession",
        "flxTransferedSalary",
        "flxMonthlyIncome",
        "flxRequestLimit",
        "flxDeliveryMode",
        "flxNotes"
    ],
    "clipbounds": true,
    "containerweight": 100,
    "decelerat": false,
    "dragg": false,
    "enablescrolling": true,
    "horizontalscrollindicator": true,
    "id": "flxApplyNewCardsConfirmBody",
    "info": null,
    "isvisible": true,
    "kuid": "ac6a8a1185bd48ec9131d5c036e8ec21",
    "layouttype": 4,
    "name": "kony.ui.FlexScrollContainer",
    "pagingenabled": false,
    "parent": "frmApplyNewCardsConfirmKA",
    "pf": "frmApplyNewCardsConfirmKA",
    "scrolldirection": 2,
    "snapgridsize": 10,
    "snaptogrid": true,
    "track": false,
    "verticalscrollindicator": false,
    "vizProps": {},
    "wType": "FlexScrollContainer",
    "widgetalignment": 1,
    "zindex": 1
}