{
    "@class": "com.kony.gen.viz.model.component.KVizButton",
    "DNDConfig": null,
    "__markedForDelete__": true,
    "__parentReadjusting__": false,
    "_height_": {
        "type": "string",
        "value": "32dp"
    },
    "_margin_": [
        6,
        6,
        6,
        6
    ],
    "_padding_": [
        5,
        0,
        5,
        0
    ],
    "_skin_": "s110d337973b49fca0ecaae257ba9848",
    "_text_": "PAY NOW",
    "_top_": {
        "type": "string",
        "value": "2%"
    },
    "_width_": {
        "type": "ref",
        "value": "preferred"
    },
    "canUpdateUI": true,
    "centerx": {
        "type": "string",
        "value": "50%"
    },
    "containerweight": 100,
    "contentalignment": 5,
    "disabledSkins": {},
    "displaytext": true,
    "focusskin": "se1af366193c4949b005f48378674b7d",
    "id": "btnThree",
    "info": null,
    "isvisible": true,
    "kuid": "d14e6d0b8b5b4256bc23a70976e93207",
    "maxwidth": {
        "type": "string",
        "value": "90%"
    },
    "name": "kony.ui.Button",
    "paddinginpixel": false,
    "parent": "flxCongratulations",
    "pf": "frmCongratulations",
    "wType": "Button",
    "zindex": 1
}