{
  "operationConfig" : {
    "name" : "getAccountType2900",
    "type" : "MappedToBackend",
    "cachable" : false,
    "smsEnabled" : false,
    "security" : "public",
    "responseEncoding" : "UTF-8",
    "httpMethod" : "GET",
    "decodeResponseBody" : false,
    "oMapping" : "<?xml version=\"1.0\" encoding=\"UTF-8\" standalone=\"yes\"?><mapper xmlns=\"http://www.kony.com/ns/mapper\">  <map inputpath=\"response_in\" outputpath=\"response_out\">    <map inputpath=\"AccountType\" outputpath=\"AccountType\">      <set-param inputpath=\"TypeID\" outputpath=\"TypeID\"/>      <set-param inputpath=\"TypeDescription\" outputpath=\"TypeDescription\"/>    </map>  </map></mapper>",
    "applyCommonMapping" : true,
    "backendMeta" : {
      "serviceVersion" : "1.0",
      "operationName" : "getAccountType",
      "serviceName" : "RetailBankingBEServices"
    },
    "relationshipHierarchyMapping" : {
      "children" : [ ],
      "name" : "AccountType",
      "selected" : true
    },
    "requestXmlMappingOverride" : false,
    "responseXmlMappingOverride" : false
  }
}