{
    "DNDConfig": null,
    "_height_": {
        "type": "string",
        "value": "85dp"
    },
    "_margin_": [
        0,
        0,
        0,
        0
    ],
    "_padding_": [
        0,
        0,
        0,
        0
    ],
    "_skin_": "s6ce7a32ad744c6bb6a656db53b05b02",
    "allboxes": [],
    "autogrowmode": 0,
    "canUpdateUI": true,
    "children": [
        "chevron",
        "Imgcheck",
        "transactionDate",
        "transactionAmount",
        "lblSepKA",
        "flxImageandNameKA",
        "ImgWithDraw",
        "lblExpiryTime",
        "lblLastTransaction",
        "transactionAmountSI",
        "transactionName",
        "lblNoData",
        "lblTransRef",
        "lblTransType"
    ],
    "clipbounds": true,
    "containerId": true,
    "containerweight": 100,
    "disabledSkins": {},
    "enabled": false,
    "enablescrolling": true,
    "focusskin": "s6ce7a32ad744c6bb6a656db53b05b02",
    "id": "flxtmpPaymentHistoryNewKA",
    "info": null,
    "isTemplate": true,
    "isvisible": true,
    "kuid": "jd68d78258124f2da6d64e39959d7ab3",
    "layouttype": 2,
    "name": "kony.ui.FlexContainer",
    "orientation": 6,
    "parent": "tmpSegPaymentHistory",
    "percent": true,
    "pf": "tmpSegPaymentHistory",
    "snapgridsize": 10,
    "snaptogrid": true,
    "wType": "FlexContainer",
    "widgetalignment": 1
}