{
    "@class": "com.kony.gen.viz.model.component.KVizButton",
    "DNDConfig": null,
    "_margin_": [
        5,
        2,
        5,
        2
    ],
    "_padding_": [
        1,
        1,
        1,
        1
    ],
    "_skin_": "s064afd968c64abb94c8e379d3f4c61f",
    "_text_": "",
    "canUpdateUI": true,
    "containerweight": 50,
    "contentalignment": 5,
    "displaytext": true,
    "donotUpdateContainerWeight": false,
    "focusskin": "s17e292d54bd48bd8bd8a070c6c1819a",
    "id": "btnCancel",
    "ide_onClick": "AS_Button_d9c34370c13547e7a59b7b921f82a4da",
    "info": null,
    "isvisible": true,
    "kuid": "d7b23a72a8584f068454f836dc38f857",
    "margininpixel": false,
    "name": "kony.ui.Button",
    "paddInPixel": [
        5.88,
        5.88,
        5.88,
        5.88
    ],
    "paddinginpixel": false,
    "parent": "hbxTwoButtons",
    "pf": "popupCommonAlert",
    "texti18n": "i18n.common.cancel",
    "wType": "Button"
}