{
    "@class": "com.kony.gen.viz.model.component.KVizRichText",
    "DNDConfig": null,
    "_margin_": [
        1,
        0,
        1,
        0
    ],
    "_padding_": [
        0,
        0,
        0,
        0
    ],
    "_skin_": "s04e24a852654c1d92a8e06fe4fc361d",
    "_text_": "تنيستبنتيبنت  تابيتاسيبتايب\n",
    "_wrapping_": 2,
    "canUpdateUI": true,
    "containerWeightLocked": false,
    "containerweight": 100,
    "contentalignment": 5,
    "hexpand": true,
    "id": "lblDescription",
    "info": null,
    "isvisible": true,
    "kuid": "d7fe84cb54004453b43b273388d23ffc",
    "margininpixel": false,
    "name": "kony.ui.RichText",
    "paddInPixel": [
        0,
        0,
        0,
        0
    ],
    "parent": "hbxAlertBody",
    "pf": "popupCommonAlert",
    "vexpand": false,
    "wType": "RichText",
    "widgetalignment": 5
}