{
    "DNDConfig": null,
    "_height_": {
        "type": "string",
        "value": "15%"
    },
    "_margin_": [
        0,
        0,
        0,
        0
    ],
    "_orientation_": 6,
    "_padding_": [
        0,
        0,
        0,
        0
    ],
    "_percent_": true,
    "_skin_": "s388f0c575ef4d08ac3a5ed0a4b90085",
    "allboxes": [],
    "autogrowmode": 0,
    "canUpdateUI": true,
    "children": [
        "flxProfilePic",
        "flxUserDetails"
    ],
    "clipbounds": true,
    "containerId": true,
    "containerweight": 100,
    "enablescrolling": true,
    "id": "flxJomoPayContacts",
    "info": null,
    "isTemplate": true,
    "isvisible": true,
    "kuid": "d6c7625bbfe346bb93cceb328d3d5921",
    "layouttype": 2,
    "name": "kony.ui.FlexContainer",
    "parent": "tmpJomopaycontacts",
    "pf": "tmpJomopaycontacts",
    "snapgridsize": 10,
    "snaptogrid": true,
    "wType": "FlexContainer",
    "widgetalignment": 1
}