{
  "operationConfig" : {
    "name" : "ExceptionLogs7786",
    "type" : "MappedToBackend",
    "cachable" : false,
    "smsEnabled" : false,
    "security" : "public",
    "responseEncoding" : "UTF-8",
    "httpMethod" : "GET",
    "decodeResponseBody" : false,
    "iMapping" : "<?xml version=\"1.0\" encoding=\"UTF-8\" standalone=\"yes\"?><mapper xmlns=\"http://www.kony.com/ns/mapper\">  <map inputpath=\"request_in\" outputpath=\"request_out\">    <set-param inputpath=\"errorType\" outputpath=\"errorType\"/>    <set-param inputpath=\"custId\" outputpath=\"custId\"/>    <set-param inputpath=\"errorCode\" outputpath=\"errorCode\"/>    <set-param inputpath=\"description\" outputpath=\"description\"/>    <set-param inputpath=\"loggerchannel\" outputpath=\"loggerchannel\"/>    <set-param inputpath=\"serviceName\" outputpath=\"serviceName\"/>  </map></mapper>",
    "oMapping" : "<?xml version=\"1.0\" encoding=\"UTF-8\" standalone=\"yes\"?><mapper xmlns=\"http://www.kony.com/ns/mapper\">  <map inputpath=\"response_in\" outputpath=\"response_out\">    <set-param inputpath=\"statusType\" outputpath=\"statusType\"/>    <set-param inputpath=\"statusMessage\" outputpath=\"statusMessage\"/>    <set-param inputpath=\"statusCode\" outputpath=\"statusCode\"/>  </map></mapper>",
    "applyCommonMapping" : true,
    "backendMeta" : {
      "serviceVersion" : "1.0",
      "operationName" : "ExceptionLogs",
      "serviceName" : "BOJRestServices"
    },
    "relationshipHierarchyMapping" : {
      "children" : [ ],
      "name" : "DeviceRegistration",
      "selected" : true
    },
    "requestXmlMappingOverride" : true,
    "responseXmlMappingOverride" : true
  }
}