{
    "@class": "com.kony.gen.viz.model.component.KVizButton",
    "DNDConfig": null,
    "__parentReadjusting__": false,
    "_height_": {
        "type": "string",
        "value": "50dp"
    },
    "_left_": {
        "type": "string",
        "value": "0dp"
    },
    "_margin_": [
        6,
        6,
        6,
        6
    ],
    "_padding_": [
        2,
        0,
        0,
        0
    ],
    "_skin_": "s1a96e0a6f17402ca691f55c7b41e893",
    "_text_": "Cancel",
    "_top_": {
        "type": "string",
        "value": "0dp"
    },
    "_width_": {
        "type": "string",
        "value": "70dp"
    },
    "canUpdateUI": true,
    "centery": {
        "type": "string",
        "value": "50%"
    },
    "containerweight": 100,
    "contentalignment": 5,
    "displaytext": true,
    "focusskin": "s55cab51ac7b40b5a2db38b7b9c5822a",
    "id": "backButton",
    "ide_onClick": "AS_Button_f2c68f7ae8dd4752a0b1470f16be04b8",
    "info": null,
    "iphone": {
        "psp": {
            "showProgressIndicator": false
        }
    },
    "isvisible": true,
    "kuid": "d8f11445b09a461baf86f6af69e6da27",
    "minwidth": {
        "type": "string",
        "value": "50dp"
    },
    "name": "kony.ui.Button",
    "onclick": "AS_Button_4573034ed42a45cf94fb36bccc37bb10",
    "paddinginpixel": false,
    "parent": "titleBarWrapper",
    "pf": "frmConfirmNPPRegistration",
    "showprogressindicator": false,
    "texti18n": "i18n.cashWithdraw.cancel",
    "wType": "Button",
    "zindex": 1
}