{
    "@class": "com.kony.gen.viz.model.component.KVizLabel",
    "DNDConfig": null,
    "__markedForDelete__": true,
    "__parentReadjusting__": false,
    "_height_": {
        "type": "ref",
        "value": "preferred"
    },
    "_margin_": [
        1,
        1,
        1,
        1
    ],
    "_padding_": [
        0,
        0,
        0,
        0
    ],
    "_right_": {
        "type": "string",
        "value": "5%"
    },
    "_skin_": "s2b05f3e9d264a14931470949efb5546",
    "_text_": "1234567",
    "_top_": {
        "type": "string",
        "value": "70%"
    },
    "_width_": {
        "type": "ref",
        "value": "preferred"
    },
    "_wrapping_": 2,
    "canUpdateUI": true,
    "containerweight": 100,
    "contentalignment": 4,
    "enabled": false,
    "id": "lblBSBNumber",
    "info": null,
    "ipad": {
        "psp": {
            "wrapping": 2
        }
    },
    "iphone": {
        "psp": {
            "wrapping": 2
        }
    },
    "isvisible": true,
    "kuid": "cf688360753a45e68aa54c5b8d9d4bd2",
    "name": "kony.ui.Label",
    "parent": "flxAccDetails",
    "pf": "frmConfirmNPPRegistration",
    "texti18n": "i18n.p2p.BSBNumber",
    "tooltip": "",
    "wType": "Label"
}