{
    "@class": "com.kony.gen.viz.model.component.KVizButton",
    "DNDConfig": null,
    "__parentReadjusting__": false,
    "_height_": {
        "type": "string",
        "value": "75dp"
    },
    "_margin_": [
        6,
        6,
        6,
        6
    ],
    "_padding_": [
        0,
        0,
        0,
        0
    ],
    "_skin_": "s3ab10e73bc24d3687ec37d64d30f97c",
    "_text_": "8",
    "_top_": {
        "type": "string",
        "value": "52.50%"
    },
    "_width_": {
        "type": "string",
        "value": "75dp"
    },
    "canUpdateUI": true,
    "centerx": {
        "type": "string",
        "value": "50%"
    },
    "containerweight": 100,
    "contentalignment": 5,
    "disabledSkins": {},
    "displaytext": true,
    "focusskin": "s91eeaf3bdbd49be8c430a952a997520",
    "id": "btnEight",
    "ide_onClick": "AS_Button_2b503b1cb0f4476f8741722dc3d9a9c4",
    "info": null,
    "isvisible": true,
    "kuid": "547e3840426641669b85d190263b9ddc",
    "name": "kony.ui.Button",
    "parent": "flxDialPad",
    "pf": "frmLoginKA",
    "wType": "Button",
    "zindex": 1
}