{
    "@class": "com.kony.gen.viz.model.component.KVizButton",
    "DNDConfig": null,
    "__parentReadjusting__": false,
    "_height_": {
        "type": "string",
        "value": "75dp"
    },
    "_margin_": [
        6,
        6,
        6,
        6
    ],
    "_padding_": [
        0,
        0,
        0,
        0
    ],
    "_right_": {
        "type": "string",
        "value": "7%"
    },
    "_skin_": "s3ab10e73bc24d3687ec37d64d30f97c",
    "_text_": "9",
    "_top_": {
        "type": "string",
        "value": "52.46%"
    },
    "_width_": {
        "type": "string",
        "value": "75dp"
    },
    "canUpdateUI": true,
    "centerx": {
        "type": "string",
        "value": "78%"
    },
    "containerweight": 100,
    "contentalignment": 5,
    "disabledSkins": {},
    "displaytext": true,
    "focusskin": "s91eeaf3bdbd49be8c430a952a997520",
    "id": "btnNine",
    "ide_onClick": "AS_Button_034b32bce6284183bdc7842ae8376d9b",
    "info": null,
    "isvisible": true,
    "kuid": "dea0a6960cff4345b32e40c58944c12b",
    "name": "kony.ui.Button",
    "parent": "flxDialPad",
    "pf": "frmLoginKA",
    "wType": "Button",
    "zindex": 1
}