{
    "@class": "com.kony.gen.viz.model.component.KVizButton",
    "DNDConfig": null,
    "__parentReadjusting__": false,
    "_bottom_": {
        "type": "string",
        "value": "25%"
    },
    "_height_": {
        "type": "string",
        "value": "60dp"
    },
    "_margin_": [
        6,
        6,
        6,
        6
    ],
    "_padding_": [
        0,
        0,
        0,
        0
    ],
    "_skin_": "s94d80e187a44bd9bb9ce6db5e729010",
    "_text_": "",
    "_top_": {
        "type": "number",
        "value": "10"
    },
    "_width_": {
        "type": "string",
        "value": "74%"
    },
    "canUpdateUI": true,
    "centerx": {
        "type": "string",
        "value": "50%"
    },
    "containerweight": 100,
    "contentalignment": 5,
    "displaytext": true,
    "focusskin": "s6e8459b84e349d98629a088bbfe1304",
    "id": "CopyButton0baa14173445846",
    "ide_onClick": "AS_Button_c53e4c172e5f4bb991b5237cfe9a6695",
    "info": null,
    "isvisible": false,
    "kuid": "d399a8bf3e834c179b968c5f086cea15",
    "name": "kony.ui.Button",
    "parent": "logInFacialAuthScreen1",
    "pf": "frmLoginKA",
    "wType": "Button",
    "zindex": 1
}