{
    "DNDConfig": null,
    "__parentReadjusting__": false,
    "_height_": {
        "type": "string",
        "value": "100%"
    },
    "_left_": {
        "type": "string",
        "value": "55%"
    },
    "_margin_": [
        0,
        0,
        0,
        0
    ],
    "_orientation_": 6,
    "_padding_": [
        0,
        0,
        0,
        0
    ],
    "_percent_": true,
    "_right_": {
        "type": "string",
        "value": "0%"
    },
    "_skin_": "s388f0c575ef4d08ac3a5ed0a4b90085",
    "_top_": {
        "type": "string",
        "value": "0%"
    },
    "_width_": {
        "type": "string",
        "value": "45%"
    },
    "allboxes": [],
    "autogrowmode": 0,
    "canUpdateUI": true,
    "children": [
        "Button0c0ff90fa1c134f",
        "CopyButton0e1741010299c42",
        "btnDisableFeatire",
        "lblBackIcon"
    ],
    "clipbounds": true,
    "containerweight": 100,
    "enablescrolling": true,
    "id": "flxDisabe",
    "ide_onClick": "AS_FlexContainer_jb28c050cc2740d58d6b0f06aa21f286",
    "info": null,
    "isvisible": true,
    "kuid": "a8f92702c5f84380a09e0e5cd0da69ad",
    "layouttype": 3,
    "name": "kony.ui.FlexContainer",
    "parent": "flxHeaderDashboard",
    "pf": "frmLoginKA",
    "snapgridsize": 10,
    "snaptogrid": true,
    "wType": "FlexContainer",
    "widgetalignment": 1,
    "zindex": 1
}