{
    "@class": "com.kony.gen.viz.model.container.KVizSegment2",
    "DNDConfig": null,
    "__parentReadjusting__": false,
    "_data_": [
        {
            "lblAccountNumber": {
                "@class": "com.viz.ide.model.segment.SimpleTextSegmentData",
                "text": "***077"
            },
            "lblAccountType": {
                "@class": "com.viz.ide.model.segment.SimpleTextSegmentData",
                "text": "Savings Account"
            }
        },
        {
            "lblAccountNumber": {
                "@class": "com.viz.ide.model.segment.SimpleTextSegmentData",
                "text": "***078"
            },
            "lblAccountType": {
                "@class": "com.viz.ide.model.segment.SimpleTextSegmentData",
                "text": "Current Account"
            }
        },
        {
            "lblAccountNumber": {
                "@class": "com.viz.ide.model.segment.SimpleTextSegmentData",
                "text": "***079"
            },
            "lblAccountType": {
                "@class": "com.viz.ide.model.segment.SimpleTextSegmentData",
                "text": "Savings Account"
            }
        }
    ],
    "_height_": {
        "type": "ref",
        "value": "preferred"
    },
    "_indicator_": "none",
    "_left_": {
        "type": "string",
        "value": "0dp"
    },
    "_margin_": [
        0,
        0,
        0,
        0
    ],
    "_orientation_": 2,
    "_padding_": [
        0,
        0,
        0,
        0
    ],
    "_top_": {
        "type": "string",
        "value": "0dp"
    },
    "_width_": {
        "type": "string",
        "value": "100%"
    },
    "autogrowmode": 1,
    "canUpdateUI": true,
    "containerweight": 100,
    "counter": "02",
    "focusedindex": null,
    "focuseditem": null,
    "groupcells": false,
    "hasSections": false,
    "id": "segAccountsSMS",
    "info": null,
    "ipad": {
        "psp": {
            "indicator": "rowselect"
        }
    },
    "iphone": {
        "psp": {
            "indicator": "none"
        }
    },
    "isvisible": true,
    "kuid": "d758ca811ec74f44bba3f25a89ada805",
    "masterdata": {},
    "name": "kony.ui.SegmentedUI2",
    "needpageindicator": true,
    "pageoffdotimage": "pageoffdot.png",
    "pageondotimage": "pageondot.png",
    "paginationconfig": {
        "position": "bottom"
    },
    "parent": "flxMain",
    "pf": "frmSMSNotification",
    "retainselection": false,
    "rowTemplateId": "c4de9b07bcbf4d75b7fb8ea905d7e7d3",
    "rowcounter": 2,
    "rowfocusskin": "s8903f6623d243928a3e3fa499a4830a",
    "rowskin": "s8903f6623d243928a3e3fa499a4830a",
    "rowtemplate": "flxSMSNotificationEnabled",
    "screenlevelwidget": false,
    "seccounter": 0,
    "sectionheaderskin": "s67621b8a82d49f285da06b4f5a0c993",
    "selectedRows": null,
    "selectedState": false,
    "selectedindex": null,
    "selectedindices": null,
    "selecteditems": null,
    "selectedsectionindex": 0,
    "selectionbehavior": "default",
    "separatorcolor": "64646400",
    "separatorrequired": true,
    "separatorthickness": 1,
    "showscrollbars": false,
    "viewtype": "tableview",
    "vizProps": {},
    "wType": "Segment",
    "widgetalignment": 5,
    "widgetdatamap": {
        "flxAlertArrow": "flxAlertArrow",
        "flxILineDisabled": "flxILineDisabled",
        "flxInnerDisabled": "flxInnerDisabled",
        "flxInnerEnabled": "flxInnerEnabled",
        "flxLineEnabled": "flxLineEnabled",
        "flxSMSNotificationEnabled": "flxSMSNotificationEnabled",
        "flxSMSSwitchDIsabled": "flxSMSSwitchDIsabled",
        "flxSMSSwitchEnabled": "flxSMSSwitchEnabled",
        "flxUnderLineSMS": "flxUnderLineSMS",
        "lblAccountNumber": "lblAccountNumber",
        "lblAccountType": "lblAccountType",
        "lblRightIcon": "lblRightIcon"
    },
    "zindex": 1
}