{
  "description" : "RetailBankingServices",
  "subType" : "customapp",
  "identity" : [ "CustomLogin", "LinkedIn" ],
  "intSvcs" : [ {
    "name" : "BOJsendUserName",
    "version" : "1.0"
  }, {
    "name" : "BOJGetStandingInstructions",
    "version" : "1.0"
  }, {
    "name" : "prGetBeneficiaryDetails",
    "version" : "1.0"
  }, {
    "name" : "SendPushMessage",
    "version" : "1.0"
  }, {
    "name" : "prGetExternalTransferComm",
    "version" : "1.0"
  }, {
    "name" : "prDcLinkedAccount",
    "version" : "1.0"
  }, {
    "name" : "BOJGetPalpayMappingCodes",
    "version" : "1.0"
  }, {
    "name" : "BOJGetPalpayBillDetails",
    "version" : "1.0"
  }, {
    "name" : "BOJGetPalpayBillDetailsOtp",
    "version" : "1.0"
  }, {
    "name" : "BOJGetPalpayComm",
    "version" : "1.0"
  }, {
    "name" : "BOJGetPalpayQueryAuth",
    "version" : "1.0"
  }, {
    "name" : "BOJPalpayPaymentConfirm",
    "version" : "1.0"
  }, {
    "name" : "BOJPalpayPpPaymentConfirm",
    "version" : "1.0"
  }, {
    "name" : "testcomm",
    "version" : "1.0"
  }, {
    "name" : "RetailBankingBEServices",
    "version" : "1.0"
  }, {
    "name" : "BOJPrJmpGetFees",
    "version" : "1.0"
  }, {
    "name" : "BOJPrConfirmJmpPayments",
    "version" : "1.0"
  }, {
    "name" : "BOJGetCrCardHistTrans",
    "version" : "1.0"
  }, {
    "name" : "BOJGetProfileData",
    "version" : "1.0"
  }, {
    "name" : "BOJGetCrCardDetails",
    "version" : "1.0"
  }, {
    "name" : "BOJCreditCardPayment",
    "version" : "1.0"
  }, {
    "name" : "BOJGetCrCardStmt",
    "version" : "1.0"
  }, {
    "name" : "BOJPpPayment",
    "version" : "1.0"
  }, {
    "name" : "BOJEfwPaymentConfirm",
    "version" : "1.0"
  }, {
    "name" : "BOJPushNotification",
    "version" : "1.0"
  }, {
    "name" : "prCcInternetMailorder",
    "version" : "1.0"
  }, {
    "name" : "prAddBeneficiary",
    "version" : "1.0"
  }, {
    "name" : "BOJGetAccountDetails",
    "version" : "1.0"
  }, {
    "name" : "BOJPrGetTdDetails",
    "version" : "1.0"
  }, {
    "name" : "BOJCheckCardPin",
    "version" : "1.0"
  }, {
    "name" : "BOJCancelCreditCard",
    "version" : "1.0"
  }, {
    "name" : "BOJUnClearTxn",
    "version" : "1.0"
  }, {
    "name" : "BOJGetTransferFee",
    "version" : "1.0"
  }, {
    "name" : "BOJPrExternalTransfer",
    "version" : "1.0"
  }, {
    "name" : "BOJJavaServices",
    "version" : "1.0"
  }, {
    "name" : "BOJCancelDebitCard",
    "version" : "1.0"
  }, {
    "name" : "ManualUserCreation",
    "version" : "1.0"
  }, {
    "name" : "BOJDeleteBeneficiary",
    "version" : "1.0"
  }, {
    "name" : "BOJGetAccDetailsNode",
    "version" : "1.0"
  }, {
    "name" : "BOJCnfSiCancellation",
    "version" : "1.0"
  }, {
    "name" : "BOJSendOTP",
    "version" : "1.0"
  }, {
    "name" : "BOJBranchList",
    "version" : "1.0"
  }, {
    "name" : "BOJATMList",
    "version" : "1.0"
  }, {
    "name" : "BOJUpdateFavorBeneficiary",
    "version" : "1.0"
  }, {
    "name" : "BOJDebitCrdTxnList",
    "version" : "1.0"
  }, {
    "name" : "BOJCrdtCrdChngSms",
    "version" : "1.0"
  }, {
    "name" : "BOJPrfChngSms",
    "version" : "1.0"
  }, {
    "name" : "prGetAtmTransactionDetails",
    "version" : "1.0"
  }, {
    "name" : "iWatchBOJPrGetLoanAccDetails",
    "version" : "1.0"
  }, {
    "name" : "iWatchBOJPrGetTdDetails",
    "version" : "1.0"
  }, {
    "name" : "BOJCnfOpenNewAcc",
    "version" : "1.0"
  }, {
    "name" : "BOJGetRegisteredEstmt",
    "version" : "1.0"
  }, {
    "name" : "BOJprCcInstantCashback",
    "version" : "1.0"
  }, {
    "name" : "BOJSendSMSMobile",
    "version" : "1.0"
  }, {
    "name" : "BOJEstmtConfirm",
    "version" : "1.0"
  }, {
    "name" : "pushNotificationsAuthService",
    "version" : "1.0"
  }, {
    "name" : "BojprDcActivation",
    "version" : "1.0"
  }, {
    "name" : "BOJGetWebChrgCardDetails",
    "version" : "1.0"
  }, {
    "name" : "GoogleAPIs",
    "version" : "1.0"
  }, {
    "name" : "BOJprCcActivation",
    "version" : "1.0"
  }, {
    "name" : "BOJprAccTransfer",
    "version" : "1.0"
  }, {
    "name" : "BOJPrGetLoanAccDetails",
    "version" : "1.0"
  }, {
    "name" : "BOJGetDbCardDetails",
    "version" : "1.0"
  }, {
    "name" : "BOJGetTransactionDetails",
    "version" : "1.0"
  }, {
    "name" : "BOJRestServices",
    "version" : "1.0"
  }, {
    "name" : "BOJBeneBranchList",
    "version" : "1.0"
  }, {
    "name" : "BOJGetStatisticsDetails",
    "version" : "1.0"
  }, {
    "name" : "BOJGetExchRates",
    "version" : "1.0"
  }, {
    "name" : "BOJJmpRegister",
    "version" : "1.0"
  } ],
  "orchSvcs" : [ {
    "name" : "NotificationController",
    "version" : "1.0"
  }, {
    "name" : "GetDetails",
    "version" : "1.0"
  }, {
    "name" : "DebitCardList",
    "version" : "1.0"
  }, {
    "name" : "ChangeUnamePwd",
    "version" : "1.0"
  }, {
    "name" : "ATMLocator",
    "version" : "1.0"
  }, {
    "name" : "PushNotification",
    "version" : "1.0"
  }, {
    "name" : "BOJChangeSMSNo",
    "version" : "1.0"
  }, {
    "name" : "LoopExample",
    "version" : "1.0"
  }, {
    "name" : "AllCardList",
    "version" : "1.0"
  }, {
    "name" : "LoopStatistics",
    "version" : "1.0"
  }, {
    "name" : "CancelCard",
    "version" : "1.0"
  }, {
    "name" : "TransferMoneySS",
    "version" : "1.0"
  }, {
    "name" : "BojUserReg",
    "version" : "1.0"
  }, {
    "name" : "AccountTransactions",
    "version" : "1.0"
  }, {
    "name" : "getTncProfileData",
    "version" : "1.0"
  }, {
    "name" : "InformationSupport",
    "version" : "1.0"
  }, {
    "name" : "GetAccountListService",
    "version" : "1.0"
  }, {
    "name" : "GetCommission",
    "version" : "1.0"
  }, {
    "name" : "OTPController",
    "version" : "1.0"
  }, {
    "name" : "GetNotificationController",
    "version" : "1.0"
  }, {
    "name" : "BranchATMLocator",
    "version" : "1.0"
  }, {
    "name" : "OTPSMSController",
    "version" : "1.0"
  } ],
  "objectSvcs" : [ {
    "name" : "RBObjects",
    "version" : "1.0"
  } ]
}