{
    "@class": "com.kony.gen.viz.model.container.KVizWatchForm",
    "DNDConfig": null,
    "_margin_": [
        0,
        0,
        0,
        0
    ],
    "_orientation_": 1,
    "_padding_": [
        1,
        0,
        1,
        0
    ],
    "_percent_": true,
    "_skin_": "sddb85589f124df2ba7915c54e11b227",
    "_spacing_": 0,
    "_title_": null,
    "addWidgetsdone": false,
    "allboxes": [],
    "android": {
        "psp": {
            "windowSoftInputMode": 2
        }
    },
    "canUpdateUI": true,
    "children": [
        "lblSummery",
        "segDetails",
        "lblLoading"
    ],
    "containerweight": 100,
    "currentLocale": "default",
    "desktopweb": {
        "needAppMenu": false
    },
    "device": "appleWatch42",
    "displayorientation": 1,
    "enabledforidletimeout": false,
    "hideswhenloading": true,
    "id": "frmWatMenuListItemDetails",
    "ide_onAwake": "AS_Form_eee9ad5cfd434fe19e6bd040e49f10d9",
    "info": null,
    "initdone": false,
    "inputaccessoryviewtype": 4,
    "ipad": {
        "psp": {
            "inputAccessoryViewType": 4
        }
    },
    "iphone": {
        "psp": {
            "inputAccessoryViewType": 4
        }
    },
    "isvisible": true,
    "kuid": "e60d2f562a804cd6a666b42e5ee4a6db",
    "layouttype": 4,
    "name": "kony.ui.Form2",
    "needappmenu": true,
    "paddinginpixel": true,
    "platform": "watchos",
    "prevDevice": "appleWatch42",
    "prevPlatform": "watchos",
    "retainscrollposition": false,
    "shellCSS": "appleWatch42",
    "titleBarSkin": "s01a3c761ed44dcab0d6537d1b55b621",
    "titlebar": true,
    "type": 3,
    "wType": "Form"
}