{
    "DNDConfig": null,
    "_height_": {
        "type": "string",
        "value": "60dp"
    },
    "_margin_": [
        0,
        0,
        0,
        0
    ],
    "_orientation_": 6,
    "_padding_": [
        0,
        0,
        0,
        0
    ],
    "_percent_": true,
    "_skin_": "sd71d196025543d4a06972669a62082f",
    "allboxes": [],
    "autogrowmode": 0,
    "canUpdateUI": true,
    "children": [
        "lblCompanyNameKA",
        "lblSepKA"
    ],
    "clipbounds": true,
    "containerId": true,
    "containerweight": 100,
    "enablescrolling": true,
    "id": "FlexContainer040c5584262324d",
    "info": null,
    "isTemplate": true,
    "isvisible": true,
    "kuid": "558203aa00424823815cada1bec87fd7",
    "layouttype": 2,
    "name": "kony.ui.FlexContainer",
    "parent": "tmplateCompanyNameKA",
    "pf": "tmplateCompanyNameKA",
    "snapgridsize": 10,
    "snaptogrid": true,
    "wType": "FlexContainer",
    "widgetalignment": 1
}