{
    "@class": "com.kony.gen.viz.model.component.KVizLabel",
    "DNDConfig": null,
    "__parentReadjusting__": false,
    "_height_": {
        "type": "ref",
        "value": "preferred"
    },
    "_left_": {
        "type": "string",
        "value": "5%"
    },
    "_margin_": [
        1,
        1,
        1,
        1
    ],
    "_padding_": [
        0,
        0,
        0,
        0
    ],
    "_skin_": "se033b4241724171afff711026194d8f",
    "_text_": "Transfer to savings",
    "_top_": {
        "type": "string",
        "value": "40dp"
    },
    "_width_": {
        "type": "ref",
        "value": "preferred"
    },
    "_wrapping_": 2,
    "canUpdateUI": true,
    "containerweight": 100,
    "contentalignment": 4,
    "enabled": false,
    "id": "transactionNotes",
    "info": null,
    "ipad": {
        "psp": {
            "wrapping": 2
        }
    },
    "iphone": {
        "psp": {
            "wrapping": 2
        }
    },
    "isvisible": true,
    "kuid": "3495790173f24e4db779e68dc682ce97",
    "name": "kony.ui.Label",
    "parent": "CopynotesWrapper03de47f39b8bc46",
    "pf": "frmScheduledTransactionDetailsKA",
    "texti18n": "i18n.common.transferToSavings",
    "tooltip": "",
    "wType": "Label",
    "zindex": 1
}