{
    "@class": "com.kony.gen.viz.model.container.KVizSegment2",
    "DNDConfig": null,
    "__parentReadjusting__": false,
    "_data_": [
        {
            "Symbol": {
                "@class": "com.viz.ide.model.segment.SimpleTextSegmentData",
                "text": "B"
            },
            "imgIcon": {
                "@class": "com.viz.ide.model.segment.ImageSegmentData",
                "src": "imagedrag.png"
            },
            "lbl3": {
                "@class": "com.viz.ide.model.segment.SimpleTextSegmentData",
                "text": "Balance"
            },
            "lblAccountName": {
                "@class": "com.viz.ide.model.segment.SimpleTextSegmentData",
                "text": "Salary Account"
            },
            "lblAccountNumber": {
                "@class": "com.viz.ide.model.segment.SimpleTextSegmentData",
                "text": "***00114"
            },
            "lblAmount": {
                "@class": "com.viz.ide.model.segment.SimpleTextSegmentData",
                "text": "2,7453 JOD"
            }
        },
        {
            "Symbol": {
                "@class": "com.viz.ide.model.segment.SimpleTextSegmentData",
                "text": "B"
            },
            "imgIcon": {
                "@class": "com.viz.ide.model.segment.ImageSegmentData",
                "src": "imagedrag.png"
            },
            "lbl3": {
                "@class": "com.viz.ide.model.segment.SimpleTextSegmentData",
                "text": "Balance"
            },
            "lblAccountName": {
                "@class": "com.viz.ide.model.segment.SimpleTextSegmentData",
                "text": "Salary Account"
            },
            "lblAccountNumber": {
                "@class": "com.viz.ide.model.segment.SimpleTextSegmentData",
                "text": "***00114"
            },
            "lblAmount": {
                "@class": "com.viz.ide.model.segment.SimpleTextSegmentData",
                "text": "2,7453 JOD"
            }
        },
        {
            "Symbol": {
                "@class": "com.viz.ide.model.segment.SimpleTextSegmentData",
                "text": "B"
            },
            "imgIcon": {
                "@class": "com.viz.ide.model.segment.ImageSegmentData",
                "src": "imagedrag.png"
            },
            "lbl3": {
                "@class": "com.viz.ide.model.segment.SimpleTextSegmentData",
                "text": "Balance"
            },
            "lblAccountName": {
                "@class": "com.viz.ide.model.segment.SimpleTextSegmentData",
                "text": "Salary Account"
            },
            "lblAccountNumber": {
                "@class": "com.viz.ide.model.segment.SimpleTextSegmentData",
                "text": "***00114"
            },
            "lblAmount": {
                "@class": "com.viz.ide.model.segment.SimpleTextSegmentData",
                "text": "2,7453 JOD"
            }
        },
        {
            "Symbol": {
                "@class": "com.viz.ide.model.segment.SimpleTextSegmentData",
                "text": "B"
            },
            "imgIcon": {
                "@class": "com.viz.ide.model.segment.ImageSegmentData",
                "src": "imagedrag.png"
            },
            "lbl3": {
                "@class": "com.viz.ide.model.segment.SimpleTextSegmentData",
                "text": "Balance"
            },
            "lblAccountName": {
                "@class": "com.viz.ide.model.segment.SimpleTextSegmentData",
                "text": "Salary Account"
            },
            "lblAccountNumber": {
                "@class": "com.viz.ide.model.segment.SimpleTextSegmentData",
                "text": "***00114"
            },
            "lblAmount": {
                "@class": "com.viz.ide.model.segment.SimpleTextSegmentData",
                "text": "2,7453 JOD"
            }
        },
        {
            "Symbol": {
                "@class": "com.viz.ide.model.segment.SimpleTextSegmentData",
                "text": "B"
            },
            "imgIcon": {
                "@class": "com.viz.ide.model.segment.ImageSegmentData",
                "src": "imagedrag.png"
            },
            "lbl3": {
                "@class": "com.viz.ide.model.segment.SimpleTextSegmentData",
                "text": "Balance"
            },
            "lblAccountName": {
                "@class": "com.viz.ide.model.segment.SimpleTextSegmentData",
                "text": "Salary Account"
            },
            "lblAccountNumber": {
                "@class": "com.viz.ide.model.segment.SimpleTextSegmentData",
                "text": "***00114"
            },
            "lblAmount": {
                "@class": "com.viz.ide.model.segment.SimpleTextSegmentData",
                "text": "2,7453 JOD"
            }
        },
        {
            "Symbol": {
                "@class": "com.viz.ide.model.segment.SimpleTextSegmentData",
                "text": "B"
            },
            "imgIcon": {
                "@class": "com.viz.ide.model.segment.ImageSegmentData",
                "src": "imagedrag.png"
            },
            "lbl3": {
                "@class": "com.viz.ide.model.segment.SimpleTextSegmentData",
                "text": "Balance"
            },
            "lblAccountName": {
                "@class": "com.viz.ide.model.segment.SimpleTextSegmentData",
                "text": "Salary Account"
            },
            "lblAccountNumber": {
                "@class": "com.viz.ide.model.segment.SimpleTextSegmentData",
                "text": "***00114"
            },
            "lblAmount": {
                "@class": "com.viz.ide.model.segment.SimpleTextSegmentData",
                "text": "2,7453 JOD"
            }
        },
        {
            "Symbol": {
                "@class": "com.viz.ide.model.segment.SimpleTextSegmentData",
                "text": "B"
            },
            "imgIcon": {
                "@class": "com.viz.ide.model.segment.ImageSegmentData",
                "src": "imagedrag.png"
            },
            "lbl3": {
                "@class": "com.viz.ide.model.segment.SimpleTextSegmentData",
                "text": "Balance"
            },
            "lblAccountName": {
                "@class": "com.viz.ide.model.segment.SimpleTextSegmentData",
                "text": "Salary Account"
            },
            "lblAccountNumber": {
                "@class": "com.viz.ide.model.segment.SimpleTextSegmentData",
                "text": "***00114"
            },
            "lblAmount": {
                "@class": "com.viz.ide.model.segment.SimpleTextSegmentData",
                "text": "2,7453 JOD"
            }
        }
    ],
    "_height_": {
        "type": "string",
        "value": "91%"
    },
    "_indicator_": "none",
    "_left_": {
        "type": "string",
        "value": "0%"
    },
    "_margin_": [
        0,
        0,
        0,
        0
    ],
    "_orientation_": 2,
    "_padding_": [
        0,
        0,
        0,
        0
    ],
    "_top_": {
        "type": "string",
        "value": "9%"
    },
    "_width_": {
        "type": "string",
        "value": "100%"
    },
    "autogrowmode": 0,
    "canUpdateUI": true,
    "containerweight": 100,
    "counter": "06",
    "enablereordering": false,
    "focusedindex": null,
    "focuseditem": null,
    "generatedtemplate": "fdd34f00ec324053b9dce0b729303dfe",
    "groupcells": false,
    "hasSections": false,
    "id": "segFre",
    "ide_onRowClick": "AS_Segment_ef182e9bd69845269f08bc53f75c0a0b",
    "info": null,
    "ipad": {
        "psp": {
            "indicator": "rowselect"
        }
    },
    "iphone": {
        "psp": {
            "indicator": "none",
            "showProgressIndicator": false
        }
    },
    "isvisible": true,
    "kuid": "bd6c6663587d4f2bb5f5b10a990af094",
    "masterType": 1,
    "masterdata": {},
    "name": "kony.ui.SegmentedUI2",
    "needpageindicator": true,
    "pageoffdotimage": "pageoffdot.png",
    "pageondotimage": "pageondot.png",
    "paginationconfig": {
        "position": "bottom"
    },
    "parent": "flxMain",
    "pf": "frmAccountDetailsScreen",
    "retainselection": false,
    "rowTemplateId": "cdb2cf5ed8be41ca89a99fc36aef0c60",
    "rowcounter": 6,
    "rowfocusskin": "sd80d9c7dda2486a9639af0b6d6e3d09",
    "rowskin": "s54274d5701a478895f4e92509502045",
    "rowtemplate": "flxAccountDetailsScreenTemplate",
    "seccounter": 0,
    "sectionHeaderTemplateId": null,
    "sectionheaderskin": "sf87aea6ff1c4288aaaf68c15ad7ff17",
    "selectedRows": null,
    "selectedState": false,
    "selectedindex": null,
    "selectedindices": null,
    "selecteditems": null,
    "selectedsectionindex": 0,
    "selectionbehavior": "singleselect",
    "selectionbehaviorconfig": {},
    "separatorcolor": "ffffff5a",
    "separatorrequired": true,
    "separatorthickness": 1,
    "showscrollbars": false,
    "viewtype": "tableview",
    "vizProps": {},
    "wType": "Segment",
    "widgetalignment": 5,
    "widgetdatamap": {
        "Symbol": "Symbol",
        "flxAccountDetailsScreenTemplate": "flxAccountDetailsScreenTemplate",
        "flxContents": "flxContents",
        "imgIcon": "imgIcon",
        "lbl3": "lbl3",
        "lblAccountName": "lblAccountName",
        "lblAccountNumber": "lblAccountNumber",
        "lblAmount": "lblAmount"
    },
    "zindex": 10
}