{
    "@class": "com.kony.gen.viz.model.component.KVizButton",
    "DNDConfig": null,
    "__markedForDelete__": true,
    "__parentReadjusting__": false,
    "_height_": {
        "type": "string",
        "value": "70%"
    },
    "_left_": {
        "type": "string",
        "value": "0%"
    },
    "_margin_": [
        6,
        6,
        6,
        6
    ],
    "_padding_": [
        0,
        0,
        0,
        0
    ],
    "_skin_": "s17e292d54bd48bd8bd8a070c6c1819a",
    "_text_": "",
    "_top_": {
        "type": "string",
        "value": "5%"
    },
    "_width_": {
        "type": "string",
        "value": "49%"
    },
    "canUpdateUI": true,
    "containerweight": 100,
    "contentalignment": 5,
    "displaytext": true,
    "focusskin": "sbe1e969bc9948e288db010580bd90b0",
    "id": "btnMonthly",
    "ide_onClick": "AS_Button_jd656f7ef24e453ca2bc2bb4a7f9e60c",
    "info": null,
    "isvisible": true,
    "kuid": "h754d313206e43fea30f6599e4ea934e",
    "name": "kony.ui.Button",
    "parent": "flxInterestPayableSelects",
    "pf": "frmOpenTermDeposit",
    "texti18n": "i18n.termDeposit.intMonthly",
    "wType": "Button",
    "zindex": 1
}