{
    "@class": "com.kony.gen.viz.model.component.KVizLabel",
    "DNDConfig": null,
    "__markedForDelete__": true,
    "__parentReadjusting__": false,
    "_height_": {
        "type": "string",
        "value": "20dp"
    },
    "_left_": 0,
    "_lines_": 1,
    "_margin_": [
        0,
        0,
        0,
        0
    ],
    "_opacity_": 100,
    "_padding_": [
        0,
        0,
        0,
        0
    ],
    "_skin_": "s7330199454e4ad09e12d6df2a23b76b",
    "_text_": "60,005.0 JOB",
    "_top_": 0,
    "_width_": {
        "type": "ref",
        "value": "preferred"
    },
    "_wrapping_": 2,
    "android": {
        "textStyle": {
            "letterSpacing": 0,
            "strikeThrough": false
        }
    },
    "canUpdateUI": true,
    "containerId": true,
    "containerweight": 100,
    "contentalignment": 4,
    "id": "lblNumber",
    "info": null,
    "ipad": {
        "psp": {
            "wrapping": 2
        }
    },
    "iphone": {
        "psp": {
            "wrapping": 2
        }
    },
    "isvisible": true,
    "kuid": "f93a6fbe684d4593b3915a083b990189",
    "minscale": 100,
    "name": "kony.ui.Label",
    "paddinginpixel": true,
    "parent": "grpContent",
    "pf": "tempMenuItem",
    "tooltip": "",
    "wType": "Label",
    "widgetalignment": 7
}