{
    "@class": "com.kony.gen.viz.model.component.KVizButton",
    "DNDConfig": null,
    "__parentReadjusting__": false,
    "_height_": {
        "type": "string",
        "value": "72dp"
    },
    "_left_": {
        "type": "string",
        "value": "4%"
    },
    "_margin_": [
        6,
        6,
        6,
        6
    ],
    "_padding_": [
        0,
        0,
        0,
        0
    ],
    "_skin_": "s3ab10e73bc24d3687ec37d64d30f97c",
    "_text_": "4",
    "_top_": {
        "type": "string",
        "value": "24%"
    },
    "_width_": {
        "type": "string",
        "value": "72dp"
    },
    "canUpdateUI": true,
    "centerx": {
        "type": "string",
        "value": "22%"
    },
    "containerweight": 100,
    "contentalignment": 5,
    "disabledSkins": {},
    "displaytext": true,
    "focusskin": "s91eeaf3bdbd49be8c430a952a997520",
    "id": "btnFour",
    "ide_onClick": "AS_Button_b14cc58f415c482da55169c57df4f427",
    "info": null,
    "iphone": {
        "psp": {
            "showProgressIndicator": false
        }
    },
    "isvisible": true,
    "kuid": "e18d02791cf248f9bab090d7b2695ca9",
    "name": "kony.ui.Button",
    "parent": "flxDialPad",
    "pf": "frmPinEntryStep2",
    "wType": "Button",
    "zindex": 1
}