{
    "@class": "com.kony.gen.viz.model.component.KVizButton",
    "DNDConfig": null,
    "__parentReadjusting__": false,
    "_height_": {
        "type": "string",
        "value": "72dp"
    },
    "_left_": {
        "type": "string",
        "value": "68%"
    },
    "_margin_": [
        6,
        6,
        6,
        6
    ],
    "_padding_": [
        0,
        0,
        0,
        0
    ],
    "_right_": {
        "type": "string",
        "value": "10dp"
    },
    "_skin_": "s3ab10e73bc24d3687ec37d64d30f97c",
    "_text_": "6",
    "_top_": {
        "type": "string",
        "value": "24%"
    },
    "_width_": {
        "type": "string",
        "value": "72dp"
    },
    "canUpdateUI": true,
    "centerx": {
        "type": "string",
        "value": "78%"
    },
    "containerweight": 100,
    "contentalignment": 5,
    "disabledSkins": {},
    "displaytext": true,
    "focusskin": "s91eeaf3bdbd49be8c430a952a997520",
    "id": "btnSix",
    "ide_onClick": "AS_Button_b32fd7fb9edd4d4286e90efda2dd586a",
    "info": null,
    "iphone": {
        "psp": {
            "showProgressIndicator": false
        }
    },
    "isvisible": true,
    "kuid": "df32cc41c3544d15a15ddf607ab2b76e",
    "name": "kony.ui.Button",
    "parent": "flxDialPad",
    "pf": "frmPinEntryStep2",
    "wType": "Button",
    "zindex": 1
}