{
    "DNDConfig": null,
    "__parentReadjusting__": false,
    "_bottom_": {
        "type": "string",
        "value": "0dp"
    },
    "_left_": {
        "type": "string",
        "value": "0%"
    },
    "_margin_": [
        0,
        0,
        0,
        0
    ],
    "_orientation_": 6,
    "_padding_": [
        0,
        0,
        0,
        0
    ],
    "_percent_": true,
    "_skin_": "sa1a1a15fe55455b8196f8d785f05c2b",
    "_top_": {
        "type": "string",
        "value": "0%"
    },
    "_width_": {
        "type": "string",
        "value": "100%"
    },
    "allboxes": [],
    "autogrowmode": 0,
    "canUpdateUI": true,
    "children": [
        "hdrPinStep1",
        "stepCountLabel",
        "DidNotMatchLabel",
        "PinEntryLabel",
        "flxProgressButtons",
        "flxDialPad",
        "flxbottomContainer"
    ],
    "clipbounds": true,
    "containerweight": 100,
    "enablescrolling": true,
    "id": "flxMainContainer",
    "info": null,
    "isvisible": true,
    "kuid": "fb1d669d02244d78b4199d85ca380218",
    "layouttype": 4,
    "name": "kony.ui.FlexContainer",
    "parent": "frmPinEntryStep2",
    "pf": "frmPinEntryStep2",
    "snapgridsize": 10,
    "snaptogrid": true,
    "wType": "FlexContainer",
    "widgetalignment": 1,
    "zindex": 1
}