{
    "@class": "com.kony.gen.viz.model.component.KVizLabel",
    "DNDConfig": null,
    "__parentReadjusting__": false,
    "_height_": {
        "type": "ref",
        "value": "preferred"
    },
    "_left_": {
        "type": "string",
        "value": "10%"
    },
    "_margin_": [
        1,
        1,
        1,
        1
    ],
    "_padding_": [
        0,
        0,
        0,
        0
    ],
    "_skin_": "s25eaab7a17f44c2a4d4448a03130788",
    "_text_": "No records to view.",
    "_top_": {
        "type": "string",
        "value": "30dp"
    },
    "_width_": {
        "type": "ref",
        "value": "preferred"
    },
    "_wrapping_": 2,
    "canUpdateUI": true,
    "centerx": {
        "type": "string",
        "value": "50%"
    },
    "centery": {
        "type": "string",
        "value": "40%"
    },
    "containerweight": 100,
    "contentalignment": 5,
    "enabled": false,
    "id": "LabelNoRecordsKA",
    "info": null,
    "ipad": {
        "psp": {
            "wrapping": 2
        }
    },
    "iphone": {
        "psp": {
            "wrapping": 2
        }
    },
    "isvisible": false,
    "kuid": "0eb70de0e7084c96939e5a20365c8bd3",
    "name": "kony.ui.Label",
    "parent": "mainContentSearch",
    "pf": "frmSearchResultsKA",
    "texti18n": "i18n.common.norecords",
    "tooltip": "",
    "wType": "Label",
    "zindex": 1
}