{
    "DNDConfig": null,
    "_height_": {
        "type": "string",
        "value": "8%"
    },
    "_margin_": [
        0,
        0,
        0,
        0
    ],
    "_orientation_": 6,
    "_padding_": [
        0,
        0,
        0,
        0
    ],
    "_percent_": true,
    "_skin_": "sa605bd9dbb249219998c81a7358aa42",
    "allboxes": [],
    "autogrowmode": 0,
    "canUpdateUI": true,
    "children": [
        "lblSection",
        "CopylblLine0i25ba22a14b94a"
    ],
    "clipbounds": true,
    "containerId": true,
    "containerweight": 100,
    "enablescrolling": true,
    "id": "flxHeadre",
    "info": null,
    "isTemplate": true,
    "isvisible": true,
    "kuid": "eba5706f97c749f0bacd01cfb442b6f1",
    "layouttype": 2,
    "name": "kony.ui.FlexContainer",
    "parent": "tempCurrencySectionHeader",
    "pf": "tempCurrencySectionHeader",
    "snapgridsize": 10,
    "snaptogrid": true,
    "wType": "FlexContainer",
    "widgetalignment": 1
}