{
    "@class": "com.kony.gen.viz.model.container.KVizGroup",
    "DNDConfig": null,
    "__markedForDelete__": true,
    "__parentReadjusting__": false,
    "_height_": {
        "type": "string",
        "value": "100%"
    },
    "_left_": 0,
    "_margin_": [
        0,
        0,
        0,
        0
    ],
    "_opacity_": 100,
    "_orientation_": 6,
    "_padding_": [
        0,
        5,
        0,
        0
    ],
    "_percent_": true,
    "_skin_": "s715e2f9e9d34b7dabe2f21670de4718",
    "_spacing_": 2,
    "_top_": 0,
    "_width_": {
        "type": "string",
        "value": "50%"
    },
    "allboxes": [],
    "android": {
        "render": false
    },
    "canUpdateUI": true,
    "children": [
        "grpDImage",
        "lblDeposits"
    ],
    "clipbounds": true,
    "containerweight": 100,
    "desktopweb": {
        "render": false
    },
    "enablescrolling": true,
    "id": "grpDeposits",
    "ide_onClick": "AS_Group_h5f57709681b4149a899223884de36f4",
    "info": null,
    "ipad": {
        "render": false
    },
    "iphone": {
        "render": false
    },
    "isvisible": true,
    "kiosk": {
        "render": false
    },
    "kuid": "a7a7dacb2b994ff48f11ee1689b621ff",
    "layouttype": 4,
    "name": "kony.ui.Group",
    "paddinginpixel": true,
    "parent": "grpBottom",
    "pf": "frmWatMenu",
    "snapgridsize": 10,
    "snaptogrid": false,
    "spaan": {
        "render": false
    },
    "spaandroidtablet": {
        "render": false
    },
    "spabb": {
        "render": false
    },
    "spaip": {
        "render": false
    },
    "spaipad": {
        "render": false
    },
    "spawindowstablet": {
        "render": false
    },
    "spawinphone8": {
        "render": false
    },
    "tabrcandroid": {
        "render": false
    },
    "wType": "Group",
    "widgetalignment": 1,
    "windows8": {
        "render": false
    },
    "winphone8": {
        "render": false
    }
}