{
  "operationConfig" : {
    "name" : "prCnfSiCancellation4307",
    "type" : "MappedToBackend",
    "cachable" : false,
    "smsEnabled" : false,
    "security" : "public",
    "responseEncoding" : "UTF-8",
    "httpMethod" : "GET",
    "decodeResponseBody" : false,
    "iMapping" : "<?xml version=\"1.0\" encoding=\"UTF-8\" standalone=\"yes\"?><mapper xmlns=\"http://www.kony.com/ns/mapper\">  <map inputpath=\"request_in\" outputpath=\"request_out\">    <set-param inputpath=\"custId\" outputpath=\"custId\"/>    <set-param inputpath=\"InstructionNum\" outputpath=\"InstructionNum\"/>    <set-param inputpath=\"usr\" outputpath=\"usr\"/>    <set-param inputpath=\"p_fcdb_ref_no\" outputpath=\"p_fcdb_ref_no\"/>    <set-param inputpath=\"pass\" outputpath=\"pass\"/>  </map></mapper>",
    "oMapping" : "<?xml version=\"1.0\" encoding=\"UTF-8\" standalone=\"yes\"?><mapper xmlns=\"http://www.kony.com/ns/mapper\">  <map inputpath=\"response_in\" outputpath=\"response_out\">    <set-param inputpath=\"ReferenceNum\" outputpath=\"ReferenceNum\"/>    <set-param inputpath=\"ErrorCode\" outputpath=\"ErrorCode\"/>  </map></mapper>",
    "applyCommonMapping" : true,
    "backendMeta" : {
      "serviceVersion" : "1.0",
      "operationName" : "prCnfSiCancellation",
      "serviceName" : "BOJCnfSiCancellation"
    },
    "relationshipHierarchyMapping" : {
      "children" : [ ],
      "name" : "StandingInstructions",
      "selected" : true
    },
    "requestXmlMappingOverride" : true,
    "responseXmlMappingOverride" : true
  }
}