{
    "@class": "com.kony.gen.viz.model.component.KVizLabel",
    "DNDConfig": null,
    "__parentReadjusting__": false,
    "_height_": {
        "type": "string",
        "value": "33.33%"
    },
    "_left_": {
        "type": "string",
        "value": "9dp"
    },
    "_margin_": [
        1,
        1,
        1,
        1
    ],
    "_padding_": [
        0,
        0,
        0,
        0
    ],
    "_right_": {
        "type": "string",
        "value": "2dp"
    },
    "_skin_": "s2633318e1e5459aaf4daff6675aeef0",
    "_text_": "HDFC",
    "_top_": {
        "type": "string",
        "value": "11dp"
    },
    "_wrapping_": 2,
    "android": {
        "textStyle": {
            "letterSpacing": 0,
            "strikeThrough": false
        }
    },
    "canUpdateUI": true,
    "containerId": true,
    "containerweight": 100,
    "contentalignment": 4,
    "id": "lblName",
    "info": null,
    "ipad": {
        "psp": {
            "wrapping": 2
        }
    },
    "iphone": {
        "psp": {
            "wrapping": 2
        }
    },
    "isvisible": true,
    "kuid": "81f8380e119a4af4a80b865adc13c80d",
    "name": "kony.ui.Label",
    "parent": "flxDetails",
    "pf": "mapATMBranch",
    "tooltip": "",
    "wType": "Label"
}