{
    "DNDConfig": null,
    "__parentReadjusting__": false,
    "_height_": {
        "type": "ref",
        "value": "preferred"
    },
    "_left_": {
        "type": "string",
        "value": "0dp"
    },
    "_margin_": [
        0,
        0,
        0,
        0
    ],
    "_orientation_": 6,
    "_padding_": [
        0,
        0,
        0,
        0
    ],
    "_percent_": true,
    "_skin_": "s388f0c575ef4d08ac3a5ed0a4b90085",
    "_top_": {
        "type": "string",
        "value": "0dp"
    },
    "_width_": {
        "type": "string",
        "value": "100%"
    },
    "allboxes": [],
    "autogrowmode": 1,
    "canUpdateUI": true,
    "children": [
        "lblCashWithdrawCode",
        "lblPassCode",
        "lblExpiryTime",
        "flxShareOptions",
        "flxBottomAck",
        "Copydivider0d9dbf93f2ab844",
        "FlexContainer0be1121ad10c545"
    ],
    "clipbounds": true,
    "containerweight": 100,
    "enablescrolling": true,
    "id": "FlexContainerConfirmandEditBtns",
    "info": null,
    "isvisible": true,
    "kuid": "e29e00f93c6f4991935560ec9f2ab4f6",
    "layouttype": 4,
    "name": "kony.ui.FlexContainer",
    "parent": "FlexScrollContainerConfirmWithdraw",
    "pf": "frmPendingWithdrawSummary",
    "snapgridsize": 10,
    "snaptogrid": true,
    "wType": "FlexContainer",
    "widgetalignment": 1,
    "zindex": 1
}