{
    "@class": "com.kony.gen.viz.model.component.KVizButton",
    "DNDConfig": null,
    "__parentReadjusting__": false,
    "_bottom_": {
        "type": "number",
        "value": "17"
    },
    "_height_": {
        "type": "string",
        "value": "35dp"
    },
    "_left_": {
        "type": "string",
        "value": "0dp"
    },
    "_margin_": [
        6,
        6,
        6,
        6
    ],
    "_padding_": [
        0,
        0,
        0,
        0
    ],
    "_skin_": "s064afd968c64abb94c8e379d3f4c61f",
    "_text_": "",
    "_top_": {
        "type": "string",
        "value": "12dp"
    },
    "_width_": {
        "type": "string",
        "value": "40%"
    },
    "canUpdateUI": true,
    "centerx": {
        "type": "string",
        "value": "50%"
    },
    "containerweight": 100,
    "contentalignment": 5,
    "displaytext": true,
    "focusskin": "s17e292d54bd48bd8bd8a070c6c1819a",
    "id": "btnOK",
    "ide_onClick": "AS_Button_i6e9013b81e64df58acd4ac9f16f85d5",
    "info": null,
    "isvisible": true,
    "kuid": "edff3244489a4ec3b3c75979434ce5e9",
    "name": "kony.ui.Button",
    "parent": "flxSeg",
    "pf": "frmUserSettingsSiri",
    "texti18n": "i18n.NUO.OKay",
    "wType": "Button",
    "zindex": 1
}