{
    "@class": "com.kony.gen.viz.model.component.KVizLabel",
    "DNDConfig": null,
    "__parentReadjusting__": false,
    "_height_": {
        "type": "ref",
        "value": "preferred"
    },
    "_left_": {
        "type": "string",
        "value": "2%"
    },
    "_margin_": [
        1,
        1,
        1,
        1
    ],
    "_padding_": [
        0,
        0,
        0,
        0
    ],
    "_skin_": "s5219a5fa4304896bd55a92f8f7af2d1",
    "_text_": "",
    "_top_": {
        "type": "string",
        "value": "12%"
    },
    "_width_": {
        "type": "ref",
        "value": "preferred"
    },
    "_wrapping_": 2,
    "android": {
        "textStyle": {
            "letterSpacing": 0,
            "strikeThrough": false
        }
    },
    "canUpdateUI": true,
    "containerweight": 100,
    "contentalignment": 4,
    "id": "lblAccountTransfer1",
    "info": null,
    "ipad": {
        "psp": {
            "wrapping": 2
        }
    },
    "iphone": {
        "psp": {
            "wrapping": 2
        }
    },
    "isvisible": false,
    "kuid": "e00448c2a6554b72a37520548d937c63",
    "name": "kony.ui.Label",
    "parent": "flexContainerAccountTransfer",
    "pf": "frmUserSettingsSiri",
    "texti18n": "i18n.siri.accountTransfer",
    "textstyle": {},
    "tooltip": "",
    "wType": "Label",
    "zindex": 2
}