{
    "@class": "com.kony.gen.viz.model.component.KVizLabel",
    "DNDConfig": null,
    "__parentReadjusting__": false,
    "_height_": {
        "type": "string",
        "value": "7%"
    },
    "_margin_": [
        1,
        1,
        1,
        1
    ],
    "_padding_": [
        0,
        0,
        0,
        0
    ],
    "_skin_": "sa402dcd0ebb46aa90aee09b21b49d9b",
    "_text_": "",
    "_top_": {
        "type": "string",
        "value": "93%"
    },
    "_width_": {
        "type": "ref",
        "value": "preferred"
    },
    "_wrapping_": 2,
    "canUpdateUI": true,
    "centerx": {
        "type": "string",
        "value": "50%"
    },
    "containerweight": 100,
    "contentalignment": 4,
    "enabled": false,
    "id": "lblhint",
    "ide_onTouchEnd": "AS_Label_ad142f42455247eabbc4aafdc9fd40fe",
    "info": null,
    "ipad": {
        "psp": {
            "wrapping": 2
        }
    },
    "iphone": {
        "psp": {
            "wrapping": 2
        }
    },
    "isvisible": true,
    "kuid": "c1b5ec88ef5746f08cd9bb4040caf166",
    "name": "kony.ui.Label",
    "parent": "flxBody",
    "pf": "frmUserSettingsSiri",
    "texti18n": "i18n.Siri.siri2",
    "tooltip": "",
    "wType": "Label"
}