{
    "@class": "com.kony.gen.viz.model.component.KVizButton",
    "DNDConfig": null,
    "__parentReadjusting__": false,
    "_bottom_": {
        "type": "string",
        "value": "5%"
    },
    "_height_": {
        "type": "string",
        "value": "9%"
    },
    "_margin_": [
        6,
        6,
        6,
        6
    ],
    "_padding_": [
        0,
        0,
        0,
        0
    ],
    "_skin_": "sf7766faf6e34d0789442a84c1e76e1a",
    "_text_": "",
    "_width_": {
        "type": "string",
        "value": "80%"
    },
    "android": {
        "psp": {
            "pressedSkin": "sad5d6d4890b44858a39e4bf8a290332"
        }
    },
    "canUpdateUI": true,
    "centerx": {
        "type": "string",
        "value": "50%"
    },
    "containerweight": 100,
    "contentalignment": 5,
    "disabledSkins": {},
    "displaytext": true,
    "focusskin": "sad5d6d4890b44858a39e4bf8a290332",
    "id": "btnConfirmEstmt",
    "ide_onClick": "AS_Button_a05545a85af8487780ae0ef2d020a2c7",
    "info": null,
    "isvisible": true,
    "kuid": "a7810afe680e4b28ba3ec0915de4d837",
    "name": "kony.ui.Button",
    "parent": "flxBody",
    "pf": "frmUserSettingsSIRILIMIT",
    "texti18n": "i18n.Estmt.Confirm",
    "wType": "Button"
}