{
    "DNDConfig": null,
    "__parentReadjusting__": false,
    "_height_": {
        "type": "string",
        "value": "92%"
    },
    "_left_": {
        "type": "string",
        "value": "0%"
    },
    "_margin_": [
        0,
        0,
        0,
        0
    ],
    "_orientation_": 6,
    "_padding_": [
        0,
        0,
        0,
        0
    ],
    "_percent_": true,
    "_skin_": "s3f548bda3524e0388552e16122dc6fa",
    "_top_": {
        "type": "string",
        "value": "0%"
    },
    "_width_": {
        "type": "string",
        "value": "100%"
    },
    "allboxes": [],
    "allowhorizontalbounce": false,
    "allowverticalbounce": true,
    "bounces": false,
    "canUpdateUI": true,
    "children": [
        "lblPayeeNameTitle",
        "lblPayeeName",
        "flxAccounts",
        "lblCreditAccountTitle",
        "lblCreditAccount",
        "lblReferenceIdTitle",
        "lblReferenceId",
        "flxAmount",
        "flxDate",
        "lblPurposeTitle",
        "lblPurpose",
        "lblBankTitle",
        "lblBank",
        "lblBranchTitle",
        "lblBranch",
        "flxBankAddress",
        "flxBeneficiaryAddress",
        "lblRemarksTitle",
        "lblRemarks",
        "lblNotesTitle",
        "lblNotes"
    ],
    "clipbounds": true,
    "containerweight": 100,
    "decelerat": false,
    "dragg": false,
    "enablescrolling": true,
    "horizontalscrollindicator": true,
    "id": "flxTransferedStatusDetailsBody",
    "info": null,
    "isvisible": true,
    "kuid": "aa0708d4ff2f458bafd71f48e2335647",
    "layouttype": 4,
    "name": "kony.ui.FlexScrollContainer",
    "pagingenabled": false,
    "parent": "frmTransactionDetailKA",
    "pf": "frmTransactionDetailKA",
    "scrolldirection": 2,
    "snapgridsize": 10,
    "snaptogrid": true,
    "track": false,
    "verticalscrollindicator": false,
    "vizProps": {},
    "wType": "FlexScrollContainer",
    "widgetalignment": 1,
    "zindex": 1
}