{
    "@class": "com.kony.gen.viz.model.component.KVizButton",
    "DNDConfig": null,
    "__parentReadjusting__": false,
    "_height_": {
        "type": "string",
        "value": "90%"
    },
    "_margin_": [
        6,
        6,
        6,
        6
    ],
    "_padding_": [
        0,
        0,
        0,
        0
    ],
    "_skin_": "s51d68053cae4eba826625de179be4ae",
    "_text_": "",
    "_top_": {
        "type": "string",
        "value": "5%"
    },
    "_width_": {
        "type": "string",
        "value": "80%"
    },
    "canUpdateUI": true,
    "centerx": {
        "type": "string",
        "value": "50.03%"
    },
    "containerweight": 100,
    "contentalignment": 5,
    "disabledSkins": {},
    "displaytext": true,
    "focusskin": "s51d68053cae4eba826625de179be4ae",
    "id": "btnWebConfirm",
    "ide_onClick": "AS_Button_b9c6e60dc0c6499abc6f04d3423699cd",
    "info": null,
    "isvisible": true,
    "kuid": "cedb3acb86924442a5427720d2c92f18",
    "name": "kony.ui.Button",
    "parent": "CopyFlexContainer0fc7f7685c2ae49",
    "pf": "frmConfirmTransferKA",
    "texti18n": "i18n.P2P.confirm",
    "wType": "Button"
}