{
    "DNDConfig": null,
    "__parentReadjusting__": false,
    "_height_": {
        "type": "ref",
        "value": "preferred"
    },
    "_left_": {
        "type": "string",
        "value": "0dp"
    },
    "_margin_": [
        0,
        0,
        0,
        0
    ],
    "_orientation_": 6,
    "_padding_": [
        0,
        0,
        0,
        0
    ],
    "_percent_": true,
    "_skin_": "s388f0c575ef4d08ac3a5ed0a4b90085",
    "_top_": {
        "type": "string",
        "value": "5%"
    },
    "_width_": {
        "type": "string",
        "value": "100%"
    },
    "allboxes": [],
    "autogrowmode": 1,
    "canUpdateUI": true,
    "children": [
        "lblBankDetailsTitle",
        "flxAccountNumber",
        "externalAccountNumberTextFieldInline",
        "flxSwiftCode",
        "txtSwiftCodeKAInline",
        "flxBankName",
        "tbxBankNameInline",
        "flxBankNameInt",
        "tbxBankNameIntInline",
        "flxBankBranch",
        "tbxBankBranchInline",
        "flxCityBank",
        "tbxCityBankInline",
        "flxCountryBankDetails",
        "flxAddressBank",
        "tbxAddressBankInline"
    ],
    "clipbounds": true,
    "containerweight": 100,
    "enablescrolling": true,
    "id": "flxBankDetails",
    "info": null,
    "isvisible": true,
    "kuid": "i9e8a18147c84c2e9143dbf03c12a45c",
    "layouttype": 4,
    "name": "kony.ui.FlexContainer",
    "parent": "flxMain",
    "pf": "frmAddExternalAccountKA",
    "snapgridsize": 10,
    "snaptogrid": true,
    "wType": "FlexContainer",
    "widgetalignment": 1,
    "zindex": 1
}