{
    "@class": "com.kony.gen.viz.model.component.KVizTextBox2",
    "DNDConfig": null,
    "__parentReadjusting__": false,
    "_bottom_": {
        "type": "string",
        "value": "4%"
    },
    "_height_": {
        "type": "string",
        "value": "60%"
    },
    "_margin_": [
        0,
        0,
        0,
        0
    ],
    "_padding_": [
        3,
        0,
        0,
        0
    ],
    "_placeholder_": "",
    "_skin_": "s029998596d3421892d0917ea7492e1d",
    "_text_": "",
    "_width_": {
        "type": "string",
        "value": "100%"
    },
    "accessibilityconfig": {
        "a11yLabel": "Enter your Username"
    },
    "android": {
        "ide_onEndEditing": "AS_TextField_cfc96d1b4ce34e5a8dcf0af87490e395",
        "onEndEditing": "AS_TextField_ja28486c7a3043998424fea66ecabfa6"
    },
    "autocapitalize": "none",
    "autocomplete": false,
    "autocorrect": false,
    "autofilter": false,
    "canUpdateUI": true,
    "centerx": "50%",
    "containerheight": "",
    "containerheightmode": 1,
    "containerweight": 100,
    "contentalignment": 4,
    "disabledSkins": {},
    "focusskin": "s029998596d3421892d0917ea7492e1d",
    "id": "tbxBeneRelation",
    "ide_onDone": "AS_TextField_f569d88da2fb4a3b8724a1c3e6b8d123",
    "ide_onTextChange": "AS_TextField_i3509ce956f84da58a7dcd3e951569b6",
    "ide_onTouchEnd": "AS_TextField_d1d49f1007064f32b12c3e17ba75cc7b",
    "info": null,
    "iphone": {
        "ide_onEndEditing": "AS_TextField_b87316127ce746d2b963172eb694dc2a",
        "onBeginEditing": "AS_TextField_c0713df9ccfc44dba27a3f28bca350b8",
        "onEndEditing": "AS_TextField_c0713df9ccfc44dba27a3f28bca350b8"
    },
    "isvisible": true,
    "keyboardtype": "A",
    "kuid": "d1345b915a614b84a8bb0b267c946616",
    "maxtextlength": 50,
    "mode": "A",
    "name": "kony.ui.TextBox2",
    "parent": "flxBeneRelation",
    "pf": "frmAddExternalAccountKA",
    "securetextentry": false,
    "textinputmode": "A",
    "viewtype": "default",
    "wType": "TextField",
    "zindex": 1
}