{
    "@class": "com.kony.gen.viz.model.component.KVizTextBox2",
    "DNDConfig": null,
    "__parentReadjusting__": false,
    "_height_": {
        "type": "number",
        "value": "38"
    },
    "_margin_": [
        0,
        0,
        0,
        0
    ],
    "_padding_": [
        0,
        0,
        0,
        0
    ],
    "_placeholder_": "Give a nick name",
    "_skin_": "s91685645d0c4a43826fdd5c95fe611d",
    "_text_": "",
    "_top_": {
        "type": "string",
        "value": "35dp"
    },
    "_width_": {
        "type": "string",
        "value": "90%"
    },
    "android": {},
    "autocapitalize": "words",
    "autocomplete": false,
    "autocorrect": false,
    "autofilter": false,
    "canUpdateUI": true,
    "centerx": {
        "type": "string",
        "value": "50%"
    },
    "containerheight": "",
    "containerheightmode": 1,
    "containerweight": 100,
    "contentalignment": 4,
    "enabled": false,
    "focusskin": "s16addfe9da944a3add187c9cd34aa56",
    "id": "txtAccountNickNameKA",
    "info": null,
    "iphone": {},
    "isvisible": true,
    "keyboardtype": "A",
    "kuid": "7ee6c3a7c21c4418ae6966eaf5a24d3b",
    "mode": "A",
    "name": "kony.ui.TextBox2",
    "parent": "CopyexternalAccountNameContainer03d9566d885a944",
    "pf": "frmAddExternalAccountKA",
    "placeholderi18n": "i18n.transfer.Giveanickname",
    "placeholderskin": "s2533d36333546558bba8e47391a2f5f",
    "securetextentry": false,
    "textinputmode": "A",
    "viewtype": "default",
    "wType": "TextField"
}