{
    "@class": "com.kony.gen.viz.model.component.KVizButton",
    "DNDConfig": null,
    "__parentReadjusting__": false,
    "_height_": {
        "type": "string",
        "value": "100%"
    },
    "_margin_": [
        6,
        6,
        6,
        6
    ],
    "_padding_": [
        0,
        0,
        0,
        0
    ],
    "_skin_": "sf7766faf6e34d0789442a84c1e76e1a",
    "_text_": "Stop Payment",
    "_top_": {
        "type": "string",
        "value": "0%"
    },
    "_width_": {
        "type": "string",
        "value": "80%"
    },
    "canUpdateUI": true,
    "centerx": {
        "type": "string",
        "value": "50%"
    },
    "containerweight": 100,
    "contentalignment": 5,
    "disabledSkins": {},
    "displaytext": true,
    "focusskin": "sad5d6d4890b44858a39e4bf8a290332",
    "id": "CopybtnConfirm0afe340a6460347",
    "ide_onClick": "AS_Button_gde4fcb460514ad6a48c3fded7829831",
    "info": null,
    "isvisible": true,
    "kuid": "jcc8b7c371024e87b6918972c5e14c93",
    "name": "kony.ui.Button",
    "parent": "flxStopPayment",
    "pf": "frmConfirmStandingInstructions",
    "texti18n": "i18n.bills.StoppedPayment",
    "wType": "Button"
}