{
    "@class": "com.kony.gen.viz.model.container.KVizSegment2",
    "DNDConfig": null,
    "__parentReadjusting__": false,
    "_data_": [
        [
            {
                "CopylblAmount0a2751be25d5944": {
                    "@class": "com.viz.ide.model.segment.SimpleTextSegmentData",
                    "text": "o"
                },
                "lblAmount": {
                    "@class": "com.viz.ide.model.segment.SimpleTextSegmentData",
                    "text": "13244 JOD"
                },
                "lblInitial": {
                    "@class": "com.viz.ide.model.segment.SimpleTextSegmentData",
                    "text": "JW"
                },
                "lblTransactionDesc": {
                    "@class": "com.viz.ide.model.segment.SimpleTextSegmentData",
                    "text": "Jordan Water"
                },
                "lblTransactiondate": {
                    "@class": "com.viz.ide.model.segment.SimpleTextSegmentData",
                    "text": "10 Feb 2010"
                }
            },
            [
                {},
                {},
                {}
            ]
        ],
        [
            {
                "CopylblAmount0a2751be25d5944": {
                    "@class": "com.viz.ide.model.segment.SimpleTextSegmentData",
                    "text": "o"
                },
                "lblAmount": {
                    "@class": "com.viz.ide.model.segment.SimpleTextSegmentData",
                    "text": "13244 JOD"
                },
                "lblInitial": {
                    "@class": "com.viz.ide.model.segment.SimpleTextSegmentData",
                    "text": "JW"
                },
                "lblTransactionDesc": {
                    "@class": "com.viz.ide.model.segment.SimpleTextSegmentData",
                    "text": "Jordan Water"
                },
                "lblTransactiondate": {
                    "@class": "com.viz.ide.model.segment.SimpleTextSegmentData",
                    "text": "10 Feb 2010"
                }
            },
            [
                {},
                {},
                {}
            ]
        ]
    ],
    "_height_": {
        "type": "string",
        "value": "120dp"
    },
    "_indicator_": "none",
    "_left_": {
        "type": "string",
        "value": "151dp"
    },
    "_margin_": [
        0,
        0,
        0,
        0
    ],
    "_orientation_": 2,
    "_padding_": [
        0,
        0,
        0,
        0
    ],
    "_top_": {
        "type": "string",
        "value": "92dp"
    },
    "_width_": {
        "type": "string",
        "value": "100%"
    },
    "autogrowmode": 0,
    "canUpdateUI": true,
    "containerweight": 100,
    "counter": "12",
    "focusedindex": null,
    "focuseditem": null,
    "groupcells": false,
    "hasSections": true,
    "id": "segSIDetails",
    "info": null,
    "ipad": {
        "psp": {
            "indicator": "rowselect"
        }
    },
    "iphone": {
        "psp": {
            "indicator": "rowselect"
        }
    },
    "isvisible": false,
    "kuid": "eb6b0ece947f4b8fa1e1a2e59d747506",
    "masterdata": {},
    "name": "kony.ui.SegmentedUI2",
    "needpageindicator": true,
    "pageoffdotimage": "pageoffdot.png",
    "pageondotimage": "pageondot.png",
    "paginationconfig": {
        "position": "bottom"
    },
    "parent": "flxService",
    "pf": "frmConfirmStandingInstructions",
    "retainselection": false,
    "rowcounter": 2,
    "rowfocusskin": "s5fa38be22fb4f22b7c642b08276ab82",
    "rowskin": "sd2ca277651a46c0ba82f3226859f5a6",
    "rowtemplate": null,
    "screenlevelwidget": false,
    "seccounter": 1,
    "sectionHeaderTemplateId": "b0daa2c6604745feb741a6da16b651e3",
    "sectionheaderskin": "s67621b8a82d49f285da06b4f5a0c993",
    "sectionheadertemplate": "flxtmpSIList",
    "selectedRows": null,
    "selectedState": false,
    "selectedindex": null,
    "selectedindices": null,
    "selecteditems": null,
    "selectedsectionindex": 0,
    "selectionbehavior": "default",
    "separatorcolor": "64646400",
    "separatorrequired": true,
    "separatorthickness": 1,
    "showscrollbars": false,
    "viewtype": "tableview",
    "wType": "Segment",
    "widgetalignment": 5,
    "widgetdatamap": {
        "CopyflxTAmount0bc17ffab355945": "CopyflxTAmount0bc17ffab355945",
        "CopylblAmount0a2751be25d5944": "CopylblAmount0a2751be25d5944",
        "flxIcon1": "flxIcon1",
        "flxTAmount": "flxTAmount",
        "flxUserDetails": "flxUserDetails",
        "flxtmpSIList": "flxtmpSIList",
        "lblAmount": "lblAmount",
        "lblInitial": "lblInitial",
        "lblTransactionDesc": "lblTransactionDesc",
        "lblTransactiondate": "lblTransactiondate"
    },
    "zindex": 1
}