{
    "@class": "com.kony.gen.viz.model.component.KVizButton",
    "DNDConfig": null,
    "__parentReadjusting__": false,
    "_height_": {
        "type": "string",
        "value": "100%"
    },
    "_margin_": [
        6,
        6,
        6,
        6
    ],
    "_padding_": [
        0,
        0,
        0,
        0
    ],
    "_right_": {
        "type": "string",
        "value": "11%"
    },
    "_skin_": "s419d27729664b36b1aa420739a0c9a2",
    "_text_": "Q",
    "_top_": {
        "type": "string",
        "value": "0%"
    },
    "_width_": {
        "type": "string",
        "value": "11%"
    },
    "canUpdateUI": true,
    "containerweight": 100,
    "contentalignment": 5,
    "disabledSkins": {},
    "displaytext": true,
    "focusskin": "s419d27729664b36b1aa420739a0c9a2",
    "id": "btnReg",
    "ide_onClick": "AS_Button_j0446ba9d958486385caf7565e3dcf6a",
    "info": null,
    "iphone": {
        "psp": {
            "showProgressIndicator": false
        }
    },
    "iscustomlayout": true,
    "isvisible": true,
    "kuid": "i55e8ca2295b4f50af734b8f59f976d1",
    "name": "kony.ui.Button",
    "paddinginpixel": false,
    "parent": "flxHeadMain1",
    "pf": "frmJoMoPayLanding",
    "retainflexpositionproperties": true,
    "showprogressindicator": false,
    "wType": "Button",
    "zindex": 2
}