{
    "DNDConfig": null,
    "__parentReadjusting__": false,
    "_height_": {
        "type": "string",
        "value": "100%"
    },
    "_left_": {
        "type": "string",
        "value": "2%"
    },
    "_margin_": [
        0,
        0,
        0,
        0
    ],
    "_orientation_": 6,
    "_padding_": [
        0,
        0,
        0,
        0
    ],
    "_percent_": true,
    "_skin_": "s388f0c575ef4d08ac3a5ed0a4b90085",
    "_top_": {
        "type": "string",
        "value": "0%"
    },
    "_width_": {
        "type": "string",
        "value": "20%"
    },
    "allboxes": [],
    "autogrowmode": 0,
    "canUpdateUI": true,
    "children": [
        "CopylblBackIcon0ia1d1aefbd8d4c",
        "CopylblBack0e1c5acde1ca046"
    ],
    "clipbounds": true,
    "containerweight": 100,
    "enablescrolling": true,
    "id": "flxBackLanding",
    "ide_onClick": "AS_FlexContainer_bc7bdd6dbef142e99e18969ae884c33b",
    "info": null,
    "iscustomlayout": true,
    "isvisible": true,
    "kuid": "f4b93f7eb70d46d7b5c46ded6e055886",
    "layouttype": 3,
    "name": "kony.ui.FlexContainer",
    "parent": "flxHeadMain1",
    "pf": "frmJoMoPayLanding",
    "retainflexpositionproperties": true,
    "snapgridsize": 10,
    "snaptogrid": true,
    "wType": "FlexContainer",
    "widgetalignment": 1,
    "zindex": 1
}