{
    "@class": "com.kony.gen.viz.model.container.KVizSegment2",
    "DNDConfig": null,
    "__parentReadjusting__": false,
    "_bounces_": false,
    "_data_": [
        [
            {
                "lbltmpTitle": {
                    "@class": "com.viz.ide.model.segment.SimpleTextSegmentData",
                    "text": "Label"
                }
            },
            [
                {
                    "BenificiaryName": {
                        "@class": "com.viz.ide.model.segment.SimpleTextSegmentData",
                        "text": ""
                    },
                    "accountNumber": {
                        "@class": "com.viz.ide.model.segment.SimpleTextSegmentData",
                        "text": ""
                    },
                    "btnDelete": {
                        "@class": "com.viz.ide.model.segment.SimpleTextSegmentData",
                        "text": ""
                    },
                    "btnFav": {
                        "@class": "com.viz.ide.model.segment.SimpleTextSegmentData",
                        "text": ""
                    },
                    "lblInitial": {
                        "@class": "com.viz.ide.model.segment.SimpleTextSegmentData",
                        "text": ""
                    },
                    "lblSeparator": {
                        "@class": "com.viz.ide.model.segment.SimpleTextSegmentData",
                        "text": ""
                    }
                }
            ]
        ],
        [
            {
                "lbltmpTitle": {
                    "@class": "com.viz.ide.model.segment.SimpleTextSegmentData",
                    "text": "Label"
                }
            },
            [
                {
                    "BenificiaryName": {
                        "@class": "com.viz.ide.model.segment.SimpleTextSegmentData",
                        "text": ""
                    },
                    "accountNumber": {
                        "@class": "com.viz.ide.model.segment.SimpleTextSegmentData",
                        "text": ""
                    },
                    "btnDelete": {
                        "@class": "com.viz.ide.model.segment.SimpleTextSegmentData",
                        "text": ""
                    },
                    "btnFav": {
                        "@class": "com.viz.ide.model.segment.SimpleTextSegmentData",
                        "text": ""
                    },
                    "lblInitial": {
                        "@class": "com.viz.ide.model.segment.SimpleTextSegmentData",
                        "text": ""
                    },
                    "lblSeparator": {
                        "@class": "com.viz.ide.model.segment.SimpleTextSegmentData",
                        "text": ""
                    }
                }
            ]
        ]
    ],
    "_height_": {
        "type": "ref",
        "value": "preferred"
    },
    "_indicator_": "none",
    "_left_": {
        "type": "string",
        "value": "0%"
    },
    "_margin_": [
        0,
        0,
        0,
        0
    ],
    "_orientation_": 2,
    "_padding_": [
        0,
        0,
        0,
        0
    ],
    "_top_": {
        "type": "string",
        "value": "0%"
    },
    "_width_": {
        "type": "ref",
        "value": "preferred"
    },
    "autogrowmode": 1,
    "canUpdateUI": true,
    "containerweight": 100,
    "counter": "10",
    "disabledSkins": {},
    "focusedindex": null,
    "focuseditem": null,
    "groupcells": false,
    "hasSections": true,
    "id": "segJomopayBeneficiary",
    "ide_onRowClick": "AS_Button_b49a60fcf6df4c69a3ec1c476ab73e33",
    "info": null,
    "ipad": {
        "psp": {
            "indicator": "rowselect"
        }
    },
    "iphone": {
        "psp": {
            "bounces": false,
            "indicator": "none"
        }
    },
    "isvisible": true,
    "kuid": "d45c4e8b5417461d9ec3215a720f1b49",
    "masterdata": {},
    "name": "kony.ui.SegmentedUI2",
    "needpageindicator": true,
    "pageoffdotimage": "pageoffdot.png",
    "pageondotimage": "pageondot.png",
    "paginationconfig": {
        "position": "bottom"
    },
    "parent": "flxJomoBeneList",
    "pf": "frmJoMoPayLanding",
    "retainselection": false,
    "rowTemplateId": "fb6f0a17db7d4f3296a41bc3647cc22f",
    "rowcounter": 0,
    "rowfocusskin": "sf11e43ab7bd4b70939ed7671368f2a8",
    "rowskin": "sf11e43ab7bd4b70939ed7671368f2a8",
    "rowtemplate": "flxSegJMPBene",
    "screenlevelwidget": false,
    "seccounter": 1,
    "sectionHeaderTemplateId": "ae5cec6efae34a0ab9203ccf8427dc70",
    "sectionheaderskin": "s67621b8a82d49f285da06b4f5a0c993",
    "sectionheadertemplate": "flxTmpHeader",
    "selectedRows": null,
    "selectedState": false,
    "selectedindex": null,
    "selectedindices": null,
    "selecteditems": null,
    "selectedsectionindex": 0,
    "selectionbehavior": "default",
    "separatorcolor": "1e415b00",
    "separatorrequired": true,
    "separatorthickness": 0,
    "showscrollbars": false,
    "viewtype": "tableview",
    "vizProps": {},
    "wType": "Segment",
    "widgetalignment": 5,
    "widgetdatamap": {
        "BenificiaryName": "BenificiaryName",
        "accountNumber": "accountNumber",
        "btnDelete": "btnDelete",
        "btnFav": "btnFav",
        "contactListDivider": "contactListDivider",
        "flxAnimateBenf": "flxAnimateBenf",
        "flxButtonHolder": "flxButtonHolder",
        "flxDetails": "flxDetails",
        "flxIcon1": "flxIcon1",
        "flxSegJMPBene": "flxSegJMPBene",
        "flxTmpHeader": "flxTmpHeader",
        "flxUnderline": "flxUnderline",
        "lblInitial": "lblInitial",
        "lblSeparator": "lblSeparator",
        "lbltmpTitle": "lbltmpTitle"
    },
    "zindex": 1
}