{
    "DNDConfig": null,
    "__parentReadjusting__": false,
    "_height_": {
        "type": "string",
        "value": "250dp"
    },
    "_left_": {
        "type": "string",
        "value": "0dp"
    },
    "_margin_": [
        0,
        0,
        0,
        0
    ],
    "_padding_": [
        0,
        0,
        0,
        0
    ],
    "_skin_": "s14ba0db0d284729a16ef12c8cecb210",
    "_top_": {
        "type": "string",
        "value": "0dp"
    },
    "_width_": {
        "type": "string",
        "value": "100%"
    },
    "allboxes": [],
    "autogrowmode": 0,
    "canUpdateUI": true,
    "children": [
        "CopygradientOverlay0c66dda9a1f294b",
        "CopyflxAccntDetailButtonsKA0be145932176d41",
        "CopyactionWrapper0d3c3d4aa2a8548",
        "CopyflxMore0bcc6938bdc5340"
    ],
    "clipbounds": false,
    "containerweight": 100,
    "enabled": false,
    "enablescrolling": true,
    "id": "CopyaccountDetailsOverview0h78ad6c5ba654e",
    "info": null,
    "isvisible": false,
    "kuid": "be51c23c081f416dabeb9b7798d1ccb6",
    "layouttype": 2,
    "name": "kony.ui.FlexContainer",
    "orientation": 6,
    "parent": "flxDealsTitleBarDetails",
    "percent": true,
    "pf": "frmAccountDetailKA",
    "snapgridsize": 10,
    "snaptogrid": true,
    "wType": "FlexContainer",
    "widgetalignment": 1
}