{
    "@class": "com.kony.gen.viz.model.component.KVizButton",
    "DNDConfig": null,
    "__parentReadjusting__": false,
    "_height_": {
        "type": "string",
        "value": "100%"
    },
    "_left_": {
        "type": "string",
        "value": "0dp"
    },
    "_margin_": [
        6,
        6,
        6,
        6
    ],
    "_padding_": [
        0,
        0,
        0,
        0
    ],
    "_skin_": "sd3a41987f644ccea1a1c110fa339c2d",
    "_text_": "",
    "_top_": {
        "type": "string",
        "value": "0dp"
    },
    "_width_": {
        "type": "string",
        "value": "100%"
    },
    "canUpdateUI": true,
    "containerweight": 100,
    "contentalignment": 5,
    "displaytext": true,
    "focusskin": "s4a474f768d84d40a70f44c068b4940d",
    "id": "CopyMorebtn0dd8b3bd4bcdd41",
    "ide_onClick": "AS_Button_a919e92a7c244b9cbe1c2a9d4e10b02b",
    "info": null,
    "iphone": {
        "psp": {
            "showProgressIndicator": false
        }
    },
    "isvisible": true,
    "kuid": "c73936f5b0994619b54535cc05061fce",
    "name": "kony.ui.Button",
    "parent": "CopyflxMoreOption0jb23f1a5856e4e",
    "pf": "frmAccountDetailKA",
    "showprogressindicator": false,
    "wType": "Button",
    "zindex": 1
}