{
    "@class": "com.kony.gen.viz.model.component.KVizButton",
    "DNDConfig": null,
    "__parentReadjusting__": false,
    "_bottom_": {
        "type": "string",
        "value": "10%"
    },
    "_height_": {
        "type": "string",
        "value": "40dp"
    },
    "_margin_": [
        6,
        6,
        6,
        6
    ],
    "_padding_": [
        0,
        0,
        0,
        0
    ],
    "_right_": {
        "type": "string",
        "value": "15dp"
    },
    "_skin_": "s409616a424246c78da4bbcd9516e43d",
    "_text_": "STATEMENTS",
    "_top_": {
        "type": "number",
        "value": "0"
    },
    "_width_": {
        "type": "string",
        "value": "40%"
    },
    "canUpdateUI": true,
    "containerweight": 100,
    "contentalignment": 5,
    "disabledSkins": {},
    "displaytext": true,
    "focusskin": "s855d4a3c7a14976abf747a9184ae0d0",
    "id": "Copybtnaccountstatements0g4fa48e571cd41",
    "ide_onClick": "AS_Button_ad09901692de45bba0e8ddbcb786b99c",
    "info": null,
    "iphone": {
        "psp": {
            "showProgressIndicator": false
        }
    },
    "isvisible": true,
    "kuid": "i1686ec22c9a4e3d9467faa970a49578",
    "name": "kony.ui.Button",
    "onclick": "AS_Button_8a5adceb7f774a99b663467730baf0aa",
    "parent": "CopyflxAccntDetailButtonsKA0be145932176d41",
    "pf": "frmAccountDetailKA",
    "showprogressindicator": false,
    "vizProps": {
        "hide": false
    },
    "wType": "Button",
    "zindex": 1
}