{
    "@class": "com.kony.gen.viz.model.component.KVizButton",
    "DNDConfig": null,
    "__parentReadjusting__": false,
    "_bottom_": {
        "type": "string",
        "value": "60px"
    },
    "_height_": {
        "type": "string",
        "value": "50dp"
    },
    "_left_": {
        "type": "number",
        "value": "135"
    },
    "_margin_": [
        6,
        6,
        6,
        6
    ],
    "_padding_": [
        0,
        0,
        0,
        0
    ],
    "_skin_": "s704ec7f0d694591906b2fe3828e4c9d",
    "_text_": "",
    "_width_": {
        "type": "string",
        "value": "50dp"
    },
    "canUpdateUI": true,
    "centerx": {
        "type": "string",
        "value": "50%"
    },
    "centery": {
        "type": "string",
        "value": "380dp"
    },
    "containerweight": 100,
    "contentalignment": 5,
    "displaytext": false,
    "focusskin": "s704ec7f0d694591906b2fe3828e4c9d",
    "id": "CopycollapseButton0f54c28f7434547",
    "ide_onClick": "AS_Button_e6834779d95444c4a0fc3ef5fc34ce8b",
    "info": null,
    "iphone": {
        "psp": {
            "showProgressIndicator": false
        }
    },
    "isvisible": true,
    "kuid": "f20eab85900341cb812d46ba36341c9b",
    "masterType": 1,
    "name": "kony.ui.Button",
    "parent": "CopyflxMore0dcd89fda4fe54d",
    "pf": "frmAccountDetailKA",
    "showprogressindicator": false,
    "wType": "Button",
    "zindex": 10
}