{
    "@class": "com.kony.gen.viz.model.component.KVizLabel",
    "DNDConfig": null,
    "__parentReadjusting__": false,
    "_height_": {
        "type": "string",
        "value": "100%"
    },
    "_margin_": [
        1,
        1,
        1,
        1
    ],
    "_padding_": [
        0,
        0,
        0,
        0
    ],
    "_right_": {
        "type": "string",
        "value": "4%"
    },
    "_skin_": "sd79044c780f4aa890c6a25e01b72add",
    "_text_": "n",
    "_top_": {
        "type": "string",
        "value": "0%"
    },
    "_width_": {
        "type": "string",
        "value": "8%"
    },
    "_wrapping_": 2,
    "android": {
        "textStyle": {
            "letterSpacing": 0,
            "strikeThrough": false
        }
    },
    "canUpdateUI": true,
    "centery": {
        "type": "string",
        "value": "50%"
    },
    "containerweight": 100,
    "contentalignment": 5,
    "id": "CopylblDealsFilter0f5b73f15da904a",
    "ide_onTouchEnd": "AS_Label_fba86207b11e43b5a416a90958ce02e0",
    "info": null,
    "ipad": {
        "psp": {
            "wrapping": 2
        }
    },
    "iphone": {
        "psp": {
            "wrapping": 2
        }
    },
    "isvisible": true,
    "kuid": "ad5bd3ebe03644e28dc80eedd2621ada",
    "name": "kony.ui.Label",
    "parent": "flxDealsExtraTab",
    "pf": "frmAccountDetailKA",
    "textstyle": {},
    "tooltip": "",
    "wType": "Label",
    "zindex": 1
}