{
    "@class": "com.kony.gen.viz.model.component.KVizLabel",
    "DNDConfig": null,
    "__parentReadjusting__": false,
    "_height_": {
        "type": "ref",
        "value": "preferred"
    },
    "_left_": {
        "type": "string",
        "value": "19dp"
    },
    "_margin_": [
        1,
        1,
        1,
        1
    ],
    "_padding_": [
        0,
        0,
        0,
        0
    ],
    "_skin_": "s4f7ea6aded54cb19d771a179bb927da",
    "_text_": "Label",
    "_top_": {
        "type": "string",
        "value": "32dp"
    },
    "_width_": {
        "type": "ref",
        "value": "preferred"
    },
    "_wrapping_": 2,
    "android": {
        "textStyle": {
            "letterSpacing": 0,
            "strikeThrough": false
        }
    },
    "canUpdateUI": true,
    "containerweight": 100,
    "contentalignment": 4,
    "id": "MoreHiddenKey8",
    "info": null,
    "ipad": {
        "psp": {
            "wrapping": 2
        }
    },
    "iphone": {
        "psp": {
            "wrapping": 2
        }
    },
    "isvisible": false,
    "kuid": "hbb241123a934d24a9c86f98ae34693d",
    "name": "kony.ui.Label",
    "parent": "flxMoreOption8",
    "pf": "frmAccountDetailKA",
    "textstyle": {},
    "tooltip": "",
    "wType": "Label",
    "zindex": 1
}