{
    "@class": "com.kony.gen.viz.model.component.KVizLabel",
    "DNDConfig": null,
    "__parentReadjusting__": false,
    "_height_": {
        "type": "string",
        "value": "50dp"
    },
    "_left_": {
        "type": "string",
        "value": "0dp"
    },
    "_margin_": [
        1,
        1,
        1,
        1
    ],
    "_padding_": [
        0,
        0,
        0,
        0
    ],
    "_skin_": "sf91993f59b7485d9c0fc87a3f998336",
    "_text_": "Your Accounts",
    "_top_": {
        "type": "string",
        "value": "136dp"
    },
    "_width_": {
        "type": "string",
        "value": "100%"
    },
    "_wrapping_": 2,
    "canUpdateUI": true,
    "containerweight": 100,
    "contentalignment": 5,
    "enabled": false,
    "id": "accountLabelScroll1",
    "info": null,
    "ipad": {
        "psp": {
            "wrapping": 2
        }
    },
    "iphone": {
        "psp": {
            "wrapping": 2
        }
    },
    "isvisible": false,
    "kuid": "ca1873ccf188438ca7516659e6d01be1",
    "name": "kony.ui.Label",
    "parent": "flxDeals",
    "pf": "frmAccountsLandingKA",
    "texti18n": "i18n.overview.yourAccount",
    "tooltip": "",
    "wType": "Label",
    "zindex": 1
}