{
    "@class": "com.kony.gen.viz.model.component.KVizButton",
    "DNDConfig": null,
    "__parentReadjusting__": false,
    "_height_": {
        "type": "string",
        "value": "50dp"
    },
    "_margin_": [
        6,
        6,
        6,
        6
    ],
    "_padding_": [
        0,
        0,
        0,
        14
    ],
    "_skin_": "s52b4bc4f8fb49de94a4a9b157b66ec1",
    "_text_": "G",
    "_width_": {
        "type": "string",
        "value": "100%"
    },
    "accessibilityconfig": {
        "a11yValue": "Cards"
    },
    "canUpdateUI": true,
    "centerx": {
        "type": "string",
        "value": "50%"
    },
    "centery": {
        "type": "string",
        "value": "50%"
    },
    "containerweight": 100,
    "contentalignment": 5,
    "disabledSkins": {},
    "displaytext": true,
    "focusskin": "s33c99a7c3544ee0a5b2a081277f75cc",
    "id": "CopybtnAccounts0ia3b1ff37c304b",
    "ide_onClick": "AS_Button_c0e303d6f8f64a3ca56535ab52441087",
    "info": null,
    "isvisible": true,
    "kuid": "b2dc7c9092e04354a3705c2ff1132f85",
    "name": "kony.ui.Button",
    "paddinginpixel": false,
    "parent": "FlxTranfers",
    "pf": "frmAccountsLandingKA",
    "wType": "Button",
    "zindex": 1
}