{
    "@class": "com.kony.gen.viz.model.component.KVizLabel",
    "DNDConfig": null,
    "__parentReadjusting__": false,
    "_height_": {
        "type": "ref",
        "value": "preferred"
    },
    "_margin_": [
        1,
        1,
        1,
        1
    ],
    "_padding_": [
        0,
        0,
        0,
        0
    ],
    "_skin_": "s441ba9fd0ef4367961b9634802cecb3",
    "_text_": "Accounts",
    "_top_": {
        "type": "string",
        "value": "55%"
    },
    "_width_": {
        "type": "ref",
        "value": "preferred"
    },
    "_wrapping_": 2,
    "android": {
        "textStyle": {
            "letterSpacing": 0,
            "strikeThrough": false
        }
    },
    "canUpdateUI": true,
    "centerx": {
        "type": "string",
        "value": "50%"
    },
    "containerweight": 100,
    "contentalignment": 5,
    "id": "Label03174bff69bb54c",
    "info": null,
    "ipad": {
        "psp": {
            "wrapping": 2
        }
    },
    "iphone": {
        "psp": {
            "wrapping": 2
        }
    },
    "iscustomlayout": true,
    "isvisible": true,
    "kuid": "hfaf44b294ff4aaaaff7560ab3dae7fa",
    "name": "kony.ui.Label",
    "parent": "FlxAccounts",
    "pf": "frmAccountsLandingKA",
    "retainflexpositionproperties": true,
    "texti18n": "i18n.my_money.accounts",
    "textstyle": {},
    "tooltip": "",
    "wType": "Label",
    "zindex": 1
}