{
    "DNDConfig": null,
    "__parentReadjusting__": false,
    "_bottom_": {
        "type": "string",
        "value": "0dp"
    },
    "_left_": {
        "type": "string",
        "value": "0%"
    },
    "_margin_": [
        0,
        0,
        0,
        0
    ],
    "_padding_": [
        0,
        0,
        0,
        0
    ],
    "_skin_": "s3f548bda3524e0388552e16122dc6fa",
    "_top_": {
        "type": "string",
        "value": "0dp"
    },
    "_width_": {
        "type": "string",
        "value": "100%"
    },
    "allboxes": [],
    "allowhorizontalbounce": false,
    "allowverticalbounce": true,
    "bounces": false,
    "canUpdateUI": true,
    "children": [
        "segAccountsKALoans",
        "LabelNoRecordsKALoans"
    ],
    "clipbounds": true,
    "containerweight": 100,
    "decelerat": false,
    "dragg": false,
    "enabled": false,
    "enablescrolling": true,
    "horizontalscrollindicator": true,
    "id": "LoansInnerScroll",
    "info": null,
    "isvisible": true,
    "kuid": "c9c140093e744569abb55c08818a290e",
    "layouttype": 2,
    "name": "kony.ui.FlexScrollContainer",
    "onscrollend": "AS_FlexScrollContainer_750b5012c89947a499fb7cc6e7552e85",
    "onscrolling": "AS_FlexScrollContainer_9f37cc907dd84bc9a4968295a25158fb",
    "orientation": 6,
    "pagingenabled": false,
    "parent": "flxDealsWrapper",
    "percent": true,
    "pf": "frmAccountsLandingKA",
    "scrolldirection": 2,
    "snapgridsize": 10,
    "snaptogrid": true,
    "track": false,
    "verticalscrollindicator": false,
    "vizProps": {
        "hide": false
    },
    "wType": "FlexScrollContainer",
    "widgetalignment": 1
}