{
    "@class": "com.kony.gen.viz.model.container.KVizSegment2",
    "DNDConfig": null,
    "__parentReadjusting__": false,
    "_data_": [
        {
            "CopylblIncommingRing0ac2c9e9c52d147": {
                "@class": "com.viz.ide.model.segment.SimpleTextSegmentData",
                "i18nkey": "i18n.common.reverseback",
                "text": ""
            },
            "Label0bed5640cdb4b46": {
                "@class": "com.viz.ide.model.segment.SimpleTextSegmentData",
                "text": "Label"
            },
            "amountAccount1": {
                "@class": "com.viz.ide.model.segment.SimpleTextSegmentData",
                "text": "00.00"
            },
            "amountcurrBal": {
                "@class": "com.viz.ide.model.segment.SimpleTextSegmentData",
                "text": "$00.00"
            },
            "amtOutsatndingBal": {
                "@class": "com.viz.ide.model.segment.SimpleTextSegmentData",
                "text": "$00.00"
            },
            "btnNav": {
                "@class": "com.viz.ide.model.segment.SimpleTextSegmentData",
                "text": "L"
            },
            "dummyAccountName": {
                "@class": "com.viz.ide.model.segment.SimpleTextSegmentData",
                "text": ""
            },
            "dummyAccountNumber": {
                "@class": "com.viz.ide.model.segment.SimpleTextSegmentData",
                "text": ""
            },
            "isPFMLabel": {
                "@class": "com.viz.ide.model.segment.SimpleTextSegmentData",
                "text": ""
            },
            "lblAccNumber": {
                "@class": "com.viz.ide.model.segment.SimpleTextSegmentData",
                "text": ""
            },
            "lblAccountID": {
                "@class": "com.viz.ide.model.segment.SimpleTextSegmentData",
                "text": "Label"
            },
            "lblBankName": {
                "@class": "com.viz.ide.model.segment.SimpleTextSegmentData",
                "text": ""
            },
            "lblColorKA": {
                "@class": "com.viz.ide.model.segment.SimpleTextSegmentData",
                "text": ""
            },
            "lblCurrency": {
                "@class": "com.viz.ide.model.segment.SimpleTextSegmentData",
                "text": "JOD"
            },
            "lblIncommingRing": {
                "@class": "com.viz.ide.model.segment.SimpleTextSegmentData",
                "text": "s"
            },
            "lblMobile": {
                "@class": "com.viz.ide.model.segment.SimpleTextSegmentData",
                "text": ""
            },
            "lblRowSeparator": {
                "@class": "com.viz.ide.model.segment.SimpleTextSegmentData",
                "text": ""
            },
            "nameAccount1": {
                "@class": "com.viz.ide.model.segment.SimpleTextSegmentData",
                "text": "<p>t</p><img align = \"left\" src=\"mapblue.png\" />\n                        "
            },
            "nameAccount12": {
                "@class": "com.viz.ide.model.segment.SimpleTextSegmentData",
                "text": "Account Name"
            },
            "typeAccount": {
                "@class": "com.viz.ide.model.segment.SimpleTextSegmentData",
                "text": "Available Balance"
            },
            "typeKA": {
                "@class": "com.viz.ide.model.segment.SimpleTextSegmentData",
                "text": ""
            }
        },
        {
            "CopylblIncommingRing0ac2c9e9c52d147": {
                "@class": "com.viz.ide.model.segment.SimpleTextSegmentData",
                "i18nkey": "i18n.common.reverseback",
                "text": ""
            },
            "Label0bed5640cdb4b46": {
                "@class": "com.viz.ide.model.segment.SimpleTextSegmentData",
                "text": "Label"
            },
            "amountAccount1": {
                "@class": "com.viz.ide.model.segment.SimpleTextSegmentData",
                "text": "00.00"
            },
            "amountcurrBal": {
                "@class": "com.viz.ide.model.segment.SimpleTextSegmentData",
                "text": "$00.00"
            },
            "amtOutsatndingBal": {
                "@class": "com.viz.ide.model.segment.SimpleTextSegmentData",
                "text": "$00.00"
            },
            "btnNav": {
                "@class": "com.viz.ide.model.segment.SimpleTextSegmentData",
                "text": "L"
            },
            "dummyAccountName": {
                "@class": "com.viz.ide.model.segment.SimpleTextSegmentData",
                "text": ""
            },
            "dummyAccountNumber": {
                "@class": "com.viz.ide.model.segment.SimpleTextSegmentData",
                "text": ""
            },
            "isPFMLabel": {
                "@class": "com.viz.ide.model.segment.SimpleTextSegmentData",
                "text": ""
            },
            "lblAccNumber": {
                "@class": "com.viz.ide.model.segment.SimpleTextSegmentData",
                "text": ""
            },
            "lblAccountID": {
                "@class": "com.viz.ide.model.segment.SimpleTextSegmentData",
                "text": "Label"
            },
            "lblBankName": {
                "@class": "com.viz.ide.model.segment.SimpleTextSegmentData",
                "text": ""
            },
            "lblColorKA": {
                "@class": "com.viz.ide.model.segment.SimpleTextSegmentData",
                "text": ""
            },
            "lblCurrency": {
                "@class": "com.viz.ide.model.segment.SimpleTextSegmentData",
                "text": "JOD"
            },
            "lblIncommingRing": {
                "@class": "com.viz.ide.model.segment.SimpleTextSegmentData",
                "text": "s"
            },
            "lblMobile": {
                "@class": "com.viz.ide.model.segment.SimpleTextSegmentData",
                "text": ""
            },
            "lblRowSeparator": {
                "@class": "com.viz.ide.model.segment.SimpleTextSegmentData",
                "text": ""
            },
            "nameAccount1": {
                "@class": "com.viz.ide.model.segment.SimpleTextSegmentData",
                "text": "<p>t</p><img align = \"left\" src=\"mapblue.png\" />\n                        "
            },
            "nameAccount12": {
                "@class": "com.viz.ide.model.segment.SimpleTextSegmentData",
                "text": "Account Name"
            },
            "typeAccount": {
                "@class": "com.viz.ide.model.segment.SimpleTextSegmentData",
                "text": "Available Balance"
            },
            "typeKA": {
                "@class": "com.viz.ide.model.segment.SimpleTextSegmentData",
                "text": ""
            }
        }
    ],
    "_height_": {
        "type": "ref",
        "value": "preferred"
    },
    "_indicator_": "none",
    "_left_": {
        "type": "string",
        "value": "0dp"
    },
    "_margin_": [
        0,
        0,
        0,
        0
    ],
    "_orientation_": 2,
    "_padding_": [
        0,
        0,
        0,
        0
    ],
    "_top_": {
        "type": "string",
        "value": "0%"
    },
    "_width_": {
        "type": "string",
        "value": "100%"
    },
    "autogrowmode": 1,
    "canUpdateUI": true,
    "centerx": {
        "type": "string",
        "value": "50%"
    },
    "containerweight": 100,
    "counter": "01",
    "disabledSkins": {
        "rowFocusSkin": "s5fa38be22fb4f22b7c642b08276ab82",
        "sectionHeaderSkin": "sfa7f115d30e4183ab3e347ebe6185c6"
    },
    "focusedindex": null,
    "focuseditem": null,
    "groupcells": false,
    "hasSections": false,
    "hiddencolumns": {
        "accountNumber": "text",
        "reference_no": "text"
    },
    "id": "segAccountsKADeals",
    "ide_onRowClick": "AS_Segment_jd5e2be810884ca6a3cccb6777153212",
    "info": null,
    "ipad": {
        "psp": {
            "indicator": "rowselect"
        }
    },
    "iphone": {
        "psp": {
            "bounces": false,
            "indicator": "none",
            "showProgressIndicator": false
        }
    },
    "isvisible": true,
    "kuid": "abb3e1f0365142e4aae1f3e1e9ba844e",
    "masterdata": {},
    "name": "kony.ui.SegmentedUI2",
    "needpageindicator": true,
    "pageoffdotimage": "pageoffdot.png",
    "pageondotimage": "pageondot.png",
    "paginationconfig": {
        "position": "bottom"
    },
    "parent": "dealsInnerScroll",
    "pf": "frmAccountsLandingKA",
    "retainselection": false,
    "rowTemplateId": "d6ec8423e4fc4a0ea9253aafc6a0dd46",
    "rowcounter": 1,
    "rowskin": "s27c76e85b844e03945d12f1113a8f87",
    "rowtemplate": "yourAccount1",
    "screenlevelwidget": false,
    "seccounter": 0,
    "sectionHeaderTemplateId": null,
    "selectedRows": null,
    "selectedState": false,
    "selectedindex": null,
    "selectedindices": null,
    "selecteditems": null,
    "selectedsectionindex": 0,
    "selectionbehavior": "default",
    "separatorcolor": "ffffff4b",
    "separatorrequired": true,
    "separatorthickness": 1,
    "showprogressindicator": false,
    "showscrollbars": true,
    "viewtype": "tableview",
    "vizProps": {},
    "wType": "Segment",
    "widgetalignment": 5,
    "widgetdatamap": {
        "CopylblIncommingRing0ac2c9e9c52d147": "CopylblIncommingRing0ac2c9e9c52d147",
        "Label0bed5640cdb4b46": "Label0bed5640cdb4b46",
        "amountAccount1": "amountAccount1",
        "amountcurrBal": "amountcurrBal",
        "amtOutsatndingBal": "amtOutsatndingBal",
        "btnNav": "btnNav",
        "btnNav1": "btnNav1",
        "dummyAccountName": "dummyAccountName",
        "dummyAccountNumber": "dummyAccountNumber",
        "flxLine": "flxLine",
        "flxSet": "flxSet",
        "flxamount": "flxamount",
        "isPFMLabel": "isPFMLabel",
        "lblAccNumber": "lblAccNumber",
        "lblAccountID": "lblAccountID",
        "lblBankName": "lblBankName",
        "lblColorKA": "lblColorKA",
        "lblCurrency": "lblCurrency",
        "lblIncommingRing": "lblIncommingRing",
        "lblMobile": "lblMobile",
        "lblRowSeparator": "lblRowSeparator",
        "nameAccount1": "nameAccount1",
        "nameAccount12": "nameAccount12",
        "nameContainer": "nameContainer",
        "typeAccount": "typeAccount",
        "typeKA": "typeKA",
        "yourAccount1": "yourAccount1"
    },
    "zindex": 1
}