{
    "@class": "com.kony.gen.viz.model.component.KVizButton",
    "DNDConfig": null,
    "__parentReadjusting__": false,
    "_height_": {
        "type": "string",
        "value": "35dp"
    },
    "_left_": {
        "type": "string",
        "value": "57dp"
    },
    "_margin_": [
        6,
        6,
        6,
        6
    ],
    "_padding_": [
        0,
        0,
        0,
        0
    ],
    "_skin_": "s94d80e187a44bd9bb9ce6db5e729010",
    "_text_": "Cancel",
    "_top_": {
        "type": "string",
        "value": "46%"
    },
    "_width_": {
        "type": "string",
        "value": "60%"
    },
    "canUpdateUI": true,
    "centerx": {
        "type": "string",
        "value": "50%"
    },
    "containerweight": 100,
    "contentalignment": 5,
    "disabledSkins": {},
    "displaytext": true,
    "focusskin": "s6e8459b84e349d98629a088bbfe1304",
    "id": "btncanceluserdetails",
    "ide_onClick": "AS_Button_79d12dd0fd8f4a17b085d793cce11eb5",
    "info": null,
    "isvisible": true,
    "kuid": "0ae948fc00b347fda5166922b0d6ba0e",
    "name": "kony.ui.Button",
    "parent": "flxbottombtns",
    "pf": "frmEnrolluserLandingKA",
    "texti18n": "i18n.common.cancel",
    "wType": "Button"
}