{
    "@class": "com.kony.gen.viz.model.component.KVizLabel",
    "DNDConfig": null,
    "__parentReadjusting__": false,
    "_height_": {
        "type": "string",
        "value": "50dp"
    },
    "_left_": {
        "type": "string",
        "value": "2%"
    },
    "_margin_": [
        1,
        1,
        1,
        1
    ],
    "_padding_": [
        0,
        0,
        0,
        0
    ],
    "_skin_": "sd6cbe003a17434ebd97928a94d5e601",
    "_text_": "Note : Use a combination of alphabets,numbers or any of these special characters ! # ? \"                                     Use 8 to 24 characters",
    "_top_": {
        "type": "string",
        "value": "40dp"
    },
    "_width_": {
        "type": "string",
        "value": "100%"
    },
    "_wrapping_": 2,
    "canUpdateUI": true,
    "containerweight": 100,
    "contentalignment": 4,
    "enabled": false,
    "id": "Copylblinstrn0c26faacb159b4f",
    "info": null,
    "ipad": {
        "psp": {
            "wrapping": 2
        }
    },
    "iphone": {
        "psp": {
            "wrapping": 2
        }
    },
    "isvisible": true,
    "kuid": "cc6e611e7cd341458a5aa3de2887cbcc",
    "name": "kony.ui.Label",
    "parent": "flxpwd",
    "pf": "frmEnrolluserLandingKA",
    "texti18n": "i18n.login.note",
    "tooltip": "",
    "wType": "Label",
    "zindex": 1
}