{
    "@class": "com.kony.gen.viz.model.component.KVizLabel",
    "DNDConfig": null,
    "__parentReadjusting__": false,
    "_height_": {
        "type": "string",
        "value": "32dp"
    },
    "_left_": {
        "type": "string",
        "value": "2%"
    },
    "_margin_": [
        1,
        1,
        1,
        1
    ],
    "_padding_": [
        0,
        0,
        0,
        0
    ],
    "_skin_": "sbcb6b10071c42cfa99d1352f532f823",
    "_text_": "E-mail",
    "_top_": {
        "type": "string",
        "value": "7%"
    },
    "_width_": {
        "type": "ref",
        "value": "preferred"
    },
    "_wrapping_": 2,
    "canUpdateUI": true,
    "containerweight": 100,
    "contentalignment": 4,
    "enabled": false,
    "id": "CopyLabel092d7258cc7d340",
    "info": null,
    "ipad": {
        "psp": {
            "wrapping": 2
        }
    },
    "iphone": {
        "psp": {
            "wrapping": 2
        }
    },
    "isvisible": true,
    "kuid": "84241772baf0415abcd95ff709254e1d",
    "name": "kony.ui.Label",
    "parent": "flxemail",
    "pf": "frmEnrolluserLandingKA",
    "texti18n": "i18n.common.emailHy",
    "tooltip": "",
    "wType": "Label",
    "zindex": 1
}