{
    "@class": "com.kony.gen.viz.model.component.KVizLabel",
    "DNDConfig": null,
    "__parentReadjusting__": false,
    "_height_": {
        "type": "ref",
        "value": "preferred"
    },
    "_margin_": [
        1,
        1,
        1,
        1
    ],
    "_padding_": [
        0,
        0,
        0,
        0
    ],
    "_skin_": "s7f00bf54e3d4b7f8665a1cebbce9c8b",
    "_text_": "",
    "_top_": {
        "type": "string",
        "value": "7%"
    },
    "_width_": {
        "type": "ref",
        "value": "preferred"
    },
    "_wrapping_": 2,
    "android": {
        "textStyle": {
            "letterSpacing": 0,
            "strikeThrough": false
        }
    },
    "canUpdateUI": true,
    "centerx": {
        "type": "string",
        "value": "50%"
    },
    "containerweight": 100,
    "contentalignment": 4,
    "id": "lblTitle",
    "info": null,
    "ipad": {
        "psp": {
            "wrapping": 2
        }
    },
    "iphone": {
        "psp": {
            "wrapping": 2
        }
    },
    "isvisible": true,
    "kuid": "e90558675c174ab7ad399d07c81a23e8",
    "name": "kony.ui.Label",
    "parent": "flxUserPass",
    "pf": "frmEnrolluserLandingKA",
    "texti18n": "i18n.registration.registerTitle",
    "textstyle": {},
    "tooltip": "",
    "wType": "Label",
    "zindex": 1
}