{
    "DNDConfig": null,
    "__parentReadjusting__": false,
    "_height_": {
        "type": "string",
        "value": "2%"
    },
    "_left_": {
        "type": "string",
        "value": "0dp"
    },
    "_margin_": [
        0,
        0,
        0,
        0
    ],
    "_orientation_": 6,
    "_padding_": [
        0,
        0,
        0,
        0
    ],
    "_percent_": true,
    "_skin_": "s8a35ec8a93f462bb7e55a021309ffbf",
    "_top_": {
        "type": "string",
        "value": "98%"
    },
    "_width_": {
        "type": "string",
        "value": "100%"
    },
    "allboxes": [],
    "autogrowmode": 0,
    "canUpdateUI": true,
    "children": [],
    "clipbounds": true,
    "containerId": true,
    "containerweight": 100,
    "enablescrolling": true,
    "id": "flxUnderLineSMS",
    "info": null,
    "isvisible": true,
    "kuid": "g00ab72121c14e259a0f3a382299ffa3",
    "layouttype": 2,
    "name": "kony.ui.FlexContainer",
    "parent": "flxSMSNotificationDisabled",
    "pf": "tmpAccountSMSDisabled",
    "snapgridsize": 10,
    "snaptogrid": true,
    "wType": "FlexContainer",
    "widgetalignment": 1,
    "zindex": 1
}