{
    "@class": "com.kony.gen.viz.model.component.KVizDateField",
    "DNDConfig": null,
    "Image": "tran.png",
    "__id": "frmNewTransferKA_calFrom",
    "__input": "calFrom",
    "__parentReadjusting__": false,
    "_data_": null,
    "_date_": [
        null,
        null,
        null
    ],
    "_height_": {
        "type": "string",
        "value": "60%"
    },
    "_left_": {
        "type": "string",
        "value": "5%"
    },
    "_margin_": [
        0,
        0,
        0,
        0
    ],
    "_mode_": 0,
    "_padding_": [
        0,
        0,
        0,
        0
    ],
    "_placeholder_": "",
    "_skin_": "s7f6aa6f95d44e4bb173038bc3bc2911",
    "_top_": {
        "type": "string",
        "value": "35%"
    },
    "_width_": {
        "type": "string",
        "value": "28%"
    },
    "advview": "default",
    "android": {
        "calendarIcon": "tran.png"
    },
    "calendaricon": "tran.png",
    "canUpdateUI": true,
    "containerweight": 100,
    "contentalignment": 4,
    "datecomponents": null,
    "dateeditable": true,
    "dateformat": "MM/dd/yyyy",
    "datesGroup": [],
    "datesState": 0,
    "day": null,
    "daytextalignmentincell": 5,
    "disabledSkins": {},
    "displayedMonths": [
        2,
        2018
    ],
    "entereddate": null,
    "focusskin": "s7f6aa6f95d44e4bb173038bc3bc2911",
    "format": "MM/dd/yyyy",
    "formatteddate": null,
    "gridCellSkin": "s52dd383efbd4dd6aaca25887d48a3e8",
    "gridSkin": "s67dbb13ef1841bd9057687f51153d99",
    "hidedaysheader": false,
    "hidemonthsheader": false,
    "hour": null,
    "id": "calDatefrom",
    "ide_onSelection": "AS_Calendar_c7cdb7f5cb6548a3b1052ad5355e3d60",
    "info": null,
    "invokedProperty": "rightNavigationImage",
    "iphone": {
        "calendarIcon": "tran.png",
        "psp": {
            "mode": 0
        }
    },
    "isvisible": true,
    "kuid": "aa3bee20f4074117b52b081244bc0e08",
    "luadate": [
        "12",
        "2",
        "2018"
    ],
    "minutes": null,
    "month": null,
    "monthsinrow": 3,
    "name": "kony.ui.Calendar",
    "navigatorAlert": "Invalid Selection",
    "noofmonths": 1,
    "pagedate": "/2018",
    "parent": "flxCustomDateRange",
    "pf": "frmCardStatementKA",
    "popupHeight": "auto",
    "popupWidth": "auto",
    "seconds": null,
    "selectdate": "//2018",
    "startDay": 0,
    "startdate": [
        7,
        2,
        2018
    ],
    "validstartdate": [
        7,
        2,
        2018
    ],
    "viewconfig": {
        "gridConfig": {
            "gridCellSkin": "s52dd383efbd4dd6aaca25887d48a3e8",
            "gridSkin": "s67dbb13ef1841bd9057687f51153d99",
            "leftNavigationImage": "directions_turn_left.png",
            "rightNavigationImage": "directions_turn_right.png"
        }
    },
    "viewtype": "default",
    "wType": "Calendar",
    "widgetalignment": 5,
    "widths": [
        "14.2857%;",
        "14.2857%;",
        "14.2857%;",
        "14.2857%;",
        "14.2857%;",
        "14.2857%;",
        "14.2857%;"
    ],
    "year": null,
    "zindex": 2
}