{
    "@class": "com.kony.gen.viz.model.component.KVizLabel",
    "DNDConfig": null,
    "__parentReadjusting__": false,
    "_height_": {
        "type": "string",
        "value": "100%"
    },
    "_margin_": [
        1,
        1,
        1,
        1
    ],
    "_padding_": [
        0,
        0,
        0,
        0
    ],
    "_right_": {
        "type": "string",
        "value": "15%"
    },
    "_skin_": "s54bf0258815482d9431de67438bfce0",
    "_text_": "l",
    "_top_": {
        "type": "string",
        "value": "0%"
    },
    "_width_": {
        "type": "string",
        "value": "8%"
    },
    "_wrapping_": 2,
    "android": {
        "textStyle": {
            "letterSpacing": 0,
            "strikeThrough": false
        }
    },
    "canUpdateUI": true,
    "centery": "50%",
    "containerweight": 100,
    "contentalignment": 5,
    "id": "lblExport",
    "ide_onTouchEnd": "AS_Label_a7d225c2afcb450ab75711b0dd7214bd",
    "info": null,
    "ipad": {
        "psp": {
            "wrapping": 2
        }
    },
    "iphone": {
        "psp": {
            "wrapping": 2
        }
    },
    "isvisible": false,
    "kuid": "bc092cbc9a3b4cfcac52f10156e5e5a6",
    "name": "kony.ui.Label",
    "parent": "flxExtraIcons",
    "pf": "frmCardStatementKA",
    "tooltip": "",
    "wType": "Label",
    "zindex": 1
}