{
    "@class": "com.kony.gen.viz.model.container.KVizSegment2",
    "DNDConfig": null,
    "__parentReadjusting__": false,
    "_bottom_": {
        "type": "string",
        "value": "5dp"
    },
    "_data_": [
        {
            "lblCardStatementmerchant": {
                "@class": "com.viz.ide.model.segment.SimpleTextSegmentData",
                "text": "Payment to City of Austin"
            },
            "lblLastTransaction": {
                "@class": "com.viz.ide.model.segment.SimpleTextSegmentData",
                "text": ""
            },
            "transactionAmount": {
                "@class": "com.viz.ide.model.segment.SimpleTextSegmentData",
                "text": "123.123 JOD"
            },
            "transactionDate": {
                "@class": "com.viz.ide.model.segment.SimpleTextSegmentData",
                "text": "Oct 10, 2015 - Recurring Monthly"
            },
            "transactionName": {
                "@class": "com.viz.ide.model.segment.SimpleTextSegmentData",
                "text": "Payment to City of Austin"
            }
        },
        {
            "lblCardStatementmerchant": {
                "@class": "com.viz.ide.model.segment.SimpleTextSegmentData",
                "text": "Payment to City of Austin"
            },
            "lblLastTransaction": {
                "@class": "com.viz.ide.model.segment.SimpleTextSegmentData",
                "text": ""
            },
            "transactionAmount": {
                "@class": "com.viz.ide.model.segment.SimpleTextSegmentData",
                "text": "123.123 JOD"
            },
            "transactionDate": {
                "@class": "com.viz.ide.model.segment.SimpleTextSegmentData",
                "text": "Oct 10, 2015 - Recurring Monthly"
            },
            "transactionName": {
                "@class": "com.viz.ide.model.segment.SimpleTextSegmentData",
                "text": "Payment to City of Austin"
            }
        },
        {
            "lblCardStatementmerchant": {
                "@class": "com.viz.ide.model.segment.SimpleTextSegmentData",
                "text": "Payment to City of Austin"
            },
            "lblLastTransaction": {
                "@class": "com.viz.ide.model.segment.SimpleTextSegmentData",
                "text": ""
            },
            "transactionAmount": {
                "@class": "com.viz.ide.model.segment.SimpleTextSegmentData",
                "text": "123.123 JOD"
            },
            "transactionDate": {
                "@class": "com.viz.ide.model.segment.SimpleTextSegmentData",
                "text": "Oct 10, 2015 - Recurring Monthly"
            },
            "transactionName": {
                "@class": "com.viz.ide.model.segment.SimpleTextSegmentData",
                "text": "Payment to City of Austin"
            }
        }
    ],
    "_height_": {
        "type": "ref",
        "value": "preferred"
    },
    "_indicator_": "none",
    "_left_": {
        "type": "string",
        "value": "0%"
    },
    "_margin_": [
        0,
        0,
        0,
        0
    ],
    "_orientation_": 2,
    "_padding_": [
        0,
        0,
        0,
        0
    ],
    "_top_": {
        "type": "string",
        "value": "0dp"
    },
    "_width_": {
        "type": "string",
        "value": "100%"
    },
    "android": {
        "psp": {
            "dockSectionHeaders": true
        }
    },
    "autogrowmode": 1,
    "canUpdateUI": true,
    "containerweight": 100,
    "counter": "02",
    "disabledSkins": {},
    "focusedindex": null,
    "focuseditem": null,
    "groupcells": false,
    "hasSections": false,
    "id": "transactionSegment",
    "info": null,
    "ipad": {
        "psp": {
            "indicator": "rowselect"
        }
    },
    "iphone": {
        "psp": {
            "bounces": false,
            "indicator": "none"
        }
    },
    "isvisible": true,
    "kuid": "c5dba24f29d749518994cf9785863f25",
    "masterdata": {},
    "name": "kony.ui.SegmentedUI2",
    "needpageindicator": true,
    "pageoffdotimage": "pageoffdot.png",
    "pageondotimage": "pageondot.png",
    "paginationconfig": {
        "position": "bottom"
    },
    "parent": "accountDetailsTransactions",
    "pf": "frmCardStatementKA",
    "retainselection": false,
    "rowTemplateId": "a66c3ff570e249e0a72a386a8602b362",
    "rowcounter": 2,
    "rowfocusskin": "s27c76e85b844e03945d12f1113a8f87",
    "rowskin": "s27c76e85b844e03945d12f1113a8f87",
    "rowtemplate": "CopyFlexContainer0a99898df0f2a41",
    "screenlevelwidget": false,
    "seccounter": 0,
    "sectionHeaderTemplateId": null,
    "sectionheaderskin": "s67621b8a82d49f285da06b4f5a0c993",
    "selectedRows": null,
    "selectedState": false,
    "selectedindex": null,
    "selectedindices": null,
    "selecteditems": null,
    "selectedsectionindex": 0,
    "selectionbehavior": "default",
    "separatorcolor": "ffffff4b",
    "separatorrequired": true,
    "separatorthickness": 1,
    "showscrollbars": false,
    "viewtype": "tableview",
    "vizProps": {},
    "wType": "Segment",
    "widgetalignment": 5,
    "widgetdatamap": {
        "CopyFlexContainer0a99898df0f2a41": "CopyFlexContainer0a99898df0f2a41",
        "lblCardStatementmerchant": "lblCardStatementmerchant",
        "lblLastTransaction": "lblLastTransaction",
        "transactionAmount": "transactionAmount",
        "transactionAmountJOD": "transactionAmountJOD",
        "transactionDate": "transactionDate",
        "transactionName": "transactionName"
    }
}