{
    "@class": "com.kony.gen.viz.model.component.KVizButton",
    "DNDConfig": null,
    "_margin_": [
        6,
        4,
        6,
        6
    ],
    "_padding_": [
        3,
        3,
        3,
        3
    ],
    "_skin_": "s064afd968c64abb94c8e379d3f4c61f",
    "_text_": "Submit",
    "canUpdateUI": true,
    "containerweight": 50,
    "contentalignment": 5,
    "disabledSkins": {
        "focusSkin": "s10149300144466da99cbf92f4fdacc8"
    },
    "displaytext": true,
    "id": "btnNo",
    "ide_onClick": "AS_Button_c322c2802fc34c988af7498ffb6d3c56",
    "info": null,
    "isvisible": true,
    "kuid": "c41544207cf742bfb7f81c5dba82789f",
    "margininpixel": false,
    "name": "kony.ui.Button",
    "paddInPixel": [
        -11.56,
        -11.56,
        -11.56,
        -11.56
    ],
    "paddinginpixel": false,
    "parent": "HBxSubmit",
    "pf": "popupStopCard",
    "texti18n": "i18n.common.NO",
    "wType": "Button",
    "widgetalignment": 5
}