{
    "@class": "com.kony.gen.viz.model.container.KVizHBox",
    "DNDConfig": null,
    "_margin_": [
        0,
        0,
        0,
        0
    ],
    "_orientation_": 1,
    "_padding_": [
        0,
        0,
        0,
        0
    ],
    "_percent_": true,
    "_position_": 3,
    "_skin_": "s251243d5eba45259b7c9f05207eb78d",
    "allboxes": [],
    "canUpdateUI": true,
    "children": [
        "lblTitle"
    ],
    "containerweight": 100,
    "contextmenu": null,
    "id": "CopyHBxTitle",
    "info": null,
    "isvisible": true,
    "kuid": "b5b077e6a2fc4ffc92e69398b3381fdf",
    "layouttype": 0,
    "name": "kony.ui.Box",
    "paddinginpixel": false,
    "parent": "popupStopCard",
    "pf": "popupStopCard",
    "wType": "HBox",
    "widgetalignment": 1
}