{
    "@class": "com.kony.gen.viz.model.container.KVizHBox",
    "DNDConfig": null,
    "_margin_": [
        0,
        2,
        0,
        0
    ],
    "_orientation_": 1,
    "_padding_": [
        0,
        1,
        0,
        0
    ],
    "_percent_": true,
    "_position_": 3,
    "_skin_": "s066e1f55806426ca40936afa9e01f49",
    "allboxes": [],
    "canUpdateUI": true,
    "children": [
        "lblStopCardDesc"
    ],
    "containerweight": 100,
    "contextmenu": null,
    "id": "HBxTitle",
    "info": null,
    "isvisible": true,
    "kuid": "h9efce28ea934df1916fca5e3da62f3b",
    "layouttype": 0,
    "margininpixel": false,
    "name": "kony.ui.Box",
    "paddinginpixel": false,
    "parent": "popupStopCard",
    "pf": "popupStopCard",
    "wType": "HBox",
    "widgetalignment": 1
}