{
    "@class": "com.kony.gen.viz.model.component.KVizLabel",
    "DNDConfig": null,
    "__parentReadjusting__": false,
    "_height_": {
        "type": "ref",
        "value": "preferred"
    },
    "_left_": {
        "type": "string",
        "value": "90dp"
    },
    "_margin_": [
        1,
        1,
        1,
        1
    ],
    "_padding_": [
        0,
        0,
        0,
        0
    ],
    "_skin_": "se033b4241724171afff711026194d8f",
    "_text_": "Sun Closed",
    "_top_": {
        "type": "string",
        "value": "0dp"
    },
    "_width_": {
        "type": "ref",
        "value": "preferred"
    },
    "_wrapping_": 2,
    "canUpdateUI": true,
    "containerId": true,
    "containerweight": 100,
    "contentalignment": 4,
    "enabled": false,
    "id": "lblOperationHrsValue",
    "info": null,
    "ipad": {
        "psp": {
            "wrapping": 2
        }
    },
    "iphone": {
        "psp": {
            "wrapping": 2
        }
    },
    "isSegmentChild": true,
    "isvisible": true,
    "kuid": "a8c59e6044c24c37a21255e5e0bdf983",
    "minheight": {
        "type": "string",
        "value": "20dp"
    },
    "name": "kony.ui.Label",
    "parent": "FBox03cc3ce49523f48",
    "pf": "FBox03cc3ce49523f48",
    "texti18n": "i18n.locateus.frmLocatorBranchDetailsKA.CopyatmServices00ff586c7132d45",
    "tooltip": "",
    "wType": "Label"
}