{
    "@class": "com.kony.gen.viz.model.component.KVizButton",
    "DNDConfig": null,
    "__parentReadjusting__": false,
    "_height_": {
        "type": "string",
        "value": "100%"
    },
    "_margin_": [
        6,
        6,
        6,
        6
    ],
    "_padding_": [
        0,
        0,
        0,
        0
    ],
    "_right_": {
        "type": "string",
        "value": "0%"
    },
    "_skin_": "sb28f0acc58c4fb192640c4d30c89058",
    "_text_": "h",
    "_top_": {
        "type": "string",
        "value": "0dp"
    },
    "_width_": {
        "type": "string",
        "value": "15%"
    },
    "canUpdateUI": true,
    "centery": {
        "type": "string",
        "value": "50%"
    },
    "containerweight": 100,
    "contentalignment": 5,
    "displaytext": true,
    "focusskin": "s3a2dbead7cc4c83984735a2417af7b9",
    "id": "btnSearch",
    "info": null,
    "isvisible": false,
    "kuid": "jde9693c533c43ce9832217dde2dc916",
    "name": "kony.ui.Button",
    "parent": "flxHeadMain1",
    "pf": "frmCurrency",
    "wType": "Button",
    "zindex": 1
}