{
    "@class": "com.kony.gen.viz.model.component.KVizTextBox2",
    "DNDConfig": null,
    "__parentReadjusting__": false,
    "_height_": {
        "type": "string",
        "value": "40dp"
    },
    "_margin_": [
        0,
        0,
        0,
        0
    ],
    "_padding_": [
        3,
        0,
        0,
        0
    ],
    "_placeholder_": "Enter PIN Here",
    "_skin_": "sf5354ad881c43f0ae8a2ea9ef72f9e0",
    "_text_": "",
    "_top_": {
        "type": "string",
        "value": "10dp"
    },
    "_width_": {
        "type": "string",
        "value": "80%"
    },
    "android": {},
    "autocapitalize": "none",
    "autocomplete": false,
    "autocorrect": false,
    "autofilter": false,
    "canUpdateUI": true,
    "centerx": {
        "type": "string",
        "value": "50.03%"
    },
    "containerheight": "",
    "containerheightmode": 1,
    "containerweight": 100,
    "contentalignment": 4,
    "focusskin": "sf5354ad881c43f0ae8a2ea9ef72f9e0",
    "id": "TextField068616d32749e45",
    "info": null,
    "isvisible": true,
    "keyboardtype": "A",
    "kuid": "c036e7731fb84f088c7251c1ee758c11",
    "mode": "A",
    "name": "kony.ui.TextBox2",
    "parent": "FlexContainer00a3c07fadcbf4b",
    "pf": "frmDeviceRegisterationIncorrectPinActicvationKA",
    "placeholderi18n": "i18n.login.enterPINherePlh",
    "placeholderskin": "sfa36c5ffd8f4b39894ae352f59c3406",
    "securetextentry": false,
    "textinputmode": "A",
    "viewtype": "default",
    "wType": "TextField",
    "zindex": 1
}