{
    "@class": "com.kony.gen.viz.model.component.KVizLabel",
    "DNDConfig": null,
    "__markedForDelete__": true,
    "__parentReadjusting__": false,
    "_height_": {
        "type": "ref",
        "value": "preferred"
    },
    "_left_": 0,
    "_lines_": 1,
    "_margin_": [
        0,
        0,
        0,
        0
    ],
    "_opacity_": 100,
    "_padding_": [
        0,
        0,
        0,
        0
    ],
    "_skin_": "s742660243324bb68bf1218ecb1d5101",
    "_text_": "A",
    "_top_": 0,
    "_width_": {
        "type": "string",
        "value": "100%"
    },
    "_wrapping_": 2,
    "android": {
        "textStyle": {
            "letterSpacing": 0,
            "strikeThrough": false
        }
    },
    "canUpdateUI": true,
    "containerweight": 100,
    "contentalignment": 5,
    "id": "Label0jb5c2202020140",
    "info": null,
    "ipad": {
        "psp": {
            "wrapping": 2
        }
    },
    "iphone": {
        "psp": {
            "wrapping": 2
        }
    },
    "isvisible": true,
    "kuid": "g8d55153d2a34667bc12d2f7f71b8235",
    "minscale": 100,
    "name": "kony.ui.Label",
    "paddinginpixel": true,
    "parent": "Group0bcdf8de72a2541",
    "pf": "frmWatMenuDemo",
    "tooltip": "",
    "wType": "Label",
    "widgetalignment": 5
}