{
    "@class": "com.kony.gen.viz.model.component.KVizLabel",
    "DNDConfig": null,
    "__parentReadjusting__": false,
    "_height_": {
        "type": "string",
        "value": "100%"
    },
    "_left_": {
        "type": "string",
        "value": "0dp"
    },
    "_margin_": [
        1,
        1,
        1,
        1
    ],
    "_padding_": [
        0,
        0,
        0,
        0
    ],
    "_skin_": "sf31fd1b16444c4abd376da83dfce833",
    "_text_": "o",
    "_top_": {
        "type": "string",
        "value": "0dp"
    },
    "_width_": {
        "type": "string",
        "value": "100%"
    },
    "_wrapping_": 2,
    "android": {
        "textStyle": {
            "letterSpacing": 0,
            "strikeThrough": false
        }
    },
    "canUpdateUI": true,
    "containerweight": 100,
    "contentalignment": 8,
    "id": "lblEdit",
    "ide_onTouchEnd": "AS_Label_c4fb083e6255458fbdd8628f97c19a71",
    "info": null,
    "ipad": {
        "psp": {
            "wrapping": 2
        }
    },
    "iphone": {
        "psp": {
            "wrapping": 2
        }
    },
    "isvisible": true,
    "kuid": "h7a51f09ef4d4206bfd4e7b8d377dce1",
    "name": "kony.ui.Label",
    "parent": "flxEdit",
    "pf": "frmOrderCheckBook",
    "texti18n": "i18n.common.backReverse",
    "textstyle": {},
    "tooltip": "",
    "wType": "Label",
    "zindex": 2
}