{
    "DNDConfig": null,
    "__parentReadjusting__": false,
    "_height_": {
        "type": "string",
        "value": "100%"
    },
    "_left_": {
        "type": "string",
        "value": "0dp"
    },
    "_margin_": [
        0,
        0,
        0,
        0
    ],
    "_orientation_": 6,
    "_padding_": [
        0,
        0,
        0,
        0
    ],
    "_percent_": true,
    "_skin_": "s2e799dea37f490c8059bd9a966db282",
    "_top_": {
        "type": "string",
        "value": "0dp"
    },
    "_width_": {
        "type": "string",
        "value": "100%"
    },
    "allboxes": [],
    "autogrowmode": 0,
    "canUpdateUI": true,
    "children": [
        "flxConfirmHeader",
        "flxImpDetail",
        "flxOtherDetails",
        "flxButtonHolder",
        "lblLanguage",
        "lblType"
    ],
    "clipbounds": true,
    "containerweight": 100,
    "enablescrolling": true,
    "id": "flxConfirmPopUp",
    "info": null,
    "isvisible": false,
    "kuid": "f8f7f97c1fe44db4bc0d05321548fc7e",
    "layouttype": 4,
    "name": "kony.ui.FlexContainer",
    "parent": "frmAddNewPayeeKA",
    "pf": "frmAddNewPayeeKA",
    "snapgridsize": 10,
    "snaptogrid": true,
    "wType": "FlexContainer",
    "widgetalignment": 1,
    "zindex": 2
}