{
    "@class": "com.kony.gen.viz.model.component.KVizTextBox2",
    "DNDConfig": null,
    "__parentReadjusting__": false,
    "_height_": {
        "type": "number",
        "value": "37"
    },
    "_left_": {
        "type": "string",
        "value": "0dp"
    },
    "_margin_": [
        0,
        0,
        0,
        0
    ],
    "_padding_": [
        0,
        0,
        0,
        0
    ],
    "_placeholder_": "Enter Company name here",
    "_right_": {
        "type": "number",
        "value": "0"
    },
    "_skin_": "s91685645d0c4a43826fdd5c95fe611d",
    "_text_": "",
    "_top_": {
        "type": "string",
        "value": "0dp"
    },
    "android": {},
    "autocapitalize": "words",
    "autocomplete": false,
    "autocorrect": false,
    "autofilter": false,
    "canUpdateUI": true,
    "containerheight": "",
    "containerheightmode": 1,
    "containerweight": 100,
    "contentalignment": 4,
    "enabled": false,
    "focusskin": "s16addfe9da944a3add187c9cd34aa56",
    "id": "newPayeeNameTextfield",
    "ide_onTextChange": "AS_TextField_ec5cb8f5d08e4c79b30beded2d060103",
    "info": null,
    "iphone": {},
    "isvisible": true,
    "keyboardtype": "A",
    "kuid": "8bc8ae7ba0f84bfc80f93ec03acb694d",
    "mode": "A",
    "name": "kony.ui.TextBox2",
    "parent": "CopyusernameContainer0c123209f151c45",
    "pf": "frmAddNewPayeeKA",
    "placeholderi18n": "i18n.manage_payee.enterCompanyNameHerePlh",
    "placeholderskin": "sfa36c5ffd8f4b39894ae352f59c3406",
    "securetextentry": false,
    "textinputmode": "A",
    "viewtype": "default",
    "wType": "TextField"
}