{
    "@class": "com.kony.gen.viz.model.component.KVizButton",
    "DNDConfig": null,
    "__parentReadjusting__": false,
    "_height_": {
        "type": "string",
        "value": "96%"
    },
    "_left_": {
        "type": "string",
        "value": "5%"
    },
    "_margin_": [
        6,
        6,
        6,
        6
    ],
    "_padding_": [
        0,
        0,
        0,
        0
    ],
    "_skin_": "s6f262efe0094f1daa5d420436b8daea",
    "_text_": "h",
    "_top_": {
        "type": "string",
        "value": "0%"
    },
    "_width_": {
        "type": "string",
        "value": "8%"
    },
    "canUpdateUI": true,
    "containerweight": 100,
    "contentalignment": 5,
    "displaytext": true,
    "focusskin": "s6f262efe0094f1daa5d420436b8daea",
    "id": "btnSearch",
    "info": null,
    "isvisible": true,
    "kuid": "c7af46d80cef4ae69ba03beb45eede47",
    "name": "kony.ui.Button",
    "parent": "flxSearch",
    "pf": "frmJomopayContacts",
    "wType": "Button",
    "zindex": 2
}