{
    "@class": "com.kony.gen.viz.model.component.KVizDateField",
    "DNDConfig": null,
    "Image": "calbtn.png",
    "__parentReadjusting__": false,
    "_data_": null,
    "_date_": "10/6/2016",
    "_height_": {
        "type": "string",
        "value": "38dp"
    },
    "_left_": {
        "type": "string",
        "value": "0dp"
    },
    "_margin_": [
        0,
        0,
        0,
        0
    ],
    "_padding_": [
        0,
        0,
        0,
        0
    ],
    "_skin_": "se5f6c7161ab46dc91f737f067c09255",
    "_top_": {
        "type": "string",
        "value": "0dp"
    },
    "_width_": {
        "type": "string",
        "value": "85%"
    },
    "advview": "default",
    "calendaricon": "calbtn.png",
    "canUpdateUI": true,
    "containerweight": 100,
    "contentalignment": 4,
    "datecomponents": [
        10,
        6,
        2016,
        0,
        0,
        0
    ],
    "dateeditable": true,
    "dateformat": "dd/MMM/yyyy",
    "day": 10,
    "daytextalignmentincell": 5,
    "format": "dd/MMM/yyyy",
    "formatteddate": "10/Jun/2016",
    "hidedaysheader": false,
    "hidemonthsheader": false,
    "hour": 0,
    "id": "calRecurrenceTo",
    "ide_onSelection": "AS_Calendar_df8365c63127411da6ce6b47d86463eb",
    "info": null,
    "isvisible": true,
    "kuid": "4b36ab28c61c4c7785d107aba7842495",
    "minutes": 0,
    "minwidth": {
        "type": "string",
        "value": "85%"
    },
    "month": 6,
    "name": "kony.ui.Calendar",
    "noofmonths": 1,
    "pagedate": "/2016",
    "parent": "flexRecurrenceToContainer",
    "pf": "frmNewTransferKA",
    "seconds": 0,
    "selectdate": "//2016",
    "viewtype": "default",
    "wType": "Calendar",
    "widgetalignment": 5,
    "year": 2016,
    "zindex": 1
}