{
    "DNDConfig": null,
    "__parentReadjusting__": false,
    "_height_": {
        "type": "string",
        "value": "90%"
    },
    "_left_": {
        "type": "string",
        "value": "0dp"
    },
    "_margin_": [
        0,
        0,
        0,
        0
    ],
    "_orientation_": 6,
    "_padding_": [
        0,
        0,
        0,
        0
    ],
    "_percent_": true,
    "_skin_": "saf0da53b0ff41829417181bd59b2eea",
    "_top_": {
        "type": "string",
        "value": "10%"
    },
    "_width_": {
        "type": "string",
        "value": "100%"
    },
    "allboxes": [],
    "allowhorizontalbounce": false,
    "allowverticalbounce": true,
    "bounces": true,
    "canUpdateUI": true,
    "children": [
        "flxAccount1",
        "lblInvalidFromAccount",
        "flxAccount2",
        "lblInvalidToAccount",
        "flxAmount",
        "flxInvalidAmountField",
        "flxChooseCurrency",
        "flxFrequency",
        "flxRecurrence",
        "InvalidDatefieldsTransfer",
        "flxPurpose",
        "flxDescription",
        "lblLine5",
        "btnEnglish",
        "FlexContainer0ge6813712be644",
        "lblHiddenAmount",
        "lblDecimal",
        "lblCurrencyCode"
    ],
    "clipbounds": true,
    "containerweight": 100,
    "decelerat": false,
    "dragg": false,
    "enablescrolling": true,
    "horizontalscrollindicator": true,
    "id": "flxMain",
    "info": null,
    "isvisible": true,
    "kuid": "c571dcc3bd20492996ded7448dcc5269",
    "layouttype": 4,
    "masterType": 1,
    "name": "kony.ui.FlexScrollContainer",
    "pagingenabled": false,
    "parent": "frmNewTransferKA",
    "pf": "frmNewTransferKA",
    "scrolldirection": 2,
    "snapgridsize": 10,
    "snaptogrid": true,
    "track": false,
    "verticalscrollindicator": true,
    "wType": "FlexScrollContainer",
    "widgetalignment": 1,
    "zindex": 1
}