{
    "@class": "com.kony.gen.viz.model.component.KVizTextBox2",
    "DNDConfig": null,
    "__parentReadjusting__": false,
    "_bottom_": {
        "type": "string",
        "value": "4%"
    },
    "_height_": {
        "type": "string",
        "value": "60%"
    },
    "_margin_": [
        0,
        0,
        0,
        0
    ],
    "_padding_": [
        3,
        0,
        0,
        0
    ],
    "_placeholder_": "",
    "_skin_": "s029998596d3421892d0917ea7492e1d",
    "_text_": "",
    "_width_": {
        "type": "string",
        "value": "100%"
    },
    "accessibilityconfig": {
        "a11yLabel": "Enter your Username"
    },
    "android": {
        "ide_onEndEditing": "AS_TextField_d3dd672ec38c42e5a966fee9709bd264",
        "onEndEditing": "AS_TextField_ja28486c7a3043998424fea66ecabfa6",
        "psp": {
            "keyboardActionLabel": 1
        }
    },
    "autocapitalize": "none",
    "autocomplete": false,
    "autocorrect": false,
    "autofilter": false,
    "canUpdateUI": true,
    "centerx": {
        "type": "string",
        "value": "50%"
    },
    "containerheight": "",
    "containerheightmode": 1,
    "containerweight": 100,
    "contentalignment": 4,
    "disabledSkins": {},
    "focusskin": "s029998596d3421892d0917ea7492e1d",
    "id": "txtDesc",
    "ide_onDone": "AS_TextField_j2dddbff421d4c5dbf262b5b5432d252",
    "ide_onTextChange": "AS_TextField_d2e6eecfc7e548b3ba6d46eab132dd0c",
    "ide_onTouchEnd": "AS_TextField_c75637363683497285d7fa387d2640b7",
    "info": null,
    "iphone": {
        "ide_onEndEditing": "AS_TextField_hd08637a92704382bc172bfa93b94880",
        "onBeginEditing": "AS_TextField_c0713df9ccfc44dba27a3f28bca350b8",
        "onEndEditing": "AS_TextField_e0640ce8d53a4635ae41178a91d95fb7",
        "psp": {
            "showClearButton": false,
            "showCloseButton": false,
            "showProgressIndicator": false
        }
    },
    "isvisible": true,
    "keyboardactionlabel": 1,
    "keyboardtype": "A",
    "kuid": "b005d12c9745404db03c54ab61475361",
    "maxtextlength": 35,
    "mode": "A",
    "name": "kony.ui.TextBox2",
    "parent": "flxDescription",
    "pf": "frmNewTransferKA",
    "securetextentry": false,
    "textinputmode": "A",
    "viewtype": "default",
    "wType": "TextField",
    "zindex": 10
}