{
    "DNDConfig": null,
    "__parentReadjusting__": false,
    "_height_": {
        "type": "string",
        "value": "50%"
    },
    "_left_": {
        "type": "string",
        "value": "35%"
    },
    "_margin_": [
        0,
        0,
        0,
        0
    ],
    "_orientation_": 6,
    "_padding_": [
        0,
        0,
        0,
        0
    ],
    "_percent_": true,
    "_skin_": "s388f0c575ef4d08ac3a5ed0a4b90085",
    "_top_": {
        "type": "string",
        "value": "50%"
    },
    "_width_": {
        "type": "string",
        "value": "50%"
    },
    "allboxes": [],
    "autogrowmode": 0,
    "canUpdateUI": true,
    "children": [
        "btnDeliverModeMailAddress",
        "lblDeliverModeMailAddress"
    ],
    "clipbounds": true,
    "containerweight": 100,
    "enablescrolling": true,
    "id": "flxDeliverModeMailAddress",
    "ide_onClick": "AS_FlexContainer_cd2ada5379164cf9a63516e05945eaaf",
    "info": null,
    "isvisible": true,
    "kuid": "e8974f131f444620b7d6392dcb9517b5",
    "layouttype": 2,
    "name": "kony.ui.FlexContainer",
    "parent": "flxDeliveryMode",
    "pf": "frmApplyNewCardsKA",
    "snapgridsize": 10,
    "snaptogrid": true,
    "wType": "FlexContainer",
    "widgetalignment": 1,
    "zindex": 1
}