{
    "@class": "com.kony.gen.viz.model.component.KVizLabel",
    "DNDConfig": null,
    "__parentReadjusting__": false,
    "_height_": {
        "type": "ref",
        "value": "preferred"
    },
    "_left_": {
        "type": "string",
        "value": "5.00%"
    },
    "_margin_": [
        1,
        1,
        1,
        1
    ],
    "_padding_": [
        0,
        0,
        0,
        0
    ],
    "_skin_": "s3e38c3b08064a5bad08cd27b50c7aaf",
    "_text_": "From",
    "_top_": {
        "type": "string",
        "value": "0%"
    },
    "_width_": {
        "type": "ref",
        "value": "preferred"
    },
    "_wrapping_": 2,
    "android": {
        "textStyle": {
            "letterSpacing": 0,
            "strikeThrough": false
        }
    },
    "canUpdateUI": true,
    "containerweight": 100,
    "contentalignment": 5,
    "id": "CopyLabel0ief60611be0e42",
    "info": null,
    "ipad": {
        "psp": {
            "wrapping": 2
        }
    },
    "iphone": {
        "psp": {
            "wrapping": 2
        }
    },
    "isvisible": true,
    "kuid": "dcd145014aef48a7822d89298f797957",
    "name": "kony.ui.Label",
    "paddinginpixel": false,
    "parent": "CopyFlexContainer0c481c34c5bb540",
    "pf": "frmFilterTransaction",
    "texti18n": "i18n.cashWithdraw.from",
    "tooltip": "",
    "wType": "Label",
    "zindex": 1
}