{
  "android": {
    "font_size": 50,
    "isForked": false
  },
  "background_color": "00000000",
  "bg_type": "one",
  "border_color": "424242ff",
  "border_style": "plain",
  "border_type": 0,
  "border_width": 0,
  "desktopweb": {
    "font_size": 131,
    "isForked": false
  },
  "fontSizeInPx": true,
  "font_color": "ffffffcc",
  "font_name": "System",
  "font_size": 75,
  "font_style": "normal",
  "font_weight": "normal",
  "ipad": {
    "font_size": 75,
    "isForked": false
  },
  "iphone": {
    "font_size": 75,
    "isForked": false
  },
  "isDefaultSkin": false,
  "kiosk": {
    "font_size": 131,
    "isForked": false
  },
  "kuid": "sa7a5b662f7f4128bcbbe52b05defdfe",
  "spaan": {
    "font_size": 70,
    "isForked": false
  },
  "spaandroidtablet": {
    "font_size": 66,
    "isForked": false
  },
  "spabb": {
    "font_size": 88,
    "isForked": false
  },
  "spaip": {
    "font_size": 75,
    "isForked": false
  },
  "spaipad": {
    "font_size": 62,
    "isForked": false
  },
  "spawindowstablet": {
    "font_size": 62,
    "isForked": false
  },
  "spawinphone8": {
    "font_size": 88,
    "isForked": false
  },
  "tabrcandroid": {
    "font_size": 124,
    "isForked": false
  },
  "wType": "Label",
  "watchos": {
    "font_name": "Cairo-Regular",
    "font_size": 75,
    "isForked": false
  },
  "windows8": {
    "font_size": 51,
    "isForked": false
  },
  "winphone8": {
    "font_size": 70,
    "isForked": false
  }
}