{
  "background_color": "ffffff00",
  "bg_type": "one",
  "border_color": "282828ff",
  "border_style": "plain",
  "border_type": 0,
  "border_width": 0,
  "font_color": "555555fc",
  "font_name": "Cairo-Regular",
  "font_size": 125,
  "font_style": "normal",
  "font_weight": "normal",
  "isDefaultSkin": false,
  "kuid": "s9eb541dbfab4d7587ddefc0c57acef3",
  "wType": "TextField"
}