{
  "android": {
    "font_name": "Lato-Regular",
    "font_size": 107,
    "isForked": false
  },
  "background_color": "ffffffff",
  "bg_type": "one",
  "border_color": "4545454c",
  "border_style": "plain",
  "border_type": 0,
  "border_width": 1,
  "desktopweb": {
    "font_size": 107,
    "isForked": false
  },
  "fontSizeInPx": false,
  "font_color": "2f2f2fff",
  "font_name": "Cairo-Regular",
  "font_size": 107,
  "font_style": "normal",
  "font_weight": "normal",
  "ipad": {
    "font_size": 107,
    "isForked": false
  },
  "iphone": {
    "font_name": "Lato-Regular",
    "font_size": 107,
    "isForked": false
  },
  "isDefaultSkin": false,
  "kiosk": {
    "font_size": 107,
    "isForked": false
  },
  "kuid": "s903dcabd0eb49d6a40e3a48cbde67b0",
  "spaan": {
    "font_size": 107,
    "isForked": false
  },
  "spaandroidtablet": {
    "font_size": 107,
    "isForked": false
  },
  "spabb": {
    "font_size": 107,
    "isForked": false
  },
  "spaip": {
    "font_size": 107,
    "isForked": false
  },
  "spaipad": {
    "font_size": 107,
    "isForked": false
  },
  "spawindowstablet": {
    "font_size": 107,
    "isForked": false
  },
  "spawinphone8": {
    "font_size": 107,
    "isForked": false
  },
  "tabrcandroid": {
    "font_size": 107,
    "isForked": false
  },
  "wType": "ListBox",
  "watchos": {
    "font_size": 107,
    "isForked": false
  },
  "windows8": {
    "font_size": 107,
    "isForked": false
  },
  "winphone8": {
    "font_size": 107,
    "isForked": false
  }
}