{
  "android": {
    "background_color": "ffffff00",
    "bg_type": "one",
    "border_color": "28282800",
    "border_style": "rc",
    "border_type": 0,
    "font_color": "ffffffff",
    "font_name": "Cairo-Regular",
    "font_size": 100,
    "isForked": true
  },
  "background_gradient_bottom_color": "10728eff",
  "background_gradient_top_color": "04334aff",
  "background_style": "vg",
  "bg_type": "two",
  "border_color": "282828ff",
  "border_style": "plain",
  "border_type": 0,
  "border_width": 1,
  "desktopweb": {
    "background_color": "ffffff00",
    "bg_type": "one",
    "bottom_left_border_color": "282828ff",
    "bottom_left_border_style": "plain",
    "bottom_left_border_width": 1,
    "bottom_right_border_color": "282828ff",
    "bottom_right_border_style": "plain",
    "bottom_right_border_width": 1,
    "font_color": "ffffffff",
    "font_size": 100,
    "isForked": true,
    "top_left_border_color": "282828ff",
    "top_left_border_style": "plain",
    "top_left_border_width": 1,
    "top_right_border_color": "282828ff",
    "top_right_border_style": "plain",
    "top_right_border_width": 1
  },
  "font_color": "555555ff",
  "font_name": "Cairo-Regular",
  "font_size": 125,
  "ipad": {
    "background_color": "ffffff00",
    "bg_type": "one",
    "border_color": "28282800",
    "border_style": "rc",
    "border_type": 0,
    "font_color": "ffffffff",
    "font_size": 100,
    "isForked": true
  },
  "iphone": {
    "background_color": "ffffff00",
    "bg_type": "one",
    "border_color": "28282800",
    "border_style": "rc",
    "border_type": 0,
    "font_color": "ffffffff",
    "font_name": "Cairo-Regular",
    "font_size": 100,
    "isForked": true
  },
  "isDefaultSkin": false,
  "kiosk": {
    "background_color": "ffffff00",
    "bg_type": "one",
    "border_color": "28282800",
    "border_style": "rc",
    "border_type": 0,
    "font_color": "ffffffff",
    "font_size": 100,
    "isForked": true
  },
  "kuid": "sed1ccc5448d4856931852c61477a78b",
  "spaan": {
    "background_color": "ffffff00",
    "bg_type": "one",
    "bottom_left_border_color": "282828ff",
    "bottom_left_border_style": "plain",
    "bottom_left_border_width": 1,
    "bottom_right_border_color": "282828ff",
    "bottom_right_border_style": "plain",
    "bottom_right_border_width": 1,
    "font_color": "ffffffff",
    "font_size": 100,
    "isForked": true,
    "top_left_border_color": "282828ff",
    "top_left_border_style": "plain",
    "top_left_border_width": 1,
    "top_right_border_color": "282828ff",
    "top_right_border_style": "plain",
    "top_right_border_width": 1
  },
  "spaandroidtablet": {
    "background_color": "ffffff00",
    "bg_type": "one",
    "bottom_left_border_color": "282828ff",
    "bottom_left_border_style": "plain",
    "bottom_left_border_width": 1,
    "bottom_right_border_color": "282828ff",
    "bottom_right_border_style": "plain",
    "bottom_right_border_width": 1,
    "font_color": "ffffffff",
    "font_size": 100,
    "isForked": true,
    "top_left_border_color": "282828ff",
    "top_left_border_style": "plain",
    "top_left_border_width": 1,
    "top_right_border_color": "282828ff",
    "top_right_border_style": "plain",
    "top_right_border_width": 1
  },
  "spabb": {
    "background_color": "ffffff00",
    "bg_type": "one",
    "bottom_left_border_color": "282828ff",
    "bottom_left_border_style": "plain",
    "bottom_left_border_width": 1,
    "bottom_right_border_color": "282828ff",
    "bottom_right_border_style": "plain",
    "bottom_right_border_width": 1,
    "font_color": "ffffffff",
    "font_size": 100,
    "isForked": true,
    "top_left_border_color": "282828ff",
    "top_left_border_style": "plain",
    "top_left_border_width": 1,
    "top_right_border_color": "282828ff",
    "top_right_border_style": "plain",
    "top_right_border_width": 1
  },
  "spaip": {
    "background_color": "ffffff00",
    "bg_type": "one",
    "bottom_left_border_color": "282828ff",
    "bottom_left_border_style": "plain",
    "bottom_left_border_width": 1,
    "bottom_right_border_color": "282828ff",
    "bottom_right_border_style": "plain",
    "bottom_right_border_width": 1,
    "font_color": "ffffffff",
    "font_size": 100,
    "isForked": true,
    "top_left_border_color": "282828ff",
    "top_left_border_style": "plain",
    "top_left_border_width": 1,
    "top_right_border_color": "282828ff",
    "top_right_border_style": "plain",
    "top_right_border_width": 1
  },
  "spaipad": {
    "background_color": "ffffff00",
    "bg_type": "one",
    "bottom_left_border_color": "282828ff",
    "bottom_left_border_style": "plain",
    "bottom_left_border_width": 1,
    "bottom_right_border_color": "282828ff",
    "bottom_right_border_style": "plain",
    "bottom_right_border_width": 1,
    "font_color": "ffffffff",
    "font_size": 100,
    "isForked": true,
    "top_left_border_color": "282828ff",
    "top_left_border_style": "plain",
    "top_left_border_width": 1,
    "top_right_border_color": "282828ff",
    "top_right_border_style": "plain",
    "top_right_border_width": 1
  },
  "spawindowstablet": {
    "background_color": "ffffff00",
    "bg_type": "one",
    "bottom_left_border_color": "282828ff",
    "bottom_left_border_style": "plain",
    "bottom_left_border_width": 1,
    "bottom_right_border_color": "282828ff",
    "bottom_right_border_style": "plain",
    "bottom_right_border_width": 1,
    "font_color": "ffffffff",
    "font_size": 100,
    "isForked": true,
    "top_left_border_color": "282828ff",
    "top_left_border_style": "plain",
    "top_left_border_width": 1,
    "top_right_border_color": "282828ff",
    "top_right_border_style": "plain",
    "top_right_border_width": 1
  },
  "spawinphone8": {
    "background_color": "ffffff00",
    "bg_type": "one",
    "bottom_left_border_color": "282828ff",
    "bottom_left_border_style": "plain",
    "bottom_left_border_width": 1,
    "bottom_right_border_color": "282828ff",
    "bottom_right_border_style": "plain",
    "bottom_right_border_width": 1,
    "font_color": "ffffffff",
    "font_size": 100,
    "isForked": true,
    "top_left_border_color": "282828ff",
    "top_left_border_style": "plain",
    "top_left_border_width": 1,
    "top_right_border_color": "282828ff",
    "top_right_border_style": "plain",
    "top_right_border_width": 1
  },
  "tabrcandroid": {
    "background_color": "ffffff00",
    "bg_type": "one",
    "border_color": "28282800",
    "border_style": "rc",
    "border_type": 0,
    "font_color": "ffffffff",
    "font_size": 100,
    "isForked": true
  },
  "wType": "TextField",
  "windows8": {
    "background_color": "ffffff00",
    "bg_type": "one",
    "border_color": "28282800",
    "border_style": "rc",
    "border_type": 0,
    "font_color": "ffffffff",
    "font_size": 100,
    "isForked": true
  },
  "winphone8": {
    "background_color": "ffffff00",
    "bg_type": "one",
    "border_color": "28282800",
    "border_style": "rc",
    "border_type": 0,
    "font_color": "ffffffff",
    "font_size": 100,
    "isForked": true
  }
}