{
  "background_color": "fff0ff00",
  "bg_type": "one",
  "border_color": "000000ff",
  "border_style": "plain",
  "border_type": 0,
  "border_width": 0,
  "isDefaultSkin": false,
  "kuid": "s67ba6bc30384e038fcfab7ce9650310",
  "wType": "FlexContainer"
}