{
  "background_image": "account1.png",
  "bg_type": "image",
  "border_color": "000000ff",
  "border_style": "plain",
  "border_type": 0,
  "border_width": 0,
  "isDefaultSkin": false,
  "kuid": "sfa46f72c45b4511a6d2c3b40ba4c344",
  "wType": "FlexContainer"
}