{
  "background_color": "ffffff00",
  "bg_type": "one",
  "border_color": "ffffffff",
  "border_radius": 100,
  "border_style": "custom",
  "border_type": 0,
  "border_width": 4,
  "isDefaultSkin": false,
  "kuid": "s9e642c2914442149fc3cf66b2f0cc84",
  "wType": "FlexContainer"
}