{
  "background_color": "ed3251ff",
  "bg_type": "one",
  "border_color": "000000ff",
  "border_style": "plain",
  "border_type": 0,
  "border_width": 0,
  "isDefaultSkin": false,
  "kuid": "s7a85dd6127a45a9a41518f86c29447d",
  "wType": "FlexContainer"
}