{
  "background_color": "20c6c4ff",
  "bg_type": "one",
  "border_color": "000000ff",
  "border_style": "plain",
  "border_type": 0,
  "border_width": 0,
  "isDefaultSkin": false,
  "kuid": "s12c63de42f142b69073da390ec0a881",
  "wType": "FlexContainer"
}