{
  "background_color": "093759ff",
  "bg_type": "one",
  "border_color": "ffffff7f",
  "border_style": "rc",
  "border_type": 0,
  "border_width": 1,
  "isDefaultSkin": false,
  "kuid": "s8d43d35e2224db79245d22b7d62c781",
  "wType": "FlexContainer"
}