{
  "android": {
    "font_name": "BOJFont2",
    "font_size": 205,
    "isForked": false
  },
  "background_color": "00000000",
  "bg_type": "one",
  "border_color": "ffffff7f",
  "border_style": "rc",
  "border_type": 0,
  "border_width": 1,
  "desktopweb": {
    "font_name": "Andale Mono",
    "font_size": 205,
    "isForked": false
  },
  "fontSizeInPx": false,
  "font_color": "ffffffff",
  "font_name": "Cairo-Regular",
  "font_size": 205,
  "font_style": "normal",
  "font_weight": "normal",
  "ipad": {
    "font_name": "AmericanTypewriter",
    "font_size": 205,
    "isForked": false
  },
  "iphone": {
    "font_name": "BOJFont2",
    "font_size": 205,
    "isForked": false
  },
  "isDefaultSkin": false,
  "kiosk": {
    "font_name": "GenericMonospace",
    "font_size": 205,
    "isForked": false
  },
  "kuid": "s58664994ce748af9b4d00c76a47abab",
  "spaan": {
    "font_name": "Andale Mono",
    "font_size": 205,
    "isForked": false
  },
  "spaandroidtablet": {
    "font_name": "Andale Mono",
    "font_size": 205,
    "isForked": false
  },
  "spabb": {
    "font_name": "Andale Mono",
    "font_size": 205,
    "isForked": false
  },
  "spaip": {
    "font_name": "Andale Mono",
    "font_size": 205,
    "isForked": false
  },
  "spaipad": {
    "font_name": "Andale Mono",
    "font_size": 205,
    "isForked": false
  },
  "spawindowstablet": {
    "font_name": "Andale Mono",
    "font_size": 205,
    "isForked": false
  },
  "spawinphone8": {
    "font_name": "Andale Mono",
    "font_size": 205,
    "isForked": false
  },
  "tabrcandroid": {
    "font_name": "BoJFont",
    "font_size": 205,
    "isForked": false
  },
  "wType": "Label",
  "watchos": {
    "font_name": "Cairo-Regular",
    "font_size": 205,
    "isForked": false
  },
  "windows8": {
    "font_name": "GenericMonospace",
    "font_size": 205,
    "isForked": false
  },
  "winphone8": {
    "font_name": "GenericMonospace",
    "font_size": 205,
    "isForked": false
  }
}