{
  "background_color": "f7f7f700",
  "bg_type": "one",
  "border_color": "000000ff",
  "border_style": "plain",
  "border_type": 0,
  "border_width": 0,
  "isDefaultSkin": false,
  "kuid": "s7b7322c5a14405db96d86ccd21ad81c",
  "wType": "FlexContainer"
}