{
  "background_color": "ffffff00",
  "bg_type": "one",
  "border_color": "eeeeeeff",
  "border_style": "plain",
  "border_type": 0,
  "border_width": 0,
  "isDefaultSkin": false,
  "kuid": "s8cd9ea284d34815950255c0d8d00ec3",
  "wType": "FlexContainer"
}