{
  "background_color": "9060b7ff",
  "bg_type": "one",
  "border_color": "000000ff",
  "border_style": "plain",
  "border_type": 0,
  "border_width": 0,
  "isDefaultSkin": false,
  "kuid": "s6830a326db34951aa109e03ab09eb7c",
  "wType": "FlexContainer"
}