{
  "background_color": "f7f7f7ff",
  "bg_type": "one",
  "border_color": "000000ff",
  "border_style": "plain",
  "border_type": 0,
  "border_width": 0,
  "isDefaultSkin": false,
  "kuid": "s1a10cf162e14b9d92b16a07335b894e",
  "wType": "FlexContainer"
}