{
  "background_color": "00000033",
  "bg_type": "one",
  "border_color": "000000ff",
  "border_style": "plain",
  "border_type": 0,
  "border_width": 0,
  "isDefaultSkin": false,
  "kuid": "s737e9804d324fd4ae331b4da38aa57f",
  "wType": "FlexContainer"
}