{
  "background_color": "fafafaff",
  "bg_type": "one",
  "border_color": "000000ff",
  "border_style": "plain",
  "border_type": 0,
  "border_width": 0,
  "isDefaultSkin": false,
  "kuid": "s68c6a00fb1440c7ad8eafdfa9e188cf",
  "wType": "FlexContainer"
}