{
  "background_color": "f7f7f700",
  "bg_type": "one",
  "border_color": "ffffffcc",
  "border_style": "rc",
  "border_type": 0,
  "border_width": 1,
  "isDefaultSkin": false,
  "kuid": "s9f04a0f23cd487fa9c9c65c5b2d9594",
  "wType": "FlexContainer"
}