{
  "background_color": "dbdbdbff",
  "bg_type": "one",
  "border_color": "000000ff",
  "border_style": "plain",
  "border_type": 0,
  "border_width": 0,
  "isDefaultSkin": false,
  "kuid": "s5edc6e07c9a4d44b6a76b1bd480e0d9",
  "wType": "FlexScrollContainer"
}