{
  "android": {
    "font_name": "Cairo-Regular",
    "font_size": 80,
    "isForked": false
  },
  "background_color": "ffffff00",
  "bg_type": "one",
  "border_color": "424242ff",
  "border_style": "plain",
  "border_type": 0,
  "border_width": 0,
  "desktopweb": {
    "font_name": "Andale Mono",
    "font_size": 80,
    "isForked": false
  },
  "fontSizeInPx": false,
  "font_color": "cc6210ff",
  "font_name": "Cairo-Regular",
  "font_size": 80,
  "font_style": "normal",
  "font_weight": "normal",
  "ipad": {
    "font_name": "AmericanTypewriter",
    "font_size": 80,
    "isForked": false
  },
  "iphone": {
    "font_name": "Cairo-Regular",
    "font_size": 80,
    "isForked": false
  },
  "isDefaultSkin": false,
  "kiosk": {
    "font_name": "GenericMonospace",
    "font_size": 80,
    "isForked": false
  },
  "kuid": "sbb9b8b75b184d338913d99e7c0d4a59",
  "spaan": {
    "font_name": "Andale Mono",
    "font_size": 80,
    "isForked": false
  },
  "spaandroidtablet": {
    "font_name": "Andale Mono",
    "font_size": 80,
    "isForked": false
  },
  "spabb": {
    "font_name": "Andale Mono",
    "font_size": 80,
    "isForked": false
  },
  "spaip": {
    "font_name": "Andale Mono",
    "font_size": 80,
    "isForked": false
  },
  "spaipad": {
    "font_name": "Andale Mono",
    "font_size": 80,
    "isForked": false
  },
  "spawindowstablet": {
    "font_name": "Andale Mono",
    "font_size": 80,
    "isForked": false
  },
  "spawinphone8": {
    "font_name": "Andale Mono",
    "font_size": 80,
    "isForked": false
  },
  "tabrcandroid": {
    "font_name": "BoJFont",
    "font_size": 80,
    "isForked": false
  },
  "wType": "Label",
  "watchos": {
    "font_name": "Cairo-Regular",
    "font_size": 80,
    "isForked": false
  },
  "windows8": {
    "font_name": "GenericMonospace",
    "font_size": 80,
    "isForked": false
  },
  "winphone8": {
    "font_name": "GenericMonospace",
    "font_size": 80,
    "isForked": false
  }
}