{
  "background_image": "active.png",
  "bg_type": "image",
  "border_color": "000000ff",
  "border_style": "plain",
  "border_type": 0,
  "border_width": 0,
  "isDefaultSkin": false,
  "kuid": "s4b78ebf633946359c2ad9b5616085ef",
  "wType": "FlexContainer"
}