{
  "background_color": "3a3a4dff",
  "bg_type": "one",
  "border_color": "ffffff00",
  "border_radius": 100,
  "border_style": "custom",
  "border_type": 0,
  "border_width": 1,
  "isDefaultSkin": false,
  "kuid": "sd540cf6b69c4d198f7e94a001c190a9",
  "wType": "FlexContainer"
}