{
  "background_color": "d5d5d5ff",
  "bg_type": "one",
  "border_color": "000000ff",
  "border_style": "plain",
  "border_type": 0,
  "border_width": 0,
  "isDefaultSkin": false,
  "kuid": "s03ed84cd6ca4f18aac795592521b334",
  "wType": "FlexContainer"
}