{
  "background_color": "000000b2",
  "bg_type": "one",
  "border_color": "000000ff",
  "border_style": "plain",
  "border_type": 0,
  "border_width": 0,
  "isDefaultSkin": false,
  "kuid": "s63b37b6ac604fda8936d512a5f40fa0",
  "wType": "FlexContainer"
}