{
  "background_color": "05214acc",
  "bg_type": "one",
  "border_color": "000000ff",
  "border_style": "plain",
  "border_type": 0,
  "border_width": 0,
  "isDefaultSkin": false,
  "kuid": "sb70d714b9cd41a4af554862845cd30c",
  "wType": "FlexContainer"
}