{
  "background_color": "ffffff19",
  "bg_type": "one",
  "border_color": "ffffff19",
  "border_radius": 50,
  "border_style": "custom",
  "border_type": 0,
  "border_width": 1,
  "isDefaultSkin": false,
  "kuid": "sce883b60f2f4c2f949263d9860a96cf",
  "wType": "FlexContainer"
}