{
  "background_color": "00000000",
  "bg_type": "one",
  "border_color": "000000ff",
  "border_style": "plain",
  "border_type": 0,
  "border_width": 0,
  "isDefaultSkin": false,
  "kuid": "scb5e0a306aa4f1ebc927ed221428e36",
  "wType": "FlexContainer"
}