{
  "background_color": "ffffff7f",
  "bg_type": "one",
  "border_color": "000000ff",
  "border_style": "plain",
  "border_type": 0,
  "border_width": 0,
  "isDefaultSkin": false,
  "kuid": "s0aea66c35994ab2adffaa4bc4642e8e",
  "wType": "FlexContainer"
}