{
  "background_color": "94949400",
  "bg_type": "one",
  "border_color": "02acd838",
  "border_radius": 100,
  "border_style": "custom",
  "border_type": 0,
  "border_width": 1,
  "isDefaultSkin": false,
  "kuid": "s414e69da37546e3b7860fb763b8dee7",
  "wType": "FlexContainer"
}