{
  "background_image": "loansd.png",
  "bg_type": "image",
  "border_color": "000000ff",
  "border_style": "plain",
  "border_type": 0,
  "border_width": 0,
  "isDefaultSkin": false,
  "kuid": "sff7d0ed58e44be5ae5f0f811610245f",
  "wType": "FlexScrollContainer"
}