{
  "background_color": "8080807f",
  "bg_type": "one",
  "border_color": "000000ff",
  "border_style": "plain",
  "border_type": 0,
  "border_width": 0,
  "isDefaultSkin": false,
  "kuid": "sff7a2d96d104935b4989dcacac39631",
  "wType": "FlexContainer"
}