{
  "background_color": "093759ff",
  "bg_type": "one",
  "border_color": "000000ff",
  "border_style": "plain",
  "border_type": 0,
  "border_width": 0,
  "isDefaultSkin": false,
  "kuid": "sb241cb9a340467cab31a8acd1f999ae",
  "wType": "HBox"
}