{
  "background_color": "072c4899",
  "bg_type": "one",
  "border_color": "072c48ff",
  "border_style": "plain",
  "border_type": 0,
  "border_width": 0,
  "isDefaultSkin": false,
  "kuid": "s71c68eb37dd4b0cbfe3b7b544f27b63",
  "wType": "FlexContainer"
}