{
  "android": {
    "font_name": "Lato-Light"
  },
  "background_color": "ffffff00",
  "bg_type": "one",
  "border_color": "282828ff",
  "border_style": "plain",
  "border_type": 0,
  "border_width": 0,
  "desktopweb": {
    "font_name": "Cairo-Regular"
  },
  "font_color": "ffffffff",
  "font_name": "",
  "font_size": 107,
  "font_style": "normal",
  "font_weight": "normal",
  "ipad": {
    "font_name": "Lato-Light"
  },
  "iphone": {
    "font_name": "Lato-Light"
  },
  "isDefaultSkin": false,
  "kiosk": {
    "font_name": "GenericMonospace"
  },
  "kuid": "sa553cd2e37a454d99f55466e489f5a4",
  "spaan": {
    "font_name": "Cairo-Regular"
  },
  "spaandroidtablet": {
    "font_name": "Cairo-Regular"
  },
  "spabb": {
    "font_name": "Cairo-Regular"
  },
  "spaip": {
    "font_name": "Cairo-Regular"
  },
  "spaipad": {
    "font_name": "Cairo-Regular"
  },
  "spawindowstablet": {
    "font_name": "Cairo-Regular"
  },
  "spawinphone8": {
    "font_name": "Cairo-Regular"
  },
  "tabrcandroid": {
    "font_name": "Lato-Light"
  },
  "wType": "TextField",
  "windows8": {
    "font_name": "GenericMonospace"
  },
  "winphone8": {
    "font_name": "GenericMonospace"
  }
}