{
  "android": {
    "background_color": "75737500",
    "bg_type": "one",
    "font_color": "757575ff",
    "font_name": "Cairo-Light",
    "font_size": 110,
    "isForked": true
  },
  "background_color": "00000000",
  "bg_type": "one",
  "border_color": "424242ff",
  "border_style": "plain",
  "border_type": 0,
  "border_width": 0,
  "desktopweb": {
    "background_color": "75737500",
    "bg_type": "one",
    "font_color": "757575ff",
    "font_size": 110,
    "isForked": true
  },
  "fontSizeInPx": false,
  "font_color": "ffffffff",
  "font_name": "Cairo-Regular",
  "font_size": 190,
  "font_style": "normal",
  "font_weight": "normal",
  "ipad": {
    "background_color": "75737500",
    "bg_type": "one",
    "font_color": "757575ff",
    "font_size": 110,
    "isForked": true
  },
  "iphone": {
    "background_color": "75737500",
    "bg_type": "one",
    "font_color": "757575ff",
    "font_name": "Cairo-Light",
    "font_size": 110,
    "isForked": true
  },
  "isDefaultSkin": false,
  "kiosk": {
    "background_color": "75737500",
    "bg_type": "one",
    "font_color": "757575ff",
    "font_size": 110,
    "isForked": true
  },
  "kuid": "sa45a9ea577c4e9785afbe33ec1cca63",
  "spaan": {
    "background_color": "75737500",
    "bg_type": "one",
    "font_color": "757575ff",
    "font_size": 110,
    "isForked": true
  },
  "spaandroidtablet": {
    "background_color": "75737500",
    "bg_type": "one",
    "font_color": "757575ff",
    "font_size": 110,
    "isForked": true
  },
  "spabb": {
    "background_color": "75737500",
    "bg_type": "one",
    "font_color": "757575ff",
    "font_size": 110,
    "isForked": true
  },
  "spaip": {
    "background_color": "75737500",
    "bg_type": "one",
    "font_color": "757575ff",
    "font_size": 110,
    "isForked": true
  },
  "spaipad": {
    "background_color": "75737500",
    "bg_type": "one",
    "font_color": "757575ff",
    "font_size": 110,
    "isForked": true
  },
  "spawindowstablet": {
    "background_color": "75737500",
    "bg_type": "one",
    "font_color": "757575ff",
    "font_size": 110,
    "isForked": true
  },
  "spawinphone8": {
    "background_color": "75737500",
    "bg_type": "one",
    "font_color": "757575ff",
    "font_size": 110,
    "isForked": true
  },
  "tabrcandroid": {
    "background_color": "75737500",
    "bg_type": "one",
    "font_color": "757575ff",
    "font_size": 110,
    "isForked": true
  },
  "wType": "Label",
  "watchos": {
    "font_color": "757575ff",
    "font_size": 110,
    "isForked": true
  },
  "windows8": {
    "background_color": "75737500",
    "bg_type": "one",
    "font_color": "757575ff",
    "font_size": 110,
    "isForked": true
  },
  "winphone8": {
    "background_color": "75737500",
    "bg_type": "one",
    "font_color": "757575ff",
    "font_size": 110,
    "isForked": true
  }
}