{
  "background_color": "072c48ff",
  "bg_type": "one",
  "border_color": "072c48ff",
  "border_style": "plain",
  "border_type": 0,
  "border_width": 0,
  "isDefaultSkin": false,
  "kuid": "sb95ee38cbe14aafaabd48a4ed2fc794",
  "wType": "FlexContainer"
}