{
  "android": {
    "font_name": "Lato-Regular",
    "font_size": 93,
    "isForked": false
  },
  "background_color": "ffffffff",
  "bg_type": "one",
  "border_color": "282828ff",
  "border_style": "plain",
  "border_type": 0,
  "border_width": 0,
  "desktopweb": {
    "font_name": "Cairo-Regular",
    "font_size": 93,
    "isForked": false
  },
  "fontSizeInPx": false,
  "font_color": "9c989cff",
  "font_name": "",
  "font_size": 93,
  "ipad": {
    "font_name": "Lato-Light",
    "font_size": 93,
    "isForked": false
  },
  "iphone": {
    "font_name": "Lato-Regular",
    "font_size": 93,
    "isForked": false
  },
  "isDefaultSkin": false,
  "kiosk": {
    "font_name": "GenericMonospace",
    "font_size": 93,
    "isForked": false
  },
  "kuid": "s2e7229df1544ff4989935848d15f5c3",
  "spaan": {
    "font_name": "Cairo-Regular",
    "font_size": 93,
    "isForked": false
  },
  "spaandroidtablet": {
    "font_name": "Cairo-Regular",
    "font_size": 93,
    "isForked": false
  },
  "spabb": {
    "font_name": "Cairo-Regular",
    "font_size": 93,
    "isForked": false
  },
  "spaip": {
    "font_name": "Cairo-Regular",
    "font_size": 93,
    "isForked": false
  },
  "spaipad": {
    "font_name": "Cairo-Regular",
    "font_size": 93,
    "isForked": false
  },
  "spawindowstablet": {
    "font_name": "Cairo-Regular",
    "font_size": 93,
    "isForked": false
  },
  "spawinphone8": {
    "font_name": "Cairo-Regular",
    "font_size": 93,
    "isForked": false
  },
  "tabrcandroid": {
    "font_name": "Lato-Light",
    "font_size": 93,
    "isForked": false
  },
  "wType": "TextField",
  "watchos": {
    "font_size": 93,
    "isForked": false
  },
  "windows8": {
    "font_name": "GenericMonospace",
    "font_size": 93,
    "isForked": false
  },
  "winphone8": {
    "font_name": "GenericMonospace",
    "font_size": 93,
    "isForked": false
  }
}