{
  "android": {
    "font_name": "Lato-Regular",
    "font_size": 109,
    "isForked": false
  },
  "background_color": "30363f00",
  "bg_type": "one",
  "border_color": "424242ff",
  "border_style": "plain",
  "border_type": 0,
  "border_width": 0,
  "desktopweb": {
    "font_name": "Cairo-Regular",
    "font_size": 109,
    "isForked": false
  },
  "fontSizeInPx": false,
  "font_color": "5f5f5fff",
  "font_name": "",
  "font_size": 109,
  "font_style": "normal",
  "font_weight": "normal",
  "ipad": {
    "font_name": "Lato-Regular",
    "font_size": 109,
    "isForked": false
  },
  "iphone": {
    "font_name": "Lato-Regular",
    "font_size": 109,
    "isForked": false
  },
  "isDefaultSkin": false,
  "kiosk": {
    "font_name": "GenericMonospace",
    "font_size": 109,
    "isForked": false
  },
  "kuid": "s355bc5b45684f69bd81a75c58dd225c",
  "spaan": {
    "font_name": "Cairo-Regular",
    "font_size": 109,
    "isForked": false
  },
  "spaandroidtablet": {
    "font_name": "Cairo-Regular",
    "font_size": 109,
    "isForked": false
  },
  "spabb": {
    "font_name": "Cairo-Regular",
    "font_size": 109,
    "isForked": false
  },
  "spaip": {
    "font_name": "Cairo-Regular",
    "font_size": 109,
    "isForked": false
  },
  "spaipad": {
    "font_name": "Cairo-Regular",
    "font_size": 109,
    "isForked": false
  },
  "spawindowstablet": {
    "font_name": "Cairo-Regular",
    "font_size": 109,
    "isForked": false
  },
  "spawinphone8": {
    "font_name": "Cairo-Regular",
    "font_size": 109,
    "isForked": false
  },
  "tabrcandroid": {
    "font_name": "Lato-Regular",
    "font_size": 109,
    "isForked": false
  },
  "wType": "Label",
  "watchos": {
    "font_size": 109,
    "isForked": false
  },
  "windows8": {
    "font_name": "GenericMonospace",
    "font_size": 109,
    "isForked": false
  },
  "winphone8": {
    "font_name": "GenericMonospace",
    "font_size": 109,
    "isForked": false
  }
}