{
  "android": {
    "font_name": "Lato-Light",
    "font_size": 114,
    "isForked": false
  },
  "background_color": "ffffffff",
  "bg_type": "one",
  "border_color": "e2e2e2ff",
  "border_radius": 4,
  "border_style": "custom",
  "border_type": 0,
  "border_width": 1,
  "desktopweb": {
    "font_name": "Cairo-Regular",
    "font_size": 114,
    "isForked": false
  },
  "fontSizeInPx": false,
  "font_color": "3d3d3dff",
  "font_name": "",
  "font_size": 114,
  "font_style": "normal",
  "font_weight": "normal",
  "ipad": {
    "font_name": "Lato-Light",
    "font_size": 114,
    "isForked": false
  },
  "iphone": {
    "font_name": "Lato-Light",
    "font_size": 114,
    "isForked": false
  },
  "isDefaultSkin": false,
  "kiosk": {
    "font_name": "GenericMonospace",
    "font_size": 114,
    "isForked": false
  },
  "kuid": "sf5354ad881c43f0ae8a2ea9ef72f9e0",
  "spaan": {
    "font_name": "Cairo-Regular",
    "font_size": 114,
    "isForked": false
  },
  "spaandroidtablet": {
    "font_name": "Cairo-Regular",
    "font_size": 114,
    "isForked": false
  },
  "spabb": {
    "font_name": "Cairo-Regular",
    "font_size": 114,
    "isForked": false
  },
  "spaip": {
    "font_name": "Cairo-Regular",
    "font_size": 114,
    "isForked": false
  },
  "spaipad": {
    "font_name": "Cairo-Regular",
    "font_size": 114,
    "isForked": false
  },
  "spawindowstablet": {
    "font_name": "Cairo-Regular",
    "font_size": 114,
    "isForked": false
  },
  "spawinphone8": {
    "font_name": "Cairo-Regular",
    "font_size": 114,
    "isForked": false
  },
  "tabrcandroid": {
    "font_name": "Lato-Light",
    "font_size": 114,
    "isForked": false
  },
  "wType": "TextField",
  "watchos": {
    "font_size": 114,
    "isForked": false
  },
  "windows8": {
    "font_name": "GenericMonospace",
    "font_size": 114,
    "isForked": false
  },
  "winphone8": {
    "font_name": "GenericMonospace",
    "font_size": 114,
    "isForked": false
  }
}