{
  "background_color": "f0f0f0ff",
  "bg_type": "one",
  "border_color": "000000ff",
  "border_style": "plain",
  "border_type": 0,
  "border_width": 0,
  "isDefaultSkin": false,
  "kuid": "s62535ba0e414edf82fa4d0bafae7f5b",
  "wType": "FlexContainer"
}