{
  "background_color": "1fd1cfff",
  "bg_type": "one",
  "border_color": "1fd1cfff",
  "border_radius": 83,
  "border_style": "custom",
  "border_type": 0,
  "border_width": 1,
  "isDefaultSkin": false,
  "kuid": "s744b21faec747a1844f4c56e4994761",
  "wType": "FlexContainer"
}