{
  "android": {
    "font_name": "Lato-Regular",
    "font_size": 100,
    "isForked": false
  },
  "background_color": "00000000",
  "bg_type": "one",
  "border_color": "ccccccff",
  "border_style": "plain",
  "border_type": 0,
  "border_width": 0,
  "desktopweb": {
    "font_name": "Cairo-Regular",
    "font_size": 100,
    "isForked": false
  },
  "fontSizeInPx": false,
  "font_color": "30363fff",
  "font_name": "",
  "font_size": 100,
  "font_style": "normal",
  "font_weight": "normal",
  "ipad": {
    "font_name": "Lato-Regular",
    "font_size": 100,
    "isForked": false
  },
  "iphone": {
    "font_name": "Lato-Regular",
    "font_size": 100,
    "isForked": false
  },
  "isDefaultSkin": false,
  "kiosk": {
    "font_name": "GenericMonospace",
    "font_size": 100,
    "isForked": false
  },
  "kuid": "se5f6c7161ab46dc91f737f067c09255",
  "spaan": {
    "font_name": "Cairo-Regular",
    "font_size": 100,
    "isForked": false
  },
  "spaandroidtablet": {
    "font_name": "Cairo-Regular",
    "font_size": 100,
    "isForked": false
  },
  "spabb": {
    "font_name": "Cairo-Regular",
    "font_size": 100,
    "isForked": false
  },
  "spaip": {
    "font_name": "Cairo-Regular",
    "font_size": 100,
    "isForked": false
  },
  "spaipad": {
    "font_name": "Cairo-Regular",
    "font_size": 100,
    "isForked": false
  },
  "spawindowstablet": {
    "font_name": "Cairo-Regular",
    "font_size": 100,
    "isForked": false
  },
  "spawinphone8": {
    "font_name": "Cairo-Regular",
    "font_size": 100,
    "isForked": false
  },
  "tabrcandroid": {
    "font_name": "Lato-Regular",
    "font_size": 100,
    "isForked": false
  },
  "wType": "Calendar",
  "watchos": {
    "font_size": 100,
    "isForked": false
  },
  "windows8": {
    "font_name": "GenericMonospace",
    "font_size": 100,
    "isForked": false
  },
  "winphone8": {
    "font_name": "GenericMonospace",
    "font_size": 100,
    "isForked": false
  }
}