{
  "background_color": "072c4800",
  "bg_type": "one",
  "border_color": "ffffffff",
  "border_style": "plain",
  "border_type": 0,
  "border_width": 0,
  "isDefaultSkin": false,
  "kuid": "s286abffb3b04a0494762eef8dfb7aae",
  "wType": "FlexContainer"
}