{
  "background_color": "a7a7a7ff",
  "bg_type": "one",
  "border_color": "000000ff",
  "border_style": "plain",
  "border_type": 0,
  "border_width": 0,
  "isDefaultSkin": false,
  "kuid": "sf87aea6ff1c4288aaaf68c15ad7ff17",
  "wType": "Segment"
}