{
    "DNDConfig": null,
    "__parentReadjusting__": false,
    "_height_": {
        "type": "string",
        "value": "25dp"
    },
    "_margin_": [
        0,
        0,
        0,
        0
    ],
    "_orientation_": 6,
    "_padding_": [
        0,
        0,
        0,
        0
    ],
    "_percent_": true,
    "_right_": {
        "type": "string",
        "value": "2%"
    },
    "_skin_": "s5384c55ad894841ae78a8cff35309bf",
    "_width_": {
        "type": "string",
        "value": "44dp"
    },
    "allboxes": [],
    "autogrowmode": 0,
    "canUpdateUI": true,
    "centery": {
        "type": "string",
        "value": "49%"
    },
    "children": [
        "CopyflxRoundDBlue0j40e19dd87274a",
        "Copyflxlakeer0e8f83b92988f43"
    ],
    "clipbounds": true,
    "containerweight": 100,
    "enablescrolling": true,
    "id": "flxSwitchOff",
    "ide_onClick": "AS_FlexContainer_i8f4dea6e41041908d7fbd3569c1fe36",
    "info": null,
    "isvisible": true,
    "kuid": "d261809a5e0040e89318b46001d96a6d",
    "layouttype": 2,
    "name": "kony.ui.FlexContainer",
    "parent": "flxQuickBalanceSwitch",
    "pf": "frmAuthorizationAlternatives",
    "snapgridsize": 10,
    "snaptogrid": true,
    "wType": "FlexContainer",
    "widgetalignment": 1,
    "zindex": 1
}