{
    "DNDConfig": null,
    "__parentReadjusting__": false,
    "_height_": {
        "type": "string",
        "value": "25dp"
    },
    "_margin_": [
        0,
        0,
        0,
        0
    ],
    "_orientation_": 6,
    "_padding_": [
        0,
        0,
        0,
        0
    ],
    "_percent_": true,
    "_right_": {
        "type": "string",
        "value": "2%"
    },
    "_skin_": "s8cee9ddcb344024afcc0f0e0d2a9e37",
    "_width_": {
        "type": "string",
        "value": "44dp"
    },
    "allboxes": [],
    "autogrowmode": 0,
    "canUpdateUI": true,
    "centery": {
        "type": "string",
        "value": "50%"
    },
    "children": [
        "CopyflxRoundDBlueOff0ed98162cb87345",
        "CopyflxNaveenbhaiKiLakeer0b879f5d5aba342"
    ],
    "clipbounds": true,
    "containerweight": 100,
    "enablescrolling": true,
    "id": "flxSwitchOn",
    "ide_onClick": "AS_FlexContainer_a1f6c6f666db4f85a7469341d8131fab",
    "info": null,
    "isvisible": false,
    "kuid": "b1194c08b0f346c9af83a8bc6a03f0c9",
    "layouttype": 2,
    "name": "kony.ui.FlexContainer",
    "parent": "flxQuickBalanceSwitch",
    "pf": "frmAuthorizationAlternatives",
    "snapgridsize": 10,
    "snaptogrid": true,
    "wType": "FlexContainer",
    "widgetalignment": 1,
    "zindex": 1
}