{
    "@class": "com.kony.gen.viz.model.component.KVizButton",
    "DNDConfig": null,
    "__parentReadjusting__": false,
    "_height_": {
        "type": "string",
        "value": "50dp"
    },
    "_margin_": [
        6,
        6,
        6,
        6
    ],
    "_padding_": [
        0,
        0,
        0,
        14
    ],
    "_skin_": "s52b4bc4f8fb49de94a4a9b157b66ec1",
    "_text_": "G",
    "_width_": {
        "type": "string",
        "value": "100%"
    },
    "canUpdateUI": true,
    "centerx": {
        "type": "string",
        "value": "50%"
    },
    "centery": {
        "type": "string",
        "value": "50%"
    },
    "containerweight": 100,
    "contentalignment": 5,
    "disabledSkins": {},
    "displaytext": true,
    "focusskin": "sd291eaf83084ea781b9988b6f1fc66d",
    "id": "btnTransfers",
    "ide_onClick": "AS_Button_aaf9aa8718264031a4fb6426a9954c15",
    "info": null,
    "isvisible": true,
    "kuid": "gf8ed9eac6784b86bbc9dd0cd237521f",
    "name": "kony.ui.Button",
    "paddinginpixel": false,
    "parent": "FlxTranfers",
    "pf": "frmAddExternalAccountHome",
    "wType": "Button",
    "zindex": 1
}