{
    "DNDConfig": null,
    "__parentReadjusting__": false,
    "_height_": "35%",
    "_left_": "0dp",
    "_margin_": [
        0,
        0,
        0,
        0
    ],
    "_orientation_": 6,
    "_padding_": [
        0,
        0,
        0,
        0
    ],
    "_percent_": true,
    "_skin_": "s388f0c575ef4d08ac3a5ed0a4b90085",
    "_top_": {
        "type": "string",
        "value": "68%"
    },
    "_width_": "100%",
    "allboxes": [],
    "autogrowmode": 0,
    "canUpdateUI": true,
    "children": [
        "lblVal",
        "lblFromCurr",
        "lblToCurr",
        "lblEquals"
    ],
    "clipbounds": true,
    "containerweight": 100,
    "enablescrolling": true,
    "id": "flxConversionAmt",
    "info": null,
    "isvisible": false,
    "kuid": "c3c8cd9f569f40558b089aeef20a2239",
    "layouttype": 2,
    "name": "kony.ui.FlexContainer",
    "parent": "flxAmount",
    "pf": "frmBillsPal",
    "snapgridsize": 10,
    "snaptogrid": true,
    "wType": "FlexContainer",
    "widgetalignment": 1,
    "zindex": 1
}