{
    "@class": "com.kony.gen.viz.model.container.KVizSegment2",
    "DNDConfig": null,
    "__parentReadjusting__": false,
    "_data_": [
        {
            "ArrowR": {
                "@class": "com.viz.ide.model.segment.SimpleTextSegmentData",
                "text": "Label"
            },
            "lblCardCode": {
                "@class": "com.viz.ide.model.segment.SimpleTextSegmentData",
                "text": ""
            },
            "lblCardNum": {
                "@class": "com.viz.ide.model.segment.SimpleTextSegmentData",
                "text": "asbdkabsdkbasjkdbabsdjkbasjkdbkasbdkadbbsba"
            },
            "lblCardsType": {
                "@class": "com.viz.ide.model.segment.SimpleTextSegmentData",
                "text": "skfbaksdbkasbdkbajksbdkbaskd"
            },
            "lblIncommingRing": {
                "@class": "com.viz.ide.model.segment.SimpleTextSegmentData",
                "text": "s"
            },
            "lblN": {
                "@class": "com.viz.ide.model.segment.SimpleTextSegmentData",
                "text": "Label"
            },
            "lblPref": {
                "@class": "com.viz.ide.model.segment.SimpleTextSegmentData",
                "text": "Label"
            },
            "lblSH": {
                "@class": "com.viz.ide.model.segment.SimpleTextSegmentData",
                "text": "Label"
            }
        }
    ],
    "_height_": {
        "type": "string",
        "value": "80%"
    },
    "_indicator_": "none",
    "_left_": {
        "type": "string",
        "value": "0%"
    },
    "_margin_": [
        0,
        0,
        0,
        0
    ],
    "_orientation_": 2,
    "_padding_": [
        0,
        0,
        0,
        0
    ],
    "_top_": {
        "type": "string",
        "value": "0%"
    },
    "_width_": {
        "type": "string",
        "value": "100%"
    },
    "android": {
        "viewType": "tableview"
    },
    "autogrowmode": 0,
    "canUpdateUI": true,
    "containerweight": 100,
    "counter": "00",
    "editstyle": "none",
    "enablereordering": false,
    "focusedindex": null,
    "focuseditem": null,
    "groupcells": false,
    "hasSections": false,
    "id": "segReOrderAccounts",
    "ide_onRowClick": "AS_Segment_g46f0fd01dbb4fd29e8ab51d84edc283",
    "info": null,
    "ipad": {
        "psp": {
            "indicator": "rowselect"
        }
    },
    "iphone": {
        "psp": {
            "editStyle": "none",
            "indicator": "none",
            "showProgressIndicator": false
        },
        "viewType": "tableview"
    },
    "isvisible": true,
    "kuid": "ad7edc3f4bff4b35b3f0e497259258bd",
    "masterdata": {},
    "name": "kony.ui.SegmentedUI2",
    "needpageindicator": true,
    "pageoffdotimage": "pageoffdot.png",
    "pageondotimage": "pageondot.png",
    "paginationconfig": {
        "position": "bottom"
    },
    "parent": "FlexScrollContainer0aaefdaacee1040",
    "pf": "frmCardsListPreferences",
    "retainselection": false,
    "rowTemplateId": "bc2dba5f4d014fa8b982c0e080db1a22",
    "rowcounter": 0,
    "rowfocusskin": "s27c76e85b844e03945d12f1113a8f87",
    "rowskin": "s27c76e85b844e03945d12f1113a8f87",
    "rowtemplate": "flxCardsReOrderSettingsTmp",
    "screenlevelwidget": false,
    "seccounter": 0,
    "sectionHeaderTemplateId": null,
    "sectionheaderskin": "s67621b8a82d49f285da06b4f5a0c993",
    "selectedRows": null,
    "selectedState": false,
    "selectedindex": null,
    "selectedindices": null,
    "selecteditems": null,
    "selectedsectionindex": 0,
    "selectionbehavior": "default",
    "separatorcolor": "ffffff50",
    "separatorrequired": true,
    "separatorthickness": 2,
    "showprogressindicator": false,
    "showscrollbars": false,
    "viewtype": "tableview",
    "vizProps": {},
    "wType": "Segment",
    "widgetalignment": 5,
    "widgetdatamap": {
        "ArrowR": "ArrowR",
        "flxCardsReOrderSettingsTmp": "flxCardsReOrderSettingsTmp",
        "lblCardCode": "lblCardCode",
        "lblCardNum": "lblCardNum",
        "lblCardsType": "lblCardsType",
        "lblIncommingRing": "lblIncommingRing",
        "lblN": "lblN",
        "lblPref": "lblPref",
        "lblSH": "lblSH"
    },
    "zindex": 1
}