{
    "@class": "com.kony.gen.viz.model.component.KVizButton",
    "DNDConfig": null,
    "__parentReadjusting__": false,
    "_height_": {
        "type": "string",
        "value": "100%"
    },
    "_left_": {
        "type": "string",
        "value": "0%"
    },
    "_margin_": [
        6,
        6,
        6,
        6
    ],
    "_padding_": [
        0,
        0,
        0,
        0
    ],
    "_skin_": "s5253604489842bd8355e2612bbbf6f9",
    "_text_": "Weekly",
    "_top_": {
        "type": "string",
        "value": "0%"
    },
    "_width_": {
        "type": "string",
        "value": "34%"
    },
    "canUpdateUI": true,
    "containerweight": 100,
    "contentalignment": 5,
    "displaytext": true,
    "focusskin": "s5253604489842bd8355e2612bbbf6f9",
    "id": "btnWeekly",
    "ide_onClick": "AS_Button_d03cc2209df14854bc9dbd020e5fd4d7",
    "info": null,
    "isvisible": true,
    "kuid": "acdf90f02ae94362bf06bda759831ee3",
    "name": "kony.ui.Button",
    "parent": "flxToggle",
    "pf": "frmATMPOSLimit",
    "texti18n": "i18n.transfers.WeeklyOnce",
    "wType": "Button",
    "zindex": 1
}