{
    "DNDConfig": null,
    "__parentReadjusting__": false,
    "_height_": {
        "type": "string",
        "value": "2%"
    },
    "_left_": {
        "type": "string",
        "value": "2%"
    },
    "_margin_": [
        0,
        0,
        0,
        0
    ],
    "_orientation_": 6,
    "_padding_": [
        0,
        0,
        0,
        0
    ],
    "_percent_": true,
    "_skin_": "sbc33bfb6fda4fd69c548bf18787172b",
    "_top_": {
        "type": "string",
        "value": "93%"
    },
    "_width_": {
        "type": "string",
        "value": "100%"
    },
    "allboxes": [],
    "autogrowmode": 0,
    "canUpdateUI": true,
    "children": [],
    "clipbounds": true,
    "containerweight": 100,
    "enablescrolling": true,
    "id": "flxUnderlineServiceType",
    "info": null,
    "isvisible": true,
    "kuid": "b1ac9fd0c5e944b0a6a5a82268eed4ae",
    "layouttype": 2,
    "name": "kony.ui.FlexContainer",
    "parent": "flxServiceType",
    "pf": "frmAddNewPrePayeeKA",
    "snapgridsize": 10,
    "snaptogrid": true,
    "wType": "FlexContainer",
    "widgetalignment": 1,
    "zindex": 2
}