{
    "DNDConfig": null,
    "_height_": {
        "type": "string",
        "value": "100dp"
    },
    "_margin_": [
        0,
        0,
        0,
        0
    ],
    "_padding_": [
        0,
        0,
        0,
        0
    ],
    "_skin_": "s9c14c5cfa624594965bca8fa71d4023",
    "allboxes": [],
    "autogrowmode": 0,
    "canUpdateUI": true,
    "children": [
        "informationListDivider",
        "informationListIcon",
        "informationListLabel",
        "addressLine1",
        "addressLine2",
        "lblListStatus",
        "distanceLabel",
        "rightChevron1",
        "imgListStatus"
    ],
    "clipbounds": true,
    "containerId": true,
    "containerweight": 100,
    "enabled": false,
    "enablescrolling": true,
    "id": "flxListViewKA",
    "info": null,
    "isTemplate": true,
    "isvisible": true,
    "kuid": "09f002e7747a4cd09ad8445e45f46387",
    "layouttype": 2,
    "name": "kony.ui.FlexContainer",
    "orientation": 6,
    "parent": "segListViewKA",
    "percent": true,
    "pf": "segListViewKA",
    "snapgridsize": 10,
    "snaptogrid": true,
    "wType": "FlexContainer",
    "widgetalignment": 1
}