{
    "@class": "com.kony.gen.viz.model.component.KVizButton",
    "DNDConfig": null,
    "__parentReadjusting__": false,
    "_height_": {
        "type": "string",
        "value": "100%"
    },
    "_left_": {
        "type": "string",
        "value": "0%"
    },
    "_margin_": [
        6,
        6,
        6,
        6
    ],
    "_padding_": [
        0,
        0,
        0,
        0
    ],
    "_skin_": "scba750aa7f9473cadaf087f2356ea10",
    "_text_": "w",
    "_top_": {
        "type": "string",
        "value": "0%"
    },
    "_width_": {
        "type": "string",
        "value": "100%"
    },
    "canUpdateUI": true,
    "containerId": true,
    "containerweight": 100,
    "contentalignment": 5,
    "displaytext": true,
    "focusskin": "scba750aa7f9473cadaf087f2356ea10",
    "id": "btnDelete",
    "ide_onClick": "AS_Button_c1338012c1a347de81b7319a137d63ac",
    "info": null,
    "isvisible": true,
    "kuid": "cd6517b123de4e2b9eb4d290cb26e64f",
    "name": "kony.ui.Button",
    "parent": "flxButtonHolder",
    "pf": "segmanagecardlesstmplt",
    "wType": "Button",
    "zindex": 1
}