{
    "@class": "com.kony.gen.viz.model.component.KVizButton",
    "DNDConfig": null,
    "__parentReadjusting__": false,
    "_height_": {
        "type": "string",
        "value": "100%"
    },
    "_left_": {
        "type": "string",
        "value": "67%"
    },
    "_margin_": [
        6,
        6,
        6,
        6
    ],
    "_padding_": [
        0,
        0,
        0,
        0
    ],
    "_skin_": "s5253604489842bd8355e2612bbbf6f9",
    "_text_": "",
    "_top_": {
        "type": "string",
        "value": "0dp"
    },
    "_width_": {
        "type": "string",
        "value": "33%"
    },
    "canUpdateUI": true,
    "containerweight": 100,
    "contentalignment": 5,
    "displaytext": true,
    "focusskin": "s5253604489842bd8355e2612bbbf6f9",
    "id": "btnFAQ",
    "ide_onClick": "AS_Button_bca81f5826f1480bb1d7443a48538e49",
    "info": null,
    "iphone": {
        "psp": {
            "showProgressIndicator": false
        }
    },
    "isvisible": true,
    "kuid": "h6d16451248f4528b85906652aebc1f3",
    "name": "kony.ui.Button",
    "paddinginpixel": false,
    "parent": "searchInformation",
    "pf": "frmInformationKA",
    "showprogressindicator": false,
    "texti18n": "i18n.opening_account.faq",
    "wType": "Button",
    "zindex": 1
}