{
    "@class": "com.kony.gen.viz.model.component.KVizButton",
    "DNDConfig": null,
    "__parentReadjusting__": false,
    "_height_": {
        "type": "string",
        "value": "5%"
    },
    "_left_": {
        "type": "string",
        "value": "0dp"
    },
    "_margin_": [
        6,
        6,
        6,
        6
    ],
    "_padding_": [
        6,
        0,
        6,
        0
    ],
    "_skin_": "s41ab2049e944161b96e090abd294416",
    "_text_": "Show More",
    "_top_": {
        "type": "string",
        "value": "2%"
    },
    "_width_": {
        "type": "string",
        "value": "60%"
    },
    "canUpdateUI": true,
    "centerx": {
        "type": "string",
        "value": "50%"
    },
    "containerweight": 100,
    "contentalignment": 5,
    "displaytext": true,
    "focusskin": "s5253604489842bd8355e2612bbbf6f9",
    "id": "btnMoreOfferNews",
    "ide_onClick": "AS_Button_bcbee2b6fce0413481515a49daf386e6",
    "info": null,
    "isvisible": false,
    "kuid": "a272169d10904dbf9a709d2e3e00f0f3",
    "name": "kony.ui.Button",
    "paddinginpixel": false,
    "parent": "flxNewsSivaram",
    "pf": "frmInformationKA",
    "wType": "Button",
    "zindex": 2
}