{
    "DNDConfig": null,
    "_height_": {
        "type": "string",
        "value": "5%"
    },
    "_margin_": [
        0,
        0,
        0,
        0
    ],
    "_orientation_": 6,
    "_padding_": [
        0,
        0,
        0,
        0
    ],
    "_percent_": true,
    "_skin_": "sc5281c8ea3d42a595a1ab9e06519c11",
    "allboxes": [],
    "autogrowmode": 0,
    "canUpdateUI": true,
    "children": [
        "lblSectionName",
        "imgSection"
    ],
    "clipbounds": true,
    "containerId": true,
    "containerweight": 100,
    "enablescrolling": true,
    "id": "flxFAQSection",
    "info": null,
    "isvisible": true,
    "kuid": "fd3f0c46ed704901aad81a4a356c5b22",
    "layouttype": 2,
    "name": "kony.ui.FlexContainer",
    "parent": "segFAQSection",
    "pf": "segFAQSection",
    "snapgridsize": 10,
    "snaptogrid": true,
    "wType": "FlexContainer",
    "widgetalignment": 1
}