{
    "DNDConfig": null,
    "__parentReadjusting__": false,
    "_height_": {
        "type": "string",
        "value": "25dp"
    },
    "_margin_": [
        0,
        0,
        0,
        0
    ],
    "_orientation_": 6,
    "_padding_": [
        0,
        0,
        0,
        0
    ],
    "_percent_": true,
    "_right_": {
        "type": "string",
        "value": "5%"
    },
    "_skin_": "s8cee9ddcb344024afcc0f0e0d2a9e37",
    "_width_": {
        "type": "string",
        "value": "44dp"
    },
    "allboxes": [],
    "autogrowmode": 0,
    "canUpdateUI": true,
    "centery": {
        "type": "string",
        "value": "50%"
    },
    "children": [
        "flxInnerEnabled",
        "flxLineEnabled"
    ],
    "clipbounds": true,
    "containerId": true,
    "containerweight": 100,
    "enablescrolling": true,
    "focusskin": "s8cee9ddcb344024afcc0f0e0d2a9e37",
    "id": "flxLinkedAccountsEnable",
    "ide_onClick": "AS_FlexContainer_jb7a4cf3da704ce3a08694cac170d323",
    "info": null,
    "isvisible": false,
    "kuid": "c2c722849f8847ad874e3cf83749e3da",
    "layouttype": 2,
    "name": "kony.ui.FlexContainer",
    "parent": "flxtemplateLinkedAccounts",
    "pf": "tmpLinkedAccounts",
    "snapgridsize": 10,
    "snaptogrid": true,
    "wType": "FlexContainer",
    "widgetalignment": 1,
    "zindex": 1
}