{
    "@class": "com.kony.gen.viz.model.component.KVizButton",
    "DNDConfig": null,
    "__parentReadjusting__": false,
    "_height_": {
        "type": "string",
        "value": "35dp"
    },
    "_margin_": [
        6,
        6,
        6,
        6
    ],
    "_padding_": [
        0,
        0,
        0,
        0
    ],
    "_right_": {
        "type": "string",
        "value": "5dp"
    },
    "_skin_": "sc2c78ddac93475094c368c5455bc171",
    "_text_": "Edit",
    "_top_": {
        "type": "string",
        "value": "36dp"
    },
    "_width_": {
        "type": "string",
        "value": "60dp"
    },
    "canUpdateUI": true,
    "containerweight": 100,
    "contentalignment": 5,
    "displaytext": true,
    "focusskin": "sc2c78ddac93475094c368c5455bc171",
    "id": "accountInfoEditBtn",
    "ide_onClick": "AS_Button_gf59aa372c9e4e7cbd40844d09b6328d",
    "info": null,
    "isvisible": true,
    "kuid": "f57daf1f7d034f828acef4554a107cd9",
    "name": "kony.ui.Button",
    "parent": "CopypreferredAccountEnable0d7ab026f4a5845",
    "pf": "frmAccountInfoKA",
    "wType": "Button",
    "zindex": 1
}