{
    "@class": "com.kony.gen.viz.model.component.KVizLabel",
    "DNDConfig": null,
    "__parentReadjusting__": false,
    "_height_": {
        "type": "ref",
        "value": "preferred"
    },
    "_left_": {
        "type": "number",
        "value": "0"
    },
    "_margin_": [
        1,
        1,
        1,
        1
    ],
    "_padding_": [
        0,
        0,
        0,
        0
    ],
    "_skin_": "s7f5299e060c4f28956b257966877414",
    "_text_": "Enter a Zip Code or City & State to start your search",
    "_top_": {
        "type": "string",
        "value": "10dp"
    },
    "_width_": {
        "type": "string",
        "value": "70%"
    },
    "_wrapping_": 2,
    "canUpdateUI": true,
    "centerx": {
        "type": "string",
        "value": "50%"
    },
    "containerweight": 100,
    "contentalignment": 5,
    "enabled": false,
    "id": "CopyLabel01cf823c2e98e4a",
    "info": null,
    "ipad": {
        "psp": {
            "wrapping": 2
        }
    },
    "iphone": {
        "psp": {
            "wrapping": 2
        }
    },
    "isvisible": true,
    "kuid": "eeb80eb7ffaa4a1eb0f13ec40d284947",
    "name": "kony.ui.Label",
    "parent": "noSearchResults",
    "pf": "frmDirectionsKA",
    "texti18n": "i18n.locateus.enterZipCodeOrCity",
    "tooltip": "",
    "wType": "Label",
    "zindex": 1
}