{
    "@class": "com.kony.gen.viz.model.component.KVizRichText",
    "DNDConfig": null,
    "__parentReadjusting__": false,
    "_height_": {
        "type": "ref",
        "value": "preferred"
    },
    "_left_": {
        "type": "string",
        "value": "2%"
    },
    "_margin_": [
        0,
        0,
        0,
        0
    ],
    "_padding_": [
        0,
        0,
        0,
        0
    ],
    "_skin_": "se718bca95e74875a5e06b807acc5137",
    "_text_": "",
    "_top_": {
        "type": "string",
        "value": "0dp"
    },
    "_width_": {
        "type": "ref",
        "value": "preferred"
    },
    "_wrapping_": 2,
    "canUpdateUI": true,
    "containerweight": 100,
    "contentalignment": 4,
    "id": "richtxtTermsandConditions",
    "info": null,
    "isvisible": true,
    "kuid": "j64d3bc85d614e1c92754cf71e2fb9c9",
    "name": "kony.ui.RichText",
    "parent": "flxTncBody",
    "pf": "frmCardlessTransaction",
    "texti18n": "i18n.Cardless.TNC",
    "wType": "RichText",
    "widgetalignment": 5,
    "zindex": 1
}