{
    "@class": "com.kony.gen.viz.model.component.KVizButton",
    "DNDConfig": null,
    "__parentReadjusting__": false,
    "_height_": {
        "type": "string",
        "value": "13%"
    },
    "_left_": {
        "type": "string",
        "value": "6.00%"
    },
    "_margin_": [
        6,
        6,
        6,
        6
    ],
    "_padding_": [
        0,
        0,
        0,
        0
    ],
    "_skin_": "sf7766faf6e34d0789442a84c1e76e1a",
    "_text_": "عربي",
    "_top_": {
        "type": "string",
        "value": "6.00%"
    },
    "_width_": {
        "type": "string",
        "value": "88%"
    },
    "canUpdateUI": true,
    "containerweight": 100,
    "contentalignment": 5,
    "disabledSkins": {},
    "displaytext": true,
    "focusskin": "sf7766faf6e34d0789442a84c1e76e1a",
    "id": "btnArabic",
    "ide_onClick": "AS_Button_j805f01b6a654ec3af09f89febed4776",
    "info": null,
    "iphone": {
        "psp": {
            "showProgressIndicator": false
        }
    },
    "isvisible": true,
    "kuid": "b2b07ec3162047ccb2d2481346247b0f",
    "name": "kony.ui.Button",
    "parent": "flxLangSelect",
    "pf": "frmLanguageChange",
    "showprogressindicator": false,
    "wType": "Button",
    "zindex": 1
}