{
    "DNDConfig": null,
    "__parentReadjusting__": false,
    "_height_": {
        "type": "string",
        "value": "100%"
    },
    "_left_": {
        "type": "string",
        "value": "0dp"
    },
    "_margin_": [
        0,
        0,
        0,
        0
    ],
    "_padding_": [
        0,
        0,
        0,
        0
    ],
    "_skin_": "s5b7bc906338437c91f9bfd03ea43d21",
    "_top_": {
        "type": "string",
        "value": "0dp"
    },
    "_width_": {
        "type": "string",
        "value": "100%"
    },
    "allboxes": [],
    "allowhorizontalbounce": true,
    "allowverticalbounce": false,
    "bounces": false,
    "canUpdateUI": true,
    "children": [
        "loginMainScreen"
    ],
    "clipbounds": true,
    "containerweight": 100,
    "decelerat": false,
    "dragg": false,
    "enabled": false,
    "enablescrolling": true,
    "horizontalscrollindicator": false,
    "id": "flxLogin",
    "info": null,
    "isvisible": false,
    "kuid": "ha5f6a6a0ee5413787f586fa74e4dcc9",
    "layouttype": 2,
    "name": "kony.ui.FlexScrollContainer",
    "onscrolling": "AS_FlexScrollContainer_2c28c2fc0ff644e9b70b3a1ef6a2bee0",
    "ontouchend": "AS_FlexScrollContainer_4796c1189f214f22b21f5cdf576aba21",
    "orientation": 6,
    "pagingenabled": false,
    "parent": "frmLanguageChange",
    "percent": true,
    "pf": "frmLanguageChange",
    "scrolldirection": 1,
    "snapgridsize": 10,
    "snaptogrid": true,
    "track": false,
    "verticalscrollindicator": true,
    "wType": "FlexScrollContainer",
    "widgetalignment": 1,
    "zindex": 1
}