{
    "@class": "com.kony.gen.viz.model.component.KVizLine",
    "DNDConfig": null,
    "_margin_": [
        0,
        0,
        0,
        0
    ],
    "_padding_": [
        0,
        0,
        0,
        0
    ],
    "_skin_": "s8343b3b8695480da991164a2cae72c9",
    "_thickness_": 1,
    "canUpdateUI": true,
    "containerWeightLocked": false,
    "containerweight": 100,
    "id": "line1",
    "info": null,
    "isvisible": true,
    "kuid": "h73a57fb1e4e44a3892eb5bab6d7912f",
    "name": "kony.ui.Line",
    "parent": "popupNotificationInfo",
    "pf": "popupNotificationInfo",
    "wType": "Line"
}