{
    "@class": "com.kony.gen.viz.model.container.KVizForm",
    "DNDConfig": null,
    "_margin_": [
        0,
        0,
        0,
        0
    ],
    "_orientation_": 1,
    "_padding_": [
        0,
        0,
        0,
        5
    ],
    "_percent_": true,
    "_skin_": "s13bfce0ccce44409f1b23b316de6325",
    "_title_": null,
    "addWidgetsdone": false,
    "allboxes": [],
    "android": {
        "psp": {
            "windowSoftInputMode": 2
        }
    },
    "bounces": false,
    "canUpdateUI": true,
    "children": [
        "hbxAlertHeader",
        "line1",
        "hbxAlertBody",
        "hbxSingleOk"
    ],
    "containerheight": "",
    "containerheightreference": 1,
    "containerweight": 80,
    "currentLocale": "default",
    "desktopweb": {
        "psp": {
            "titleBarConfig": {
                "closeIcon": "close.png",
                "maxIcon": "max.png",
                "minIcon": "min.png"
            }
        }
    },
    "device": "iPhone6",
    "displayorientation": 3,
    "enabledforidletimeout": false,
    "id": "popupNotificationInfo",
    "info": null,
    "initdone": false,
    "inputaccessoryviewtype": 4,
    "iphone": {
        "psp": {
            "bounces": false
        }
    },
    "ismodal": true,
    "isvisible": true,
    "kuid": "e3ec752b4f5849a4ad441306e75b9b89",
    "name": "kony.ui.Popup",
    "paddinginpixel": false,
    "platform": "iphone",
    "prevDevice": "iPhone6",
    "prevPlatform": "iphone",
    "retainscrollposition": false,
    "shellCSS": "iOS_iPhone6",
    "titlebar": true,
    "transparencybehindthepopup": 40,
    "wType": "Popup"
}