{
    "@class": "com.kony.gen.viz.model.component.KVizButton",
    "DNDConfig": null,
    "__parentReadjusting__": false,
    "_height_": {
        "type": "string",
        "value": "100%"
    },
    "_left_": {
        "type": "string",
        "value": "0%"
    },
    "_margin_": [
        6,
        6,
        6,
        6
    ],
    "_padding_": [
        0,
        0,
        0,
        0
    ],
    "_skin_": "s184a9f68e834d6aa017819b71ff5ad4",
    "_text_": "j",
    "_top_": {
        "type": "string",
        "value": "0%"
    },
    "_width_": {
        "type": "string",
        "value": "15%"
    },
    "canUpdateUI": true,
    "containerweight": 100,
    "contentalignment": 5,
    "disabledSkins": {},
    "displaytext": true,
    "focusskin": "s184a9f68e834d6aa017819b71ff5ad4",
    "id": "btnBack",
    "ide_onClick": "AS_Button_d3e393accbca4a2888ade40c48e70a00",
    "info": null,
    "iphone": {
        "psp": {
            "showProgressIndicator": false
        }
    },
    "isvisible": false,
    "kuid": "e7b003f654944e45be9ff94e851f9671",
    "name": "kony.ui.Button",
    "parent": "flxnewSubAccount",
    "pf": "frmNewSubAccountConfirm",
    "texti18n": "i18n.common.back",
    "wType": "Button",
    "zindex": 2
}