{
    "DNDConfig": null,
    "__parentReadjusting__": false,
    "_height_": {
        "type": "string",
        "value": "220dp"
    },
    "_left_": {
        "type": "string",
        "value": "227dp"
    },
    "_margin_": [
        0,
        0,
        0,
        0
    ],
    "_orientation_": 6,
    "_padding_": [
        0,
        0,
        0,
        0
    ],
    "_percent_": true,
    "_skin_": "s388f0c575ef4d08ac3a5ed0a4b90085",
    "_top_": {
        "type": "string",
        "value": "0dp"
    },
    "_width_": {
        "type": "string",
        "value": "100%"
    },
    "allboxes": [],
    "canUpdateUI": true,
    "children": [
        "lblBillerCode",
        "lblCurrencyType",
        "lblCustID",
        "lblLang",
        "lblAccountNumber",
        "lblAccBr",
        "lblSvcType",
        "lblBillingNumber",
        "lblPaidAmnt",
        "lblDueAmnt",
        "lblAccessChannel",
        "lblPaymentMethod",
        "lblSendSMSflag",
        "lblCustInfoFlag",
        "lblPaymentStatus",
        "lblFeeAmnt",
        "lblFeeOnBiller",
        "lblBillNo",
        "lblTransferFlag",
        "lblfcbdrefNo",
        "lblPID",
        "lblMobileNumber",
        "pidType",
        "pNation",
        "prBillerCode",
        "prServiceCode",
        "prBillingNo",
        "prdenoFlag",
        "prValidationCode",
        "prDueAmount",
        "prMobileNo",
        "prPaymentType",
        "prAccorCCNo",
        "prAccBr"
    ],
    "clipbounds": true,
    "containerweight": 100,
    "enablescrolling": true,
    "id": "flxService",
    "info": null,
    "isvisible": false,
    "kuid": "j85be3536ea746fc9e613068a623e36b",
    "layouttype": 2,
    "name": "kony.ui.FlexContainer",
    "parent": "frmConfirmPayBill",
    "pf": "frmConfirmPayBill",
    "snapgridsize": 10,
    "snaptogrid": true,
    "wType": "FlexContainer",
    "widgetalignment": 1,
    "zindex": 1
}