{
  "operationConfig" : {
    "name" : "getLocations3426",
    "type" : "MappedToBackend",
    "cachable" : false,
    "smsEnabled" : false,
    "security" : "public",
    "responseEncoding" : "UTF-8",
    "httpMethod" : "GET",
    "decodeResponseBody" : false,
    "iMapping" : "<?xml version=\"1.0\" encoding=\"UTF-8\" standalone=\"yes\"?><mapper xmlns=\"http://www.kony.com/ns/mapper\">        <map inputpath=\"request_in\" outputpath=\"request_out\">                <set-param inputpath=\"currLatitude\" outputpath=\"currLatitude\"/>                <set-param inputpath=\"types\" outputpath=\"types\"/>                <set-param inputpath=\"API_KEY\" outputpath=\"API_KEY\"/>                <set-param inputpath=\"currLongitude\" outputpath=\"currLongitude\"/>     </map></mapper>",
    "oMapping" : "<?xml version=\"1.0\" encoding=\"UTF-8\" standalone=\"yes\"?><mapper xmlns=\"http://www.kony.com/ns/mapper\">                                    <function name=\"GetType\">                                                                                                                                                                                          <javascript outputpath=\"type\">                                                                                                                                                                                                                                                                                    <set-arg name=\"services\" inputpath=\"services\" />                                                                                                                                                                                                                                                                                    <script>                                                                                                                                                                                                                                                                                                                                                                                <![CDATA[\t\t function getType()\t\t {\t\t    var typeVal = \"ATM\";\t\t\tif(services !== null && services !== undefined){\t\t\t   services = JSON.parse(services);\t\t\t   if(services.indexOf(\"bank\") > -1 ){\t\t\t      typeVal = \"BRANCH\";\t\t\t   }\t\t\t   \t\t\t}\t\t\treturn typeVal;\t\t}\t\tgetType();\t\t]]>                                                                                                                                                                                                                                                                                    </script>                                                                                                                                                                                        </javascript>                                                                                            </function>                                    <function name=\"GetWorkingHours\">                                                                                                                                                                                          <javascript outputpath=\"workingHours\">                                                                                                                                                                                                                                                                                    <set-arg name=\"workingHours\" inputpath=\"workingHours\" />                                                                                                                                                                                                                                                                                    <script>                                                                                                                                                                                                                                                                                                                                                                                <![CDATA[function getWorkingHours(){var WorkingHoursString = \"\";if (workingHours !== null){workingHours = JSON.parse(workingHours);for(var i =0;i<workingHours.length;i++){if(i == 0){WorkingHoursString = WorkingHoursString + workingHours[i];}else{WorkingHoursString = WorkingHoursString + \"||\"+workingHours[i];}}}return WorkingHoursString;}getWorkingHours();]]>                                                      </script>                                                                                                                                                                                        </javascript>                                                                                            </function>                                                        <function name=\"GetServices\">                                                                                                                                                                                          <javascript outputpath=\"services\">                                                                                                                                                                                                                                                                                    <set-arg name=\"services\" inputpath=\"services\" />                                                                                                                                                                                                                                                                                    <script>                                                                                                                                                                                                                                                                                                                                                                                <![CDATA[function getServices(){var servicesString = \"\"; if (services !== null){ services = JSON.parse(services); for(var i =0;i<services.length;i++){if(i == 0){servicesString = servicesString + services[i];\t}\telse{ servicesString = servicesString + \"||\"+services[i];\t}} } return servicesString;}getServices();]]>                                                                                                                                                                                                                                                                                    </script>                                                                                                                                                                                        </javascript>                                                                                            </function>                                                                        <map inputpath=\"response_in\" outputpath=\"response_out\">                                                                                                                                                                    <map inputpath=\"Locations\" outputpath=\"Locations\">                                                                                                                                                                                                                                                      <set-param input=\"30350\" outputpath=\"zipCode\"/>                                                                                                                                                                                                                                                      <set-param input=\"city\" outputpath=\"city\"/>                                                                                                                                                                                                                                                      <set-param inputpath=\"latitude\" outputpath=\"latitude\"/>                                                                                                                                                                                                             <exec-function name=\"GetServices\" />                                                                                                                                                                                                                                                     <set-param input=\"123456\" outputpath=\"phone\"/>                                                                                                <exec-function name=\"GetType\" />                                                                                                <set-param inputpath=\"locationId\" outputpath=\"locationId\"/>                                                                                                                                                                                                                                                      <set-param inputpath=\"addressLine1\" outputpath=\"addressLine1\"/>                                                                                                                                                                                                                                                      <set-param inputpath=\"addressLine2\" outputpath=\"addressLine2\"/>                                                                                                                                                                                                                                                      <set-param inputpath=\"state\" outputpath=\"state\"/>                                                                                                                                                                                                                                                      <set-param inputpath=\"informationTitle\" outputpath=\"informationTitle\"/>                                                                                                                                                                                                                                                      <set-param inputpath=\"workingHours\" outputpath=\"workingHours\"/>                                                                                                                                                                                                                                                      <set-param input=\"email@kony.com\" outputpath=\"email\"/>                                                                                                                                                                                                                                                      <set-param inputpath=\"longitude\" outputpath=\"longitude\"/>                                                                                                                                                                                                                        <exec-function name=\"kony.logical:equal\" outputpath=\"statusIsFalse\" output=\"$vars\">                                                                                                                                                                                                                                                                                                                                        <set-arg name=\"status\" inputpath=\"status\" />                                                                                                                                                                                                                                                                                                                                        <set-arg name=\"false\" input=\"false\" />                                                                                                                                                                                                                                                                                                              </exec-function>                                                                                                                                                                                                                                                                                                                  <choose>                                                                                                                                                                                                                                                                                                                                                                                                                        <when test=\"$vars/statusIsFalse\">                                                                                                                                                                                                                                                                                                                                                                                                                                                                                                                              <set-param outputpath=\"status\" input=\"CLOSED\"/>                                                                                                                                                                                                                                                                                                                                                                                                                        </when>                                                                                                                                                                                                                                                                                                                                                                                                                          <otherwise>                                                                                                                                                                                                                                                                                                                                                                                                                                                                                                                                <set-param outputpath=\"status\" input=\"OPEN\"/>                                                                                                                                                                                                                                                                                                                                                                                                                            </otherwise>                                                                                                                                                                                                                                                                                                                    </choose>                                                                                                                                                       </map>                                                                                                                    <map inputpath=\"PlaceDetails\" outputpath=\"PlaceDetails\">                                                                                                                                                                                                                                                                                                                                                       <set-param inputpath=\"latitude\" outputpath=\"latitude\"/>                                                                                                                                                                                                             <exec-function name=\"GetServices\" />                                                                                                                                                                                                                                                     <set-param input=\"ATM\" outputpath=\"type\"/>                                                                                                                                                                                                                                                      <set-param inputpath=\"phoneNumber\" outputpath=\"phone\"/>                                                                                                                                                                                                                                                      <set-param inputpath=\"place_id\" outputpath=\"locationId\"/>                                                                                                                                                                                                                                                      <set-param inputpath=\"addressLine1\" outputpath=\"addressLine1\"/>                                                                                    <set-param inputpath=\"addressLine2\" outputpath=\"addressLine2\"/>                                                                                    <set-param inputpath=\"name\" outputpath=\"informationTitle\"/>                                                                                                                                                       <exec-function name=\"GetWorkingHours\"/>                                                                                                                                                                                                                                                       <set-param input=\"email@kony.com\" outputpath=\"email\"/>                                                                                                                                                                                                                                                      <set-param inputpath=\"longitude\" outputpath=\"longitude\"/>                                                                                                                                                                                                                        <exec-function name=\"kony.logical:equal\" outputpath=\"statusIsFalse\" output=\"$vars\">                                                                                                                                                                                                                                                                                                                                        <set-arg name=\"status\" inputpath=\"status\" />                                                                                                                                                                                                                                                                                                                                        <set-arg name=\"false\" input=\"false\" />                                                                                                                                                                                                                                                                                                              </exec-function>                                                                                                                                                                                                                                                                                                                  <choose>                                                                                                                                                                                                                                                                                                                                                                                                                        <when test=\"$vars/statusIsFalse\">                                                                                                                                                                                                                                                                                                                                                                                                                                                                                                                              <set-param outputpath=\"status\" input=\"CLOSED\"/>                                                                                                                                                                                                                                                                                                                                                                                                                        </when>                                                                                                                                                                                                                                                                                                                                                                                                                          <otherwise>                                                                                                                                                                                                                                                                                                                                                                                                                                                                                                                                <set-param outputpath=\"status\" input=\"OPEN\"/>                                                                                                                                                                                                                                                                                                                                                                                                                            </otherwise>                                                                                                                                                                                                                                                                                                                    </choose>                                                                                                                                                       </map>                                                                                                                    <set-param inputpath=\"errmsg\" outputpath=\"errmsg\"/>                                                                                  </map></mapper>",
    "applyCommonMapping" : false,
    "backendMeta" : {
      "serviceVersion" : "1.0",
      "operationName" : "getLocations",
      "serviceName" : "GoogleAPIs"
    },
    "relationshipHierarchyMapping" : {
      "children" : [ ],
      "name" : "Locations",
      "selected" : true
    },
    "requestXmlMappingOverride" : true,
    "responseXmlMappingOverride" : true
  }
}