{
  "operationConfig" : {
    "name" : "GetModifiedAccountList7819",
    "type" : "MappedToBackend",
    "cachable" : false,
    "smsEnabled" : false,
    "security" : "public",
    "responseEncoding" : "UTF-8",
    "httpMethod" : "GET",
    "decodeResponseBody" : false,
    "odata" : [ {
      "id" : "$select",
      "dataType" : "string",
      "encode" : true,
      "accessType" : "readonly"
    }, {
      "id" : "$filter",
      "dataType" : "string",
      "encode" : true,
      "accessType" : "readonly"
    }, {
      "id" : "$orderby",
      "dataType" : "string",
      "encode" : true,
      "accessType" : "readonly"
    }, {
      "id" : "$top",
      "dataType" : "string",
      "encode" : true,
      "accessType" : "readonly"
    }, {
      "id" : "$skip",
      "dataType" : "string",
      "encode" : true,
      "accessType" : "readonly"
    }, {
      "id" : "$expand",
      "dataType" : "string",
      "encode" : true,
      "accessType" : "readonly"
    }, {
      "id" : "$batchsize",
      "dataType" : "string",
      "encode" : true,
      "accessType" : "readonly"
    }, {
      "id" : "$batchid",
      "dataType" : "string",
      "encode" : true,
      "accessType" : "readonly"
    } ],
    "iMapping" : "<?xml version=\"1.0\" encoding=\"UTF-8\" standalone=\"yes\"?><mapper xmlns=\"http://www.kony.com/ns/mapper\">        <map inputpath=\"request_in\" outputpath=\"request_out\">                <set-param inputpath=\"custId\" outputpath=\"custId\"/>        <set-param inputpath=\"lang\" outputpath=\"lang\"/>    </map></mapper>",
    "oMapping" : "<?xml version=\"1.0\" encoding=\"UTF-8\" standalone=\"yes\"?><mapper xmlns=\"http://www.kony.com/ns/mapper\">            <map inputpath=\"response_in\" outputpath=\"response_out\">                        <map inputpath=\"Accounts\" outputpath=\"Accounts\">                                    <set-param inputpath=\"accountNumber\" outputpath=\"accountNumber\"/>                                                                                          <set-param inputpath=\"QBHideShowFlag\" outputpath=\"QBHideShowFlag\"/>                                                                                          <set-param inputpath=\"PrefNumber\" outputpath=\"PrefNumber\"/>                                                                                          <set-param inputpath=\"AccNickName\" outputpath=\"AccNickName\"/>                                                                                          <set-param inputpath=\"accountName\" outputpath=\"accountName\"/>                         <set-param inputpath = \"smsAlertFlag\" outputpath = \"smsAlertFlag\"/>                  <set-param inputpath=\"AccHideShowFlag\" outputpath=\"AccHideShowFlag\"/>                                     <set-param inputpath=\"currentBalance\" outputpath=\"currentBalance\"/>                                    <set-param inputpath=\"codBank\" outputpath=\"codBank\"/>                                    <set-param inputpath=\"cust_name\" outputpath=\"cust_name\"/>                                    <set-param inputpath=\"isjomopayacc\" outputpath=\"isjomopayacc\"/>                                    <set-param inputpath=\"producttype\" outputpath=\"producttype\"/>                                    <set-param inputpath=\"joint_ind\" outputpath=\"joint_ind\"/>                                    <set-param inputpath=\"favouriteStatus\" outputpath=\"favouriteStatus\"/>                                    <set-param inputpath=\"accountID\" outputpath=\"accountID\"/>                                    <set-param inputpath=\"nextduedate\" outputpath=\"nextduedate\"/>                                    <set-param inputpath=\"maturitydate\" outputpath=\"maturitydate\"/>                                    <set-param inputpath=\"currencyCode\" outputpath=\"currencyCode\"/>                                    <set-param inputpath=\"dr_ind\" outputpath=\"dr_ind\"/>                                    <set-param inputpath=\"productCode\" outputpath=\"productCode\"/>                                    <set-param inputpath=\"branchNumber\" outputpath=\"branchNumber\"/>                                    <set-param inputpath=\"relation\" outputpath=\"relation\"/>                                    <set-param inputpath=\"haschequebookfacility\" outputpath=\"haschequebookfacility\"/>                                    <set-param inputpath=\"bankName\" outputpath=\"bankName\"/>                                    <set-param inputpath=\"availableBalance\" outputpath=\"availableBalance\"/>                                    <set-param inputpath=\"swiftcode\" outputpath=\"swiftcode\"/>                                    <set-param inputpath=\"cust_type\" outputpath=\"cust_type\"/>                                    <set-param inputpath=\"accountName\" outputpath=\"accountName\"/>                                    <set-param inputpath=\"cr_ind\" outputpath=\"cr_ind\"/>                                    <set-param inputpath=\"ccydesc\" outputpath=\"ccydesc\"/>                                    <set-param inputpath=\"accountType\" outputpath=\"accountType\"/>                                    <set-param inputpath=\"branchName\" outputpath=\"branchName\"/>                                    <set-param inputpath=\"reference_no\" outputpath=\"reference_no\"/>                                    <set-param inputpath=\"ilmapplicable\" outputpath=\"ilmapplicable\"/>                                    <set-param inputpath=\"iban\" outputpath=\"iban\"/>                        </map>                        <set-param inputpath=\"errmsg\" outputpath=\"errmsg\"/>                        <set-param inputpath=\"success\" outputpath=\"success\"/>            </map></mapper>",
    "applyCommonMapping" : false,
    "backendMeta" : {
      "serviceVersion" : "1.0",
      "operationName" : "GetModifiedAccountList",
      "serviceName" : "GetAccountListService"
    },
    "relationshipHierarchyMapping" : {
      "children" : [ ],
      "name" : "Accounts",
      "selected" : true
    },
    "requestXmlMappingOverride" : false,
    "responseXmlMappingOverride" : false
  }
}