{
  "operationConfig" : {
    "name" : "prGetTdDetails4911",
    "type" : "MappedToBackend",
    "cachable" : false,
    "smsEnabled" : false,
    "security" : "authorized_app",
    "responseEncoding" : "UTF-8",
    "httpMethod" : "GET",
    "decodeResponseBody" : false,
    "iMapping" : "<?xml version=\"1.0\" encoding=\"UTF-8\" standalone=\"yes\"?><mapper xmlns=\"http://www.kony.com/ns/mapper\">          <map inputpath=\"request_in\" outputpath=\"request_out\">                    <set-param inputpath=\"p_td_ref_no\" outputpath=\"p_td_ref_no\"/>                    <set-param inputpath=\"p_acc_No\" outputpath=\"p_acc_No\"/>                    <set-param inputpath=\"p_Branch\" outputpath=\"p_Branch\"/>                    <set-param inputpath=\"custId\" outputpath=\"custId\"/>                    <set-param inputpath=\"p_acct_Type\" outputpath=\"p_acct_Type\"/>                    <set-param inputpath=\"p_fcdb_ref_no\" outputpath=\"p_fcdb_ref_no\"/>                    <set-param inputpath=\"AccountFlag\" outputpath=\"AccountFlag\"/>                    <set-param inputpath=\"p_lan\" outputpath=\"p_lan\"/>          </map></mapper>",
    "oMapping" : "<?xml version=\"1.0\" encoding=\"UTF-8\" standalone=\"yes\"?><mapper xmlns=\"http://www.kony.com/ns/mapper\">                                        <map inputpath=\"response_in\" outputpath=\"response_out\">                                                             <set-param inputpath=\"DepositeDetail\" outputpath=\"DepositeDetail\"/>                                           </map>                  </mapper>",
    "applyCommonMapping" : false,
    "backendMeta" : {
      "serviceVersion" : "1.0",
      "operationName" : "prGetTdDetails",
      "serviceName" : "iWatchBOJPrGetTdDetails"
    },
    "relationshipHierarchyMapping" : {
      "children" : [ ],
      "name" : "Accounts",
      "selected" : true
    },
    "requestXmlMappingOverride" : true,
    "responseXmlMappingOverride" : true
  }
}