{
    "@class": "com.kony.gen.viz.model.component.KVizLabel",
    "DNDConfig": null,
    "__markedForDelete__": true,
    "__parentReadjusting__": false,
    "_height_": {
        "type": "ref",
        "value": "preferred"
    },
    "_left_": {
        "type": "string",
        "value": "4%"
    },
    "_margin_": [
        1,
        1,
        1,
        1
    ],
    "_padding_": [
        0,
        0,
        0,
        0
    ],
    "_skin_": "scd4861cebdf427fa9259ed89370e8f0",
    "_text_": "",
    "_width_": {
        "type": "string",
        "value": "40%"
    },
    "_wrapping_": 2,
    "android": {
        "textStyle": {
            "letterSpacing": 0,
            "strikeThrough": false
        }
    },
    "canUpdateUI": true,
    "centery": {
        "type": "string",
        "value": "80%"
    },
    "containerId": true,
    "containerweight": 100,
    "contentalignment": 1,
    "id": "lblCountry",
    "info": null,
    "ipad": {
        "psp": {
            "wrapping": 2
        }
    },
    "iphone": {
        "psp": {
            "wrapping": 2
        }
    },
    "isvisible": true,
    "kuid": "d0712f93abe64d25b2b047482f61f911",
    "name": "kony.ui.Label",
    "parent": "flxExchangeRatestmp",
    "pf": "tmpExchangeRates",
    "tooltip": "",
    "wType": "Label",
    "zindex": 1
}