{
    "DNDConfig": null,
    "__parentReadjusting__": false,
    "_height_": {
        "type": "string",
        "value": "100%"
    },
    "_left_": {
        "type": "string",
        "value": "0dp"
    },
    "_margin_": [
        0,
        0,
        0,
        0
    ],
    "_orientation_": 6,
    "_padding_": [
        0,
        0,
        0,
        0
    ],
    "_percent_": true,
    "_skin_": "sd1e798b96a149d3a2eea07ff85f9777",
    "_top_": {
        "type": "string",
        "value": "0dp"
    },
    "_width_": {
        "type": "string",
        "value": "100%"
    },
    "allboxes": [],
    "autogrowmode": 0,
    "canUpdateUI": true,
    "children": [
        "imgEnlargeAd",
        "imgCloseEnlargedAd",
        "flxImgOnClickArea",
        "imgFailedEnlargedAdKA"
    ],
    "clipbounds": true,
    "containerweight": 100,
    "enablescrolling": true,
    "id": "flxEnlargeAd",
    "info": null,
    "isvisible": true,
    "kuid": "b0979d87870a48c79258b88c6e15e05e",
    "layouttype": 2,
    "name": "kony.ui.FlexContainer",
    "parent": "frmEnlargeAdKA",
    "pf": "frmEnlargeAdKA",
    "snapgridsize": 10,
    "snaptogrid": true,
    "wType": "FlexContainer",
    "widgetalignment": 1,
    "zindex": 1
}