{
    "@class": "com.kony.gen.viz.model.component.KVizButton",
    "DNDConfig": null,
    "__parentReadjusting__": false,
    "_height_": {
        "type": "string",
        "value": "100dp"
    },
    "_margin_": [
        6,
        6,
        6,
        6
    ],
    "_padding_": [
        0,
        0,
        0,
        0
    ],
    "_render_": true,
    "_skin_": "s066a88a6b9243fda66feec63b85c9ac",
    "_text_": "Reply",
    "_top_": {
        "type": "string",
        "value": "0dp"
    },
    "_width_": {
        "type": "string",
        "value": "100dp"
    },
    "android": {
        "render": true
    },
    "canUpdateUI": true,
    "centery": {
        "type": "string",
        "value": "50%"
    },
    "containerId": true,
    "containerweight": 100,
    "contentalignment": 5,
    "displaytext": false,
    "focusskin": "s066a88a6b9243fda66feec63b85c9ac",
    "id": "btnReplyKA",
    "ide_onClick": "AS_Button_0ed5f01ff78a46aca3361ae45969e15f",
    "info": null,
    "iphone": {
        "render": true
    },
    "isvisible": true,
    "kuid": "62fc1d931a9744208eefaff788033a7c",
    "name": "kony.ui.Button",
    "parent": "flxSegMsgSwipe",
    "pf": "segMessagesBoldTmplKA",
    "spaan": {
        "render": true
    },
    "spabb": {
        "render": true
    },
    "spaip": {
        "render": true
    },
    "spawinphone8": {
        "render": true
    },
    "wType": "Button",
    "winphone8": {
        "render": true
    },
    "zindex": 1
}