{
    "DNDConfig": null,
    "_height_": {
        "type": "string",
        "value": "40dp"
    },
    "_margin_": [
        0,
        0,
        0,
        0
    ],
    "_padding_": [
        0,
        0,
        0,
        0
    ],
    "_width_": {
        "type": "string",
        "value": "100%"
    },
    "allboxes": [],
    "canUpdateUI": true,
    "children": [
        "lblCDTermValKA",
        "lblAPYValKA",
        "lblMinDepositValKA"
    ],
    "clipbounds": true,
    "containerId": true,
    "containerweight": 100,
    "enabled": false,
    "enablescrolling": true,
    "id": "CopyFBox02bb1e4273cee42",
    "info": null,
    "isGeneratedTemplate": true,
    "isTemplate": true,
    "isvisible": true,
    "kuid": "d58712e0368f4dce9d72bf323f3154e5",
    "layouttype": 2,
    "name": "kony.ui.FlexContainer",
    "orientation": 6,
    "percent": true,
    "pf": "CopyFBox02bb1e4273cee42",
    "snapgridsize": 10,
    "snaptogrid": true,
    "wType": "FlexContainer",
    "widgetalignment": 1
}