{
    "@class": "com.kony.gen.viz.model.container.KVizGroup",
    "DNDConfig": null,
    "_height_": {
        "type": "ref",
        "value": "preferred"
    },
    "_margin_": [
        0,
        0,
        0,
        0
    ],
    "_opacity_": 100,
    "_orientation_": 6,
    "_padding_": [
        3,
        0,
        3,
        0
    ],
    "_percent_": true,
    "_skin_": "s8b4116f8aea48089705eb13b65e91b4",
    "_spacing_": 2,
    "_width_": "100%",
    "allboxes": [],
    "canUpdateUI": true,
    "children": [
        "grpMContent"
    ],
    "clipbounds": true,
    "containerId": true,
    "containerweight": 100,
    "enablescrolling": true,
    "id": "grpLDMain",
    "info": null,
    "isTemplate": true,
    "isvisible": true,
    "kuid": "j6b14471d21e4f46848cbbe930ac6fed",
    "layouttype": 3,
    "name": "kony.ui.Group",
    "paddinginpixel": true,
    "parent": "tempLoansAndDeposits",
    "pf": "tempLoansAndDeposits",
    "snapgridsize": 10,
    "snaptogrid": false,
    "wType": "Group",
    "widgetalignment": 1
}