{
    "@class": "com.kony.gen.viz.model.component.KVizButton",
    "DNDConfig": null,
    "__parentReadjusting__": false,
    "_height_": {
        "type": "string",
        "value": "50dp"
    },
    "_margin_": [
        6,
        6,
        6,
        6
    ],
    "_padding_": [
        0,
        0,
        0,
        14
    ],
    "_skin_": "s369ab04a83040bc808b21001c014f1a",
    "_text_": "K",
    "_width_": {
        "type": "string",
        "value": "100%"
    },
    "accessibilityconfig": {
        "a11yValue": "More"
    },
    "canUpdateUI": true,
    "centerx": {
        "type": "string",
        "value": "50%"
    },
    "centery": {
        "type": "string",
        "value": "50%"
    },
    "containerId": true,
    "containerweight": 100,
    "contentalignment": 5,
    "disabledSkins": {},
    "displaytext": true,
    "focusskin": "s369ab04a83040bc808b21001c014f1a",
    "id": "CopybtnAccounts0ec4d23080f0146",
    "ide_onClick": "AS_Button_g98cf3b49bff4492bbd7454e5452c32c",
    "info": null,
    "iscustomlayout": false,
    "isvisible": true,
    "kuid": "b7cf29ccccae4a6e898c07b002f4ef88",
    "name": "kony.ui.Button",
    "paddinginpixel": false,
    "parent": "FlxMore",
    "pf": "iphoneFooter",
    "retainflexpositionproperties": false,
    "wType": "Button",
    "zindex": 1
}