{
    "AS_Button_722a74fa0d4141bba4221200b0e6898a": {
        "id": "AS_Button_722a74fa0d4141bba4221200b0e6898a",
        "type": "ACTION_SEQUENCE",
        "actions": [{
            "id": "NAVIGATE_TO_FORM__onClick_4b6a2422ef9e493894a1faee4984d2dd",
            "type": "NAVIGATE_TO_FORM",
            "formId": "frmTransferPayLandingKA",
            "formKUID": "dab7a50c55b94a12b3d961ae5bd49247",
            "mappings": {},
            "mappingsOrder": [],
            "parentId": "",
            "callbackType": null,
            "enableMappingEditor": true
        }]
    }
}