{
    "AS_Button_d1b514608ccc4456bed1d6e3c61399f6": {
        "id": "AS_Button_d1b514608ccc4456bed1d6e3c61399f6",
        "type": "ACTION_SEQUENCE",
        "actions": [{
            "id": "NAVIGATE_TO_FORM__onClick_962bd81a18a24782994c081c4c78f744",
            "type": "NAVIGATE_TO_FORM",
            "formId": "frmLocatorKA",
            "formKUID": "c471585baa904bb49278190a4437d425",
            "mappings": {},
            "mappingsOrder": [],
            "parentId": "",
            "callbackType": null,
            "enableMappingEditor": true
        }]
    }
}