{
    "AS_Button_5e65cca4c5ca4cd087a8505446cf139c": {
        "id": "AS_Button_5e65cca4c5ca4cd087a8505446cf139c",
        "type": "ACTION_SEQUENCE",
        "actions": [{
            "id": "ADD_SNIPPET_onClick_1240e3652b524ae7b7c9887e9e9e39ec",
            "type": "ADD_SNIPPET",
            "codeSnippet": "hideDateRange();",
            "callbackType": null
        }]
    }
}