{
    "AS_Button_0154b198a71a4e9fabf1f07a459755e1": {
        "id": "AS_Button_0154b198a71a4e9fabf1f07a459755e1",
        "type": "ACTION_SEQUENCE",
        "actions": [{
            "id": "NAVIGATE_TO_FORM__onClick_fa2a0c35364340ae98e483a6521a8873",
            "type": "NAVIGATE_TO_FORM",
            "formId": "frmLocatorKA",
            "formKUID": "c471585baa904bb49278190a4437d425",
            "mappings": {},
            "mappingsOrder": [],
            "parentId": "",
            "callbackType": null,
            "enableMappingEditor": true
        }]
    }
}