{
    "AS_Button_5cf352ceb8094acf83e90f4325190ed3": {
        "id": "AS_Button_5cf352ceb8094acf83e90f4325190ed3",
        "type": "ACTION_SEQUENCE",
        "params": [{
            "datatype": "collection",
            "name": "eventobject"
        }],
        "actions": [{
            "id": "ADD_SNIPPET__c52e04cb92574544a021c85e60e7b497",
            "type": "ADD_SNIPPET",
            "codeSnippet": "scheduledTabSelected();",
            "parentId": null,
            "callbackType": null
        }]
    }
}