{
    "AS_Button_1c209e05b88b480f9439e05a82456d6a": {
        "id": "AS_Button_1c209e05b88b480f9439e05a82456d6a",
        "type": "ACTION_SEQUENCE",
        "actions": [{
            "id": "NAVIGATE_TO_FORM__onClick_134f8a7d23634765a241dd00b67b43c1",
            "type": "NAVIGATE_TO_FORM",
            "formId": "frmAccountsLandingKA",
            "formKUID": "d62a2a0906c64d2281addc95893a6544",
            "mappings": {},
            "mappingsOrder": [],
            "parentId": "",
            "callbackType": null,
            "enableMappingEditor": true
        }]
    }
}