{
    "AS_Button_d73e18a97359468f9b141a4db76934f7": {
        "id": "AS_Button_d73e18a97359468f9b141a4db76934f7",
        "type": "ACTION_SEQUENCE",
        "actions": [{
            "id": "NAVIGATE_TO_FORM__onClick_1e6b2c9d717746b280b658c0e78e6906",
            "type": "NAVIGATE_TO_FORM",
            "formId": "frmLocatorKA",
            "formKUID": "c471585baa904bb49278190a4437d425",
            "mappings": {},
            "mappingsOrder": [],
            "parentId": "",
            "callbackType": null,
            "enableMappingEditor": true
        }]
    }
}