{
    "AS_Button_090d7c7471fa4ff0ad2c02b5d40eb99c": {
        "id": "AS_Button_090d7c7471fa4ff0ad2c02b5d40eb99c",
        "type": "ACTION_SEQUENCE",
        "params": [{
            "datatype": "collection",
            "name": "eventobject"
        }],
        "actions": [{
            "id": "NAVIGATE_TO_FORM__onClick_7ca622c66c2a4942bb8372048b31c607",
            "type": "NAVIGATE_TO_FORM",
            "formId": "frmAccountsLandingKA",
            "formKUID": "d62a2a0906c64d2281addc95893a6544",
            "mappings": {},
            "mappingsOrder": [],
            "parentId": "",
            "callbackType": null,
            "enableMappingEditor": true
        }]
    }
}