{
    "AS_Button_fd389e2eb47247a6891b5bb124a9f8d7": {
        "id": "AS_Button_fd389e2eb47247a6891b5bb124a9f8d7",
        "type": "ACTION_SEQUENCE",
        "params": [{
            "datatype": "collection",
            "name": "eventobject"
        }],
        "actions": [{
            "id": "NAVIGATE_TO_FORM___c70cce4e40dd41a0a7fbe4c8cf08d8fe",
            "type": "NAVIGATE_TO_FORM",
            "formId": "frmAddExternalAccountKA",
            "formKUID": "4943cca5d62d4f0ca6f2e9ab47274db5",
            "mappings": {},
            "mappingsOrder": [],
            "parentId": "",
            "callbackType": null,
            "enableMappingEditor": true
        }]
    }
}