{
    "AS_Button_7704ef2413594df0a30a1120cc5b04ce": {
        "id": "AS_Button_7704ef2413594df0a30a1120cc5b04ce",
        "type": "ACTION_SEQUENCE",
        "params": [{
            "datatype": "collection",
            "name": "eventobject"
        }],
        "actions": [{
            "id": "SHOW_ALERT__62a805a8eee544b09665e4687b51ae25",
            "type": "SHOW_ALERT",
            "alertType": "constants.ALERT_TYPE_CONFIRMATION",
            "alertTitle": "Confirm Sign Out",
            "yesLabel": "Sign Out",
            "noLabel": "Cancel",
            "alertMessage": "Are you sure you want to sign out?",
            "messageType": "constant",
            "parentId": null,
            "callbackType": null,
            "alertTitlei18n": null,
            "yesLabeli18n": null,
            "noLabeli18n": null
        }, {
            "id": "NAVIGATE_TO_FORM___1d07e53be02e4de981ce7fd5302fc069",
            "type": "NAVIGATE_TO_FORM",
            "formId": "frmLoginKA",
            "formKUID": "7b1aa8fceb6b4070833e9eab879b0e5e",
            "mappings": {},
            "mappingsOrder": [],
            "parentId": "SHOW_ALERT__62a805a8eee544b09665e4687b51ae25",
            "callbackType": "True",
            "enableMappingEditor": true
        }]
    }
}