{
    "AS_Button_1b36024ad54e44e88fc88d9e54cb1670": {
        "id": "AS_Button_1b36024ad54e44e88fc88d9e54cb1670",
        "type": "ACTION_SEQUENCE",
        "params": [{
            "datatype": "collection",
            "name": "eventobject"
        }],
        "actions": [{
            "id": "NAVIGATE_TO_FORM__onClick_ce864c364ed84965b49894a76623d217",
            "type": "NAVIGATE_TO_FORM",
            "formId": "frmTransferPayLandingKA",
            "formKUID": "dab7a50c55b94a12b3d961ae5bd49247",
            "mappings": {},
            "mappingsOrder": [],
            "parentId": "",
            "callbackType": null,
            "enableMappingEditor": true
        }]
    }
}