{
    "AS_Button_56b7218ac93f40ceb91298250b388c6b": {
        "id": "AS_Button_56b7218ac93f40ceb91298250b388c6b",
        "type": "ACTION_SEQUENCE",
        "actions": [{
            "id": "NAVIGATE_TO_FORM__onClick_ed39af6b46534d44a01c86d3a4680567",
            "type": "NAVIGATE_TO_FORM",
            "formId": "frmNewTransferKA",
            "formKUID": "2ac343500306428da0ceef91a3b44d18",
            "mappings": {},
            "mappingsOrder": [],
            "parentId": "",
            "callbackType": null,
            "enableMappingEditor": true
        }]
    }
}