{
    "AS_Button_e0792c39f4644cdca69b6686fd9e1e0a": {
        "id": "AS_Button_e0792c39f4644cdca69b6686fd9e1e0a",
        "type": "ACTION_SEQUENCE",
        "actions": [{
            "id": "NAVIGATE_TO_FORM__onClick_7ee1c7f980c046888806dac1b7b8594f",
            "type": "NAVIGATE_TO_FORM",
            "formKUID": "46f36ea071694fd5850c61e28c2bf835",
            "mappings": {},
            "mappingsOrder": [],
            "parentId": "",
            "callbackType": null,
            "enableMappingEditor": true
        }]
    }
}