{
    "AS_Button_c1ab664f1d4b4e329d90e2ae8a86921a": {
        "id": "AS_Button_c1ab664f1d4b4e329d90e2ae8a86921a",
        "type": "ACTION_SEQUENCE",
        "actions": [{
            "id": "NAVIGATE_TO_FORM__onClick_c2c03869e19d4287bf0fe3572ecaa568",
            "type": "NAVIGATE_TO_FORM",
            "formId": "frmContactUsKA",
            "formKUID": "3730b7e8806c47969fff751b469e1811",
            "mappings": {},
            "mappingsOrder": [],
            "parentId": "",
            "callbackType": null,
            "enableMappingEditor": true
        }]
    }
}