{
    "AS_Form_bea641a5c77b4a3781494895b3804d41": {
        "id": "AS_Form_bea641a5c77b4a3781494895b3804d41",
        "type": "ACTION_SEQUENCE",
        "actions": [{
            "id": "ADD_SNIPPET_preShow_2707b4191ad245f2829993e74c9d9466",
            "type": "ADD_SNIPPET",
            "codeSnippet": "loadSearchData();",
            "callbackType": null
        }]
    }
}