{
    "AS_Form_6178391133a64fadabf18c624fbdaf75": {
        "id": "AS_Form_6178391133a64fadabf18c624fbdaf75",
        "type": "ACTION_SEQUENCE",
        "actions": [{
            "id": "ADD_SNIPPET__c95a19cf42424d2eb6151ee9f58a008f",
            "type": "ADD_SNIPPET",
            "codeSnippet": "successFormPreShow();",
            "parentId": null,
            "callbackType": null
        }]
    }
}