{
    "AS_Form_43ed594f831e4c9ebca6b1228100b93b": {
        "id": "AS_Form_43ed594f831e4c9ebca6b1228100b93b",
        "type": "ACTION_SEQUENCE",
        "actions": [{
            "id": "ADD_SNIPPET__231e110b265f4dbdb1d87f2b49293a0d",
            "type": "ADD_SNIPPET",
            "codeSnippet": " loginPostShow();",
            "parentId": null,
            "callbackType": null
        }]
    }
}