{
    "AS_Form_733a752c59cd457298be1e214ef75bd5": {
        "id": "AS_Form_733a752c59cd457298be1e214ef75bd5",
        "type": "ACTION_SEQUENCE",
        "actions": [{
            "id": "ADD_SNIPPET__7bfa720368ef47159f5d3028a99cc3fc",
            "type": "ADD_SNIPPET",
            "codeSnippet": "loginPreShow();",
            "parentId": null,
            "callbackType": null
        }]
    }
}