{
    "AS_Image_c87f42767e73488298e1f79dab0c521f": {
        "id": "AS_Image_c87f42767e73488298e1f79dab0c521f",
        "type": "ACTION_SEQUENCE",
        "actions": [{
            "id": "NAVIGATE_TO_FORM___13ebd16613274333b12d7440e0abde5d",
            "type": "NAVIGATE_TO_FORM",
            "formId": "frmLoginKA",
            "formKUID": "7b1aa8fceb6b4070833e9eab879b0e5e",
            "mappings": {},
            "mappingsOrder": [],
            "parentId": "",
            "callbackType": null,
            "enableMappingEditor": true
        }]
    }
}