{
    "AS_TextField_5c27bb8d4e364ac7af1de5cb88238dfd": {
        "id": "AS_TextField_5c27bb8d4e364ac7af1de5cb88238dfd",
        "type": "ACTION_SEQUENCE",
        "params": [{
            "datatype": "collection",
            "name": "eventobject"
        }, {
            "datatype": "string",
            "name": "changedtext"
        }],
        "actions": [{
            "id": "ADD_SNIPPET__9a45cba4b06348229eee88c13ce0718d",
            "type": "ADD_SNIPPET",
            "codeSnippet": "userEnteredLocationTerm();",
            "parentId": null,
            "callbackType": null
        }]
    }
}