{
    "AS_TextField_9256393d34904fdda47df0ebfc8ea42d": {
        "id": "AS_TextField_9256393d34904fdda47df0ebfc8ea42d",
        "type": "ACTION_SEQUENCE",
        "params": [{
            "datatype": "collection",
            "name": "eventobject"
        }, {
            "datatype": "string",
            "name": "changedtext"
        }],
        "actions": [{
            "id": "ADD_SNIPPET__31ee04500e5e42aa9010aea2177078a6",
            "type": "ADD_SNIPPET",
            "codeSnippet": "",
            "parentId": null,
            "callbackType": null
        }]
    }
}