{
    "@class": "com.kony.gen.viz.model.component.KVizButton",
    "DNDConfig": null,
    "__parentReadjusting__": false,
    "_height_": {
        "type": "string",
        "value": "50dp"
    },
    "_margin_": [
        6,
        6,
        6,
        6
    ],
    "_padding_": [
        0,
        0,
        0,
        14
    ],
    "_skin_": "s52b4bc4f8fb49de94a4a9b157b66ec1",
    "_text_": "G",
    "_width_": {
        "type": "string",
        "value": "100%"
    },
    "canUpdateUI": true,
    "centerx": {
        "type": "string",
        "value": "50%"
    },
    "centery": {
        "type": "string",
        "value": "50%"
    },
    "containerweight": 100,
    "contentalignment": 5,
    "disabledSkins": {},
    "displaytext": true,
    "focusskin": "s33c99a7c3544ee0a5b2a081277f75cc",
    "id": "btnTransfers",
    "ide_onClick": "AS_Button_b9ed29b3b2314434a30d66d7089c811f",
    "info": null,
    "iphone": {
        "psp": {
            "showProgressIndicator": false
        }
    },
    "iscustomlayout": true,
    "isvisible": true,
    "kuid": "b82e3cae5b004ca9abc95dd1967b4885",
    "name": "kony.ui.Button",
    "paddinginpixel": false,
    "parent": "FlxTranfers",
    "pf": "frmPaymentDashboard",
    "retainflexpositionproperties": true,
    "wType": "Button",
    "zindex": 1
}