{
    "@class": "com.kony.gen.viz.model.component.KVizButton",
    "DNDConfig": null,
    "__parentReadjusting__": false,
    "_height_": {
        "type": "string",
        "value": "42dp"
    },
    "_margin_": [
        6,
        6,
        6,
        6
    ],
    "_padding_": [
        0,
        0,
        0,
        0
    ],
    "_skin_": "s51d68053cae4eba826625de179be4ae",
    "_text_": "CONFIRM",
    "_top_": {
        "type": "string",
        "value": "10.00%"
    },
    "_width_": {
        "type": "string",
        "value": "60%"
    },
    "canUpdateUI": true,
    "centerx": {
        "type": "string",
        "value": "49.97%"
    },
    "containerweight": 100,
    "contentalignment": 5,
    "displaytext": true,
    "focusskin": "sbe13586f59d4a768bfe23c1b619f8c6",
    "id": "btnConfirm",
    "ide_onClick": "AS_Button_f022bd62cc004cc08cb70042c44ddcec",
    "info": null,
    "isvisible": true,
    "kuid": "fd2bc283c981437a8e4554cf845fcbb3",
    "name": "kony.ui.Button",
    "parent": "flxBtnsKA",
    "pf": "frmConfirmDepositKA",
    "texti18n": "i18n.transfers.CONFIRM",
    "wType": "Button"
}