{
    "@class": "com.kony.gen.viz.model.component.KVizButton",
    "DNDConfig": null,
    "__parentReadjusting__": false,
    "_height_": {
        "type": "string",
        "value": "50dp"
    },
    "_margin_": [
        6,
        6,
        6,
        6
    ],
    "_padding_": [
        0,
        0,
        0,
        0
    ],
    "_right_": {
        "type": "string",
        "value": "-15%"
    },
    "_skin_": "s9d8e84c9b7f4084a38c84913ae5748b",
    "_text_": "Cancel",
    "_top_": {
        "type": "string",
        "value": "0dp"
    },
    "_width_": {
        "type": "string",
        "value": "15%"
    },
    "canUpdateUI": true,
    "containerweight": 100,
    "contentalignment": 5,
    "displaytext": true,
    "focusskin": "s55cab51ac7b40b5a2db38b7b9c5822a",
    "id": "cancelButton",
    "ide_onClick": "AS_Button_1d5966c5f19b416db5e133969c1a36e4",
    "info": null,
    "iphone": {
        "psp": {
            "showProgressIndicator": false
        }
    },
    "isvisible": true,
    "kuid": "6c4433eaf7c34e5aa9aaff67ebb0d362",
    "minwidth": {
        "type": "string",
        "value": "50dp"
    },
    "name": "kony.ui.Button",
    "onclick": "AS_Button_1d5966c5f19b416db5e133969c1a36e4",
    "paddinginpixel": false,
    "parent": "titleBarLocator",
    "pf": "frmLocatorKA",
    "showprogressindicator": false,
    "texti18n": "i18n.common.cancel",
    "wType": "Button",
    "zindex": 1
}