{
    "DNDConfig": null,
    "__parentReadjusting__": false,
    "_height_": {
        "type": "string",
        "value": "91%"
    },
    "_left_": {
        "type": "string",
        "value": "0%"
    },
    "_margin_": [
        0,
        0,
        0,
        0
    ],
    "_orientation_": 6,
    "_padding_": [
        0,
        0,
        0,
        0
    ],
    "_percent_": true,
    "_skin_": "sa09764bd0d541618ad31292b382183c",
    "_top_": {
        "type": "string",
        "value": "9%"
    },
    "_width_": {
        "type": "string",
        "value": "100%"
    },
    "allboxes": [],
    "autogrowmode": 0,
    "canUpdateUI": true,
    "children": [
        "btnProfilePhoto",
        "lblPhoneNo",
        "flxTransfer",
        "flxAccount",
        "flxJoMoPayType",
        "flxAmount",
        "flxFees",
        "btnConfirm"
    ],
    "clipbounds": true,
    "containerweight": 100,
    "enablescrolling": true,
    "id": "flxJoMoPayDetails",
    "info": null,
    "isvisible": true,
    "kuid": "ef7e0d20553d40beb3c7227d080cb414",
    "layouttype": 4,
    "name": "kony.ui.FlexContainer",
    "parent": "frmJoMoPayConfirmation",
    "pf": "frmJoMoPayConfirmation",
    "snapgridsize": 10,
    "snaptogrid": true,
    "wType": "FlexContainer",
    "widgetalignment": 1,
    "zindex": 1
}