{
    "@class": "com.kony.gen.viz.model.component.KVizLabel",
    "DNDConfig": null,
    "__parentReadjusting__": false,
    "_height_": {
        "type": "string",
        "value": "32dp"
    },
    "_margin_": [
        1,
        1,
        1,
        1
    ],
    "_padding_": [
        0,
        0,
        0,
        0
    ],
    "_right_": {
        "type": "string",
        "value": "5%"
    },
    "_skin_": "s47b3ec24b354f0aa668e063b34cfbae",
    "_text_": "Available",
    "_top_": {
        "type": "string",
        "value": "3%"
    },
    "_width_": {
        "type": "ref",
        "value": "preferred"
    },
    "_wrapping_": 2,
    "canUpdateUI": true,
    "containerweight": 100,
    "contentalignment": 6,
    "enabled": false,
    "id": "lblAvailable",
    "info": null,
    "ipad": {
        "psp": {
            "wrapping": 2
        }
    },
    "iphone": {
        "psp": {
            "wrapping": 2
        }
    },
    "isvisible": false,
    "kuid": "f855fd12d817467f9852701d43f002be",
    "name": "kony.ui.Label",
    "parent": "flxNewUserID",
    "pf": "frmCreateCredentials",
    "texti18n": "i18n.NUO.Available",
    "tooltip": "",
    "wType": "Label",
    "zindex": 1
}