{
    "@class": "com.kony.gen.viz.model.component.KVizButton",
    "DNDConfig": null,
    "__parentReadjusting__": false,
    "_height_": {
        "type": "string",
        "value": "50dp"
    },
    "_left_": {
        "type": "string",
        "value": "0dp"
    },
    "_margin_": [
        6,
        6,
        6,
        6
    ],
    "_padding_": [
        0,
        0,
        1,
        0
    ],
    "_skin_": "s5eed5c4363f40b3b2abe66c51e40a94",
    "_text_": "Login",
    "_top_": {
        "type": "string",
        "value": "0dp"
    },
    "_width_": {
        "type": "string",
        "value": "58dp"
    },
    "canUpdateUI": true,
    "containerweight": 100,
    "contentalignment": 6,
    "displaytext": true,
    "focusskin": "s5eed5c4363f40b3b2abe66c51e40a94",
    "id": "btnLogin",
    "ide_onClick": "AS_Button_bb1c48de43ac45aa89f4de7c0cf4483c",
    "info": null,
    "isvisible": true,
    "kuid": "de9e009c7a2a47eea79d74ad5ec92fd5",
    "name": "kony.ui.Button",
    "paddinginpixel": false,
    "parent": "androidTitleBar",
    "pf": "frmContactUsKA",
    "texti18n": "i18n.login.loginBOJ",
    "wType": "Button",
    "zindex": 2
}