{
    "@class": "com.kony.gen.viz.model.component.KVizButton",
    "DNDConfig": null,
    "__parentReadjusting__": false,
    "_height_": {
        "type": "string",
        "value": "100%"
    },
    "_left_": {
        "type": "string",
        "value": "66.66%"
    },
    "_margin_": [
        6,
        6,
        6,
        6
    ],
    "_padding_": [
        0,
        1,
        0,
        0
    ],
    "_skin_": "s40a6a9a8b544c4eafeeddb11dd24bbe",
    "_text_": "INFO",
    "_top_": {
        "type": "string",
        "value": "0dp"
    },
    "_width_": {
        "type": "string",
        "value": "33.33%"
    },
    "canUpdateUI": true,
    "containerweight": 100,
    "contentalignment": 5,
    "displaytext": true,
    "focusskin": "s80191b6ac7b456395dfcf46858959f6",
    "id": "btnInfoKA",
    "ide_onClick": "AS_Button_cd131e274b4b4060b305f992c113351e",
    "info": null,
    "iphone": {
        "psp": {
            "showProgressIndicator": false
        }
    },
    "isvisible": true,
    "kuid": "dc712d8f1df7457186ddcb4b53e6dbc1",
    "name": "kony.ui.Button",
    "onclick": "AS_Button_d2238de200444d63b227dd2292c1e0fc",
    "paddinginpixel": false,
    "parent": "tabsWrapper",
    "pf": "frmCheckingJoint",
    "showprogressindicator": false,
    "texti18n": "i18n.opening_account.btnInfo",
    "wType": "Button"
}