{
    "@class": "com.kony.gen.viz.model.component.KVizRichText",
    "DNDConfig": null,
    "__markedForDelete__": true,
    "__parentReadjusting__": false,
    "_height_": {
        "type": "ref",
        "value": "preferred"
    },
    "_left_": {
        "type": "string",
        "value": "0dp"
    },
    "_margin_": [
        0,
        0,
        0,
        0
    ],
    "_padding_": [
        5,
        2,
        2,
        0
    ],
    "_skin_": "s441cf7f1ea642b89dab44a82d831225",
    "_text_": "Basic Information about this card. Show only the vary description here. If there are more info, we can show the link here as shown more.\n",
    "_top_": {
        "type": "string",
        "value": "75%"
    },
    "_width_": {
        "type": "string",
        "value": "100%"
    },
    "_wrapping_": 2,
    "canUpdateUI": true,
    "containerweight": 100,
    "contentalignment": 4,
    "id": "CopyRichTextInfo0f5bafb46d5c14b",
    "info": null,
    "isvisible": true,
    "kuid": "b2e187d7d29749e6bcfe8308172e3b86",
    "name": "kony.ui.RichText",
    "paddinginpixel": false,
    "parent": "flxContent",
    "pf": "frmCheckingJoint",
    "wType": "RichText",
    "widgetalignment": 5,
    "zindex": 1
}