{
    "@class": "com.kony.gen.viz.model.component.KVizRichText",
    "DNDConfig": null,
    "__parentReadjusting__": false,
    "_height_": {
        "type": "ref",
        "value": "preferred"
    },
    "_left_": {
        "type": "string",
        "value": "0dp"
    },
    "_margin_": [
        0,
        0,
        0,
        0
    ],
    "_padding_": [
        5,
        2,
        2,
        0
    ],
    "_skin_": "s441cf7f1ea642b89dab44a82d831225",
    "_text_": "RichText",
    "_top_": {
        "type": "string",
        "value": "56dp"
    },
    "_width_": {
        "type": "string",
        "value": "100%"
    },
    "_wrapping_": 2,
    "canUpdateUI": true,
    "containerweight": 100,
    "contentalignment": 4,
    "id": "RichTextInfo",
    "info": null,
    "isvisible": true,
    "kuid": "c60ce41188964277bb8b11c1a9562ef9",
    "name": "kony.ui.RichText",
    "paddinginpixel": false,
    "parent": "FlxMainContainer",
    "pf": "frmCheckingJoint",
    "wType": "RichText",
    "widgetalignment": 5,
    "zindex": 1
}