{
    "AS_Button_1b501708bba54dfda2ecc57b75a4c8da": {
        "id": "AS_Button_1b501708bba54dfda2ecc57b75a4c8da",
        "type": "ACTION_SEQUENCE",
        "name": "AccountAlertsOnIOSBack",
        "params": [{
            "datatype": "collection",
            "name": "eventobject"
        }],
        "contextObj": {
            "name": "frmAccountAlertsKA",
            "type": "forms",
            "platform": null,
            "KUID": "bbe7fc072c444a808e3b02f2d737512c"
        },
        "language": "js",
        "actions": [{
            "id": "ADD_SNIPPET__da183f85e5684e74925157c3fea38842",
            "type": "ADD_SNIPPET",
            "codeSnippet": "showAlertsForm();",
            "parentId": null,
            "callbackType": null
        }]
    }
}