{
    "AS_Segment_5af57cfacfdb4f8abbcf26b244058260": {
        "id": "AS_Segment_5af57cfacfdb4f8abbcf26b244058260",
        "type": "ACTION_SEQUENCE",
        "name": "AccountTypeOnrowClick",
        "params": [{
            "datatype": "collection",
            "name": "eventobject"
        }, {
            "datatype": "number",
            "name": "sectionNumber"
        }, {
            "datatype": "number",
            "name": "rowNumber"
        }],
        "contextObj": {
            "name": "frmPickAProductKA",
            "type": "forms",
            "platform": "",
            "KUID": "fb0d7cb6e36141918ff0ac0c1e74c2ed"
        },
        "language": "js",
        "actions": [{
            "id": "ADD_SNIPPET__cca2b10ba5c5437d89377d13abdbd505",
            "type": "ADD_SNIPPET",
            "codeSnippet": "settingAccountValues();\nshowAccountsTermsAndCond();",
            "parentId": null,
            "callbackType": null
        }]
    }
}