{
    "AS_Button_d737d360803743d186ba859be47dee16": {
        "id": "AS_Button_d737d360803743d186ba859be47dee16",
        "type": "ACTION_SEQUENCE",
        "name": "AccountTandCOnbuttonClick",
        "params": [{
            "datatype": "collection",
            "name": "eventobject"
        }],
        "language": "js",
        "actions": [{
            "id": "ADD_SNIPPET__5daa7b415ab6451f89eed1d4a2039381",
            "type": "ADD_SNIPPET",
            "codeSnippet": "openEnterLocation();",
            "parentId": null,
            "callbackType": null
        }]
    }
}