{
    "AS_FlexContainer_5cfb1b3a84df49e398fcbf0a45fc0706": {
        "id": "AS_FlexContainer_5cfb1b3a84df49e398fcbf0a45fc0706",
        "type": "ACTION_SEQUENCE",
        "name": "AccountAlertsDebitOnClick",
        "params": [{
            "datatype": "collection",
            "name": "eventobject"
        }],
        "contextObj": {
            "name": "frmAccountAlertsKA",
            "type": "forms",
            "platform": "",
            "KUID": "bbe7fc072c444a808e3b02f2d737512c"
        },
        "language": "js",
        "actions": [{
            "id": "ADD_SNIPPET__3a431c43dd274ef18971c491ec7a4c06",
            "type": "ADD_SNIPPET",
            "codeSnippet": "if(kony.os.userAgent()==\"iPhone\")\n  AlertsStatusUpdate(\"Debit Limit\",frmAccountAlertsKA.account.text,\"\");\nelse\n  AlertsStatusUpdate(\"Debit Limit\",frmAccountAlertsKA.accountandro.text,\"\");",
            "parentId": null,
            "callbackType": null
        }]
    }
}