{
    "AS_Image_a99713b0563b479098da7d450a6a1ab5": {
        "id": "AS_Image_a99713b0563b479098da7d450a6a1ab5",
        "type": "ACTION_SEQUENCE",
        "name": "ActiontoCloseAddreessProof",
        "params": [{
            "datatype": "collection",
            "name": "eventobject"
        }, {
            "datatype": "string",
            "name": "x"
        }, {
            "datatype": "string",
            "name": "y"
        }],
        "contextObj": {
            "type": "forms",
            "platform": "",
            "KUID": "d242d2d8afb149ed92b8c43908766e71"
        },
        "language": "js",
        "actions": [{
            "id": "ADD_SNIPPET__f2137f06a92b4fb5bce5950318caf1dc",
            "type": "ADD_SNIPPET",
            "codeSnippet": "kony.print(\"Deleted\");",
            "parentId": null,
            "callbackType": null
        }]
    }
}