{
    "AS_Segment_h1b8af24767d406fae1782431dde009e": {
        "id": "AS_Segment_h1b8af24767d406fae1782431dde009e",
        "type": "ACTION_SEQUENCE",
        "name": "actionOnMaritalSeg",
        "params": [{
            "datatype": "collection",
            "name": "eventobject"
        }, {
            "datatype": "number",
            "name": "sectionNumber"
        }, {
            "datatype": "number",
            "name": "rowNumber"
        }],
        "contextObj": {
            "type": "forms",
            "platform": "",
            "KUID": "i5fdc67c266a42c59e6302f1645d0c56"
        },
        "language": "js",
        "actions": [{
            "id": "ADD_SNIPPET__bff1b2f83f6645c2acbd68af1a935d34",
            "type": "ADD_SNIPPET",
            "codeSnippet": "kony.print(\"Deleted\");",
            "parentId": null,
            "callbackType": null
        }]
    }
}