{
    "AS_Button_ieeec9fa424b4ad2a43c00f443353c56": {
        "id": "AS_Button_ieeec9fa424b4ad2a43c00f443353c56",
        "type": "ACTION_SEQUENCE",
        "name": "actionBtnCurrentLocation",
        "params": [{
            "datatype": "collection",
            "name": "eventobject"
        }],
        "contextObj": {
            "type": "forms",
            "platform": "",
            "KUID": "a2253cabb2f14a39a14731c9ca70cb2c"
        },
        "language": "js",
        "actions": [{
            "id": "ADD_SNIPPET__bcd65496a9854409b960a37f3a1cc618",
            "type": "ADD_SNIPPET",
            "codeSnippet": "kony.print(\"Deleted\");",
            "parentId": null,
            "callbackType": null
        }]
    }
}