{
    "AS_Button_e2b8bb70bb474877b27186ae00ae04c1": {
        "id": "AS_Button_e2b8bb70bb474877b27186ae00ae04c1",
        "type": "ACTION_SEQUENCE",
        "name": "actionOnEmailLogin",
        "params": [{
            "datatype": "collection",
            "name": "eventobject"
        }],
        "contextObj": {
            "type": "forms",
            "platform": "",
            "KUID": "i2216dbab50146c68fa5b602e7af210e"
        },
        "language": "js",
        "actions": [{
            "id": "ADD_SNIPPET__e93e3bee1c154285a2d98345cbe1abd1",
            "type": "ADD_SNIPPET",
            "codeSnippet": "kony.print(\"Deleted\");",
            "parentId": null,
            "callbackType": null
        }]
    }
}