{
    "AS_Map_c1e6ad3548734d8aaf01d069fda5c56b": {
        "id": "AS_Map_c1e6ad3548734d8aaf01d069fda5c56b",
        "type": "ACTION_SEQUENCE",
        "name": "actionOnBoundsChangedForMap",
        "params": [{
            "datatype": "collection",
            "name": "eventobject"
        }, {
            "datatype": "collection",
            "name": "boundaryLocations"
        }],
        "contextObj": {
            "type": "forms",
            "platform": "",
            "KUID": "a2253cabb2f14a39a14731c9ca70cb2c"
        },
        "language": "js",
        "actions": [{
            "id": "ADD_SNIPPET__a466cb8d4fab4002865af48e0ccf0363",
            "type": "ADD_SNIPPET",
            "codeSnippet": "kony.print(\"Deleted\");",
            "parentId": null,
            "callbackType": null
        }]
    }
}