{
    "AS_TextField_ddb7ec282d554c1bbca7d924f0ebe45f": {
        "id": "AS_TextField_ddb7ec282d554c1bbca7d924f0ebe45f",
        "type": "ACTION_SEQUENCE",
        "name": "actionForOnTextChangeReEnterPassword",
        "params": [{
            "datatype": "collection",
            "name": "eventobject"
        }, {
            "datatype": "string",
            "name": "changedtext"
        }],
        "contextObj": {
            "name": "frmCreateCredentials",
            "type": "forms",
            "platform": "",
            "KUID": "ec144124e44d4336b9c86f2ab49591df"
        },
        "language": "js",
        "actions": [{
            "id": "ADD_SNIPPET__d0da0eb0c3ee4c2bb471b9f58084f221",
            "type": "ADD_SNIPPET",
            "codeSnippet": "var VC = new kony.rb.frmCreateCredentialsViewController();\n VC.onTextChangeReEnterPassword();",
            "parentId": null,
            "callbackType": null
        }]
    }
}