{
    "AS_TextField_ab1e8c75615c48dcbc8657ba15be4249": {
        "id": "AS_TextField_ab1e8c75615c48dcbc8657ba15be4249",
        "type": "ACTION_SEQUENCE",
        "name": "actionOnTxtChangeOfMonth",
        "params": [{
            "datatype": "collection",
            "name": "eventobject"
        }, {
            "datatype": "string",
            "name": "changedtext"
        }],
        "contextObj": {
            "type": "forms",
            "platform": "",
            "KUID": "g01e44fc626946168f2084ad3d64d5ff"
        },
        "language": "js",
        "actions": [{
            "id": "ADD_SNIPPET__f90efff0f32b4c8b84a8b9018242c4c6",
            "type": "ADD_SNIPPET",
            "codeSnippet": "kony.print(\"Deleted\");",
            "parentId": null,
            "callbackType": null
        }]
    }
}