{
    "AS_Button_ba8b500ca01f40bfa414b2ecc956d375": {
        "id": "AS_Button_ba8b500ca01f40bfa414b2ecc956d375",
        "type": "ACTION_SEQUENCE",
        "name": "actionOnGenderLogout",
        "params": [{
            "datatype": "collection",
            "name": "eventobject"
        }],
        "language": "js",
        "actions": [{
            "id": "SHOW_ALERT_ide_onClick_d1ff8abae9be4604beda08ca2c50218f",
            "type": "SHOW_ALERT",
            "alertType": "constants.ALERT_TYPE_CONFIRMATION",
            "alertTitle": "Confirm Sign Out",
            "yesLabel": "Sign Out",
            "noLabel": "Cancel",
            "alertMessage": "Are you sure you want to sign out?",
            "messageType": "constant",
            "alertTitlei18n": "i18n.common.confirmSignOut",
            "yesLabeli18n": "i18n.common.signOut",
            "noLabeli18n": "i18n.common.cancel",
            "alertMessagei18n": "i18n.common.signOutAlert",
            "iconPosition": "constants.ALERT_ICON_POSITION_LEFT"
        }, {
            "id": "ADD_SNIPPET_ide_onClick_a84ea621733a48ee8135c493a6a27963",
            "type": "ADD_SNIPPET",
            "codeSnippet": "kony.print(\"Deleted\");",
            "parentId": "SHOW_ALERT_ide_onClick_d1ff8abae9be4604beda08ca2c50218f",
            "callbackType": "True"
        }]
    }
}