{
    "AS_Button_g8cee189a07e4cafac17edd96efaf5f9": {
        "id": "AS_Button_g8cee189a07e4cafac17edd96efaf5f9",
        "type": "ACTION_SEQUENCE",
        "name": "actionOnClickSubmitInApplicationDetailsForm",
        "params": [{
            "datatype": "collection",
            "name": "eventobject"
        }],
        "contextObj": {
            "type": "forms",
            "platform": "",
            "KUID": "ga7736001df94de48b40dcd1e0f5f7da"
        },
        "language": "js",
        "actions": [{
            "id": "ADD_SNIPPET__ea3bd1a54f4d4e5aac76f8c99faa130c",
            "type": "ADD_SNIPPET",
            "codeSnippet": "kony.print(\"Deleted\");",
            "parentId": null,
            "callbackType": null
        }]
    }
}