{
    "AS_Button_c58f3be947944139864c1fbbc53aaf20": {
        "id": "AS_Button_c58f3be947944139864c1fbbc53aaf20",
        "type": "ACTION_SEQUENCE",
        "name": "actionOnBtnLoginHere",
        "params": [{
            "datatype": "collection",
            "name": "eventobject"
        }],
        "contextObj": {
            "type": "forms",
            "platform": null,
            "KUID": "f3b3462928874d15a83d38c7499a4968"
        },
        "language": "js",
        "actions": [{
            "id": "ADD_SNIPPET_ide_onClick_e30d9a3a40104897b15e2f8edede64b0",
            "type": "ADD_SNIPPET",
            "codeSnippet": "kony.print(\"Deleted\");",
            "callbackType": null
        }]
    }
}