{
    "AS_Image_f564c42717ed485eafd92966ba4f2c9b": {
        "id": "AS_Image_f564c42717ed485eafd92966ba4f2c9b",
        "type": "ACTION_SEQUENCE",
        "name": "ActionToCloseEmployeeProof",
        "params": [{
            "datatype": "collection",
            "name": "eventobject"
        }, {
            "datatype": "string",
            "name": "x"
        }, {
            "datatype": "string",
            "name": "y"
        }],
        "contextObj": {
            "type": "forms",
            "platform": "",
            "KUID": "d242d2d8afb149ed92b8c43908766e71"
        },
        "language": "js",
        "actions": [{
            "id": "ADD_SNIPPET__e51eebb0a2494046bb339226b33b7b7f",
            "type": "ADD_SNIPPET",
            "codeSnippet": "kony.print(\"Deleted\");",
            "parentId": null,
            "callbackType": null
        }]
    }
}