{
    "AS_Button_d80266aaacd1406ea8fc567fa02ca9a1": {
        "id": "AS_Button_d80266aaacd1406ea8fc567fa02ca9a1",
        "type": "ACTION_SEQUENCE",
        "name": "actionOnbtnCaptureBackOfID",
        "params": [{
            "datatype": "collection",
            "name": "eventobject"
        }],
        "contextObj": {
            "type": "forms",
            "platform": "",
            "KUID": "c6126cae9d6b429daa15b7c382b1b773"
        },
        "language": "js",
        "actions": [{
            "id": "ADD_SNIPPET__b693dd7901814e00aa9ac794eb50e4d6",
            "type": "ADD_SNIPPET",
            "codeSnippet": "kony.print(\"Deleted\");",
            "parentId": null,
            "callbackType": null
        }]
    }
}