{
    "AS_Form_j847bcd0395f4f31a03e30570b14ac44": {
        "id": "AS_Form_j847bcd0395f4f31a03e30570b14ac44",
        "type": "ACTION_SEQUENCE",
        "name": "actionNewAccountInit",
        "params": [{
            "datatype": "collection",
            "name": "eventobject"
        }],
        "contextObj": {
            "type": "forms",
            "platform": "",
            "KUID": "ae9bd585c9dc472abb9f4a818592681b"
        },
        "language": "js",
        "actions": [{
            "id": "ADD_SNIPPET__b1c93628793d4e19883c7c1898ceb895",
            "type": "ADD_SNIPPET",
            "codeSnippet": "kony.print(\"Deleted\");",
            "parentId": null,
            "callbackType": null
        }]
    }
}