{
    "AS_Button_e8b81843c5764f02a8e1ab32a6572b70": {
        "id": "AS_Button_e8b81843c5764f02a8e1ab32a6572b70",
        "type": "ACTION_SEQUENCE",
        "name": "actOnAddBack",
        "params": [{
            "datatype": "collection",
            "name": "eventobject"
        }],
        "language": "js",
        "actions": [{
            "id": "ADD_SNIPPET_ide_onClick_e418d91717a140ffa43a2007b18941e1",
            "type": "ADD_SNIPPET",
            "codeSnippet": "kony.print(\"Deleted\");",
            "callbackType": null
        }]
    }
}