{
    "AS_Form_ie72aad77fe64684b5ea60ae14d5e15a": {
        "id": "AS_Form_ie72aad77fe64684b5ea60ae14d5e15a",
        "type": "ACTION_SEQUENCE",
        "name": "afwanJomopayLandingPreshow",
        "params": [{
            "datatype": "collection",
            "name": "eventobject"
        }],
        "contextObj": {
            "type": "forms",
            "platform": "",
            "KUID": "c86898c50c7a4b78b566cfbdc7526d13"
        },
        "language": "js",
        "actions": [{
            "id": "ADD_SNIPPET__i7d1f2f5d4c44fc892cceed95cab0981",
            "type": "ADD_SNIPPET",
            "codeSnippet": "",
            "parentId": null,
            "callbackType": null
        }]
    }
}