{
    "AS_Button_b32e845cb7c34024aa898ec05ab003f4": {
        "id": "AS_Button_b32e845cb7c34024aa898ec05ab003f4",
        "type": "ACTION_SEQUENCE",
        "name": "afwan",
        "params": [{
            "datatype": "collection",
            "name": "eventobject"
        }],
        "contextObj": {
            "name": "frmPaymentDashboard",
            "type": "forms",
            "platform": "",
            "KUID": "j5584f57cd764e66adb4087c6fc15f67"
        },
        "language": "js",
        "actions": [{
            "id": "ADD_SNIPPET__cc5f9a73ecbe4ca2a23d0765e76bc975",
            "type": "ADD_SNIPPET",
            "codeSnippet": "",
            "parentId": null,
            "callbackType": null
        }]
    }
}