{
    "AS_Button_d887dec828b24771a16bc094ee161ec2": {
        "id": "AS_Button_d887dec828b24771a16bc094ee161ec2",
        "type": "ACTION_SEQUENCE",
        "name": "afwanNavigatetoJomopayfromcontacts",
        "params": [{
            "datatype": "collection",
            "name": "eventobject"
        }],
        "language": "js",
        "actions": [{
            "id": "ADD_SNIPPET_ide_onClick_b91d05a7a0364a5f9f055ba3b0382c2c",
            "type": "ADD_SNIPPET",
            "codeSnippet": "frmJoMoPay.show();",
            "callbackType": null
        }]
    }
}