{
    "AS_Button_g72ce29dd91c4ccb9dc6629449749664": {
        "id": "AS_Button_g72ce29dd91c4ccb9dc6629449749664",
        "type": "ACTION_SEQUENCE",
        "name": "afwanNavigatetoContactList",
        "params": [{
            "datatype": "collection",
            "name": "eventobject"
        }],
        "contextObj": {
            "name": "frmJoMoPay",
            "type": "forms",
            "platform": "",
            "KUID": "d41a38dfc97d4e0a8f3b1db96d6a1ca0"
        },
        "language": "js",
        "actions": [{
            "id": "ADD_SNIPPET__j7156a3eb7c143e49acdf2cdd53ad1b8",
            "type": "ADD_SNIPPET",
            "codeSnippet": "if(kony.application.getCurrentForm().id === \"frmJoMoPay\"){\n\tanimateLabel(\"UP\",\"lblBeneficiaryStaticText\",frmJoMoPay.txtPhoneNo.text);\n}else if(kony.application.getCurrentForm().id === \"frmJOMOPayAddBiller\"){\n\tanimate_NEWCARDSOPTIOS(\"UP\", \"lblBeneficiaryMobileTitle\", frmJOMOPayAddBiller.txtBeneficiaryMobile.text);\n}\ngetDataOfContats();",
            "parentId": null,
            "callbackType": null
        }]
    }
}