{
    "AS_Switch_fd37c81d67da4812bfc3decd982edeb1": {
        "id": "AS_Switch_fd37c81d67da4812bfc3decd982edeb1",
        "type": "ACTION_SEQUENCE",
        "name": "AlertsIosClearCheckOnClick",
        "params": [{
            "datatype": "collection",
            "name": "eventobject"
        }],
        "language": "js",
        "actions": [{
            "id": "ADD_SNIPPET_ide_onSlide_4ff0b77935b84081a7c2e78fa455fa27",
            "type": "ADD_SNIPPET",
            "codeSnippet": " if(frmAccountAlertsKA.checkClearanceSwitchAlert.selectedIndex===1)\n    {\n      frmAccountAlertsKA.HiddenCheckClear.text=\"false\";\n      }else\n      {  \t\n        frmAccountAlertsKA.HiddenCheckClear.text=\"true\";\n\t }\nvar INSTANCE = kony.sdk.mvvm.KonyApplicationContext.getAppInstance();\nvar controller = INSTANCE.getFormController(\"frmAccountAlertsKA\");\ncontroller.performAction(\"saveData\");",
            "callbackType": null
        }]
    }
}