{
    "AS_Switch_9427f0adb971400a9262b20aa570b77c": {
        "id": "AS_Switch_9427f0adb971400a9262b20aa570b77c",
        "type": "ACTION_SEQUENCE",
        "name": "AlertsIosSuccessTransferOnClick",
        "params": [{
            "datatype": "collection",
            "name": "eventobject"
        }],
        "language": "js",
        "actions": [{
            "id": "ADD_SNIPPET_ide_onSlide_186f828b58134d2d973ef32a508b0da0",
            "type": "ADD_SNIPPET",
            "codeSnippet": " if(frmAccountAlertsKA.SuccessTransferSwitchAlert.selectedIndex===1)\n    {\n      frmAccountAlertsKA.HiddenSuccessTransfer.text=\"false\";\n      }else\n      {  \t\n        frmAccountAlertsKA.HiddenSuccessTransfer.text=\"true\";\n\t }\nvar INSTANCE = kony.sdk.mvvm.KonyApplicationContext.getAppInstance();\nvar controller = INSTANCE.getFormController(\"frmAccountAlertsKA\");\ncontroller.performAction(\"saveData\");",
            "callbackType": null
        }]
    }
}