{
    "AS_TextField_d73fbb049c8848d184432e4d2c245e79": {
        "id": "AS_TextField_d73fbb049c8848d184432e4d2c245e79",
        "type": "ACTION_SEQUENCE",
        "name": "animateRegisterConfrmPasswordLabelDown",
        "params": [{
            "datatype": "collection",
            "name": "eventobject"
        }, {
            "datatype": "string",
            "name": "changedtext"
        }],
        "contextObj": {
            "name": "frmEnrolluserLandingKA",
            "type": "forms",
            "platform": "",
            "KUID": "de724966138b4e7c9bfdd35033a0bdb3"
        },
        "language": "js",
        "actions": [{
            "id": "ADD_SNIPPET__ab6bb2dc51a74b45bae5d2a0cd05b4f5",
            "type": "ADD_SNIPPET",
            "codeSnippet": "if(kony.retailBanking.util.validation.isValidPassword(frmEnrolluserLandingKA.tbxPasswordKA.text) && validateConfirmPassword(frmEnrolluserLandingKA.tbxPasswordKA.text, frmEnrolluserLandingKA.tbxConfrmPwdKA.text)){\n  frmEnrolluserLandingKA.flxUnderlineConfirmPassword.skin = \"sknFlxGreenLine\";\n  confrmPasswordFlag = true;\n}\nelse{\n  frmEnrolluserLandingKA.flxUnderlineConfirmPassword.skin = \"sknFlxOrangeLine\";\n  confrmPasswordFlag = false;\n}\n\nif (kony.sdk.isNetworkAvailable()) {\n    if (frmEnrolluserLandingKA.lblNext.skin == \"sknLblNextEnabled\" && gblFromModule !== \"ChangePassword\" && gblFromModule !== \"ChangeUsername\") {\n          ShowLoadingScreen();  \n      callSave();\n    }\n} else {\n    kony.sdk.mvvm.KonyApplicationContext.dismissLoadingScreen();\n        customAlertPopup(\"\", kony.i18n.getLocalizedString(\"i18n.errorMsg.deviceConnectionError\"), popupCommonAlertDimiss, \"\");\n}\n\nanimateLabel(\"DOWN\", \"lblConfirmPassword\", frmEnrolluserLandingKA.tbxConfrmPwdKA.text);",
            "parentId": null,
            "callbackType": null
        }]
    }
}