{
    "AS_Button_ea63927fc31c4c07aa084fbb9c85b6ba": {
        "id": "AS_Button_ea63927fc31c4c07aa084fbb9c85b6ba",
        "type": "ACTION_SEQUENCE",
        "params": [{
            "datatype": "collection",
            "name": "eventobject"
        }],
        "contextObj": {
            "name": "frmAccountDetailKA",
            "type": "forms",
            "platform": "",
            "KUID": "5ed703cad63c441882fc4a36f5ea0c28"
        },
        "language": "js",
        "actions": [{
            "id": "ADD_SNIPPET__c4a2d59efefc4ceba060359229844bb6",
            "type": "ADD_SNIPPET",
            "codeSnippet": "kony.print(\"asdasd\");",
            "parentId": null,
            "callbackType": null
        }]
    }
}