{
    "AS_Button_hc140283e13d49269ba4347b31663091": {
        "id": "AS_Button_hc140283e13d49269ba4347b31663091",
        "type": "ACTION_SEQUENCE",
        "name": "AS_Button_clickCallCreateNewSubAccountType",
        "params": [{
            "datatype": "collection",
            "name": "eventobject"
        }],
        "language": "js",
        "actions": [{
            "id": "ADD_SNIPPET_ide_onClick_d450d60c649647ff9fc7955d85c7eb8d",
            "type": "ADD_SNIPPET",
            "codeSnippet": "if(frmNewSubAccountConfirm.lblCheck1.text === \"p\"){\n  callConfirmCreateNewSubAccount();\n}else{\n      customAlertPopup(geti18Value(\"i18n.maps.Info\"), geti18Value(\"i18n.common.pleaseSelectCheckBox\"),popupCommonAlertDimiss, \"\");\n}\n\n",
            "callbackType": null
        }]
    }
}