{
    "AS_Button_c0caaab8b4db4b878aba4e808411fa3f": {
        "id": "AS_Button_c0caaab8b4db4b878aba4e808411fa3f",
        "type": "ACTION_SEQUENCE",
        "params": [{
            "datatype": "collection",
            "name": "eventobject"
        }],
        "contextObj": {
            "type": "forms",
            "platform": null,
            "KUID": "6eb320a5ff4c42d8bf0ce564370c64ff"
        },
        "language": "js",
        "actions": [{
            "id": "ADD_SNIPPET__f9b027d3e0f4471aa7fc193cf7566cb5",
            "type": "ADD_SNIPPET",
            "codeSnippet": "gobackFormUncatTrans();",
            "parentId": null,
            "callbackType": null
        }]
    }
}