{
    "AS_Button_f81cc87e3b19432897cb0fb6d347ec9c": {
        "id": "AS_Button_f81cc87e3b19432897cb0fb6d347ec9c",
        "type": "ACTION_SEQUENCE",
        "params": [{
            "datatype": "collection",
            "name": "eventobject"
        }],
        "contextObj": {
            "type": "forms",
            "platform": "",
            "KUID": "cb977d23d25e44d0968c446c681f4dc7"
        },
        "language": "js",
        "actions": [{
            "id": "ADD_SNIPPET__af63d017ebdf4a89a0020be6ad6a6797",
            "type": "ADD_SNIPPET",
            "codeSnippet": "var seQ = applicationManager.getSecurityQuestionsViewController();\nseQ.clickOnNext();",
            "parentId": null,
            "callbackType": null
        }]
    }
}