{
    "AS_Button_df273394ea8a4d0584d3114659b360cc": {
        "id": "AS_Button_df273394ea8a4d0584d3114659b360cc",
        "type": "ACTION_SEQUENCE",
        "params": [{
            "datatype": "collection",
            "name": "eventobject"
        }],
        "contextObj": {
            "name": "frmAddNewPayeeKA",
            "type": "forms",
            "platform": "",
            "KUID": "22b994296d374ff48427012b2b05feb7"
        },
        "language": "js",
        "actions": []
    }
}