{
    "AS_Button_4c1da346684040ea80e96c73581ac235": {
        "id": "AS_Button_4c1da346684040ea80e96c73581ac235",
        "type": "ACTION_SEQUENCE",
        "params": [{
            "datatype": "collection",
            "name": "eventobject"
        }],
        "language": "js",
        "actions": [{
            "id": "ADD_SNIPPET_ide_onClick_7aae14f67a4d4bc0849e0c1f1ed6aec4",
            "type": "ADD_SNIPPET",
            "codeSnippet": "onClickLocateUS(false,\"frmLoginKA\");",
            "callbackType": null
        }]
    }
}