{
    "AS_Button_g99a40b8babe4f939457b51f3ee27eb0": {
        "id": "AS_Button_g99a40b8babe4f939457b51f3ee27eb0",
        "type": "ACTION_SEQUENCE",
        "params": [{
            "datatype": "collection",
            "name": "eventobject"
        }],
        "language": "js",
        "actions": [{
            "id": "ADD_SNIPPET_ide_onClick_g5e61eec5cda416991898507ade17d8d",
            "type": "ADD_SNIPPET",
            "codeSnippet": "customAlertPopup(geti18Value(\"i18n.common.AreYouSure\"), \n                 geti18Value(\"i18n.Bene.backFromBeneError\"),\n                kony.boj.onClickYesBackAddBene, popupCommonAlertDimiss, \n                geti18Value(\"i18n.common.YES\"),\n                geti18Value(\"i18n.common.NO\"));",
            "callbackType": null
        }]
    }
}