{
    "AS_Button_eb34910090f64169bfb06729ce47ddc9": {
        "id": "AS_Button_eb34910090f64169bfb06729ce47ddc9",
        "type": "ACTION_SEQUENCE",
        "params": [{
            "datatype": "collection",
            "name": "eventobject"
        }],
        "contextObj": {
            "name": "frmAddNewPrePayeeKA",
            "type": "forms",
            "platform": null,
            "KUID": "a843292d9c674ff7ba10a9b594b7e7e5"
        },
        "language": "js",
        "actions": [{
            "id": "ADD_SNIPPET_ide_onClick_bfd218141fb3447487436fb46437977a",
            "type": "ADD_SNIPPET",
            "codeSnippet": "  frmAddNewPayeeKA.btnPostPaid.skin = \"slButtonWhiteTabDisabled\";\n  frmAddNewPayeeKA.btnPrePaid.skin = \"slButtonWhiteTab\";\n\n  kony.boj.selectedBillerType = \"PrePaid\";\n  //kony.boj.restoreBillerTabDetails();\n  //kony.boj.restoreTextboxAddBiller();",
            "callbackType": null
        }]
    }
}