{
    "AS_Button_d8d7a873581b457c93cc916abca2ee8f": {
        "id": "AS_Button_d8d7a873581b457c93cc916abca2ee8f",
        "type": "ACTION_SEQUENCE",
        "params": [{
            "datatype": "collection",
            "name": "eventobject"
        }],
        "contextObj": {
            "name": "frmAccountDetailKA",
            "type": "forms",
            "platform": "",
            "KUID": "5ed703cad63c441882fc4a36f5ea0c28"
        },
        "language": "js",
        "actions": [{
            "id": "ADD_SNIPPET__bbc08f93a87b40d6a0c4e96c4e187a28",
            "type": "ADD_SNIPPET",
            "codeSnippet": "kony.print(\"asdsa\");",
            "parentId": null,
            "callbackType": null
        }]
    }
}