{
    "AS_Button_a3ecc24341644f45aef4b5c73ef13d47": {
        "id": "AS_Button_a3ecc24341644f45aef4b5c73ef13d47",
        "type": "ACTION_SEQUENCE",
        "params": [{
            "datatype": "collection",
            "name": "eventobject"
        }],
        "language": "js",
        "actions": [{
            "id": "ADD_SNIPPET_ide_onClick_e5a7e3a5ae914d99a8ea464fbbaf68e7",
            "type": "ADD_SNIPPET",
            "codeSnippet": "frmEPS.btntext.skin = sknOrangeBGRNDBOJ;\nfrmEPS.btnMobile.skin = slButtonBlueFocus;\nif(frmEPS.btntext.skin == sknOrangeBGRNDBOJ){\n  animateLabel(\"UP\", \"lblAliasName\",frmEPS.lblAliasName.text);\n  frmEPS.lblAliasName.text = \"Alias Name\";\n}\n",
            "callbackType": null
        }]
    }
}