{
    "AS_Button_c80db98935664119a2b04f43956093e2": {
        "id": "AS_Button_c80db98935664119a2b04f43956093e2",
        "type": "ACTION_SEQUENCE",
        "params": [{
            "datatype": "collection",
            "name": "eventobject"
        }],
        "contextObj": {
            "name": "frmAccountDetailKA",
            "type": "forms",
            "platform": "",
            "KUID": "5ed703cad63c441882fc4a36f5ea0c28"
        },
        "language": "js",
        "actions": [{
            "id": "ADD_SNIPPET__b2fbeb690563422796cab98c6eac57c2",
            "type": "ADD_SNIPPET",
            "codeSnippet": "kony.print(\"sadasd\");",
            "parentId": null,
            "callbackType": null
        }]
    }
}