{
    "AS_Button_d5eae8f65af84ddcac41ad55c3ec034a": {
        "id": "AS_Button_d5eae8f65af84ddcac41ad55c3ec034a",
        "type": "ACTION_SEQUENCE",
        "params": [{
            "datatype": "collection",
            "name": "eventobject"
        }],
        "contextObj": {
            "name": "frmNewTransferKA",
            "type": "forms",
            "platform": "",
            "KUID": "2ac343500306428da0ceef91a3b44d18"
        },
        "language": "js",
        "actions": [{
            "id": "ADD_SNIPPET__03a7479a03164c6c8d4eb5b1eb8247c4",
            "type": "ADD_SNIPPET",
            "codeSnippet": "RecurringChanges(\"1\");",
            "parentId": null,
            "callbackType": null
        }, {
            "id": "OPEN_URL__322781dffc83412fab7d88cf3d4c941a",
            "type": "OPEN_URL",
            "url": null,
            "parentId": null,
            "callbackType": null
        }]
    }
}