{
    "AS_Button_e2690acf9b13405ab06b98d71233229f": {
        "id": "AS_Button_e2690acf9b13405ab06b98d71233229f",
        "type": "ACTION_SEQUENCE",
        "params": [{
            "datatype": "collection",
            "name": "eventobject"
        }],
        "language": "js",
        "actions": [{
            "id": "ADD_SNIPPET_ide_onClick_e8434dda7ef745189872ddccc8d0ba94",
            "type": "ADD_SNIPPET",
            "codeSnippet": "ShowLoadingScreen();\ncallRequestOTP();",
            "callbackType": null
        }]
    }
}