{
    "AS_Button_b8e27acc368e4042b083b88eb9de3f3a": {
        "id": "AS_Button_b8e27acc368e4042b083b88eb9de3f3a",
        "type": "ACTION_SEQUENCE",
        "params": [{
            "datatype": "collection",
            "name": "eventobject"
        }, {
            "datatype": "collection",
            "name": "context"
        }],
        "contextObj": {
            "name": "segmanagecardlesstmplt",
            "type": "templates",
            "platform": null,
            "KUID": "c7fa837473ac4c9ba595becaa88610eb"
        },
        "language": "js",
        "actions": [{
            "id": "ADD_SNIPPET_ide_onClick_c0532b5aed4245e6b078325ccdd5270c",
            "type": "ADD_SNIPPET",
            "codeSnippet": "kony.boj.editBillerDetails(eventobject,context);",
            "callbackType": null
        }]
    }
}