{
    "AS_Button_idc5483148b1408e916291cb11cddcad": {
        "id": "AS_Button_idc5483148b1408e916291cb11cddcad",
        "type": "ACTION_SEQUENCE",
        "params": [{
            "datatype": "collection",
            "name": "eventobject"
        }],
        "contextObj": {
            "name": "frmLoginKA",
            "type": "forms",
            "platform": "",
            "KUID": "7b1aa8fceb6b4070833e9eab879b0e5e"
        },
        "language": "js",
        "actions": [{
            "id": "ADD_SNIPPET__ceb7b9e8613346feae1478ca5b7b4844",
            "type": "ADD_SNIPPET",
            "codeSnippet": "var returnedValue = onboardingConfig.startActivity(false);\nalert(returnedValue);",
            "parentId": null,
            "callbackType": null
        }]
    }
}