{
    "AS_Button_f74be9fa191641abbc096103f1f01c8c": {
        "id": "AS_Button_f74be9fa191641abbc096103f1f01c8c",
        "type": "ACTION_SEQUENCE",
        "params": [{
            "datatype": "collection",
            "name": "eventobject"
        }],
        "contextObj": {
            "type": "forms",
            "platform": "",
            "KUID": "cd7ede2f7b264c5a856b03faca85d9e8"
        },
        "language": "js",
        "actions": []
    }
}