{
    "AS_Button_e2cc375953f14254aca9b9ba1ea7188e": {
        "id": "AS_Button_e2cc375953f14254aca9b9ba1ea7188e",
        "type": "ACTION_SEQUENCE",
        "name": "AS_Button_onClickGetJomopayTransactions",
        "params": [{
            "datatype": "collection",
            "name": "eventobject"
        }],
        "language": "js",
        "actions": [{
            "id": "ADD_SNIPPET_ide_onClick_a44c60533a2847ac969cddac760460c6",
            "type": "ADD_SNIPPET",
            "codeSnippet": "frmJoMoPayLanding.btnBene.skin = \"slButtonWhiteTabDisabled\";\nfrmJoMoPayLanding.btnTrans.skin = \"slButtonWhiteTab\";\nshowJomopayTransBene();",
            "callbackType": null
        }]
    }
}