{
    "AS_Button_j9ff065888e24d8f848599e60d8fea2e": {
        "id": "AS_Button_j9ff065888e24d8f848599e60d8fea2e",
        "type": "ACTION_SEQUENCE",
        "params": [{
            "datatype": "collection",
            "name": "eventobject"
        }],
        "language": "js",
        "actions": [{
            "id": "ADD_SNIPPET_ide_onClick_a12444fa04634c728cb325c90b693ff3",
            "type": "ADD_SNIPPET",
            "codeSnippet": "if(kony.application.getCurrentForm().id === \"frmJoMoPay\"){\n\tanimateLabel(\"UP\",\"lblBeneficiaryStaticText\",frmJoMoPay.txtPhoneNo.text);\n}else if(kony.application.getCurrentForm().id === \"frmJOMOPayAddBiller\"){\n\tanimate_NEWCARDSOPTIOS(\"UP\", \"lblBeneficiaryMobileTitle\", frmJOMOPayAddBiller.txtBeneficiaryMobile.text);\n}\ngetDataOfContats();",
            "callbackType": null
        }]
    }
}