{
    "AS_Button_i7028b5ee37f4857b88eb987db6a5fbb": {
        "id": "AS_Button_i7028b5ee37f4857b88eb987db6a5fbb",
        "type": "ACTION_SEQUENCE",
        "params": [{
            "datatype": "collection",
            "name": "eventobject"
        }],
        "contextObj": {
            "name": "frmRequestPinCard",
            "type": "forms",
            "platform": "",
            "KUID": "b22a7d80b05143d9910e188625a8eb0b"
        },
        "language": "js",
        "actions": []
    }
}