{
    "AS_Button_a15229c8b6bb42e6a7507f5d9c89a37f": {
        "id": "AS_Button_a15229c8b6bb42e6a7507f5d9c89a37f",
        "type": "ACTION_SEQUENCE",
        "params": [{
            "datatype": "collection",
            "name": "eventobject"
        }],
        "contextObj": {
            "type": "forms",
            "platform": "",
            "KUID": "e3b9d10a5412423ca556ee8470d3ff60"
        },
        "language": "js",
        "actions": [{
            "id": "ADD_SNIPPET__h56ebe1b0b97405db2772b95f1a5e4a9",
            "type": "ADD_SNIPPET",
            "codeSnippet": "kony.print(\"Deleted\");",
            "parentId": null,
            "callbackType": null
        }]
    }
}