{
    "AS_Button_bc9c73dd782947a9a224ee682904a362": {
        "id": "AS_Button_bc9c73dd782947a9a224ee682904a362",
        "type": "ACTION_SEQUENCE",
        "name": "AS_Button_CardlessTransactionOnClickNext",
        "params": [{
            "datatype": "collection",
            "name": "eventobject"
        }],
        "contextObj": {
            "name": "frmCardlessTransaction",
            "type": "forms",
            "platform": "",
            "KUID": "b7e7974060664c0093c575d8bba1e829"
        },
        "language": "js",
        "actions": [{
            "id": "ADD_SNIPPET__hd63a555afc84181b1f57603e8183518",
            "type": "ADD_SNIPPET",
            "codeSnippet": "if (frmCardlessTransaction.txtFieldAmount.text%5 !== 0)  \n   customAlertPopup(geti18Value(\"i18n.Cardless.NewCardless\"), geti18Value(\"i18n.Cardless.checkAmount\"), popupCommonAlertDimiss, \"\");\nelse\n   toConfirmScreenCardless();\n",
            "parentId": null,
            "callbackType": null
        }]
    }
}