{
    "AS_Button_08eb9723a64240efa2eb1130cd207685": {
        "id": "AS_Button_08eb9723a64240efa2eb1130cd207685",
        "type": "ACTION_SEQUENCE",
        "params": [{
            "datatype": "collection",
            "name": "eventobject"
        }],
        "contextObj": {
            "type": "forms",
            "platform": null,
            "KUID": "4cac7859037b42829d59823189d48648"
        },
        "language": "js",
        "actions": [{
            "id": "ADD_SNIPPET_ide_onClick_f0f5e08146d0428eb2b1f0cd96b5b2b1",
            "type": "ADD_SNIPPET",
            "codeSnippet": "alert(\"Card is replaced\");",
            "callbackType": null
        }, {
            "id": "NAVIGATE_TO_FORM__ide_onClick_1cd1bfef93e2411b8e51b5b0a0e02db7",
            "type": "NAVIGATE_TO_FORM",
            "formId": "frmManageCardsKA",
            "formKUID": "75db60b6b4944b7faf9c556f4dbcaf8d",
            "mappings": {},
            "mappingsOrder": [],
            "parentId": "",
            "callbackType": null,
            "enableMappingEditor": true,
            "package": "",
            "navigationObj": "{\n    \"_meta_\": {\n        \"eventName\": \"\",\n        \"widgetId\": \"\"\n    }\n}",
            "isCustomInput": false
        }]
    }
}