{
    "AS_Button_gc6b7d93b2e64165a9f21e25995406c5": {
        "id": "AS_Button_gc6b7d93b2e64165a9f21e25995406c5",
        "type": "ACTION_SEQUENCE",
        "name": "AS_Button_OnclickMinusAmountCardless",
        "params": [{
            "datatype": "collection",
            "name": "eventobject"
        }],
        "contextObj": {
            "name": "frmCardlessTransaction",
            "type": "forms",
            "platform": "",
            "KUID": "b7e7974060664c0093c575d8bba1e829"
        },
        "language": "js",
        "actions": [{
            "id": "ADD_SNIPPET__a4c2bfaddccf4b49ae38ce0386efc142",
            "type": "ADD_SNIPPET",
            "codeSnippet": "changeAmountFunction(\"minus\");",
            "parentId": null,
            "callbackType": null
        }]
    }
}