{
    "AS_Button_d0087958efa44509add2c905ed593c94": {
        "id": "AS_Button_d0087958efa44509add2c905ed593c94",
        "type": "ACTION_SEQUENCE",
        "params": [{
            "datatype": "collection",
            "name": "eventobject"
        }],
        "contextObj": {
            "name": "frmAccountDetailKA",
            "type": "forms",
            "platform": "",
            "KUID": "5ed703cad63c441882fc4a36f5ea0c28"
        },
        "language": "js",
        "actions": [{
            "id": "SHOW_ALERT__5a41f520b2a14f5090dd3309be82f65b",
            "type": "SHOW_ALERT",
            "alertType": "constants.ALERT_TYPE_CONFIRMATION",
            "alertTitle": "Confirm Sign Out",
            "yesLabel": "Sign Out",
            "noLabel": "Cancel",
            "alertMessage": "Are you sure you want to sign out?",
            "messageType": "constant",
            "parentId": null,
            "alertTitlei18n": "i18n.common.confirmSignOut",
            "yesLabeli18n": "i18n.common.signOut",
            "noLabeli18n": "i18n.common.cancel",
            "alertMessagei18n": "i18n.common.signOutAlert",
            "iconPosition": "constants.ALERT_ICON_POSITION_LEFT"
        }, {
            "id": "ADD_SNIPPET__b4c4cc0b8ca345b28ff06b298500e2a5",
            "type": "ADD_SNIPPET",
            "codeSnippet": "frmAccountDetailKA.flxAccountDetailNavOptKA.isVisible=false;\nkony.sdk.mvvm.LogoutAction();",
            "parentId": "SHOW_ALERT__5a41f520b2a14f5090dd3309be82f65b",
            "callbackType": "True"
        }]
    }
}