{
    "AS_Button_b9ed29b3b2314434a30d66d7089c811f": {
        "id": "AS_Button_b9ed29b3b2314434a30d66d7089c811f",
        "type": "ACTION_SEQUENCE",
        "name": "AS_Button_showCardsLanding",
        "params": [{
            "datatype": "collection",
            "name": "eventobject"
        }],
        "contextObj": {
            "name": "frmPaymentDashboard",
            "type": "forms",
            "platform": "",
            "KUID": "j5584f57cd764e66adb4087c6fc15f67"
        },
        "language": "js",
        "actions": [{
            "id": "ADD_SNIPPET__a77b9426a6554103884960513919cfa5",
            "type": "ADD_SNIPPET",
            "codeSnippet": "onClickCardsMenu();",
            "parentId": null,
            "callbackType": null
        }]
    }
}