{
    "AS_Browser_f1e1fb9d4b8b46e692fe3fe24daa4fbc": {
        "id": "AS_Browser_f1e1fb9d4b8b46e692fe3fe24daa4fbc",
        "type": "ACTION_SEQUENCE",
        "name": "AS_Browser_RTOnPageLoad",
        "params": [{
            "datatype": "collection",
            "name": "eventobject"
        }, {
            "datatype": "collection",
            "name": "params"
        }],
        "contextObj": {
            "name": "frmTermsAndConditionsKA",
            "type": "forms",
            "platform": "",
            "KUID": "100aadb985c846ec80ffda1f762bb7e8"
        },
        "language": "js",
        "actions": [{
            "id": "ADD_SNIPPET__df623b20957e4b88abaaf64094273ea7",
            "type": "ADD_SNIPPET",
            "codeSnippet": "frmTermsAndConditionsKA.flHome.setVisibility(false);\nfrmTermsAndConditionsKA.forceLayout();\nkony.application.dismissLoadingScreen();",
            "parentId": null,
            "callbackType": null
        }]
    }
}