{
    "AS_Button_dd667975aefc42498d5e0870034a015e": {
        "id": "AS_Button_dd667975aefc42498d5e0870034a015e",
        "type": "ACTION_SEQUENCE",
        "params": [{
            "datatype": "collection",
            "name": "eventobject"
        }],
        "language": "js",
        "actions": [{
            "id": "ADD_SNIPPET_ide_onClick_d4e34f8e55834dd9a51ba8dfd5f02726",
            "type": "ADD_SNIPPET",
            "codeSnippet": "frmPaymentDashboard.show();",
            "callbackType": null
        }]
    }
}