{
    "AS_Button_a438737d3f0b4c7a8a371526c4acb10e": {
        "id": "AS_Button_a438737d3f0b4c7a8a371526c4acb10e",
        "type": "ACTION_SEQUENCE",
        "params": [{
            "datatype": "collection",
            "name": "eventobject"
        }, {
            "datatype": "collection",
            "name": "context"
        }],
        "language": "js",
        "actions": [{
            "id": "ADD_SNIPPET_ide_onClick_c6f7790d7d704525af1b66adfe3925a4",
            "type": "ADD_SNIPPET",
            "codeSnippet": "selectBills(eventobject,context);",
            "callbackType": null
        }]
    }
}