{
    "AS_Button_1e1ee39f1c7e4d09ab114b2225e94bbf": {
        "id": "AS_Button_1e1ee39f1c7e4d09ab114b2225e94bbf",
        "type": "ACTION_SEQUENCE",
        "params": [{
            "datatype": "collection",
            "name": "eventobject"
        }],
        "contextObj": {
            "name": "frmTransactionDetailsPFMKA",
            "type": "forms",
            "platform": null,
            "KUID": "bc4386f15a294e678087a3a702d996b6"
        },
        "language": "js",
        "actions": [{
            "id": "ADD_SNIPPET_ide_onClick_6e914dfb96c1498a823ccc53e9f86ed6",
            "type": "ADD_SNIPPET",
            "codeSnippet": "\n var INSTANCE = kony.sdk.mvvm.KonyApplicationContext.getAppInstance();\n var controller = INSTANCE.getFormController(\"frmMyMoneyListKA\");\n controller.getFormModel().showView();\n",
            "callbackType": null
        }]
    }
}