{
    "AS_Button_e63e49258a064a93990f8cfb9edc362c": {
        "id": "AS_Button_e63e49258a064a93990f8cfb9edc362c",
        "type": "ACTION_SEQUENCE",
        "params": [{
            "datatype": "collection",
            "name": "eventobject"
        }],
        "contextObj": {
            "name": "frmConfirmP2PRegistrationKA",
            "type": "forms",
            "platform": null,
            "KUID": "j3748976af8941aa993b14b2d72a60b1"
        },
        "language": "js",
        "actions": [{
            "id": "ADD_SNIPPET__fe03000271914bbeb584192bba0e3400",
            "type": "ADD_SNIPPET",
            "codeSnippet": "var vc=applicationManager.getfrmConfirmP2PRegistrationViewController();\nvc.onClickOfConfirm();",
            "parentId": null,
            "callbackType": null
        }]
    }
}