{
    "AS_Button_e4fe9cfb4eb34372b506f92a49a597a0": {
        "id": "AS_Button_e4fe9cfb4eb34372b506f92a49a597a0",
        "type": "ACTION_SEQUENCE",
        "params": [{
            "datatype": "collection",
            "name": "eventobject"
        }],
        "language": "js",
        "actions": [{
            "id": "ADD_SNIPPET_ide_onClick_d2db57977a30426caa78c260f54b47e9",
            "type": "ADD_SNIPPET",
            "codeSnippet": "onClickCardsMenu();",
            "callbackType": null
        }]
    }
}