{
    "AS_Button_cbc321b69fff43d1953ad3163ba632ab": {
        "id": "AS_Button_cbc321b69fff43d1953ad3163ba632ab",
        "type": "ACTION_SEQUENCE",
        "name": "AS_Button_SingleOk",
        "params": [{
            "datatype": "collection",
            "name": "eventobject"
        }],
        "contextObj": {
            "name": "popupCommonAlert",
            "type": "popups",
            "platform": "",
            "KUID": "a858ead763084439955bc861790ad001"
        },
        "language": "js",
        "actions": [{
            "id": "ADD_SNIPPET__bcc23c374e3e47e286646a74a70f8665",
            "type": "ADD_SNIPPET",
            "codeSnippet": "popupCommonAlertDimiss();",
            "parentId": null,
            "callbackType": null
        }]
    }
}