{
    "AS_Button_6854160f56254d7d8b5ec4c5adededcf": {
        "id": "AS_Button_6854160f56254d7d8b5ec4c5adededcf",
        "type": "ACTION_SEQUENCE",
        "params": [{
            "datatype": "collection",
            "name": "eventobject"
        }],
        "language": "js",
        "actions": [{
            "id": "ADD_SNIPPET__6c74a4c5b65a4e2dba9448f97f43d01e",
            "type": "ADD_SNIPPET",
            "codeSnippet": "touchLoginShow();",
            "parentId": null,
            "callbackType": null
        }, {
            "id": "ADD_SNIPPET__c9180effca624194b7bb881f1755eab5",
            "type": "ADD_SNIPPET",
            "codeSnippet": "touchLoginShow();",
            "parentId": "SHOW_ALERT_onClick_9e0562ca085c4d23aeedd3ae90a4856a",
            "callbackType": "True"
        }]
    }
}