{
    "AS_Button_de3cff7a0bda4b0bb77112a7e7f900e5": {
        "id": "AS_Button_de3cff7a0bda4b0bb77112a7e7f900e5",
        "type": "ACTION_SEQUENCE",
        "params": [{
            "datatype": "collection",
            "name": "eventobject"
        }],
        "language": "js",
        "actions": [{
            "id": "ADD_SNIPPET_ide_onClick_i423c120f691455d857f06b9adbdff59",
            "type": "ADD_SNIPPET",
            "codeSnippet": "gblFromModule = \"ForgotPassword\";\ngblReqField = \"Username\";\ninitialiseAndCallEnroll();\nfrmLoginKA.passwordTextField.text=\"\";",
            "callbackType": null
        }]
    }
}