{
    "AS_Button_a8f6dc1e33344395ba0958a1729f9768": {
        "id": "AS_Button_a8f6dc1e33344395ba0958a1729f9768",
        "type": "ACTION_SEQUENCE",
        "name": "AS_Button_onClickPayBillManagePayee",
        "params": [{
            "datatype": "collection",
            "name": "eventobject"
        }],
        "language": "js",
        "actions": [{
            "id": "ADD_SNIPPET_ide_onClick_aa0f5405d2334322a4196447c607d665",
            "type": "ADD_SNIPPET",
            "codeSnippet": "gblFlow = \"PayPalpayOtherFlow\";\npayOtherBillsFlow();\nif(gblDefaultAccPayment !== \"\" &&\n   gblDefaultAccPayment !== null &&\n   gblDefaultAccPayment !== undefined){\n  getDefaultPaymentAccountDetails();\n  kony.print (\"Debug Data :\" + getDefaultPaymentAccountDetails());\n  frmPalpayBillInformation.tbxPaymentMode.text = palpayAccountDetails. accountID;\n  frmPalpayBillInformation.lblPaymentMode.text = palpayAccountDetails. accountName;\n  frmPalpayBillInformation.tbxPaymentMode1BillDetails.text = palpayAccountDetails. accountID;\n  frmPalpayBillInformation.lblPaymentMode1BillDetails.text = palpayAccountDetails. accountName;\n  frmPalpayBillInformation.flxUnderlinePaymentMode.skin = \"sknFlxGreenLine\";\n  frmPalpayBillInformation.flxUnderlinePaymentMode1BillDetails.skin = \"sknFlxGreenLine\";\n}else{\n  palpayAccountDetails.accountID = \"\";\n  palpayAccountDetails.accountcurrCode = \"JOD\";\n  frmPalpayBillInformation.flxUnderlinePaymentMode.skin = \"sknFlxGreyLine\";\n  frmPalpayBillInformation.flxUnderlinePaymentMode1BillDetails.skin = \"sknFlxGreyLine\";\n  frmPalpayBillInformation.tbxPaymentMode1BillDetails.text = \"\";\n  frmPalpayBillInformation.tbxPaymentMode1BillDetails.text = \"\";\n  //frmPalpayBillInformation.lblPaymentMode1.text = geti18Value(\"i18n.billsPay.Accounts\");\n  //frmPalpayBillInformation.lblPaymentMode1BillDetails.text = geti18Value(\"i18n.billsPay.Accounts\");\n}\nfrmPalpayBillInformation.show();",
            "callbackType": null
        }]
    }
}