{
    "AS_Button_deb5575143694a3aa0a914a5be7ea85b": {
        "id": "AS_Button_deb5575143694a3aa0a914a5be7ea85b",
        "type": "ACTION_SEQUENCE",
        "params": [{
            "datatype": "collection",
            "name": "eventobject"
        }],
        "language": "js",
        "actions": [{
            "id": "ADD_SNIPPET_ide_onClick_b25e2a4b84564e51b40be4595db2694c",
            "type": "ADD_SNIPPET",
            "codeSnippet": "hideAccountInsights();",
            "callbackType": null
        }]
    }
}