{
    "AS_Button_a43c1561f0914506a5b32c7edf5a5e36": {
        "id": "AS_Button_a43c1561f0914506a5b32c7edf5a5e36",
        "type": "ACTION_SEQUENCE",
        "params": [{
            "datatype": "collection",
            "name": "eventobject"
        }],
        "language": "js",
        "actions": [{
            "id": "ADD_SNIPPET_ide_onClick_b6eeebb722cf4bf39d10f5c7a160619a",
            "type": "ADD_SNIPPET",
            "codeSnippet": "var currForm = kony.application.getCurrentForm().id;\nif(currForm !== \"frmAccountsLandingKA\"){\n    if(kony.sdk.isNetworkAvailable()){\n      frmAccountsLandingKA.flxDeals.setVisibility(false);\n            frmAccountsLandingKA.flxAccountsMain.setVisibility(true);\n      frmAccountsLandingKA.flxAccountsMain.left = \"0%\"\n            frmAccountsLandingKA.flxLoans.setVisibility(false);\n            frmAccountsLandingKA.flxAccountsMain.zIndex = 1;\n            frmAccountsLandingKA.flxDeals.zIndex = 1;\n            frmAccountsLandingKA.flxLoans.zIndex = 1;\n            frmAccountsLandingKA.forceLayout();\n      \naccountDashboardDataCall();\nkony.print(\"Nav accounts Dadhboard:::\");\n    }else{\n  kony.sdk.mvvm.KonyApplicationContext.dismissLoadingScreen();\n        customAlertPopup(\"\", kony.i18n.getLocalizedString(\"i18n.errorMsg.deviceConnectionError\"), popupCommonAlertDimiss, \"\");\n  }\n}else{\n  kony.print(\"same form:::\");\n}",
            "callbackType": null
        }]
    }
}