{
    "AS_Button_je15b3f1cf914bcab5066f91a5f3c6a3": {
        "id": "AS_Button_je15b3f1cf914bcab5066f91a5f3c6a3",
        "type": "ACTION_SEQUENCE",
        "params": [{
            "datatype": "collection",
            "name": "eventobject"
        }],
        "contextObj": {
            "name": "frmNewBillDetails",
            "type": "forms",
            "platform": null,
            "KUID": "c2132c3b91ec4677ab952b729de9fc0e"
        },
        "language": "js",
        "actions": [{
            "id": "ADD_SNIPPET_ide_onClick_a0d8039fc22a4160a4d549bde0758556",
            "type": "ADD_SNIPPET",
            "codeSnippet": "var navObject;\nvar INSTANCE = kony.sdk.mvvm.KonyApplicationContext.getAppInstance();\n\t\tvar formController = INSTANCE.getFormController(\"frmBillPayeeDetailsKA\");\n\t\tif(!navObject || !(navObject instanceof kony.sdk.mvvm.NavigationObject)) {\n        \tnavObject = new kony.sdk.mvvm.NavigationObject();\n        }\n        kony.sdk.mvvm.KonyApplicationContext.showLoadingScreen(kony.retailBanking.globalData.globals.LOADING_SCREEN_MESSAGE);\n        kony.retailBanking.globalData.globals.formStack.push(\"frmBillPayeeDetailsKA\");\n\t\tformController.loadDataAndShowForm(navObject);",
            "callbackType": null
        }]
    }
}