{
    "AS_Button_fb69fe5b965842bbb251aaf6cd9ffc5f": {
        "id": "AS_Button_fb69fe5b965842bbb251aaf6cd9ffc5f",
        "type": "ACTION_SEQUENCE",
        "name": "AS_Button_onClickButtonMaturityInstruction",
        "params": [{
            "datatype": "collection",
            "name": "eventobject"
        }],
        "contextObj": {
            "name": "frmOpenTermDeposit",
            "type": "forms",
            "platform": "",
            "KUID": "fec6fddbcf8543f2b30114c87e1a7e99"
        },
        "language": "js",
        "actions": [{
            "id": "ADD_SNIPPET__f2ab3a8ac6e546cc94503e019e269403",
            "type": "ADD_SNIPPET",
            "codeSnippet": "gblopenTermDepositeMI=true;\nkony.boj.showSelectedDetailsFromBene(\"MaturityInstruction\", \"\");",
            "parentId": null,
            "callbackType": null
        }]
    }
}