{
    "AS_Button_ffe0232e6b2d4f68b93afd22edcb4d3e": {
        "id": "AS_Button_ffe0232e6b2d4f68b93afd22edcb4d3e",
        "type": "ACTION_SEQUENCE",
        "params": [{
            "datatype": "collection",
            "name": "eventobject"
        }],
        "language": "js",
        "actions": [{
            "id": "ADD_SNIPPET_ide_onClick_a27fa696993f41ae8483f19a78e9e838",
            "type": "ADD_SNIPPET",
            "codeSnippet": "PopupCancelAndReplaceCard.dismiss();",
            "callbackType": null
        }]
    }
}