{
    "AS_Button_782965dff98b4793b25f9b4813def05f": {
        "id": "AS_Button_782965dff98b4793b25f9b4813def05f",
        "type": "ACTION_SEQUENCE",
        "params": [{
            "datatype": "collection",
            "name": "eventobject"
        }],
        "language": "js",
        "actions": [{
            "id": "ADD_SNIPPET_ide_onClick_c02af62cdf3f4e98a442bcfaea897c70",
            "type": "ADD_SNIPPET",
            "codeSnippet": "check(0);",
            "callbackType": null
        }]
    }
}