{
    "AS_Button_i40fe13414f64e3cbcdb17f16c5143c3": {
        "id": "AS_Button_i40fe13414f64e3cbcdb17f16c5143c3",
        "type": "ACTION_SEQUENCE",
        "params": [{
            "datatype": "collection",
            "name": "eventobject"
        }],
        "contextObj": {
            "type": "forms",
            "platform": "",
            "KUID": "fc18fd91a5d94e439cafe361f3aa1224"
        },
        "language": "js",
        "actions": [{
            "id": "ADD_SNIPPET__c63d3a18aeb9410d8f3f19b0a7d4e1b3",
            "type": "ADD_SNIPPET",
            "codeSnippet": "var onClickCancelVC= applicationManager.getFrmNUOVerificationKAViewController();\nonClickCancelVC.onClickCancelOfVerification(); ",
            "parentId": null,
            "callbackType": null
        }]
    }
}