{
    "AS_Button_fa0b99327ab54b6bbed5259b4753aa7c": {
        "id": "AS_Button_fa0b99327ab54b6bbed5259b4753aa7c",
        "type": "ACTION_SEQUENCE",
        "params": [{
            "datatype": "collection",
            "name": "eventobject"
        }],
        "language": "js",
        "actions": [{
            "id": "ADD_SNIPPET_ide_onClick_a92492ba2e4c479b9cebb2c28fc88e66",
            "type": "ADD_SNIPPET",
            "codeSnippet": "//frmJoMoPay.show();",
            "callbackType": null
        }]
    }
}