{
    "AS_Button_37f71335893f47d38ed6a7cc675f5deb": {
        "id": "AS_Button_37f71335893f47d38ed6a7cc675f5deb",
        "type": "ACTION_SEQUENCE",
        "params": [{
            "datatype": "collection",
            "name": "eventobject"
        }],
        "language": "js",
        "actions": [{
            "id": "ADD_SNIPPET__219b3faaf62c499e855ae2b49cd98415",
            "type": "ADD_SNIPPET",
            "codeSnippet": "onDepositSelected();",
            "parentId": null,
            "callbackType": null
        }]
    }
}