{
    "AS_Button_c90f368b89b944fea21294561eed9f33": {
        "id": "AS_Button_c90f368b89b944fea21294561eed9f33",
        "type": "ACTION_SEQUENCE",
        "params": [{
            "datatype": "collection",
            "name": "eventobject"
        }],
        "contextObj": {
            "name": "frmNewBillDetails",
            "type": "forms",
            "platform": null,
            "KUID": "c2132c3b91ec4677ab952b729de9fc0e"
        },
        "language": "js",
        "actions": [{
            "id": "ADD_SNIPPET_ide_onClick_f0ffe6ab13074d9da458eb243a3eb8d3",
            "type": "ADD_SNIPPET",
            "codeSnippet": "onClickPostPaidQuickPay();",
            "callbackType": null
        }]
    }
}