{
    "AS_Button_c0e303d6f8f64a3ca56535ab52441087": {
        "id": "AS_Button_c0e303d6f8f64a3ca56535ab52441087",
        "type": "ACTION_SEQUENCE",
        "params": [{
            "datatype": "collection",
            "name": "eventobject"
        }],
        "language": "js",
        "actions": [{
            "id": "ADD_SNIPPET_ide_onClick_ie5922b81b9041e392c12b00009cf798",
            "type": "ADD_SNIPPET",
            "codeSnippet": "onClickCardsMenu();"
        }]
    }
}