{
    "AS_Button_h6aa8f0275a2448a8002421f4042fed1": {
        "id": "AS_Button_h6aa8f0275a2448a8002421f4042fed1",
        "type": "ACTION_SEQUENCE",
        "params": [{
            "datatype": "collection",
            "name": "eventobject"
        }],
        "contextObj": {
            "name": "frmPinEntryStep2",
            "type": "forms",
            "platform": null,
            "KUID": "e015f1b273d34ea480f2c966bc9044d2"
        },
        "language": "js",
        "actions": [{
            "id": "ADD_SNIPPET_ide_onClick_b29ab95a62a540c4b634f6cd79dc8017",
            "type": "ADD_SNIPPET",
            "codeSnippet": "check(7);",
            "callbackType": null
        }]
    }
}