{
    "AS_Button_i8ddf72c438542c8a8108cb0149b3394": {
        "id": "AS_Button_i8ddf72c438542c8a8108cb0149b3394",
        "type": "ACTION_SEQUENCE",
        "params": [{
            "datatype": "collection",
            "name": "eventobject"
        }],
        "language": "js",
        "actions": [{
            "id": "ADD_SNIPPET_ide_onClick_f217d27cc70448579b2f572c8f8ee438",
            "type": "ADD_SNIPPET",
            "codeSnippet": "kony.print(\"Deleted\");",
            "callbackType": null
        }]
    }
}