{
    "AS_Button_82cf85d2d482430aa892d427e06de671": {
        "id": "AS_Button_82cf85d2d482430aa892d427e06de671",
        "type": "ACTION_SEQUENCE",
        "params": [{
            "datatype": "collection",
            "name": "eventobject"
        }],
        "contextObj": {
            "name": "frmDeviceDeRegistrationKA",
            "type": "forms",
            "platform": null,
            "KUID": "499b4d3c1a2c45e4a20d2c17e0303848"
        },
        "language": "js",
        "actions": [{
            "id": "ADD_SNIPPET__12c1ff5498954e6b8c4a8f6c62ca25e4",
            "type": "ADD_SNIPPET",
            "codeSnippet": "deRegisterDevice();",
            "parentId": null,
            "callbackType": null
        }]
    }
}