{
    "AS_Button_07065ee5644946d7a9a0e9e5c5f6befb": {
        "id": "AS_Button_07065ee5644946d7a9a0e9e5c5f6befb",
        "type": "ACTION_SEQUENCE",
        "params": [{
            "datatype": "collection",
            "name": "eventobject"
        }],
        "contextObj": {
            "name": "frmDirectionsKA",
            "type": "forms",
            "platform": null,
            "KUID": "2a844aaae75b49948039c6e28c65dfcc"
        },
        "language": "js",
        "actions": [{
            "id": "SHOW_ALERT_ide_onClick_4cb47b7583c84c03ae19e2986036937b",
            "type": "SHOW_ALERT",
            "alertType": "constants.ALERT_TYPE_CONFIRMATION",
            "alertTitle": "Current Location",
            "yesLabel": "Allow",
            "noLabel": "Don't Allow",
            "alertMessage": "xyzBank would like to use your current location",
            "messageType": "constant",
            "callbackType": null,
            "alertTitlei18n": null,
            "yesLabeli18n": null,
            "noLabeli18n": null,
            "iconPosition": "constants.ALERT_ICON_POSITION_LEFT"
        }, {
            "id": "ADD_SNIPPET_ide_onClick_daf02954dbf74f9d9014cdbe5d92ea28",
            "type": "ADD_SNIPPET",
            "codeSnippet": "userAllowedLocation();",
            "parentId": "SHOW_ALERT_ide_onClick_4cb47b7583c84c03ae19e2986036937b",
            "callbackType": "True"
        }]
    }
}