{
    "AS_Button_h87c7c4629fd4dca9a523aef3851c830": {
        "id": "AS_Button_h87c7c4629fd4dca9a523aef3851c830",
        "type": "ACTION_SEQUENCE",
        "name": "AS_Button_closeCardCancel",
        "params": [{
            "datatype": "collection",
            "name": "eventobject"
        }],
        "contextObj": {
            "name": "PopupCancelAndReplaceCard",
            "type": "popups",
            "platform": null,
            "KUID": "a0af01d7473c46eba7ba3fb94bfdcfce"
        },
        "language": "js",
        "actions": [{
            "id": "ADD_SNIPPET__fd03529660714d76a859eb4840307135",
            "type": "ADD_SNIPPET",
            "codeSnippet": "PopupCancelAndReplaceCard.dismiss();",
            "parentId": null,
            "callbackType": null
        }]
    }
}