{
    "AS_Button_d9dca877096649f4b5cf799758ce8bf4": {
        "id": "AS_Button_d9dca877096649f4b5cf799758ce8bf4",
        "type": "ACTION_SEQUENCE",
        "params": [{
            "datatype": "collection",
            "name": "eventobject"
        }],
        "contextObj": {
            "name": "frmLoginKA",
            "type": "forms",
            "platform": "",
            "KUID": "7b1aa8fceb6b4070833e9eab879b0e5e"
        },
        "language": "js",
        "actions": [{
            "id": "ADD_SNIPPET__d1bfa114ecf748bd94752a801a3c5f73",
            "type": "ADD_SNIPPET",
            "codeSnippet": "var returnedValue = OnBoarding.connLabiba(\n\t\t/**Object*/ kony.sdk.mvvm.KonyApplicationContext.getAppInstance(), \n\t\t/**Boolean*/ false);",
            "parentId": null,
            "callbackType": null
        }]
    }
}