{
    "AS_Button_h3d8598f39dc4609bbb8b726759f57b8": {
        "id": "AS_Button_h3d8598f39dc4609bbb8b726759f57b8",
        "type": "ACTION_SEQUENCE",
        "params": [{
            "datatype": "collection",
            "name": "eventobject"
        }],
        "language": "js",
        "actions": [{
            "id": "ADD_SNIPPET_ide_onClick_ga0e174e40bb45068263231815acb890",
            "type": "ADD_SNIPPET",
            "codeSnippet": "frmPaymentDashboard.show();",
            "callbackType": null
        }]
    }
}