{
    "AS_Button_ae2fec46216643fa8a0f6457d00f0eff": {
        "id": "AS_Button_ae2fec46216643fa8a0f6457d00f0eff",
        "type": "ACTION_SEQUENCE",
        "params": [{
            "datatype": "collection",
            "name": "eventobject"
        }],
        "contextObj": {
            "name": "frmAccountDetailKA",
            "type": "forms",
            "platform": "",
            "KUID": "5ed703cad63c441882fc4a36f5ea0c28"
        },
        "language": "js",
        "actions": [{
            "id": "ADD_SNIPPET__i112f8602f4a4904b13b655c1b4ecba5",
            "type": "ADD_SNIPPET",
            "codeSnippet": "kony.print(\"asdas\");",
            "parentId": null,
            "callbackType": null
        }]
    }
}