{
    "AS_Button_a008419849b54e09a13acc9029b718a0": {
        "id": "AS_Button_a008419849b54e09a13acc9029b718a0",
        "type": "ACTION_SEQUENCE",
        "params": [{
            "datatype": "collection",
            "name": "eventobject"
        }],
        "language": "js",
        "actions": [{
            "id": "ADD_SNIPPET_ide_onClick_b7a6bd23646d439a9016ffe879b4915f",
            "type": "ADD_SNIPPET",
            "codeSnippet": "frmEPS.btnEmail.skin = sknOrangeBGRNDBOJ;\nfrmEPS.btnMobile.skin = slButtonBlueFocus;\nfrmEPS.btntext.skin = slButtonBlueFocus;\n",
            "callbackType": null
        }]
    }
}