{
    "AS_Button_d28ddf1dc8a34dcdb547d401188fc640": {
        "id": "AS_Button_d28ddf1dc8a34dcdb547d401188fc640",
        "type": "ACTION_SEQUENCE",
        "params": [{
            "datatype": "collection",
            "name": "eventobject"
        }, {
            "datatype": "collection",
            "name": "context"
        }],
        "language": "js",
        "actions": [{
            "id": "ADD_SNIPPET_ide_onClick_b23cb7592d0c4fbc8c812e818e494e79",
            "type": "ADD_SNIPPET",
            "codeSnippet": "kony.boj.changeFavTag(frmShowAllBeneficiary.segAllBeneficiary.selectedRowItems[0]);",
            "callbackType": null
        }]
    }
}