{
    "AS_Button_a35432bbf8044b5b965345996b67b1f4": {
        "id": "AS_Button_a35432bbf8044b5b965345996b67b1f4",
        "type": "ACTION_SEQUENCE",
        "name": "AS_Button_onClickTener3Months",
        "params": [{
            "datatype": "collection",
            "name": "eventobject"
        }],
        "contextObj": {
            "name": "frmOpenTermDeposit",
            "type": "forms",
            "platform": "",
            "KUID": "fec6fddbcf8543f2b30114c87e1a7e99"
        },
        "language": "js",
        "actions": [{
            "id": "ADD_SNIPPET__c9a7107c2efa48a3951d2c598e7187e4",
            "type": "ADD_SNIPPET",
            "codeSnippet": "funSelectTener(\"3Months\");",
            "parentId": null,
            "callbackType": null
        }]
    }
}