{
    "AS_Button_b8bbd7774d4947cfbd8dd46a43b2c215": {
        "id": "AS_Button_b8bbd7774d4947cfbd8dd46a43b2c215",
        "type": "ACTION_SEQUENCE",
        "params": [{
            "datatype": "collection",
            "name": "eventobject"
        }],
        "contextObj": {
            "name": "frmAccountDetailKA",
            "type": "forms",
            "platform": "",
            "KUID": "5ed703cad63c441882fc4a36f5ea0c28"
        },
        "language": "js",
        "actions": [{
            "id": "ADD_SNIPPET__de27b754358e429da1559dafd8fddf8b",
            "type": "ADD_SNIPPET",
            "codeSnippet": "navOptTransfer(4);",
            "parentId": null,
            "callbackType": null
        }]
    }
}