{
    "AS_Button_ia7e5f7d4aab4974a5b785f185433b65": {
        "id": "AS_Button_ia7e5f7d4aab4974a5b785f185433b65",
        "type": "ACTION_SEQUENCE",
        "name": "AS_Button_clickConfirmAddPrePaidBene",
        "params": [{
            "datatype": "collection",
            "name": "eventobject"
        }],
        "contextObj": {
            "name": "frmAddNewPrePayeeKA",
            "type": "forms",
            "platform": null,
            "KUID": "a843292d9c674ff7ba10a9b594b7e7e5"
        },
        "language": "js",
        "actions": [{
            "id": "ADD_SNIPPET_ide_onClick_d9ed3d6734ae4098b451cb864db8f2c8",
            "type": "ADD_SNIPPET",
            "codeSnippet": "//gblToOTPFrom = \"AddBiller\"; hassan\n//ShowLoadingScreen();\ngblToOTPFrom=\"AddBiller\";\nserv_addNewPrePaidBene();\n//INSTANCE = kony.sdk.mvvm.KonyApplicationContext.getAppInstance(); hassan\n//listController = INSTANCE.getFormController(\"frmAddNewPrePayeeKA\"); hassan\n//listController.performAction(\"saveData\"); hassan\n\n//callRequestOTP();\n// frmNewUserOnboardVerificationKA.show();",
            "callbackType": null
        }]
    }
}