{
    "AS_Button_df394d9f89f94991bdae1cdfc162e1bd": {
        "id": "AS_Button_df394d9f89f94991bdae1cdfc162e1bd",
        "type": "ACTION_SEQUENCE",
        "params": [{
            "datatype": "collection",
            "name": "eventobject"
        }],
        "language": "js",
        "actions": [{
            "id": "ADD_SNIPPET_ide_onClick_ac60602bd16a49fda815ff52f13e1ac4",
            "type": "ADD_SNIPPET",
            "codeSnippet": "getATMLocations();\n",
            "callbackType": null
        }]
    }
}