{
    "AS_Button_a283e87c4e4343d0a0687f6a72fe2613": {
        "id": "AS_Button_a283e87c4e4343d0a0687f6a72fe2613",
        "type": "ACTION_SEQUENCE",
        "params": [{
            "datatype": "collection",
            "name": "eventobject"
        }],
        "contextObj": {
            "name": "frmPendingWithdrawSummary",
            "type": "forms",
            "platform": "",
            "KUID": "f2543d254ad04bc09b9d846c3f530355"
        },
        "language": "js",
        "actions": [{
            "id": "ADD_SNIPPET__b493782b05f6401782b3d1848fc2469b",
            "type": "ADD_SNIPPET",
            "codeSnippet": "var navManager = applicationManager.getNavManager();\nnavManager.mvvmGoBack(false);",
            "parentId": null,
            "callbackType": null
        }]
    }
}