{
    "AS_Button_a804ae36132e488e80cd8f80f302ea68": {
        "id": "AS_Button_a804ae36132e488e80cd8f80f302ea68",
        "type": "ACTION_SEQUENCE",
        "params": [{
            "datatype": "collection",
            "name": "eventobject"
        }],
        "language": "js",
        "actions": [{
            "id": "ADD_SNIPPET_ide_onClick_da7f09704465476086338ed01e7b66a7",
            "type": "ADD_SNIPPET",
            "codeSnippet": "cardManagementOperations(\"activateordeactivate\");",
            "callbackType": null
        }]
    }
}