{
    "AS_Button_b270e8d09ceb4c868c1f1873326adb1b": {
        "id": "AS_Button_b270e8d09ceb4c868c1f1873326adb1b",
        "type": "ACTION_SEQUENCE",
        "params": [{
            "datatype": "collection",
            "name": "eventobject"
        }],
        "language": "js",
        "actions": [{
            "id": "ADD_SNIPPET_ide_onClick_a57878a0c8f34406bf5d2b2a8613d573",
            "type": "ADD_SNIPPET",
            "codeSnippet": "/* var INSTANCE = kony.sdk.mvvm.KonyApplicationContext.getAppInstance();\n var controller = INSTANCE.getFormController(\"frmAccountDetailKA\");\n controller.getFormModel().showView();*/\nkony.print(\"asdsadas\");",
            "callbackType": null
        }]
    }
}