{
    "AS_Button_c93732f3b9ec4b06b3a8ad2584ee1520": {
        "id": "AS_Button_c93732f3b9ec4b06b3a8ad2584ee1520",
        "type": "ACTION_SEQUENCE",
        "params": [{
            "datatype": "collection",
            "name": "eventobject"
        }],
        "language": "js",
        "actions": [{
            "id": "ADD_SNIPPET_ide_onClick_b7ea4654aab34f058806b949025a38b1",
            "type": "ADD_SNIPPET",
            "codeSnippet": "frmSettingsKA.show();",
            "callbackType": null
        }]
    }
}