{
    "AS_Button_f3efd32354be4afb9fff9972a3dca333": {
        "id": "AS_Button_f3efd32354be4afb9fff9972a3dca333",
        "type": "ACTION_SEQUENCE",
        "params": [{
            "datatype": "collection",
            "name": "eventobject"
        }],
        "contextObj": {
            "name": "frmAccountsLandingKA",
            "type": "forms",
            "platform": "",
            "KUID": "d62a2a0906c64d2281addc95893a6544"
        },
        "language": "js",
        "actions": [{
            "id": "SHOW_ALERT__79a983363eca4624adbf8b5bf2e435d4",
            "type": "SHOW_ALERT",
            "alertType": "constants.ALERT_TYPE_CONFIRMATION",
            "alertTitle": "Confirm Sign Out",
            "yesLabel": "Sign Out",
            "noLabel": "Cancel",
            "alertMessage": "Are you sure you want to sign out?",
            "messageType": "constant",
            "parentId": null,
            "alertTitlei18n": "i18n.common.confirmSignOut",
            "yesLabeli18n": "i18n.common.signOut",
            "noLabeli18n": "i18n.common.cancel",
            "alertMessagei18n": "i18n.common.signOutAlert",
            "iconPosition": "constants.ALERT_ICON_POSITION_LEFT"
        }, {
            "id": "ADD_SNIPPET__46a48dde1a284828909e634c65e7b66e",
            "type": "ADD_SNIPPET",
            "codeSnippet": "frmAccountsLandingKA.flxAccntLandingNavOptKA.isVisible=false;\nkony.sdk.mvvm.LogoutAction();",
            "parentId": "SHOW_ALERT__79a983363eca4624adbf8b5bf2e435d4",
            "callbackType": "True"
        }]
    }
}