{
    "AS_Button_g693755ea47548d89e9880f7e59d7bf1": {
        "id": "AS_Button_g693755ea47548d89e9880f7e59d7bf1",
        "type": "ACTION_SEQUENCE",
        "params": [{
            "datatype": "collection",
            "name": "eventobject"
        }],
        "language": "js",
        "actions": [{
            "id": "ADD_SNIPPET_ide_onClick_fe8490c1129a4be3994500c3a747e4e6",
            "type": "ADD_SNIPPET",
            "codeSnippet": "navigateToSearchOptions();",
            "callbackType": null
        }]
    }
}