{
    "AS_Button_cd215380fa344ff4ab1f19a75d66eda4": {
        "id": "AS_Button_cd215380fa344ff4ab1f19a75d66eda4",
        "type": "ACTION_SEQUENCE",
        "params": [{
            "datatype": "collection",
            "name": "eventobject"
        }],
        "contextObj": {
            "type": "forms",
            "platform": null,
            "KUID": "f1620f6e035b43a797bd646b22cf30e3"
        },
        "language": "js",
        "actions": [{
            "id": "ADD_SNIPPET_ide_onClick_j60404e03e164cf6a9c11bfa2b4b10c1",
            "type": "ADD_SNIPPET",
            "codeSnippet": "frmTransferMoneyToKAonBackBtnClick();",
            "callbackType": null
        }]
    }
}