{
    "AS_Button_f3474c1fe569419cbf4e4eaaedbaaed2": {
        "id": "AS_Button_f3474c1fe569419cbf4e4eaaedbaaed2",
        "type": "ACTION_SEQUENCE",
        "params": [{
            "datatype": "collection",
            "name": "eventobject"
        }],
        "contextObj": {
            "type": "forms",
            "platform": null,
            "KUID": "f644133a06fe4ebb8fed2a0bbbe06db2"
        },
        "language": "js",
        "actions": [{
            "id": "NAVIGATE_TO_FORM___7bb02fa8a0cb45aea8a71517a2e9bf9d",
            "type": "NAVIGATE_TO_FORM",
            "formId": "frmSearchResultsKA",
            "formKUID": "c0c324792a474a0fb5c1fbb09304b98a",
            "mappings": {},
            "mappingsOrder": [],
            "parentId": "",
            "callbackType": null,
            "enableMappingEditor": true,
            "package": "",
            "navigationObj": "{\n    \"_meta_\": {\n        \"eventName\": \"\",\n        \"widgetId\": \"\"\n    }\n}",
            "isCustomInput": false
        }]
    }
}