{
    "AS_Button_b567e7baf65b4b3baceb218878d65f34": {
        "id": "AS_Button_b567e7baf65b4b3baceb218878d65f34",
        "type": "ACTION_SEQUENCE",
        "params": [{
            "datatype": "collection",
            "name": "eventobject"
        }],
        "language": "js",
        "actions": [{
            "id": "ADD_SNIPPET_ide_onClick_h4aeab7ebb144d5a8cbd99a0a6bda4e2",
            "type": "ADD_SNIPPET",
            "codeSnippet": "PopupCancelAndReplaceCard.dismiss();",
            "callbackType": null
        }]
    }
}