{
    "AS_Button_if1db169e591421b93f95c0202b765bb": {
        "id": "AS_Button_if1db169e591421b93f95c0202b765bb",
        "type": "ACTION_SEQUENCE",
        "params": [{
            "datatype": "collection",
            "name": "eventobject"
        }],
        "contextObj": {
            "name": "frmNewTransferKA",
            "type": "forms",
            "platform": "",
            "KUID": "2ac343500306428da0ceef91a3b44d18"
        },
        "language": "js",
        "actions": [{
            "id": "ADD_SNIPPET_ide_onClick_b80ab4ca9da4400b8890509d53645584",
            "type": "ADD_SNIPPET",
            "codeSnippet": "var INSTANCE = kony.sdk.mvvm.KonyApplicationContext.getAppInstance();\nvar listController = INSTANCE.getFormController(\"frmTransferMoneyToKA\");\nvar navObject = new kony.sdk.mvvm.NavigationObject();\nnavObject.setRequestOptions(\"segInternalTOAccountsKA\",{\"headers\":{\"session_token\":kony.retailBanking.globalData.session_token}});\nlistController.loadDataAndShowForm(navObject);",
            "callbackType": null
        }]
    }
}