{
    "AS_Button_h429e2746ebe43f3830fe587512893f0": {
        "id": "AS_Button_h429e2746ebe43f3830fe587512893f0",
        "type": "ACTION_SEQUENCE",
        "params": [{
            "datatype": "collection",
            "name": "eventobject"
        }],
        "contextObj": {
            "type": "forms",
            "platform": "",
            "KUID": "cb977d23d25e44d0968c446c681f4dc7"
        },
        "language": "js",
        "actions": [{
            "id": "ADD_SNIPPET__f15e7d1276e0433197dbc95a6c18fdd3",
            "type": "ADD_SNIPPET",
            "codeSnippet": "var seQ = applicationManager.getSecurityQuestionsViewController();\nseQ.clickOnCancel();",
            "parentId": null,
            "callbackType": null
        }]
    }
}