{
    "AS_Button_dcc31819d9d44ee6af9c16ca3f0cc8b0": {
        "id": "AS_Button_dcc31819d9d44ee6af9c16ca3f0cc8b0",
        "type": "ACTION_SEQUENCE",
        "name": "AS_Button_All_Locations",
        "params": [{
            "datatype": "collection",
            "name": "eventobject"
        }],
        "contextObj": {
            "name": "frmLocatorKA",
            "type": "forms",
            "platform": "",
            "KUID": "c471585baa904bb49278190a4437d425"
        },
        "language": "js",
        "actions": [{
            "id": "ADD_SNIPPET__90da57b1f90642169d0d76cdaa0d4780",
            "type": "ADD_SNIPPET",
            "codeSnippet": "getAllLocations();\n",
            "parentId": null,
            "callbackType": null
        }]
    }
}