{
    "AS_Button_he0fcebb0fde4a30892e2a2b8055a333": {
        "id": "AS_Button_he0fcebb0fde4a30892e2a2b8055a333",
        "type": "ACTION_SEQUENCE",
        "params": [{
            "datatype": "collection",
            "name": "eventobject"
        }],
        "language": "js",
        "actions": [{
            "id": "ADD_SNIPPET_ide_onClick_b238ae8b5365416baafb959bbd0bb49e",
            "type": "ADD_SNIPPET",
            "codeSnippet": "ShowLoadingScreen();\ngetBillsOTP();",
            "callbackType": null
        }]
    }
}