{
    "AS_Button_3be9eafbda70496783cce641a183027c": {
        "id": "AS_Button_3be9eafbda70496783cce641a183027c",
        "type": "ACTION_SEQUENCE",
        "params": [{
            "datatype": "collection",
            "name": "eventobject"
        }],
        "contextObj": {
            "name": "frmSetLocatorDistanceFilterKA",
            "type": "forms",
            "platform": "",
            "KUID": "d13e7185c3a24602bfb30f9d6021e492"
        },
        "language": "js",
        "actions": [{
            "id": "ADD_SNIPPET__e839c5acbe464576bac9139f70b951dd",
            "type": "ADD_SNIPPET",
            "codeSnippet": "onClickDoneSettingMaxDistance();",
            "parentId": null,
            "callbackType": null
        }]
    }
}