{
    "AS_Button_d34c7c8f8cd642e6bae435679a0af27a": {
        "id": "AS_Button_d34c7c8f8cd642e6bae435679a0af27a",
        "type": "ACTION_SEQUENCE",
        "params": [{
            "datatype": "collection",
            "name": "eventobject"
        }],
        "contextObj": {
            "name": "frmAccountDetailKA",
            "type": "forms",
            "platform": "",
            "KUID": "5ed703cad63c441882fc4a36f5ea0c28"
        },
        "language": "js",
        "actions": [{
            "id": "ADD_SNIPPET__ca03b0619b984ebab9ace10095bc8455",
            "type": "ADD_SNIPPET",
            "codeSnippet": "kony.print(\"sadasdas\");",
            "parentId": null,
            "callbackType": null
        }]
    }
}