{
    "AS_Button_fb1b8e8493ec4de5aac7edabdb529ec3": {
        "id": "AS_Button_fb1b8e8493ec4de5aac7edabdb529ec3",
        "type": "ACTION_SEQUENCE",
        "params": [{
            "datatype": "collection",
            "name": "eventobject"
        }],
        "language": "js",
        "actions": [{
            "id": "ADD_SNIPPET_ide_onClick_febc4c7a94a14d8f963eccc134a96122",
            "type": "ADD_SNIPPET",
            "codeSnippet": "funMatInstructions(\"withInt\");",
            "callbackType": null
        }]
    }
}