{
    "AS_Button_hc6cc8abdd2c4647ad6ef422a65ed92e": {
        "id": "AS_Button_hc6cc8abdd2c4647ad6ef422a65ed92e",
        "type": "ACTION_SEQUENCE",
        "params": [{
            "datatype": "collection",
            "name": "eventobject"
        }],
        "contextObj": {
            "name": "iphoneFooter",
            "type": "templates",
            "platform": "",
            "KUID": "5fc13b6bbe69451a84b41ce39703d431"
        },
        "language": "js",
        "actions": [{
            "id": "ADD_SNIPPET__ae0d9e86bc344165b9df90f7e589d31e",
            "type": "ADD_SNIPPET",
            "codeSnippet": "frmConfirmTransferKA.show();",
            "parentId": null,
            "callbackType": null
        }]
    }
}