{
    "AS_Button_cba355aaa1784780851837888f5a1350": {
        "id": "AS_Button_cba355aaa1784780851837888f5a1350",
        "type": "ACTION_SEQUENCE",
        "params": [{
            "datatype": "collection",
            "name": "eventobject"
        }],
        "contextObj": {
            "type": "forms",
            "platform": null,
            "KUID": "da381a7fd8274d79a3082364ccdc2409"
        },
        "language": "js",
        "actions": [{
            "id": "ADD_SNIPPET__27d03aa96a8443fe829fcd148b8cf9d4",
            "type": "ADD_SNIPPET",
            "codeSnippet": "frmManageCardsKA.btnDeactivateKA.text = \"DEACTIVATE\"",
            "parentId": null,
            "callbackType": null
        }, {
            "id": "NAVIGATE_TO_FORM__ide_onClick_ef9135c28db64c2683f671fa6e64f3eb",
            "type": "NAVIGATE_TO_FORM",
            "formId": "frmManageCardsKA",
            "formKUID": "75db60b6b4944b7faf9c556f4dbcaf8d",
            "mappings": {},
            "mappingsOrder": [],
            "parentId": "",
            "callbackType": null,
            "enableMappingEditor": true,
            "package": "",
            "navigationObj": "{\n    \"_meta_\": {\n        \"eventName\": \"\",\n        \"widgetId\": \"\"\n    }\n}",
            "isCustomInput": false
        }]
    }
}