{
    "AS_Button_c26e1ef1b6e8474d94d8d0f73504cce7": {
        "id": "AS_Button_c26e1ef1b6e8474d94d8d0f73504cce7",
        "type": "ACTION_SEQUENCE",
        "name": "AS_Button_onClickEfawatercoomFooterFrmMore",
        "params": [{
            "datatype": "collection",
            "name": "eventobject"
        }],
        "contextObj": {
            "name": "frmMore",
            "type": "forms",
            "platform": "",
            "KUID": "d84431c3625d480e87968404e4325341"
        },
        "language": "js",
        "actions": [{
            "id": "ADD_SNIPPET__b917199185d34986ab0747c31247d105",
            "type": "ADD_SNIPPET",
            "codeSnippet": "if(kony.store.getItem(\"langPrefObj\") === \"en\")\n    kony.boj.lang = \"eng\";\n  else\n    kony.boj.lang = \"ara\";\n\ngblTModule = \"billspay\";\ngetAllAccounts();",
            "parentId": null,
            "callbackType": null
        }]
    }
}