{
    "AS_Button_57bf5e3b76064905896a2488bbbcdd30": {
        "id": "AS_Button_57bf5e3b76064905896a2488bbbcdd30",
        "type": "ACTION_SEQUENCE",
        "params": [{
            "datatype": "collection",
            "name": "eventobject"
        }],
        "contextObj": {
            "name": "frmPayeeDetailsKA",
            "type": "forms",
            "platform": "",
            "KUID": "eee6ed64af6148fd817b4b732ba55ecc"
        },
        "language": "js",
        "actions": [{
            "id": "ADD_SNIPPET__f24085e4110746f3938294712a536bf6",
            "type": "ADD_SNIPPET",
            "codeSnippet": "    var INSTANCE = kony.sdk.mvvm.KonyApplicationContext.getAppInstance();\n    var prevController = INSTANCE.getFormController(\"frmPayeeTransactionsKA\");\n    prevController.getFormModel().showView();",
            "parentId": null,
            "callbackType": null
        }]
    }
}