{
    "AS_Button_024147f73b3949aaa8ec1d29ecef8871": {
        "id": "AS_Button_024147f73b3949aaa8ec1d29ecef8871",
        "type": "ACTION_SEQUENCE",
        "params": [{
            "datatype": "collection",
            "name": "eventobject"
        }],
        "contextObj": {
            "name": "frmCardOperationsKA",
            "type": "forms",
            "platform": null,
            "KUID": "2d490dd434d4419c838fe7bad7a62acb"
        },
        "actions": [{
            "id": "ADD_SNIPPET__1a2cc40df3834827a39235a381a065f7",
            "type": "ADD_SNIPPET",
            "codeSnippet": "//alert(\"Card is cancelled\");\nshowManageCardsAlert(\"cardLostCall\");",
            "parentId": null,
            "callbackType": null
        }]
    }
}