{
    "AS_Button_321dd57cd151401ea55f21e5eacaf271": {
        "id": "AS_Button_321dd57cd151401ea55f21e5eacaf271",
        "type": "ACTION_SEQUENCE",
        "params": [{
            "datatype": "collection",
            "name": "eventobject"
        }],
        "actions": [{
            "id": "SHOW_ALERT__251664c28a244750baad5606afe5f6ae",
            "type": "SHOW_ALERT",
            "alertType": "constants.ALERT_TYPE_CONFIRMATION",
            "alertTitle": "Cancel Deposit?",
            "yesLabel": "Yes",
            "noLabel": "No",
            "alertMessage": "Are you sure you want cancel this deposit?",
            "messageType": "constant",
            "parentId": null,
            "callbackType": null,
            "alertTitlei18n": null,
            "yesLabeli18n": null,
            "noLabeli18n": null
        }, {
            "id": "ADD_SNIPPET__8248e63eaccd4e1aa07f54254b7e04c1",
            "type": "ADD_SNIPPET",
            "codeSnippet": "depositCancel();\ndepositLanding.scrollToBeginning();\n\n",
            "parentId": "SHOW_ALERT__251664c28a244750baad5606afe5f6ae",
            "callbackType": "True"
        }]
    }
}