{
    "AS_Button_j70c6a9f797d4f0f9f35990f4c75728d": {
        "id": "AS_Button_j70c6a9f797d4f0f9f35990f4c75728d",
        "type": "ACTION_SEQUENCE",
        "params": [{
            "datatype": "collection",
            "name": "eventobject"
        }],
        "language": "js",
        "actions": [{
            "id": "ADD_SNIPPET_ide_onClick_f9775d78a69a444fb918f8b116c78f13",
            "type": "ADD_SNIPPET",
            "codeSnippet": "scheduledTabSelectedAccounts();",
            "callbackType": null
        }]
    }
}