{
    "AS_Button_a448457d1a9e4801a5544611d959ee8b": {
        "id": "AS_Button_a448457d1a9e4801a5544611d959ee8b",
        "type": "ACTION_SEQUENCE",
        "params": [{
            "datatype": "collection",
            "name": "eventobject"
        }],
        "language": "js",
        "actions": [{
            "id": "ADD_SNIPPET_ide_onClick_b2bd7d5084e448869f34dbe1d703d65e",
            "type": "ADD_SNIPPET",
            "codeSnippet": "if(kony.sdk.isNetworkAvailable())\n  { \nfrmJoMoPay.show();\n  }\nelse\n{\n kony.sdk.mvvm.KonyApplicationContext.dismissLoadingScreen();\n        customAlertPopup(\"\", kony.i18n.getLocalizedString(\"i18n.errorMsg.deviceConnectionError\"), popupCommonAlertDimiss, \"\");\n}",
            "callbackType": null
        }]
    }
}