{
    "AS_Button_je87c8cd0f374f9bbfeb24ab7b9decb6": {
        "id": "AS_Button_je87c8cd0f374f9bbfeb24ab7b9decb6",
        "type": "ACTION_SEQUENCE",
        "params": [{
            "datatype": "collection",
            "name": "eventobject"
        }],
        "contextObj": {
            "name": "frmAccountDetailKA",
            "type": "forms",
            "platform": "",
            "KUID": "5ed703cad63c441882fc4a36f5ea0c28"
        },
        "language": "js",
        "actions": [{
            "id": "ADD_SNIPPET__b073cb98fa19444a909603f2879ad785",
            "type": "ADD_SNIPPET",
            "codeSnippet": "  var INSTANCE = kony.sdk.mvvm.KonyApplicationContext.getAppInstance();\n    var frmName = kony.application.getCurrentForm().id;\n    var listController = INSTANCE.getFormController(frmName);\n    listController.performAction(\"navigateToAccountsInfo\");",
            "parentId": null,
            "callbackType": null
        }]
    }
}