{
    "AS_Button_c691035400684764b59c35e638253c82": {
        "id": "AS_Button_c691035400684764b59c35e638253c82",
        "type": "ACTION_SEQUENCE",
        "params": [{
            "datatype": "collection",
            "name": "eventobject"
        }],
        "contextObj": {
            "name": "frmAccountDetailKA",
            "type": "forms",
            "platform": "",
            "KUID": "5ed703cad63c441882fc4a36f5ea0c28"
        },
        "language": "js",
        "actions": [{
            "id": "ADD_SNIPPET__dc47cc767e6e413db5da675f1527bd0a",
            "type": "ADD_SNIPPET",
            "codeSnippet": "kony.print(\"Asdasd\");",
            "parentId": null,
            "callbackType": null
        }]
    }
}