{
    "AS_Button_af79295cd54141289b01d3c84026152a": {
        "id": "AS_Button_af79295cd54141289b01d3c84026152a",
        "type": "ACTION_SEQUENCE",
        "params": [{
            "datatype": "collection",
            "name": "eventobject"
        }],
        "language": "js",
        "actions": [{
            "id": "NAVIGATE_TO_FORM__ide_onClick_d50702021f274bdf8d83ee7524cecfb7",
            "type": "NAVIGATE_TO_FORM",
            "formId": "frmLoginKA",
            "formKUID": "7b1aa8fceb6b4070833e9eab879b0e5e",
            "mappings": {},
            "mappingsOrder": [],
            "parentId": "",
            "callbackType": null,
            "enableMappingEditor": true,
            "disabled": true,
            "package": "",
            "navigationObj": "{\n    \"_meta_\": {\n        \"eventName\": \"\",\n        \"widgetId\": \"\"\n    }\n}",
            "isCustomInput": false
        }, {
            "id": "ADD_SNIPPET_ide_onClick_be4c7bbf235448ca97efc447c74dca39",
            "type": "ADD_SNIPPET",
            "codeSnippet": "kony.application.exit();",
            "callbackType": null
        }]
    }
}