{
    "AS_Button_h9a668dea80a4662ade259f316fda857": {
        "id": "AS_Button_h9a668dea80a4662ade259f316fda857",
        "type": "ACTION_SEQUENCE",
        "params": [{
            "datatype": "collection",
            "name": "eventobject"
        }],
        "language": "js",
        "actions": [{
            "id": "ADD_SNIPPET_ide_onClick_f751b2b049fb4e63b93d343cd3bbeb4e",
            "type": "ADD_SNIPPET",
            "codeSnippet": "onclickDepositEdit(\"to\");",
            "callbackType": null
        }]
    }
}