{
    "AS_Button_a38484c52b5440138e962d13e970a497": {
        "id": "AS_Button_a38484c52b5440138e962d13e970a497",
        "type": "ACTION_SEQUENCE",
        "params": [{
            "datatype": "collection",
            "name": "eventobject"
        }],
        "language": "js",
        "actions": [{
            "id": "SHOW_ALERT_ide_onClick_c989508599db4c149f521e4655fa95ce",
            "type": "SHOW_ALERT",
            "alertType": "constants.ALERT_TYPE_CONFIRMATION",
            "alertTitle": "Confirm Sign Out",
            "yesLabel": "Sign Out",
            "noLabel": "Cancel",
            "alertMessage": "Are you sure you want to sign out?",
            "messageType": "constant",
            "alertTitlei18n": "i18n.common.confirmSignOut",
            "yesLabeli18n": "i18n.common.signOut",
            "noLabeli18n": "i18n.common.cancel",
            "alertMessagei18n": "i18n.common.signOutAlert",
            "iconPosition": "constants.ALERT_ICON_POSITION_LEFT"
        }, {
            "id": "ADD_SNIPPET_ide_onClick_fe944ccf901f4cbeb8bc83f97ace69dc",
            "type": "ADD_SNIPPET",
            "codeSnippet": "//closeAndroidNav();\n//deviceRegFrom = \"logout\";\nkony.sdk.mvvm.LogoutAction();\n",
            "parentId": "SHOW_ALERT_ide_onClick_c989508599db4c149f521e4655fa95ce",
            "callbackType": "True"
        }]
    }
}