{
    "AS_Button_1532035ca83244f0a4b1e6c66329f8b4": {
        "id": "AS_Button_1532035ca83244f0a4b1e6c66329f8b4",
        "type": "ACTION_SEQUENCE",
        "params": [{
            "datatype": "collection",
            "name": "eventobject"
        }],
        "contextObj": {
            "name": "frmMoreLandingKA",
            "type": "forms",
            "platform": "",
            "KUID": "f90cf53e47ae407c83e2e30720fff3da"
        },
        "language": "js",
        "actions": [{
            "id": "ADD_SNIPPET__8079cdc9c4694aaf8eac86de4a7957d0",
            "type": "ADD_SNIPPET",
            "codeSnippet": "onMessageInboxSelected();\nshowMessagesList();\n",
            "parentId": null,
            "callbackType": null
        }]
    }
}