{
    "AS_Button_f09ee0cd90ef4b8cb06bc167744a16ab": {
        "id": "AS_Button_f09ee0cd90ef4b8cb06bc167744a16ab",
        "type": "ACTION_SEQUENCE",
        "params": [{
            "datatype": "collection",
            "name": "eventobject"
        }],
        "contextObj": {
            "name": "frmAccountDetailKA",
            "type": "forms",
            "platform": "",
            "KUID": "5ed703cad63c441882fc4a36f5ea0c28"
        },
        "language": "js",
        "actions": [{
            "id": "ADD_SNIPPET__g3e0eae56d5747b9a0a67f9c4f38a218",
            "type": "ADD_SNIPPET",
            "codeSnippet": "kony.print(\"\");",
            "parentId": null,
            "callbackType": null
        }]
    }
}