{
    "AS_Button_ec092d3d621e413cbd3305b390d4a2c0": {
        "id": "AS_Button_ec092d3d621e413cbd3305b390d4a2c0",
        "type": "ACTION_SEQUENCE",
        "params": [{
            "datatype": "collection",
            "name": "eventobject"
        }],
        "contextObj": {
            "name": "frmCreateCredentials",
            "type": "forms",
            "platform": "",
            "KUID": "ec144124e44d4336b9c86f2ab49591df"
        },
        "language": "js",
        "actions": [{
            "id": "ADD_SNIPPET__f3eae9332c4649b6929f09371d4bef82",
            "type": "ADD_SNIPPET",
            "codeSnippet": "var createCredentialsVC=applicationManager.getFrmCreateCredentialsViewController();\ncreateCredentialsVC.onClickCancel(); ",
            "parentId": null,
            "callbackType": null
        }]
    }
}