{
    "AS_Button_id27bc612a634b30a61446f49e516e75": {
        "id": "AS_Button_id27bc612a634b30a61446f49e516e75",
        "type": "ACTION_SEQUENCE",
        "params": [{
            "datatype": "collection",
            "name": "eventobject"
        }],
        "language": "js",
        "actions": [{
            "id": "ADD_SNIPPET_ide_onClick_b0fb3b0aa2a74864a4a572a4720a33ea",
            "type": "ADD_SNIPPET",
            "codeSnippet": "gblFromModule = \"ForgotPassword\";\ngblReqField = \"Username\";\ninitialiseAndCallEnroll();\nfrmLoginKA.passwordTextField.text=\"\";",
            "callbackType": null
        }]
    }
}