{
    "AS_Button_abc64c47787342bea617b2ced56c5976": {
        "id": "AS_Button_abc64c47787342bea617b2ced56c5976",
        "type": "ACTION_SEQUENCE",
        "params": [{
            "datatype": "collection",
            "name": "eventobject"
        }],
        "language": "js",
        "actions": [{
            "id": "ADD_SNIPPET_ide_onClick_baae229104614b0eab49c847a9509eff",
            "type": "ADD_SNIPPET",
            "codeSnippet": "showHideAccountInsights();",
            "callbackType": null
        }]
    }
}