{
    "AS_Button_59dfc887bfa84293a7352588f49ab88d": {
        "id": "AS_Button_59dfc887bfa84293a7352588f49ab88d",
        "type": "ACTION_SEQUENCE",
        "params": [{
            "datatype": "collection",
            "name": "eventobject"
        }],
        "language": "js",
        "actions": [{
            "id": "ADD_SNIPPET_ide_onClick_7b6ed0f1569f4d378fb4d62f5068248b",
            "type": "ADD_SNIPPET",
            "codeSnippet": "onConfirmPayBillEditButtonClick();\n// //getTransferPayLandingForm(\"frmNewTransferKA\");\n// frmNewBillKA.transferPayTitleLabel.text=i18n_editPayBill;\n// var INSTANCE = kony.sdk.mvvm.KonyApplicationContext.getAppInstance();\n// var listController = INSTANCE.getFormController(\"frmNewBillKA\");\n// var navObject = new kony.sdk.mvvm.NavigationObject();\n// var controllerContextData = listController.getContextData();\n// if(controllerContextData.getCustomInfo(\"operationType\") == \"ADD\"){\n//     navObject.setDataModel(null,kony.sdk.mvvm.OperationType.ADD, \"form\");\n//             }\n// navObject.setCustomInfo(\"operationType\",\"ADD\");\n// navObject.setRequestOptions(\"segInternalTOAccountsPayKA\",{\"headers\":{\"session_token\":kony.retailBanking.globalData.session_token}});\n// listController.performAction(\"navigateTo\",[\"frmNewBillKA\",navObject]); ",
            "callbackType": null
        }]
    }
}