{
    "AS_Button_c6aa21f05d6e4a5cb7f60d381bf9ca81": {
        "id": "AS_Button_c6aa21f05d6e4a5cb7f60d381bf9ca81",
        "type": "ACTION_SEQUENCE",
        "name": "AS_Button_onClickTwoHundredFiftenAmountCardless",
        "params": [{
            "datatype": "collection",
            "name": "eventobject"
        }],
        "contextObj": {
            "name": "frmCardlessTransaction",
            "type": "forms",
            "platform": "",
            "KUID": "b7e7974060664c0093c575d8bba1e829"
        },
        "language": "js",
        "actions": [{
            "id": "ADD_SNIPPET__b5ac2b4c7210490bb006bbf3f1fb0a02",
            "type": "ADD_SNIPPET",
            "codeSnippet": "getAmountFunction(\"twoHundredFif\");",
            "parentId": null,
            "callbackType": null
        }]
    }
}