{
    "AS_Button_7ea8bea45e4a4de2b921c7d6459843ca": {
        "id": "AS_Button_7ea8bea45e4a4de2b921c7d6459843ca",
        "type": "ACTION_SEQUENCE",
        "params": [{
            "datatype": "collection",
            "name": "eventobject"
        }],
        "language": "js",
        "actions": [{
            "id": "ADD_SNIPPET__634f3a0f4d3949d192ff23b89f3d56ba",
            "type": "ADD_SNIPPET",
            "codeSnippet": "var status = confirmAddExternalAccount();\nif(status)\n{ \n  var INSTANCE = kony.sdk.mvvm.KonyApplicationContext.getAppInstance();\n  var listController = INSTANCE.getFormController(\"frmAddExternalAccountKA\");\n  listController.performAction(\"saveData\");\n}",
            "parentId": null,
            "callbackType": null
        }]
    }
}