{
    "AS_Button_cf79e4ea45eb446980ec8a7903efd21a": {
        "id": "AS_Button_cf79e4ea45eb446980ec8a7903efd21a",
        "type": "ACTION_SEQUENCE",
        "params": [{
            "datatype": "collection",
            "name": "eventobject"
        }],
        "language": "js",
        "actions": [{
            "id": "ADD_SNIPPET_ide_onClick_e31413380fc74365bff6fe0ee8cd6d68",
            "type": "ADD_SNIPPET",
            "codeSnippet": "frmSettingsKA.show();",
            "callbackType": null
        }]
    }
}