{
    "AS_Button_fd967fc4ab5d4a118ee1f706a1532be5": {
        "id": "AS_Button_fd967fc4ab5d4a118ee1f706a1532be5",
        "type": "ACTION_SEQUENCE",
        "params": [{
            "datatype": "collection",
            "name": "eventobject"
        }],
        "contextObj": {
            "name": "frmConfirmPrePayBill",
            "type": "forms",
            "platform": null,
            "KUID": "a75e220839ea44a2b0654e6eee22b206"
        },
        "language": "js",
        "actions": [{
            "id": "ADD_SNIPPET_ide_onClick_f7066924156b416e83ced2292f95157b",
            "type": "ADD_SNIPPET",
            "codeSnippet": "goBackInBetweenBillPay();",
            "callbackType": null
        }]
    }
}