{
    "AS_Button_98a4d4a000b0475eadb31cc46f64a0ed": {
        "id": "AS_Button_98a4d4a000b0475eadb31cc46f64a0ed",
        "type": "ACTION_SEQUENCE",
        "params": [{
            "datatype": "collection",
            "name": "eventobject"
        }],
        "contextObj": {
            "type": "forms",
            "platform": "",
            "KUID": "ac09c32a534449b3b0961f8e48e26015"
        },
        "language": "js",
        "actions": [{
            "id": "ADD_SNIPPET__d82affee6875426c93a6e82c36df2006",
            "type": "ADD_SNIPPET",
            "codeSnippet": "",
            "parentId": null,
            "callbackType": null
        }]
    }
}