{
    "AS_Button_g6591d159ae44a0a90699cbb33a21892": {
        "id": "AS_Button_g6591d159ae44a0a90699cbb33a21892",
        "type": "ACTION_SEQUENCE",
        "name": "AS_Button_manageCardOnClickAccept",
        "params": [{
            "datatype": "collection",
            "name": "eventobject"
        }],
        "language": "js",
        "actions": [{
            "id": "ADD_SNIPPET_ide_onClick_c1bd66003ac8452fae9b2505cf18bca2",
            "type": "ADD_SNIPPET",
            "codeSnippet": "frmManageCardLess.btnAll.skin = \"slButtonWhiteTabDisabled\";\nfrmManageCardLess.btnPending.skin = \"slButtonWhiteTabDisabled\";\nfrmManageCardLess.btnAccepted.skin = \"slButtonWhiteTab\";\nfrmManageCardLess.btnCancel.skin = \"slButtonWhiteTabDisabled\";\nkony.sdk.mvvm.KonyApplicationContext.showLoadingScreen(\"\");\nshow_Cardless_List(\"Accept\");",
            "callbackType": null
        }]
    }
}