{
    "AS_Calendar_c299b719c2ba482cbc60bea792398ff5": {
        "id": "AS_Calendar_c299b719c2ba482cbc60bea792398ff5",
        "type": "ACTION_SEQUENCE",
        "params": [{
            "datatype": "collection",
            "name": "eventobject"
        }, {
            "datatype": "boolean",
            "name": "isValidDateSelected"
        }],
        "contextObj": {
            "name": "frmNewTransferKA",
            "type": "forms",
            "platform": "",
            "KUID": "2ac343500306428da0ceef91a3b44d18"
        },
        "language": "js",
        "actions": [{
            "id": "ADD_SNIPPET__7b449d471e1440f5b73bb8234731038e",
            "type": "ADD_SNIPPET",
            "codeSnippet": "RecurringChanges(\"8\");",
            "parentId": null,
            "callbackType": null
        }]
    }
}