{
    "AS_CheckBoxGroup_56c7e73a06bc44f19f7138c9d22dceaf": {
        "id": "AS_CheckBoxGroup_56c7e73a06bc44f19f7138c9d22dceaf",
        "type": "ACTION_SEQUENCE",
        "params": [{
            "datatype": "collection",
            "name": "eventobject"
        }],
        "language": "js",
        "actions": [{
            "id": "ADD_SNIPPET_ide_onSelection_f1c9780342b64c4398550b71837d26d2",
            "type": "ADD_SNIPPET",
            "codeSnippet": "selectCheckNumbers();",
            "callbackType": null
        }]
    }
}