{
    "AS_CheckBoxGroup_a055b4437d374f7d9e3cf5c721b4d4a2": {
        "id": "AS_CheckBoxGroup_a055b4437d374f7d9e3cf5c721b4d4a2",
        "type": "ACTION_SEQUENCE",
        "params": [{
            "datatype": "collection",
            "name": "eventobject"
        }],
        "contextObj": {
            "type": "forms",
            "platform": "",
            "KUID": "ac09c32a534449b3b0961f8e48e26015"
        },
        "language": "js",
        "actions": [{
            "id": "ADD_SNIPPET__be59415ec1bb40ad8e17cc4686a08bf5",
            "type": "ADD_SNIPPET",
            "codeSnippet": "selectDateRange();",
            "parentId": null,
            "callbackType": null
        }]
    }
}