{
    "AS_Calendar_5deb8f3000f3424cab6d6a7670b870fc": {
        "id": "AS_Calendar_5deb8f3000f3424cab6d6a7670b870fc",
        "type": "ACTION_SEQUENCE",
        "params": [{
            "datatype": "collection",
            "name": "eventobject"
        }, {
            "datatype": "boolean",
            "name": "isValidDateSelected"
        }],
        "language": "js",
        "actions": [{
            "id": "ADD_SNIPPET_ide_onSelection_e37c9eeb507048fab2fae6cdfc9a404b",
            "type": "ADD_SNIPPET",
            "codeSnippet": "var caldate = frmSearchKA.CalenderFrom.dateComponents;\nfrmSearchKA.CalenderTo.dateComponents=[caldate[0],caldate[1],caldate[2]];\nfrmSearchKA.CalenderTo.validStartDate=[caldate[0],caldate[1],caldate[2]];",
            "callbackType": null
        }]
    }
}