{
    "AS_Form_j3e48d7d85c346fda2012ec18afbbf56": {
        "id": "AS_Form_j3e48d7d85c346fda2012ec18afbbf56",
        "type": "ACTION_SEQUENCE",
        "name": "AS_congratulationsBack",
        "params": [{
            "datatype": "collection",
            "name": "eventobject"
        }],
        "contextObj": {
            "name": "frmCongratulations",
            "type": "forms",
            "platform": "",
            "KUID": "h0d76ad922194a6b81763ba19df1183c"
        },
        "language": "js",
        "actions": [{
            "id": "ADD_SNIPPET__accd4a0e5b2f4747914c7c8905737794",
            "type": "ADD_SNIPPET",
            "codeSnippet": "kony.print(\"Can't go back from congratulations \");",
            "parentId": null,
            "callbackType": null
        }]
    }
}