{
    "AS_Form_ef740547d36045ff9e10099d12901113": {
        "id": "AS_Form_ef740547d36045ff9e10099d12901113",
        "type": "ACTION_SEQUENCE",
        "params": [{
            "datatype": "collection",
            "name": "eventobject"
        }],
        "contextObj": {
            "type": "forms",
            "platform": null,
            "KUID": "3895ad9cb72242cabc92623efd7598f4"
        },
        "language": "js",
        "actions": [{
            "id": "ADD_SNIPPET_ide_preShow_0e644f41d75142159f288355e442d248",
            "type": "ADD_SNIPPET",
            "codeSnippet": "frmEditPayeeKAwithCmpny.flxScrollCompanyListKA.isVisible = false;",
            "callbackType": null
        }]
    }
}