{
    "AS_FlexContainer_bdb3b86f2d284705ba55c7d7ddd7e44e": {
        "id": "AS_FlexContainer_bdb3b86f2d284705ba55c7d7ddd7e44e",
        "type": "ACTION_SEQUENCE",
        "name": "AS_FlexContainer_OnClickServiceTypeDropDown",
        "params": [{
            "datatype": "collection",
            "name": "eventobject"
        }],
        "contextObj": {
            "name": "frmPalpayBillInformation",
            "type": "forms",
            "platform": "",
            "KUID": "e22e028272e9470bb4d04f1c672b7496"
        },
        "language": "js",
        "actions": [{
            "id": "ADD_SNIPPET__c09fb48ca9a6470c82dd0917eae20b57",
            "type": "ADD_SNIPPET",
            "codeSnippet": "if (frmPalpayBillInformation.flxUnderlineBillerName.skin === \"sknFlxGreenLine\"){\n  gblSegDataTypes = \"ServiceType\";\n  fillMappingData();\n}",
            "parentId": null,
            "callbackType": null
        }]
    }
}