{
    "AS_FlexContainer_ic43e2c0cf694d6fbbcf1e6244ea4b4b": {
        "id": "AS_FlexContainer_ic43e2c0cf694d6fbbcf1e6244ea4b4b",
        "type": "ACTION_SEQUENCE",
        "params": [{
            "datatype": "collection",
            "name": "eventobject"
        }],
        "contextObj": {
            "name": "frmUserSettingsSiri",
            "type": "forms",
            "platform": "",
            "KUID": "f6a73333c5b04d9f97a80b02ff57e6ae"
        },
        "language": "js",
        "actions": [{
            "id": "ADD_SNIPPET__c27f805be4374b2f94c604f83209f295",
            "type": "ADD_SNIPPET",
            "codeSnippet": "//1960 fix\nfrmAccountDetailsScreen.lblHead.text = \"Accounts\";\ngblTModule = \"AccountsForPayments\";\nkony.boj.siri=\"fromSiri\";\nkony.print(\"kony.boj.siri\" + kony.boj.siri);\ngotoAccountDetailsScreen(1);",
            "parentId": null,
            "callbackType": null
        }]
    }
}