{
    "AS_Form_j3a23174d4664ff3902280d3e273d0c8": {
        "id": "AS_Form_j3a23174d4664ff3902280d3e273d0c8",
        "type": "ACTION_SEQUENCE",
        "name": "AS_Form_SelectBene",
        "params": [{
            "datatype": "collection",
            "name": "eventobject"
        }],
        "contextObj": {
            "name": "frmSelectDetailsBene",
            "type": "forms",
            "platform": null,
            "KUID": "dc083a9578ae4c11820ce4dbba701670"
        },
        "language": "js",
        "actions": [{
            "id": "ADD_SNIPPET_ide_preShow_g91f7ca3e8364ddca75fbb9a35ed057e",
            "type": "ADD_SNIPPET",
            "codeSnippet": "preShowCurrency();",
            "callbackType": null
        }]
    }
}