{
    "AS_FlexContainer_bb578f2ad8c84fb5a291878b5df677a6": {
        "id": "AS_FlexContainer_bb578f2ad8c84fb5a291878b5df677a6",
        "type": "ACTION_SEQUENCE",
        "params": [{
            "datatype": "collection",
            "name": "eventobject"
        }],
        "contextObj": {
            "name": "tabBarTransfer",
            "type": "templates",
            "platform": "",
            "KUID": "4d0f72044b934b539f6f3d0409a878b0"
        },
        "language": "js",
        "actions": [{
            "id": "NAVIGATE_TO_FORM___1779e6aa2585411f8ebe3a55f2d24895",
            "type": "NAVIGATE_TO_FORM",
            "formId": "frmMoreLandingKA",
            "formKUID": "f90cf53e47ae407c83e2e30720fff3da",
            "mappings": {},
            "mappingsOrder": [],
            "parentId": "",
            "callbackType": null,
            "enableMappingEditor": true,
            "package": "",
            "navigationObj": "{\n    \"_meta_\": {\n        \"eventName\": \"onClick\",\n        \"widgetId\": \"CopyFlexContainer0419cabfa34b74c\"\n    }\n}",
            "isCustomInput": false
        }]
    }
}