{
    "AS_Form_bacaf7072b7b4ccdaf1618b2ad6248c2": {
        "id": "AS_Form_bacaf7072b7b4ccdaf1618b2ad6248c2",
        "type": "ACTION_SEQUENCE",
        "name": "AS_Form_editaccountPostshow",
        "params": [{
            "datatype": "collection",
            "name": "eventobject"
        }],
        "contextObj": {
            "name": "frmEditAccountSettings",
            "type": "forms",
            "platform": "",
            "KUID": "ace74a42ca5e45cabde3f7b9d6361bd8"
        },
        "language": "js",
        "actions": [{
            "id": "ADD_SNIPPET__i9fe797929ac458f9cd30c613c442b6f",
            "type": "ADD_SNIPPET",
            "codeSnippet": "if(isEmpty(frmEditAccountSettings.txtAddNickName.text))\nanimateLabel(\"DOWN\",\"lblAddNickName\",frmEditAccountSettings.txtAddNickName.text);\nelse\nanimateLabel(\"UP\",\"lblAddNickName\",frmEditAccountSettings.txtAddNickName.text);",
            "parentId": null
        }]
    }
}