{
    "AS_Form_aa77813cf9194c3ebea6dfe89b776fad": {
        "id": "AS_Form_aa77813cf9194c3ebea6dfe89b776fad",
        "type": "ACTION_SEQUENCE",
        "params": [{
            "datatype": "collection",
            "name": "eventobject"
        }],
        "contextObj": {
            "type": "forms",
            "platform": "",
            "KUID": "961c8824d4e14cf2b422099eccffc6a4"
        },
        "language": "js",
        "actions": [{
            "id": "ADD_SNIPPET__64142e8bccba45378f070213076ac33f",
            "type": "ADD_SNIPPET",
            "codeSnippet": "frmUserSettingsEditUsernameKA.txtNewUserNameKA.text=\"\";",
            "parentId": null,
            "callbackType": null
        }]
    }
}