{
    "AS_Form_i44e886724824f789391cddf6c22430d": {
        "id": "AS_Form_i44e886724824f789391cddf6c22430d",
        "type": "ACTION_SEQUENCE",
        "params": [{
            "datatype": "collection",
            "name": "eventobject"
        }],
        "contextObj": {
            "name": "frmManageCardLess",
            "type": "forms",
            "platform": "",
            "KUID": "jd96d8371a184c5ba5a32df58e75e79f"
        },
        "language": "js",
        "actions": [{
            "id": "ADD_SNIPPET__d2c4ab4424304cd1b76ebcb457708666",
            "type": "ADD_SNIPPET",
            "codeSnippet": "",
            "parentId": null,
            "callbackType": null
        }]
    }
}