{
    "AS_FlexContainer_j1985b84b06b4c4fb07a484929e5702e": {
        "id": "AS_FlexContainer_j1985b84b06b4c4fb07a484929e5702e",
        "type": "ACTION_SEQUENCE",
        "params": [{
            "datatype": "collection",
            "name": "eventobject"
        }],
        "language": "js",
        "actions": [{
            "id": "ADD_SNIPPET_ide_onClick_aa555b4afe424c6faa087197a372abdc",
            "type": "ADD_SNIPPET",
            "codeSnippet": "frmCreditCardPayment.flxConfirmPopUp.setVisibility(false);\nfrmCreditCardPayment.flxBody.setVisibility(true);",
            "callbackType": null
        }]
    }
}