{
    "AS_FlexContainer_e6c1ac34c7664974a1a5ff407eb9b47e": {
        "id": "AS_FlexContainer_e6c1ac34c7664974a1a5ff407eb9b47e",
        "type": "ACTION_SEQUENCE",
        "params": [{
            "datatype": "collection",
            "name": "eventobject"
        }, {
            "datatype": "string",
            "name": "x"
        }, {
            "datatype": "string",
            "name": "y"
        }],
        "contextObj": {
            "name": "frmEnlargeAdKA",
            "type": "forms",
            "platform": "",
            "KUID": "af0a08b95e4b4ced82724169b940deb3"
        },
        "language": "js",
        "actions": [{
            "id": "ADD_SNIPPET__fefdce744a57400881a267ca818bc0c3",
            "type": "ADD_SNIPPET",
            "codeSnippet": "var enLargeAdVC = applicationManager.getEnlargedAdViewController();\nenLargeAdVC.adImageOnClick();",
            "parentId": null,
            "callbackType": null
        }]
    }
}