{
    "AS_Form_27c15e07f1dd42489132334199d90467": {
        "id": "AS_Form_27c15e07f1dd42489132334199d90467",
        "type": "ACTION_SEQUENCE",
        "params": [],
        "language": "js",
        "actions": [{
            "id": "ADD_SNIPPET__1fb01345651e42f5bb3e7e0bd6e9329e",
            "type": "ADD_SNIPPET",
            "codeSnippet": "checkDepositIphone();\nuserAgent = kony.os.userAgent();\nif (userAgent === \"iPhone\"){\n if(kony.retailBanking.globalData.globals.configPreferences.rdc === \"OFF\" ){\n    frmMoreLandingKA.footers[0].FlxDeposits.setVisibility(false);\n }\n}\nmoreLandingInit();\n",
            "parentId": null,
            "callbackType": null
        }]
    }
}