{
    "AS_Form_533d63fefaf04a4a96e0e88b400c2786": {
        "id": "AS_Form_533d63fefaf04a4a96e0e88b400c2786",
        "type": "ACTION_SEQUENCE",
        "params": [{
            "datatype": "collection",
            "name": "eventobject"
        }],
        "contextObj": {
            "type": "forms",
            "platform": null,
            "KUID": "400a0ee97eb04e5897318084b1271b8a"
        },
        "language": "js",
        "actions": [{
            "id": "ADD_SNIPPET_ide_onDeviceBack_ace9af9f51be41beabe362fee38fbf98",
            "type": "ADD_SNIPPET",
            "codeSnippet": "kony.print(\"Device Back\");\n//#ifdef android\nfrmAccountDetailKA.show();\n//#endif",
            "callbackType": null
        }]
    }
}