{
    "AS_FlexContainer_248e8979b2d34fa69b4a963bcbf2bb21": {
        "id": "AS_FlexContainer_248e8979b2d34fa69b4a963bcbf2bb21",
        "type": "ACTION_SEQUENCE",
        "params": [{
            "datatype": "collection",
            "name": "eventobject"
        }],
        "contextObj": {
            "name": "frmNewTransferKA",
            "type": "forms",
            "platform": "",
            "KUID": "2ac343500306428da0ceef91a3b44d18"
        },
        "language": "js",
        "actions": [{
            "id": "ADD_SNIPPET__a568c614cb1b44e99e8432870f948573",
            "type": "ADD_SNIPPET",
            "codeSnippet": "RecurringChanges(\"4\");",
            "parentId": null,
            "callbackType": null
        }]
    }
}