{
    "AS_Form_dbb6150b1a0d4c5eac3e6bb5f5bf18b7": {
        "id": "AS_Form_dbb6150b1a0d4c5eac3e6bb5f5bf18b7",
        "type": "ACTION_SEQUENCE",
        "params": [{
            "datatype": "collection",
            "name": "eventobject"
        }],
        "contextObj": {
            "type": "forms",
            "platform": null,
            "KUID": "f1620f6e035b43a797bd646b22cf30e3"
        },
        "language": "js",
        "actions": [{
            "id": "ADD_SNIPPET_ide_onDeviceBack_b5b702d2ac9045d9b532fa892407e0b1",
            "type": "ADD_SNIPPET",
            "codeSnippet": "kony.print(\"Device Back\");",
            "callbackType": null
        }]
    }
}