{
    "AS_Form_eb1461a9076d49b196c229b7b66bae93": {
        "id": "AS_Form_eb1461a9076d49b196c229b7b66bae93",
        "type": "ACTION_SEQUENCE",
        "params": [{
            "datatype": "collection",
            "name": "eventobject"
        }],
        "contextObj": {
            "type": "forms",
            "platform": "",
            "KUID": "c634696bcf0042fb9a44a55a368f9621"
        },
        "language": "js",
        "actions": [{
            "id": "ADD_SNIPPET__d72c0d71148d46269a98f47814347725",
            "type": "ADD_SNIPPET",
            "codeSnippet": "kony.print(\"Deleted\");",
            "parentId": null,
            "callbackType": null
        }]
    }
}