{
    "AS_Form_e98a2ba558834507962c9a752b28619e": {
        "id": "AS_Form_e98a2ba558834507962c9a752b28619e",
        "type": "ACTION_SEQUENCE",
        "params": [{
            "datatype": "collection",
            "name": "eventobject"
        }],
        "contextObj": {
            "name": "frmNewUserOnboardVerificationKA",
            "type": "forms",
            "platform": null,
            "KUID": "ie7b921fac134bd8a8afb16afc085409"
        },
        "language": "js",
        "actions": [{
            "id": "ADD_SNIPPET_ide_onDeviceBack_ed99d5ed699b45f488535f98ed0300a9",
            "type": "ADD_SNIPPET",
            "codeSnippet": "backFromOTP();",
            "callbackType": null
        }]
    }
}