{
    "AS_Form_31d7ec2a6f0749cbb11f7eb7c79b85e9": {
        "id": "AS_Form_31d7ec2a6f0749cbb11f7eb7c79b85e9",
        "type": "ACTION_SEQUENCE",
        "params": [{
            "datatype": "collection",
            "name": "eventobject"
        }],
        "contextObj": {
            "name": "frmCheckReOrderListKA",
            "type": "forms",
            "platform": "",
            "KUID": "82e3c377c2264e8281fc81abb3ae4f3a"
        },
        "language": "js",
        "actions": [{
            "id": "ADD_SNIPPET__ce84ce028521401eb6f9a503bc8c8e68",
            "type": "ADD_SNIPPET",
            "codeSnippet": "kony.print(\"device back\");",
            "parentId": null,
            "callbackType": null
        }]
    }
}