{
    "AS_FlexContainer_bc75080e29e344c7aa4cb7c5982f02f2": {
        "id": "AS_FlexContainer_bc75080e29e344c7aa4cb7c5982f02f2",
        "type": "ACTION_SEQUENCE",
        "params": [{
            "datatype": "collection",
            "name": "eventobject"
        }],
        "language": "js",
        "actions": [{
            "id": "INVOKE_FUNCTION__ide_onClick_bba5fc668a2748e49e9f5994acf843cc",
            "type": "INVOKE_FUNCTION",
            "sequenceKUID": "accountInfoSorting",
            "display": "accountInfoSorting",
            "inputparams": [{
                "name": "widget"
            }, {
                "name": "sortby"
            }, {
                "name": "type"
            }],
            "callbackType": null,
            "disabled": null,
            "source": "module"
        }]
    }
}