{
    "AS_FlexContainer_cdeeb2a170af4936af20c1617a22a970": {
        "id": "AS_FlexContainer_cdeeb2a170af4936af20c1617a22a970",
        "type": "ACTION_SEQUENCE",
        "params": [{
            "datatype": "collection",
            "name": "eventobject"
        }],
        "language": "js",
        "actions": [{
            "id": "ADD_SNIPPET_ide_onClick_e785373679b94ae0b29a9e9c69d1062f",
            "type": "ADD_SNIPPET",
            "codeSnippet": "\t  var INSTANCE = kony.sdk.mvvm.KonyApplicationContext.getAppInstance();\n      var controller = INSTANCE.getFormController(\"frmAccountsLandingKA\");\n      var navObject = new kony.sdk.mvvm.NavigationObject();\n      navObject.setRequestOptions(\"segAccountsKA\",{\"headers\":{\"session_token\":kony.retailBanking.globalData.session_token}});\n      controller.loadDataAndShowForm(navObject);",
            "callbackType": null
        }]
    }
}