{
    "AS_Form_c3652acf24784d41a4c077a59f62b0c4": {
        "id": "AS_Form_c3652acf24784d41a4c077a59f62b0c4",
        "type": "ACTION_SEQUENCE",
        "params": [{
            "datatype": "collection",
            "name": "eventobject"
        }],
        "contextObj": {
            "name": "frmTermsAndConditionsKA",
            "type": "forms",
            "platform": "",
            "KUID": "100aadb985c846ec80ffda1f762bb7e8"
        },
        "language": "js",
        "actions": [{
            "id": "ADD_SNIPPET__cf80469b884f492ea94cadf084c0fa8f",
            "type": "ADD_SNIPPET",
            "codeSnippet": "ShowLoadingScreen();\n//frmTermsAndConditionsKA.richTexttermsandconditions.setVisibility(false)\nfrmTermsAndConditionsKA.flHome.setVisibility(true);\n\nfrmTermsAndConditionsKA.forceLayout();",
            "parentId": null,
            "callbackType": null
        }]
    }
}