{
    "AS_FlexContainer_d2919aeed5ba4e98956e843adbab8f5b": {
        "id": "AS_FlexContainer_d2919aeed5ba4e98956e843adbab8f5b",
        "type": "ACTION_SEQUENCE",
        "params": [{
            "datatype": "collection",
            "name": "eventobject"
        }],
        "language": "js",
        "actions": [{
            "id": "INVOKE_FUNCTION__ide_onClick_f63e0a06571c4afe9af8f0e756112743",
            "type": "INVOKE_FUNCTION",
            "sequenceKUID": "accountInfoSorting",
            "display": "accountInfoSorting",
            "inputparams": [{
                "name": "widget",
                "value": "frmAccountDetailKA.imgSortAmountAsc"
            }, {
                "name": "sortby",
                "value": "\"Amount\""
            }, {
                "name": "type",
                "value": "\"ascending\""
            }],
            "callbackType": null,
            "disabled": null,
            "source": "module"
        }]
    }
}