{
    "AS_Form_f4aaa6a7700348d39526f7f7bd6cbc0c": {
        "id": "AS_Form_f4aaa6a7700348d39526f7f7bd6cbc0c",
        "type": "ACTION_SEQUENCE",
        "params": [{
            "datatype": "collection",
            "name": "eventobject"
        }],
        "contextObj": {
            "name": "frmEstatementConfirmKA",
            "type": "forms",
            "platform": "",
            "KUID": "jeebb130131d44348829571f3a6ba9c8"
        },
        "language": "js",
        "actions": [{
            "id": "ADD_SNIPPET__i9822a0ed26e45668412af7d8f880cd3",
            "type": "ADD_SNIPPET",
            "codeSnippet": "frmEstatementConfirmpreshpw();",
            "parentId": null,
            "callbackType": null
        }]
    }
}