{
    "AS_FlexContainer_e3dacce8063944c08b70bddbf2f8f450": {
        "id": "AS_FlexContainer_e3dacce8063944c08b70bddbf2f8f450",
        "type": "ACTION_SEQUENCE",
        "params": [{
            "datatype": "collection",
            "name": "eventobject"
        }, {
            "datatype": "string",
            "name": "x"
        }, {
            "datatype": "string",
            "name": "y"
        }],
        "contextObj": {
            "name": "frmNewTransferKA",
            "type": "forms",
            "platform": "",
            "KUID": "2ac343500306428da0ceef91a3b44d18"
        },
        "language": "js",
        "actions": [{
            "id": "ADD_SNIPPET__f4270681a15f498ba4b0377a56ac8df3",
            "type": "ADD_SNIPPET",
            "codeSnippet": "//frmNewTransferKA.txtBox.text=formatAmountwithcomma(frmNewTransferKA.txtBox.text,3);\nonClickFromAcct();",
            "parentId": null,
            "callbackType": null
        }]
    }
}