{
    "AS_Form_ff828f677de645aabc52a2528edfa621": {
        "id": "AS_Form_ff828f677de645aabc52a2528edfa621",
        "type": "ACTION_SEQUENCE",
        "params": [{
            "datatype": "collection",
            "name": "eventobject"
        }],
        "contextObj": {
            "name": "frmUserSettingsSiri",
            "type": "forms",
            "platform": "",
            "KUID": "f6a73333c5b04d9f97a80b02ff57e6ae"
        },
        "language": "js",
        "actions": [{
            "id": "ADD_SNIPPET__ce5e86a12f96453791dfde142be824b5",
            "type": "ADD_SNIPPET",
            "codeSnippet": "onPostShowfrmUserSettingsSiri();",
            "parentId": null,
            "callbackType": null
        }]
    }
}