{
    "AS_FlexContainer_ge2bc7fecd0d48c18d14d8ad02b9013d": {
        "id": "AS_FlexContainer_ge2bc7fecd0d48c18d14d8ad02b9013d",
        "type": "ACTION_SEQUENCE",
        "params": [{
            "datatype": "collection",
            "name": "eventobject"
        }],
        "contextObj": {
            "name": "frmConfirmPrePayBill",
            "type": "forms",
            "platform": null,
            "KUID": "a75e220839ea44a2b0654e6eee22b206"
        },
        "language": "js",
        "actions": [{
            "id": "ADD_SNIPPET_ide_onClick_jf772b6bcab14e2d8fde9ff75573d7ec",
            "type": "ADD_SNIPPET",
            "codeSnippet": "frmPrePaidPayeeDetailsKA.show();",
            "callbackType": null
        }]
    }
}