{
    "AS_FlexContainer_d78f912b50d94b5ba7cb394175c8e6e3": {
        "id": "AS_FlexContainer_d78f912b50d94b5ba7cb394175c8e6e3",
        "type": "ACTION_SEQUENCE",
        "params": [{
            "datatype": "collection",
            "name": "eventobject"
        }],
        "language": "js",
        "actions": [{
            "id": "ADD_SNIPPET_ide_onClick_dbd38512e94e4311bc3632081b1f95f7",
            "type": "ADD_SNIPPET",
            "codeSnippet": "startChatbotAfterLogin(custid , true);\nfrmAccountsLandingKA.flxIconMove1.left = \"43%\";\nfrmAccountsLandingKA.flxIconMove1.top = \"77%\";",
            "callbackType": null
        }]
    }
}