{
    "AS_FlexContainer_e04348bd02bb4dd4a28988352a951319": {
        "id": "AS_FlexContainer_e04348bd02bb4dd4a28988352a951319",
        "type": "ACTION_SEQUENCE",
        "name": "AS_FlexContainer_OnClickBillerNameDropDown",
        "params": [{
            "datatype": "collection",
            "name": "eventobject"
        }],
        "contextObj": {
            "name": "frmPalpayBillInformation",
            "type": "forms",
            "platform": "",
            "KUID": "e22e028272e9470bb4d04f1c672b7496"
        },
        "language": "js",
        "actions": [{
            "id": "ADD_SNIPPET__a73d2507cd924c31a6bc4af526105d4e",
            "type": "ADD_SNIPPET",
            "codeSnippet": "gblSegDataTypes = \"BillerName\";\n//clickOperation=\"GetPalpayBillerList\";\nfillMappingData();",
            "parentId": null,
            "callbackType": null
        }]
    }
}