{
    "AS_FlexContainer_d6a2df9484094ecea6ede407279b0a5d": {
        "id": "AS_FlexContainer_d6a2df9484094ecea6ede407279b0a5d",
        "type": "ACTION_SEQUENCE",
        "params": [{
            "datatype": "collection",
            "name": "eventobject"
        }],
        "language": "js",
        "actions": [{
            "id": "ADD_SNIPPET_ide_onClick_d35f86e162414d9da08111deeedaceb4",
            "type": "ADD_SNIPPET",
            "codeSnippet": "kony.print(\"Removed\");",
            "callbackType": null
        }]
    }
}