{
    "AS_FlexContainer_c01e71ea931e456295ecf652702251b6": {
        "id": "AS_FlexContainer_c01e71ea931e456295ecf652702251b6",
        "type": "ACTION_SEQUENCE",
        "params": [{
            "datatype": "collection",
            "name": "eventobject"
        }],
        "contextObj": {
            "name": "frmAccountInfoKA",
            "type": "forms",
            "platform": "",
            "KUID": "b2f984d11c5244e6ae5f81fe393d837e"
        },
        "language": "js",
        "actions": [{
            "id": "ADD_SNIPPET__a6fcb80ad00147388b85d016480bb466",
            "type": "ADD_SNIPPET",
            "codeSnippet": "alertBankCall();",
            "parentId": null,
            "callbackType": null
        }]
    }
}