{
    "AS_FlexScrollContainer_ga6c96abdbc54655b30cced3b3638a56": {
        "id": "AS_FlexScrollContainer_ga6c96abdbc54655b30cced3b3638a56",
        "type": "ACTION_SEQUENCE",
        "params": [{
            "datatype": "collection",
            "name": "eventobject"
        }],
        "language": "js",
        "actions": [{
            "id": "ADD_SNIPPET_ide_onScrolling_a20508d64ec64413ae3452710552d9d7",
            "type": "ADD_SNIPPET",
            "codeSnippet": "//innerAccountScroll();",
            "callbackType": null
        }]
    }
}