{
    "AS_FlexContainer_8be7690940144a7b9946cdd84755216b": {
        "id": "AS_FlexContainer_8be7690940144a7b9946cdd84755216b",
        "type": "ACTION_SEQUENCE",
        "params": [{
            "datatype": "collection",
            "name": "eventobject"
        }],
        "language": "js",
        "actions": [{
            "id": "ADD_SNIPPET_ide_onClick_fca0830737304950bc647a8577b77aa7",
            "type": "ADD_SNIPPET",
            "codeSnippet": "if(frmAccountAlertsKA.successCheckClearanceInfoImgKA.src==\"checkbox_off.png\")\n    {\n       \tfrmAccountAlertsKA.successCheckClearanceInfoImgKA.src=\"checkbox_on.png\";\n      alert(\"You are subscribed for check clearance alerts\");\n       //\tfrmAlertsKA.alertsTypes.isVisible=true;\n     // registerPush();\n      //\tupdateFlags(\"alerts\",true);\n    }else {\n       \t frmAccountAlertsKA.successCheckClearanceInfoImgKA.src=\"checkbox_off.png\";\n     alert(\"You are unsubscribed for check clearance alerts\");\n      \t// frmAlertsKA.alertsTypes.isVisible=false;\n     // deregisterPush();\n       //  updateFlags(\"alerts\",false);\n    }\n",
            "callbackType": null
        }]
    }
}