{
    "AS_FlexContainer_e4320aa0b2c440fc820037565327674f": {
        "id": "AS_FlexContainer_e4320aa0b2c440fc820037565327674f",
        "type": "ACTION_SEQUENCE",
        "params": [{
            "datatype": "collection",
            "name": "eventobject"
        }],
        "contextObj": {
            "name": "tabBarMore",
            "type": "templates",
            "platform": "",
            "KUID": "e0d5ae1d0532432d997d5a7ffbec8f48"
        },
        "language": "js",
        "actions": [{
            "id": "ADD_SNIPPET__7ee436e5d5a84d25bdccfa446c725dfc",
            "type": "ADD_SNIPPET",
            "codeSnippet": "gblfrmName = \"\";\ngotoDeposits();",
            "parentId": null,
            "callbackType": null
        }]
    }
}