{
    "AS_FlexContainer_b1a4c2408eb54787a4721097e79225bc": {
        "id": "AS_FlexContainer_b1a4c2408eb54787a4721097e79225bc",
        "type": "ACTION_SEQUENCE",
        "params": [{
            "datatype": "collection",
            "name": "eventobject"
        }],
        "language": "js",
        "actions": [{
            "id": "ADD_SNIPPET_ide_onClick_gbd965b9a6dc4e24970247d98def44ba",
            "type": "ADD_SNIPPET",
            "codeSnippet": "frmNewUserOnboardVerificationKA.txtOTP.setFocus(true);",
            "callbackType": null
        }]
    }
}