{
    "AS_FlexContainer_c2880ca31aca4c30989d091e7d38a615": {
        "id": "AS_FlexContainer_c2880ca31aca4c30989d091e7d38a615",
        "type": "ACTION_SEQUENCE",
        "params": [{
            "datatype": "collection",
            "name": "eventobject"
        }],
        "language": "js",
        "actions": [{
            "id": "ADD_SNIPPET_ide_onClick_ac7a9e6d74a8409899f85181cae2660a",
            "type": "ADD_SNIPPET",
            "codeSnippet": "kony.print(\"Removed\");",
            "callbackType": null
        }]
    }
}