{
    "AS_FlexContainer_ab5c9a22c83646c59c0ff1a5e5018c79": {
        "id": "AS_FlexContainer_ab5c9a22c83646c59c0ff1a5e5018c79",
        "type": "ACTION_SEQUENCE",
        "params": [{
            "datatype": "collection",
            "name": "eventobject"
        }],
        "contextObj": {
            "name": "frmEPS",
            "type": "forms",
            "platform": "",
            "KUID": "c49bbb3175be499d86d933cee301b3c4"
        },
        "language": "js",
        "actions": []
    }
}