{
    "AS_Form_034eb2e5d3f5439cbca20c9b4dc14b0d": {
        "id": "AS_Form_034eb2e5d3f5439cbca20c9b4dc14b0d",
        "type": "ACTION_SEQUENCE",
        "params": [{
            "datatype": "collection",
            "name": "eventobject"
        }],
        "contextObj": {
            "name": "frmCheckReOrderListKA",
            "type": "forms",
            "platform": null,
            "KUID": "82e3c377c2264e8281fc81abb3ae4f3a"
        },
        "language": "js",
        "actions": [{
            "id": "ADD_SNIPPET_ide_onDeviceBack_23c89068da6a4f1fbc6abdf270cb623f",
            "type": "ADD_SNIPPET",
            "codeSnippet": "kony.print(\"device back\");",
            "callbackType": null
        }]
    }
}