{
    "AS_FlexContainer_h0320c799ce040e9a70ce70d564e9881": {
        "id": "AS_FlexContainer_h0320c799ce040e9a70ce70d564e9881",
        "type": "ACTION_SEQUENCE",
        "params": [{
            "datatype": "collection",
            "name": "eventobject"
        }],
        "language": "js",
        "actions": [{
            "id": "ADD_SNIPPET_ide_onClick_j90409b2c91740b0bb3f049abb952b9f",
            "type": "ADD_SNIPPET",
            "codeSnippet": "frmPrePaidPayeeDetailsKA.flxMain.setVisibility(true);\nfrmPrePaidPayeeDetailsKA.flxConfirmPopUp.setVisibility(false);",
            "callbackType": null
        }]
    }
}