{
    "AS_FlexContainer_a09b232801f74be3b044fa655fb40c4a": {
        "id": "AS_FlexContainer_a09b232801f74be3b044fa655fb40c4a",
        "type": "ACTION_SEQUENCE",
        "name": "AS_FlexContainer_onClickOTP",
        "params": [{
            "datatype": "collection",
            "name": "eventobject"
        }],
        "contextObj": {
            "name": "frmNewUserOnboardVerificationKA",
            "type": "forms",
            "platform": "",
            "KUID": "ie7b921fac134bd8a8afb16afc085409"
        },
        "language": "js",
        "actions": [{
            "id": "ADD_SNIPPET__ea98e8e5d21045d986d52a629f1ce32a",
            "type": "ADD_SNIPPET",
            "codeSnippet": "frmNewUserOnboardVerificationKA.txtOTP.setFocus(true);",
            "parentId": null,
            "callbackType": null
        }]
    }
}