{
    "AS_Form_766c40a00e5c4b11a360358469dc89e9": {
        "id": "AS_Form_766c40a00e5c4b11a360358469dc89e9",
        "type": "ACTION_SEQUENCE",
        "params": [{
            "datatype": "collection",
            "name": "eventobject"
        }],
        "contextObj": {
            "name": "frmDepositPayLandingKA",
            "type": "forms",
            "platform": "",
            "KUID": "dd44156e890e4ee28360f50ee6c67184"
        },
        "language": "js",
        "actions": [{
            "id": "ADD_SNIPPET__f7c813cc6bb44a3bb68af26f604a9514",
            "type": "ADD_SNIPPET",
            "codeSnippet": "kony.print(\"Removed\");",
            "parentId": null,
            "callbackType": null
        }]
    }
}