{
    "AS_Form_cb7c790f841b4b238623e52e86776369": {
        "id": "AS_Form_cb7c790f841b4b238623e52e86776369",
        "type": "ACTION_SEQUENCE",
        "params": [{
            "datatype": "collection",
            "name": "eventobject"
        }],
        "contextObj": {
            "name": "frmNewUserOnboardVerificationKA",
            "type": "forms",
            "platform": "",
            "KUID": "ie7b921fac134bd8a8afb16afc085409"
        },
        "language": "js",
        "actions": [{
            "id": "ADD_SNIPPET__a742bedbc6444505a2340c5933d8e62c",
            "type": "ADD_SNIPPET",
            "codeSnippet": "frmNewUserOnboardVerificationKA.destroy();",
            "parentId": null,
            "callbackType": null
        }]
    }
}