{
    "AS_FlexContainer_j935031a7f3b4566ba92f6e436faf3f4": {
        "id": "AS_FlexContainer_j935031a7f3b4566ba92f6e436faf3f4",
        "type": "ACTION_SEQUENCE",
        "name": "AS_FlexContainer_callCancelCardPopup",
        "params": [{
            "datatype": "collection",
            "name": "eventobject"
        }],
        "contextObj": {
            "name": "frmManageCardsKA",
            "type": "forms",
            "platform": "",
            "KUID": "75db60b6b4944b7faf9c556f4dbcaf8d"
        },
        "language": "js",
        "actions": [{
            "id": "ADD_SNIPPET__a1475050692d4addac39c4661c46a82a",
            "type": "ADD_SNIPPET",
            "codeSnippet": "//showCancelCardPopup(eventobject);\nfrmCancelCardKA.show();",
            "parentId": null,
            "callbackType": null
        }]
    }
}