{
    "AS_FlexContainer_gb9efe5d61f447eda45f319410d0a69e": {
        "id": "AS_FlexContainer_gb9efe5d61f447eda45f319410d0a69e",
        "type": "ACTION_SEQUENCE",
        "params": [{
            "datatype": "collection",
            "name": "eventobject"
        }],
        "language": "js",
        "actions": [{
            "id": "ADD_SNIPPET_ide_onClick_g97bbc2e50074b6184472d88702bdcbf",
            "type": "ADD_SNIPPET",
            "codeSnippet": "\t  var INSTANCE = kony.sdk.mvvm.KonyApplicationContext.getAppInstance();\n      var controller = INSTANCE.getFormController(\"frmAccountsLandingKA\");\n      var navObject = new kony.sdk.mvvm.NavigationObject();\n      navObject.setRequestOptions(\"segAccountsKA\",{\"headers\":{\"session_token\":kony.retailBanking.globalData.session_token}});\n      controller.loadDataAndShowForm(navObject);",
            "callbackType": null
        }]
    }
}