{
    "AS_FlexContainer_ce6357b633fc4004b5300d427099b3b9": {
        "id": "AS_FlexContainer_ce6357b633fc4004b5300d427099b3b9",
        "type": "ACTION_SEQUENCE",
        "params": [{
            "datatype": "collection",
            "name": "eventobject"
        }],
        "language": "js",
        "actions": [{
            "id": "ADD_SNIPPET_ide_onClick_f25391dabe224212aacc5bb317fe6694",
            "type": "ADD_SNIPPET",
            "codeSnippet": "// var currentForm = kony.application.getCurrentForm();\n// kony.chatbots.bot.showBotSplash(currentForm);\nfrmPaymentDashboard.show();",
            "callbackType": null
        }]
    }
}