{
    "AS_FlexContainer_h3f59274744f41e58af36c7293c14bd4": {
        "id": "AS_FlexContainer_h3f59274744f41e58af36c7293c14bd4",
        "type": "ACTION_SEQUENCE",
        "name": "AS_FlexContainer_estatmentSwitchOff",
        "params": [{
            "datatype": "collection",
            "name": "eventobject"
        }],
        "contextObj": {
            "name": "frmEditAccountSettings",
            "type": "forms",
            "platform": "",
            "KUID": "ace74a42ca5e45cabde3f7b9d6361bd8"
        },
        "language": "js",
        "actions": [{
            "id": "ADD_SNIPPET__af06aa5b18284a7090a539ff58142079",
            "type": "ADD_SNIPPET",
            "codeSnippet": "frmEditAccountSettings.flxeStatmentSwitchOn.isVisible = true;\nfrmEditAccountSettings.flxeStatmentSwitchOff.isVisible = false;\n\n\n",
            "parentId": null
        }]
    }
}