{
    "AS_FlexContainer_a9720e33344b4583a67392cc52a97dd9": {
        "id": "AS_FlexContainer_a9720e33344b4583a67392cc52a97dd9",
        "type": "ACTION_SEQUENCE",
        "params": [{
            "datatype": "collection",
            "name": "eventobject"
        }, {
            "datatype": "string",
            "name": "x"
        }, {
            "datatype": "string",
            "name": "y"
        }],
        "language": "js",
        "actions": [{
            "id": "ADD_SNIPPET_ide_onTouchStart_bad0d77112514bf69d3fa02bb22abddc",
            "type": "ADD_SNIPPET",
            "codeSnippet": "frmNewTransferKA.show();",
            "callbackType": null
        }]
    }
}