{
    "AS_FlexContainer_e27bb8ea5aa84d1d8eb80de74ae84814": {
        "id": "AS_FlexContainer_e27bb8ea5aa84d1d8eb80de74ae84814",
        "type": "ACTION_SEQUENCE",
        "params": [{
            "datatype": "collection",
            "name": "eventobject"
        }],
        "language": "js",
        "actions": [{
            "id": "ADD_SNIPPET_ide_onClick_df1ebd590b094f3fa3427e499bb8e52e",
            "type": "ADD_SNIPPET",
            "codeSnippet": "gblfrmName = \"\";\nadditionalValidationRdc(this,gotoDeposits);\n",
            "callbackType": null
        }]
    }
}