{
    "AS_Form_eb8b863e9a7d4652b7a1de48fe352d7e": {
        "id": "AS_Form_eb8b863e9a7d4652b7a1de48fe352d7e",
        "type": "ACTION_SEQUENCE",
        "params": [{
            "datatype": "collection",
            "name": "eventobject"
        }],
        "contextObj": {
            "name": "frmPalpayHome",
            "type": "forms",
            "platform": "",
            "KUID": "b6f7ffc24d504a0c8c3f0516afca9e87"
        },
        "language": "js",
        "actions": []
    }
}