{
    "AS_FlexContainer_a2946ffb15e94fd3b5ebb7a618a85447": {
        "id": "AS_FlexContainer_a2946ffb15e94fd3b5ebb7a618a85447",
        "type": "ACTION_SEQUENCE",
        "params": [{
            "datatype": "collection",
            "name": "eventobject"
        }],
        "language": "js",
        "actions": [{
            "id": "ADD_SNIPPET_ide_onClick_bde787d9f4714770b791e2821bc7db89",
            "type": "ADD_SNIPPET",
            "codeSnippet": "//  onClickLocateUS(true,\"frmNewUserOnboardVerificationKA\");\ngetNewsInfo(\"otp\");",
            "callbackType": null
        }]
    }
}