{
    "AS_Form_f144f16817394b4c9392afb12483f52a": {
        "id": "AS_Form_f144f16817394b4c9392afb12483f52a",
        "type": "ACTION_SEQUENCE",
        "params": [{
            "datatype": "collection",
            "name": "eventobject"
        }],
        "contextObj": {
            "name": "frmEstatementLandingKA",
            "type": "forms",
            "platform": "",
            "KUID": "d1dcb94f4a054dda97d66cbdc216d96a"
        },
        "language": "js",
        "actions": [{
            "id": "ADD_SNIPPET__ibce30420a9d44689d3cfd76347ac46e",
            "type": "ADD_SNIPPET",
            "codeSnippet": "try{\n  if(isEmpty(frmEstatementLandingKA.txtEmail1.text))\n    animateLabel(\"DOWN\",\"lblEmail1\",frmEstatementLandingKA.txtEmail1.text); \n  else\n    animateLabel(\"UP\",\"lblEmail1\",frmEstatementLandingKA.txtEmail1.text);\n\n  if(isEmpty(frmEstatementLandingKA.txtEmail2.text))\n    animateLabel(\"DOWN\",\"lblEmail2\",frmEstatementLandingKA.txtEmail2.text); \n  else\n    animateLabel(\"UP\",\"lblEmail2\",frmEstatementLandingKA.txtEmail2.text); \n}catch(err){\n  kony.print( \"err:\"+err);\n}",
            "parentId": null,
            "callbackType": null
        }]
    }
}