{
    "AS_Form_h942d7c1984a41c0bd7682ff5709b51b": {
        "id": "AS_Form_h942d7c1984a41c0bd7682ff5709b51b",
        "type": "ACTION_SEQUENCE",
        "params": [{
            "datatype": "collection",
            "name": "eventobject"
        }],
        "contextObj": {
            "name": "frmEnlargeAdKA",
            "type": "forms",
            "platform": "",
            "KUID": "af0a08b95e4b4ced82724169b940deb3"
        },
        "language": "js",
        "actions": [{
            "id": "ADD_SNIPPET__cba5abbd51ad49e7867881630a85e839",
            "type": "ADD_SNIPPET",
            "codeSnippet": "kony.print(\"Device Back\");",
            "parentId": null,
            "callbackType": null
        }]
    }
}