{
    "AS_FlexContainer_a2f6188491634386969dc785a39cf359": {
        "id": "AS_FlexContainer_a2f6188491634386969dc785a39cf359",
        "type": "ACTION_SEQUENCE",
        "params": [{
            "datatype": "collection",
            "name": "eventobject"
        }],
        "language": "js",
        "actions": [{
            "id": "ADD_SNIPPET_ide_onClick_af940b5e8e67421f9884f8446288a9cc",
            "type": "ADD_SNIPPET",
            "codeSnippet": "kony.ui.Alert({\n  \"message\": geti18Value(\"i18n.Bene.backFromBeneError\"),\n  \"alertType\": constants.ALERT_TYPE_CONFIRMATION,\n  \"alertTitle\": \"\",\n  \"yesLabel\": geti18Value(\"i18n.common.YES\"),\n  \"noLabel\": geti18Value(\"i18n.common.NO\"),\n  \"alertIcon\": \"\",\n  \"alertHandler\": userResponse\n}, {});\n\nfunction userResponse(res){\n  if(res ===true){\n    frmPaymentDashboard.show();;\n//     kony.boj.detailsForBene.flag = false;\n  }\n}",
            "callbackType": null
        }]
    }
}