{
    "AS_FlexContainer_ic4eefd2da4b47dba9630db58c2070f1": {
        "id": "AS_FlexContainer_ic4eefd2da4b47dba9630db58c2070f1",
        "type": "ACTION_SEQUENCE",
        "params": [{
            "datatype": "collection",
            "name": "eventobject"
        }],
        "language": "js",
        "actions": [{
            "id": "ADD_SNIPPET_ide_onClick_j2aaeb69c8b141af9368fc180656b52d",
            "type": "ADD_SNIPPET",
            "codeSnippet": "//  onClickLocateUS(true,\"frmNewUserOnboardVerificationKA\");\ngetNewsInfo(\"otp\");",
            "callbackType": null
        }]
    }
}