{
    "AS_FlexContainer_i2bfcd3fd8fa402f98d670056dd281f6": {
        "id": "AS_FlexContainer_i2bfcd3fd8fa402f98d670056dd281f6",
        "type": "ACTION_SEQUENCE",
        "name": "AS_FlexContainer_ManageCardlesssOnClickBack",
        "params": [{
            "datatype": "collection",
            "name": "eventobject"
        }],
        "contextObj": {
            "name": "frmManageCardLess",
            "type": "forms",
            "platform": "",
            "KUID": "jd96d8371a184c5ba5a32df58e75e79f"
        },
        "language": "js",
        "actions": [{
            "id": "ADD_SNIPPET__fde763550ef244d89ce6f445d6c88eaa",
            "type": "ADD_SNIPPET",
            "codeSnippet": "frmMore.show();\nfrmManageCardLess.destroy();",
            "parentId": null,
            "callbackType": null
        }]
    }
}