{
    "AS_FlexContainer_ac3c54854408484cb4c0bf882471878f": {
        "id": "AS_FlexContainer_ac3c54854408484cb4c0bf882471878f",
        "type": "ACTION_SEQUENCE",
        "params": [{
            "datatype": "collection",
            "name": "eventobject"
        }],
        "language": "js",
        "actions": [{
            "id": "ADD_SNIPPET_ide_onClick_e52a98d2152d4f29bbf58dee002c1dbe",
            "type": "ADD_SNIPPET",
            "codeSnippet": "\t  var INSTANCE = kony.sdk.mvvm.KonyApplicationContext.getAppInstance();\n      var controller = INSTANCE.getFormController(\"frmAccountsLandingKA\");\n      var navObject = new kony.sdk.mvvm.NavigationObject();\n      navObject.setRequestOptions(\"segAccountsKA\",{\"headers\":{\"session_token\":kony.retailBanking.globalData.session_token}});\n      controller.loadDataAndShowForm(navObject);",
            "callbackType": null
        }]
    }
}