{
    "AS_FlexScrollContainer_e33745480487498186c866b4cc660bad": {
        "id": "AS_FlexScrollContainer_e33745480487498186c866b4cc660bad",
        "type": "ACTION_SEQUENCE",
        "params": [{
            "datatype": "collection",
            "name": "eventobject"
        }],
        "language": "js",
        "actions": [{
            "id": "ADD_SNIPPET_ide_onScrollEnd_a4dea0a479a64ff197dee4b355631c14",
            "type": "ADD_SNIPPET",
            "codeSnippet": "innerDoneScrolling();",
            "callbackType": null
        }]
    }
}