{
    "AS_Form_55a5d361cc3148e18539540a3caff43b": {
        "id": "AS_Form_55a5d361cc3148e18539540a3caff43b",
        "type": "ACTION_SEQUENCE",
        "params": [{
            "datatype": "collection",
            "name": "eventobject"
        }],
        "contextObj": {
            "type": "forms",
            "platform": null,
            "KUID": "3895ad9cb72242cabc92623efd7598f4"
        },
        "language": "js",
        "actions": [{
            "id": "ADD_SNIPPET_ide_onDeviceBack_664f79380a3b44a1b19cb0affaa07efe",
            "type": "ADD_SNIPPET",
            "codeSnippet": null,
            "callbackType": null
        }]
    }
}