{
    "AS_FlexContainer_e0661f11a6a24800b1f01cedb0d83074": {
        "id": "AS_FlexContainer_e0661f11a6a24800b1f01cedb0d83074",
        "type": "ACTION_SEQUENCE",
        "params": [{
            "datatype": "collection",
            "name": "eventobject"
        }],
        "contextObj": {
            "KUID": "a7af44ce35e44a7ea6c9516ec3bff4eb",
            "platform": "",
            "type": "forms"
        },
        "language": "js",
        "actions": [{
            "id": "ADD_SNIPPET__f374ebe282b54e259a6f965618990cfa",
            "type": "ADD_SNIPPET",
            "codeSnippet": "customAlertPopup(geti18Value(\"i18n.cards.Confirmation\"), \n                 geti18Value(\"i18n.transfers.eraseAllAlert\"),\n                 userResponseESP, onClickNoBackESP, \n                 geti18Value(\"i18n.common.YES\"),\n                 geti18Value(\"i18n.common.NO\"));\n\nfunction userResponseESP(){\n  removeDatafrmTransfersformEPS();\n  popupCommonAlertDimiss();\n  frmPaymentDashboard.show();\n  \n}\nfunction onClickNoBackESP(){\n  popupCommonAlertDimiss();\n}\n",
            "parentId": null,
            "callbackType": null
        }]
    }
}