{
    "AS_FlexContainer_i25a57272aaa495a8cbf2141389e8730": {
        "id": "AS_FlexContainer_i25a57272aaa495a8cbf2141389e8730",
        "type": "ACTION_SEQUENCE",
        "params": [{
            "datatype": "collection",
            "name": "eventobject"
        }],
        "contextObj": {
            "name": "frmEPS",
            "type": "forms",
            "platform": "",
            "KUID": "c49bbb3175be499d86d933cee301b3c4"
        },
        "language": "js",
        "actions": [{
            "id": "ADD_SNIPPET__g64bd6cc94d44ed483e7b6f6471d4e3a",
            "type": "ADD_SNIPPET",
            "codeSnippet": "frmEPS.flxMain.setVisibility(true);\nfrmEPS.flxConfirmEPS.setVisibility(false);",
            "parentId": null,
            "callbackType": null
        }]
    }
}