{
    "AS_Form_c4df868b4e2f47358d282239cca060b3": {
        "id": "AS_Form_c4df868b4e2f47358d282239cca060b3",
        "type": "ACTION_SEQUENCE",
        "params": [{
            "datatype": "collection",
            "name": "eventobject"
        }],
        "contextObj": {
            "name": "frmConfirmCashWithDrawQRCodeKA",
            "type": "forms",
            "platform": null,
            "KUID": "ded4b5c79a094fb6a00d414ebe133610"
        },
        "language": "js",
        "actions": [{
            "id": "ADD_SNIPPET_ide_onDeviceBack_ee560cf41033420aa20a76c43145a45b",
            "type": "ADD_SNIPPET",
            "codeSnippet": "kony.print(\"device back\");",
            "callbackType": null
        }]
    }
}