{
    "AS_FlexContainer_c271c7ee53174ba19bffaedf7e70b732": {
        "id": "AS_FlexContainer_c271c7ee53174ba19bffaedf7e70b732",
        "type": "ACTION_SEQUENCE",
        "params": [{
            "datatype": "collection",
            "name": "eventobject"
        }],
        "language": "js",
        "actions": [{
            "id": "ADD_SNIPPET_ide_onClick_jf1ead85d0b04bdd8602b06013655d41",
            "type": "ADD_SNIPPET",
            "codeSnippet": "kony.boj.showSelectedDetailsFromBene(\"Country\", \"lblCountryNameKA\");",
            "callbackType": null
        }]
    }
}