{
    "AS_FlexContainer_cea7224b6676466995b6768a5f214055": {
        "id": "AS_FlexContainer_cea7224b6676466995b6768a5f214055",
        "type": "ACTION_SEQUENCE",
        "params": [{
            "datatype": "collection",
            "name": "eventobject"
        }],
        "language": "js",
        "actions": [{
            "id": "ADD_SNIPPET_ide_onClick_j242ed6f399040b3b62af004165b18c7",
            "type": "ADD_SNIPPET",
            "codeSnippet": "gblfrmName = \"\";\nadditionalValidationRdc(this,gotoDeposits);\n",
            "callbackType": null
        }]
    }
}