{
    "AS_FlexContainer_b1069640aee141bd9b3f0d2532afb1a0": {
        "id": "AS_FlexContainer_b1069640aee141bd9b3f0d2532afb1a0",
        "type": "ACTION_SEQUENCE",
        "params": [{
            "datatype": "collection",
            "name": "eventobject"
        }],
        "language": "js",
        "actions": [{
            "id": "NAVIGATE_TO_FORM__ide_onClick_g25ee2984b694627a6efdc35a58acd2f",
            "type": "NAVIGATE_TO_FORM",
            "formId": "frmMoreLandingKA",
            "formKUID": "f90cf53e47ae407c83e2e30720fff3da",
            "mappings": {},
            "mappingsOrder": [],
            "parentId": "",
            "callbackType": null,
            "enableMappingEditor": true,
            "disabled": true,
            "package": "",
            "navigationObj": "{\n    \"_meta_\": {\n        \"eventName\": \"onClick\",\n        \"widgetId\": \"FlxMore\"\n    }\n}",
            "isCustomInput": false
        }, {
            "id": "ADD_SNIPPET_ide_onClick_c9c3261815cf40568b9cb5a244ff5cbb",
            "type": "ADD_SNIPPET",
            "codeSnippet": "frmJoMoPayRegistration.show();",
            "callbackType": null
        }]
    }
}