{
    "AS_FlexContainer_dae840f73c0a4e74882fa20241305e1b": {
        "id": "AS_FlexContainer_dae840f73c0a4e74882fa20241305e1b",
        "type": "ACTION_SEQUENCE",
        "params": [{
            "datatype": "collection",
            "name": "eventobject"
        }, {
            "datatype": "string",
            "name": "x"
        }, {
            "datatype": "string",
            "name": "y"
        }],
        "contextObj": {
            "name": "frmAccountsLandingKA",
            "type": "forms",
            "platform": "",
            "KUID": "d62a2a0906c64d2281addc95893a6544"
        },
        "language": "js",
        "actions": [{
            "id": "ADD_SNIPPET__d1a6ba660418466eb4990ed1b841713d",
            "type": "ADD_SNIPPET",
            "codeSnippet": "accountsLandingVC.infeedAdsOnCLick();",
            "parentId": null,
            "callbackType": null
        }]
    }
}