{
    "AS_Form_b2d63282523142bf9f93fd44f4a3330f": {
        "id": "AS_Form_b2d63282523142bf9f93fd44f4a3330f",
        "type": "ACTION_SEQUENCE",
        "params": [{
            "datatype": "collection",
            "name": "eventobject"
        }],
        "contextObj": {
            "name": "frmDirectionsKA",
            "type": "forms",
            "platform": "",
            "KUID": "2a844aaae75b49948039c6e28c65dfcc"
        },
        "language": "js",
        "actions": [{
            "id": "ADD_SNIPPET__4be2606eada34e1e97b098bd4d359e3c",
            "type": "ADD_SNIPPET",
            "codeSnippet": "directionHide();",
            "parentId": null,
            "callbackType": null
        }]
    }
}