{
    "AS_FlexContainer_ba4f4aff89d043ff81c50b2d0fff9e19": {
        "id": "AS_FlexContainer_ba4f4aff89d043ff81c50b2d0fff9e19",
        "type": "ACTION_SEQUENCE",
        "params": [{
            "datatype": "collection",
            "name": "eventobject"
        }],
        "language": "js",
        "actions": [{
            "id": "ADD_SNIPPET_ide_onClick_cdc40cb594e24f5ba16bf6c29090bebe",
            "type": "ADD_SNIPPET",
            "codeSnippet": "setSegmentData(\"frmAccountsLandingKA\");\nfrmAccountsLandingKA.flxAccntLandingNavOptKA.isVisible=true;",
            "callbackType": null
        }]
    }
}