{
    "AS_FlexScrollContainer_a12b561044334302b50150dee247c465": {
        "id": "AS_FlexScrollContainer_a12b561044334302b50150dee247c465",
        "type": "ACTION_SEQUENCE",
        "params": [{
            "datatype": "collection",
            "name": "eventobject"
        }],
        "language": "js",
        "actions": [{
            "id": "ADD_SNIPPET_ide_onScrolling_ec9202e0906448c8b56eb1a15174de6a",
            "type": "ADD_SNIPPET",
            "codeSnippet": "innerAccountScroll();",
            "callbackType": null
        }]
    }
}