{
    "AS_FlexContainer_j58c5c6e729f4f04bb6355ff171872a6": {
        "id": "AS_FlexContainer_j58c5c6e729f4f04bb6355ff171872a6",
        "type": "ACTION_SEQUENCE",
        "params": [{
            "datatype": "collection",
            "name": "eventobject"
        }],
        "language": "js",
        "actions": [{
            "id": "ADD_SNIPPET_ide_onClick_a4daca75e63b43c59e4a14ff6fe7334d",
            "type": "ADD_SNIPPET",
            "codeSnippet": "//  onClickLocateUS(true,\"frmNewUserOnboardVerificationKA\");\ngetNewsInfo(\"otp\");",
            "callbackType": null
        }]
    }
}