{
    "AS_FlexContainer_aeadd47f83c74db3b15316eb54df20cf": {
        "id": "AS_FlexContainer_aeadd47f83c74db3b15316eb54df20cf",
        "type": "ACTION_SEQUENCE",
        "params": [{
            "datatype": "collection",
            "name": "eventobject"
        }],
        "language": "js",
        "actions": [{
            "id": "ADD_SNIPPET_ide_onClick_edd3a3819e264073afb6cd5cefda59ea",
            "type": "ADD_SNIPPET",
            "codeSnippet": "gblFromModule = \"RegisterUser\";\nfrmRegisterUser.show();\nfrmLoginKA.passwordTextField.text=\"\";",
            "callbackType": null,
            "disabled": false
        }]
    }
}