{
    "AS_FlexContainer_d9cd3d0001794a299fd75546f521374a": {
        "id": "AS_FlexContainer_d9cd3d0001794a299fd75546f521374a",
        "type": "ACTION_SEQUENCE",
        "params": [{
            "datatype": "collection",
            "name": "eventobject"
        }],
        "language": "js",
        "actions": [{
            "id": "NAVIGATE_TO_FORM__ide_onClick_a70fbeef9b524f6aaae83921077953ba",
            "type": "NAVIGATE_TO_FORM",
            "formId": "frmMoreLandingKA",
            "formKUID": "f90cf53e47ae407c83e2e30720fff3da",
            "mappings": {},
            "mappingsOrder": [],
            "parentId": "",
            "callbackType": null,
            "enableMappingEditor": true,
            "disabled": true,
            "package": "",
            "navigationObj": "{\n    \"_meta_\": {\n        \"eventName\": \"onClick\",\n        \"widgetId\": \"FlxMore\"\n    }\n}",
            "isCustomInput": false
        }, {
            "id": "ADD_SNIPPET_ide_onClick_j815aa67601e45f8b8616cd95dd5197c",
            "type": "ADD_SNIPPET",
            "codeSnippet": "frmJoMoPayRegistration.show();",
            "callbackType": null
        }]
    }
}