{
    "AS_FlexContainer_h47f36dba0d14985b254023d4e49935f": {
        "id": "AS_FlexContainer_h47f36dba0d14985b254023d4e49935f",
        "type": "ACTION_SEQUENCE",
        "name": "AS_FlexContainer_ShowHideSwitchOn",
        "params": [{
            "datatype": "collection",
            "name": "eventobject"
        }],
        "contextObj": {
            "name": "frmEditAccountSettings",
            "type": "forms",
            "platform": "",
            "KUID": "ace74a42ca5e45cabde3f7b9d6361bd8"
        },
        "language": "js",
        "actions": [{
            "id": "ADD_SNIPPET__c9340469a8834b1b9c546805f259d2ab",
            "type": "ADD_SNIPPET",
            "codeSnippet": "frmEditAccountSettings.flxShowHideSwitchOff.isVisible = true;\nfrmEditAccountSettings.flxShowHideSwitchOn.isVisible  = false;  \n\n  \n",
            "parentId": null,
            "callbackType": null
        }]
    }
}