{
    "AS_FlexContainer_a8fa69bb42d6460b93caddc9825e79d5": {
        "id": "AS_FlexContainer_a8fa69bb42d6460b93caddc9825e79d5",
        "type": "ACTION_SEQUENCE",
        "params": [{
            "datatype": "collection",
            "name": "eventobject"
        }],
        "language": "js",
        "actions": [{
            "id": "ADD_SNIPPET_ide_onClick_ia3e3b0ae9344ee6bd46cf44f749b1f4",
            "type": "ADD_SNIPPET",
            "codeSnippet": "frmPalpayBillInformation.txtOTP.setFocus(true);",
            "callbackType": null
        }]
    }
}