{
    "AS_FlexContainer_edc8258148a249eea6c932e80dbfb4c1": {
        "id": "AS_FlexContainer_edc8258148a249eea6c932e80dbfb4c1",
        "type": "ACTION_SEQUENCE",
        "name": "AS_FlexContainer_SubscribeAction",
        "params": [{
            "datatype": "collection",
            "name": "eventobject"
        }, {
            "datatype": "string",
            "name": "x"
        }, {
            "datatype": "string",
            "name": "y"
        }],
        "language": "js",
        "actions": [{
            "id": "ADD_SNIPPET_ide_onTouchStart_fc660122bc9943638fb9e108b2ea0f2c",
            "type": "ADD_SNIPPET",
            "codeSnippet": "kony.print(\"Do nothing\");",
            "callbackType": null
        }]
    }
}