{
    "AS_FlexContainer_ef4f926e056b46dcbca0b4e17991191b": {
        "id": "AS_FlexContainer_ef4f926e056b46dcbca0b4e17991191b",
        "type": "ACTION_SEQUENCE",
        "params": [{
            "datatype": "collection",
            "name": "eventobject"
        }],
        "contextObj": {
            "name": "iphoneFooter",
            "type": "templates",
            "platform": "",
            "KUID": "5fc13b6bbe69451a84b41ce39703d431"
        },
        "language": "js",
        "actions": [{
            "id": "ADD_SNIPPET__he186e6a22ff443f89591718a573f6bc",
            "type": "ADD_SNIPPET",
            "codeSnippet": "// var currentForm = kony.application.getCurrentForm();\n// kony.chatbots.bot.showBotSplash(currentForm);\nfrmPaymentDashboard.show();",
            "parentId": null,
            "callbackType": null
        }]
    }
}