{
    "AS_FlexContainer_je642b66e15f47528f5a49403615eeef": {
        "id": "AS_FlexContainer_je642b66e15f47528f5a49403615eeef",
        "type": "ACTION_SEQUENCE",
        "params": [{
            "datatype": "collection",
            "name": "eventobject"
        }],
        "language": "js",
        "actions": [{
            "id": "ADD_SNIPPET_ide_onClick_fa042f17011f4837a7bf79e18cf4d468",
            "type": "ADD_SNIPPET",
            "codeSnippet": "kony.print(\"Removed\");",
            "callbackType": null
        }]
    }
}