{
    "AS_FlexContainer_dc224a9327824c8492ae15938a3c78a6": {
        "id": "AS_FlexContainer_dc224a9327824c8492ae15938a3c78a6",
        "type": "ACTION_SEQUENCE",
        "name": "AS_FlexContainer_backFromConCredit",
        "params": [{
            "datatype": "collection",
            "name": "eventobject"
        }],
        "contextObj": {
            "name": "frmCreditCardPayment",
            "type": "forms",
            "platform": "",
            "KUID": "ifc6e17e00ef473bb51f2718c349cfba"
        },
        "language": "js",
        "actions": [{
            "id": "ADD_SNIPPET__f11d412aabbb4ea5b7e58e20a0f92cf3",
            "type": "ADD_SNIPPET",
            "codeSnippet": "frmCreditCardPayment.flxConfirmPopUp.setVisibility(false);\nfrmCreditCardPayment.flxBody.setVisibility(true);",
            "parentId": null,
            "callbackType": null
        }]
    }
}