{
    "AS_FlexContainer_cb9bd954b84f45faacdee75955840b04": {
        "id": "AS_FlexContainer_cb9bd954b84f45faacdee75955840b04",
        "type": "ACTION_SEQUENCE",
        "params": [{
            "datatype": "collection",
            "name": "eventobject"
        }],
        "language": "js",
        "actions": [{
            "id": "ADD_SNIPPET_ide_onClick_c9d5a0b7ecea4442ae85ff0006ae2f04",
            "type": "ADD_SNIPPET",
            "codeSnippet": "gblsubacclist=\"Acc\";\nfrmAccountType.show();",
            "callbackType": null
        }]
    }
}