{
    "AS_Image_f6c0d0e8554b4d84a05abcebc0d56192": {
        "id": "AS_Image_f6c0d0e8554b4d84a05abcebc0d56192",
        "type": "ACTION_SEQUENCE",
        "params": [{
            "datatype": "collection",
            "name": "eventobject"
        }, {
            "datatype": "string",
            "name": "x"
        }, {
            "datatype": "string",
            "name": "y"
        }],
        "contextObj": {
            "name": "frmCreateCredentials",
            "type": "forms",
            "platform": "",
            "KUID": "ec144124e44d4336b9c86f2ab49591df"
        },
        "language": "js",
        "actions": [{
            "id": "ADD_SNIPPET__ib075857bbe24fa9925be3d3a5bfef47",
            "type": "ADD_SNIPPET",
            "codeSnippet": "frmCreateCredentials.answerFieldPassword.secureTextEntry=true;",
            "parentId": null,
            "callbackType": null
        }]
    }
}