{
    "AS_ListBox_jd801d75cf8c46ad80c1ed57263f7b01": {
        "id": "AS_ListBox_jd801d75cf8c46ad80c1ed57263f7b01",
        "type": "ACTION_SEQUENCE",
        "params": [{
            "datatype": "collection",
            "name": "eventobject"
        }],
        "language": "js",
        "actions": [{
            "id": "ADD_SNIPPET_ide_onSelection_b7e82e1c57904d08abd365a38f7e4fa3",
            "type": "ADD_SNIPPET",
            "codeSnippet": "frmAddExternalAccountKA.lblCountryNameKA.text = frmAddExternalAccountKA.ListCountryKA.selectedKeyValue[1];\nkony.boj.addBeneNextStatus();",
            "callbackType": null
        }]
    }
}