{
    "AS_Label_iad886b5b24b42129dd9163926c8aec0": {
        "id": "AS_Label_iad886b5b24b42129dd9163926c8aec0",
        "type": "ACTION_SEQUENCE",
        "params": [{
            "datatype": "collection",
            "name": "eventobject"
        }, {
            "datatype": "string",
            "name": "x"
        }, {
            "datatype": "string",
            "name": "y"
        }],
        "contextObj": {
            "name": "frmFilterTransaction",
            "type": "forms",
            "platform": "",
            "KUID": "ff5ea79e22414b03ba4cca716d18a58c"
        },
        "language": "js",
        "actions": [{
            "id": "ADD_SNIPPET__db3cdc6de85f46eba15b54487cb8873e",
            "type": "ADD_SNIPPET",
            "codeSnippet": "if(frmFilterTransaction.lblIncommingTick.isVisible == false)\n\tfrmFilterTransaction.lblIncommingTick.isVisible = true;\nelse\n  frmFilterTransaction.lblIncommingTick.isVisible = false;",
            "parentId": null,
            "callbackType": null
        }]
    }
}