{
    "AS_Label_fb8257a0bf804fefa1252122cc5288f1": {
        "id": "AS_Label_fb8257a0bf804fefa1252122cc5288f1",
        "type": "ACTION_SEQUENCE",
        "params": [{
            "datatype": "collection",
            "name": "eventobject"
        }, {
            "datatype": "string",
            "name": "x"
        }, {
            "datatype": "string",
            "name": "y"
        }],
        "contextObj": {
            "name": "frmEstatementLandingKA",
            "type": "forms",
            "platform": "",
            "KUID": "d1dcb94f4a054dda97d66cbdc216d96a"
        },
        "language": "js",
        "actions": [{
            "id": "ADD_SNIPPET__eb32e15f43fd42b08dc487b82712a23d",
            "type": "ADD_SNIPPET",
            "codeSnippet": "var currentForm = kony.application.getCurrentForm();\ncurrentForm.txtEmail2.text=\"\";\ncurrentForm.borderBottom2.skin=\"skntextFieldDivider\";\nanimateLabel(\"DOWN\",\"lblEmail2\",currentForm.txtEmail1.text);\ncurrentForm.lblInvalidEmail2.isVisible = false;",
            "parentId": null,
            "callbackType": null
        }]
    }
}