{
    "AS_Label_c65209d4df69404b98ca618f9d352048": {
        "id": "AS_Label_c65209d4df69404b98ca618f9d352048",
        "type": "ACTION_SEQUENCE",
        "params": [{
            "datatype": "collection",
            "name": "eventobject"
        }, {
            "datatype": "string",
            "name": "x"
        }, {
            "datatype": "string",
            "name": "y"
        }],
        "language": "js",
        "actions": [{
            "id": "ADD_SNIPPET_ide_onTouchEnd_b098fce3db834f939e8c3a47ff9bc2a2",
            "type": "ADD_SNIPPET",
            "codeSnippet": "kony.sdk.mvvm.KonyApplicationContext.showLoadingScreen(\"\");\nShowLoadingScreen();\nisAlternateLoginEnabled(\"T\");",
            "callbackType": null
        }]
    }
}