{
    "AS_Label_d0dbc00abaa841258ba6ccd6d4dabbef": {
        "id": "AS_Label_d0dbc00abaa841258ba6ccd6d4dabbef",
        "type": "ACTION_SEQUENCE",
        "params": [{
            "datatype": "collection",
            "name": "eventobject"
        }, {
            "datatype": "string",
            "name": "x"
        }, {
            "datatype": "string",
            "name": "y"
        }],
        "language": "js",
        "actions": [{
            "id": "ADD_SNIPPET_ide_onTouchEnd_db31dff12b0a4c7c8476f2b634e28c42",
            "type": "ADD_SNIPPET",
            "codeSnippet": "var currentForm = kony.application.getCurrentForm();\nif((currentForm.id === \"frmLoginKA\" || currentForm.id === \"frmLanguageChange\") && currentForm.passwordTextField.text !== \"\"){\n\tif(frmLoginKA.lblShowPass.text === \"B\"){\n\t\tcurrentForm.passwordTextField.secureTextEntry = true;\n    \tfrmLoginKA.lblShowPass.text = \"A\";\n    }else{\n    \tcurrentForm.passwordTextField.secureTextEntry = false;\n    \tfrmLoginKA.lblShowPass.text = \"B\";\n    }\n}",
            "callbackType": null
        }]
    }
}