{
    "AS_Label_hd1f0f2fbe2e4abba0ea8751f502c345": {
        "id": "AS_Label_hd1f0f2fbe2e4abba0ea8751f502c345",
        "type": "ACTION_SEQUENCE",
        "params": [{
            "datatype": "collection",
            "name": "eventobject"
        }, {
            "datatype": "string",
            "name": "x"
        }, {
            "datatype": "string",
            "name": "y"
        }],
        "contextObj": {
            "name": "frmUserSettingsSIRILIMIT",
            "type": "forms",
            "platform": "",
            "KUID": "e8e992dba246412297f92c7dbab9e67e"
        },
        "language": "js",
        "actions": [{
            "id": "ADD_SNIPPET__e274e19a87bb44cb8779773829c4e6a8",
            "type": "ADD_SNIPPET",
            "codeSnippet": "frmUserSettingsSIRILIMIT.txtEmail1.text = \"\";\nanimateLabel(\"UP\",\"lblEmail1\",frmUserSettingsSIRILIMIT.txtEmail1.text); \n",
            "parentId": null,
            "callbackType": null
        }]
    }
}