{
    "AS_Label_b671ea0ecac04a45b070fe53658a3fc9": {
        "id": "AS_Label_b671ea0ecac04a45b070fe53658a3fc9",
        "type": "ACTION_SEQUENCE",
        "params": [{
            "datatype": "collection",
            "name": "eventobject"
        }, {
            "datatype": "string",
            "name": "x"
        }, {
            "datatype": "string",
            "name": "y"
        }],
        "contextObj": {
            "name": "frmEstatementLandingKA",
            "type": "forms",
            "platform": "",
            "KUID": "d1dcb94f4a054dda97d66cbdc216d96a"
        },
        "language": "js",
        "actions": [{
            "id": "ADD_SNIPPET__afaba3cdbd4048ffa428c78d4bedec37",
            "type": "ADD_SNIPPET",
            "codeSnippet": "if(frmEstatementLandingKA.lblTermsandConditionsCheckBox.text === \"p\"){\n  frmEstatementLandingKA.lblTermsandConditionsCheckBox.text = \"q\";\n  frmEstatementLandingKA.lblNext.skin =\"sknLblNextDisabled\";\n}else{\n  frmEstatementLandingKA.lblTermsandConditionsCheckBox.text = \"p\";\n  if(frmEstatementLandingKA.flxSwitchOffTouchLogin.isVisible == false &&  frmEstatementLandingKA.txtEmail1.text!==null && frmEstatementLandingKA.txtEmail1.text!==\"\" && isValidEmaill(frmEstatementLandingKA.txtEmail1.text))\n{  \n  frmEstatementLandingKA.lblNext.skin = \"sknLblNextEnabled\";\n}\n\n}",
            "parentId": null,
            "callbackType": null
        }]
    }
}