{
    "AS_Label_fa9cc10c8a6342789d45dcd05a8dbd4f": {
        "id": "AS_Label_fa9cc10c8a6342789d45dcd05a8dbd4f",
        "type": "ACTION_SEQUENCE",
        "params": [{
            "datatype": "collection",
            "name": "eventobject"
        }, {
            "datatype": "string",
            "name": "x"
        }, {
            "datatype": "string",
            "name": "y"
        }],
        "language": "js",
        "actions": [{
            "id": "ADD_SNIPPET_ide_onTouchEnd_h0c5c722b43e422c86ae60ab501e5bc4",
            "type": "ADD_SNIPPET",
            "codeSnippet": "navigate_INTERNAL_TERMSANDCONDITION_SCREEN(kony.application.getCurrentForm());",
            "callbackType": null
        }]
    }
}