{
    "AS_ListBox_f81f01b0cd9143a78005d917ebfc2617": {
        "id": "AS_ListBox_f81f01b0cd9143a78005d917ebfc2617",
        "type": "ACTION_SEQUENCE",
        "params": [{
            "datatype": "collection",
            "name": "eventobject"
        }],
        "language": "js",
        "actions": [{
            "id": "ADD_SNIPPET_ide_onSelection_g591bfb742f14dfd8b94b5eec6209e17",
            "type": "ADD_SNIPPET",
            "codeSnippet": "frmAddExternalAccountKA.tbxCity.text = frmAddExternalAccountKA.ListCityKA.selectedKeyValue[1];\nkony.boj.addBeneNextStatus();",
            "callbackType": null
        }]
    }
}