{
    "AS_Label_f41b041dbffc434bb337792aea0816e5": {
        "id": "AS_Label_f41b041dbffc434bb337792aea0816e5",
        "type": "ACTION_SEQUENCE",
        "name": "AS_Label_RegNationalID",
        "params": [{
            "datatype": "collection",
            "name": "eventobject"
        }, {
            "datatype": "string",
            "name": "x"
        }, {
            "datatype": "string",
            "name": "y"
        }],
        "contextObj": {
            "name": "frmRegisterUser",
            "type": "forms",
            "platform": "",
            "KUID": "cd7432ec5087404590338186c94e35d2"
        },
        "language": "js",
        "actions": [{
            "id": "ADD_SNIPPET__g6da4482a77f4233b169c9ea53b694c3",
            "type": "ADD_SNIPPET",
            "codeSnippet": "goToNationalIDRegistration();",
            "parentId": null,
            "callbackType": null
        }]
    }
}