{
    "AS_Label_b8d5d4e30f6545269b1cd1e96772e338": {
        "id": "AS_Label_b8d5d4e30f6545269b1cd1e96772e338",
        "type": "ACTION_SEQUENCE",
        "params": [{
            "datatype": "collection",
            "name": "eventobject"
        }, {
            "datatype": "string",
            "name": "x"
        }, {
            "datatype": "string",
            "name": "y"
        }],
        "contextObj": {
            "name": "frmAccountDetailKA",
            "type": "forms",
            "platform": "",
            "KUID": "5ed703cad63c441882fc4a36f5ea0c28"
        },
        "language": "js",
        "actions": [{
            "id": "ADD_SNIPPET__cea046a5474a45f18807d7735a8280d4",
            "type": "ADD_SNIPPET",
            "codeSnippet": "frmAccountDetailKA.flxDealsScreen.setVisibility(false);\nfrmAccountDetailKA.flxLoansScreen.setVisibility(false);\nfrmAccountDetailKA.accountDetailsScrollContainer.setVisibility(true);\nfrmAccountDetailKA.accountDetailsScrollContainer.left=\"0%\";",
            "parentId": null,
            "callbackType": null
        }]
    }
}