{
    "AS_Label_de92673c11de4e20b0cdd7cec972e559": {
        "id": "AS_Label_de92673c11de4e20b0cdd7cec972e559",
        "type": "ACTION_SEQUENCE",
        "params": [{
            "datatype": "collection",
            "name": "eventobject"
        }, {
            "datatype": "string",
            "name": "x"
        }, {
            "datatype": "string",
            "name": "y"
        }],
        "language": "js",
        "actions": [{
            "id": "ADD_SNIPPET_ide_onTouchEnd_cc54e823b90f49d79908bfbf74912e75",
            "type": "ADD_SNIPPET",
            "codeSnippet": "try\n{\n  kony.phone.dial(bojcontactnumber);\n} \ncatch(err)\n{\n  kony.print(\"error in dial:: \"+err);\n}\n",
            "callbackType": null
        }]
    }
}