{
    "AS_Label_b22fcec49f2042e7bc08badb3a24487e": {
        "id": "AS_Label_b22fcec49f2042e7bc08badb3a24487e",
        "type": "ACTION_SEQUENCE",
        "params": [{
            "datatype": "collection",
            "name": "eventobject"
        }, {
            "datatype": "string",
            "name": "x"
        }, {
            "datatype": "string",
            "name": "y"
        }],
        "language": "js",
        "actions": [{
            "id": "NAMED_ACTION___ide_onTouchEnd_dc55133efbc04122a5a63d95589bf59f",
            "type": "NAMED_ACTION",
            "sequenceKUID": "AS_Button_bcc85b20219b45e8be7e1a01dbe48752",
            "display": "TouchLoginClick",
            "inputparams": [{
                "datatype": "collection",
                "name": "eventobject"
            }],
            "callbackType": null,
            "disabled": null,
            "isMasterInstanceAction": null
        }]
    }
}