{
    "AS_ListBox_3a92ec58842c4138becd27fa8cb993af": {
        "id": "AS_ListBox_3a92ec58842c4138becd27fa8cb993af",
        "type": "ACTION_SEQUENCE",
        "params": [{
            "datatype": "collection",
            "name": "eventobject"
        }],
        "contextObj": {
            "type": "forms",
            "platform": "",
            "KUID": "595170e0ad324e3699d120dae6f9e312"
        },
        "language": "js",
        "actions": [{
            "id": "ADD_SNIPPET__5324afff07a647bdb45beb868e477105",
            "type": "ADD_SNIPPET",
            "codeSnippet": "kony.print(\"Deleted\");",
            "parentId": null,
            "callbackType": null
        }]
    }
}