{
    "AS_Label_hc4b49c4d9b24ab2a2984111823e3818": {
        "id": "AS_Label_hc4b49c4d9b24ab2a2984111823e3818",
        "type": "ACTION_SEQUENCE",
        "params": [{
            "datatype": "collection",
            "name": "eventobject"
        }, {
            "datatype": "string",
            "name": "x"
        }, {
            "datatype": "string",
            "name": "y"
        }],
        "contextObj": {
            "type": "forms",
            "platform": "",
            "KUID": "a42b238ed6d24762ade2b6d865ef4897"
        },
        "language": "js",
        "actions": [{
            "id": "ADD_SNIPPET__bf0a66eb92c546bdbecc74a3420b834c",
            "type": "ADD_SNIPPET",
            "codeSnippet": "var obj = new kony.retailbanking.AdvancedAtmFilter();\nobj.clearFilter();",
            "parentId": null,
            "callbackType": null
        }]
    }
}