{
    "AS_ListBox_c476537e9cd24624bce380be94f09e2d": {
        "id": "AS_ListBox_c476537e9cd24624bce380be94f09e2d",
        "type": "ACTION_SEQUENCE",
        "params": [{
            "datatype": "collection",
            "name": "eventobject"
        }],
        "language": "js",
        "actions": [{
            "id": "ADD_SNIPPET_ide_onSelection_f602010e10404ee99201cf546acbc9c7",
            "type": "ADD_SNIPPET",
            "codeSnippet": "frmAddExternalAccountKA.tbxCity.text = frmAddExternalAccountKA.ListCityKA.selectedKeyValue[1];\nkony.boj.addBeneNextStatus();",
            "callbackType": null
        }]
    }
}