{
    "AS_Label_fb539e70d9334f949c9171b4b8d2371e": {
        "id": "AS_Label_fb539e70d9334f949c9171b4b8d2371e",
        "type": "ACTION_SEQUENCE",
        "params": [{
            "datatype": "collection",
            "name": "eventobject"
        }, {
            "datatype": "string",
            "name": "x"
        }, {
            "datatype": "string",
            "name": "y"
        }],
        "contextObj": {
            "name": "frmLoginKA",
            "type": "forms",
            "platform": "",
            "KUID": "7b1aa8fceb6b4070833e9eab879b0e5e"
        },
        "language": "js",
        "actions": [{
            "id": "ADD_SNIPPET__a9f336eec87b44a28c1577c299a10e17",
            "type": "ADD_SNIPPET",
            "codeSnippet": "kony.sdk.mvvm.KonyApplicationContext.showLoadingScreen(\"\");\nShowLoadingScreen();\nisAlternateLoginEnabled(\"T\");",
            "parentId": null,
            "callbackType": null
        }]
    }
}