{
    "AS_Label_ca341f970fa14291827679b590236225": {
        "id": "AS_Label_ca341f970fa14291827679b590236225",
        "type": "ACTION_SEQUENCE",
        "params": [{
            "datatype": "collection",
            "name": "eventobject"
        }, {
            "datatype": "string",
            "name": "x"
        }, {
            "datatype": "string",
            "name": "y"
        }],
        "contextObj": {
            "name": "frmLanguageChange",
            "type": "forms",
            "platform": "",
            "KUID": "gf87c4f80b864112b53423e6a7ad3af8"
        },
        "language": "js",
        "actions": [{
            "id": "ADD_SNIPPET__a7f9b4f1526d419f9bebaed0fb872b00",
            "type": "ADD_SNIPPET",
            "codeSnippet": "var rememChoiceTxt = frmLanguageChange.lblRememCheckBox.text;\nif(rememChoiceTxt === \"q\"){\n  kony.store.setItem(\"langFlagSettingObj\",true);\n  frmLanguageChange.lblRememCheckBox.text = \"p\";\n}\nelse{\n  kony.store.setItem(\"langFlagSettingObj\",false);\n  frmLanguageChange.lblRememCheckBox.text = \"q\"; \n}",
            "parentId": null,
            "callbackType": null
        }]
    }
}