{
    "AS_Label_c4fb083e6255458fbdd8628f97c19a71": {
        "id": "AS_Label_c4fb083e6255458fbdd8628f97c19a71",
        "type": "ACTION_SEQUENCE",
        "name": "AS_NavFrmAccounttypetoshowAccountList",
        "params": [{
            "datatype": "collection",
            "name": "eventobject"
        }, {
            "datatype": "string",
            "name": "x"
        }, {
            "datatype": "string",
            "name": "y"
        }],
        "contextObj": {
            "name": "frmOrderCheckBook",
            "type": "forms",
            "platform": "",
            "KUID": "a9c3490cbfe84fc2a395a9c7f12fb355"
        },
        "language": "js",
        "actions": [{
            "id": "ADD_SNIPPET__ee79041017c04f1893cf1b9250c5c4b9",
            "type": "ADD_SNIPPET",
            "codeSnippet": "show_ACCOUNTS_ORDERCHECKBOOK();\n/*gblsubacclist=\"AccountOrder\";\nvar fromAccounts = kony.retailBanking.globalData.accountsDashboardData.accountsData;\ngblTModule=\"AccountOrder\";\nfrmAccountDetailsScreen.lblHead.text = geti18Value(\"i18n.my_money.accounts\");\naccountsScreenPreshow(fromAccounts);\nfrmAccountDetailsScreen.show()*/\n",
            "parentId": null
        }]
    }
}