{
    "AS_TextField_e34b0f99d41b48bbb72639fea5eb6d50": {
        "id": "AS_TextField_e34b0f99d41b48bbb72639fea5eb6d50",
        "type": "ACTION_SEQUENCE",
        "name": "AS_onDoneAccNoAddBene",
        "params": [{
            "datatype": "collection",
            "name": "eventobject"
        }, {
            "datatype": "string",
            "name": "changedtext"
        }],
        "language": "js",
        "actions": [{
            "id": "ADD_SNIPPET_ide_onDone_c5421f21cfac40ffbc5818a7c455b5a2",
            "type": "ADD_SNIPPET",
            "codeSnippet": "kony.boj.addBeneficiaryAnimation(\"lblAddress1\");",
            "callbackType": null
        }]
    }
}