{
    "AS_Segment_e29dca5c9eee48a3b05df3d9af29abda": {
        "id": "AS_Segment_e29dca5c9eee48a3b05df3d9af29abda",
        "type": "ACTION_SEQUENCE",
        "name": "AS_onSegClickAllAcc",
        "params": [{
            "datatype": "collection",
            "name": "eventobject"
        }, {
            "datatype": "number",
            "name": "sectionNumber"
        }, {
            "datatype": "number",
            "name": "rowNumber"
        }],
        "language": "js",
        "actions": [{
            "id": "ADD_SNIPPET_ide_onRowClick_b6f26562a7ce4b15832aa6b567e978c2",
            "type": "ADD_SNIPPET",
            "codeSnippet": "//     var INSTANCE = kony.sdk.mvvm.KonyApplicationContext.getAppInstance();\n//     var frmName = kony.application.getCurrentForm().id;\n//     var listController = INSTANCE.getFormController(frmName);\n//     listController.performAction(\"navigateToPayeeTransaction\");\n//alert(frmShowAllBeneficiary.segAllBeneficiary.selectedRowItems[0]);\ngblSelectedBene = frmShowAllBeneficiary.segAllBeneficiary.selectedRowItems[0];\n// frmNewTransferKA.lblPOT.text = \"International Comm+Embassies Rem\";\n// \tfrmConfirmTransferKA.lblRemmit.text = \"1001\";\n//  frmNewTransferKA.show();\ncheck_numberOfAccounts();",
            "callbackType": null
        }]
    }
}