{
    "AS_TextField_bb9c51c4d37e43138041924085857430": {
        "id": "AS_TextField_bb9c51c4d37e43138041924085857430",
        "type": "ACTION_SEQUENCE",
        "name": "AS_onDoneAddr2AddBene",
        "params": [{
            "datatype": "collection",
            "name": "eventobject"
        }, {
            "datatype": "string",
            "name": "changedtext"
        }],
        "language": "js",
        "actions": [{
            "id": "ADD_SNIPPET_ide_onDone_a74c4678c932403796f8fbbed1b408cb",
            "type": "ADD_SNIPPET",
            "codeSnippet": "if(kony.boj.addBeneVar.selectedType === \"DOM\")\n  kony.boj.addBeneficiaryAnimation(\"lblBeneBankDetails\");\nelse\n  kony.boj.addBeneficiaryAnimation(\"lblSwiftCode\");",
            "callbackType": null
        }]
    }
}