{
    "AS_TextField_b1c895a6f4bc45459f21bc22318b125a": {
        "id": "AS_TextField_b1c895a6f4bc45459f21bc22318b125a",
        "type": "ACTION_SEQUENCE",
        "name": "AS_onEndEditingCityBankIphone",
        "params": [{
            "datatype": "collection",
            "name": "eventobject"
        }, {
            "datatype": "string",
            "name": "changedtext"
        }],
        "contextObj": {
            "name": "frmAddExternalAccountKA",
            "type": "forms",
            "platform": "",
            "KUID": "4943cca5d62d4f0ca6f2e9ab47274db5"
        },
        "language": "js",
        "actions": [{
            "id": "ADD_SNIPPET__ac747897964242cfbeb57b465f7b59ee",
            "type": "ADD_SNIPPET",
            "codeSnippet": "kony.boj.addBeneNextStatus();\nanimateLabel(\"DOWN\", \"lblCityBank\", frmAddExternalAccountKA.tbxCityBank.text);\nkony.boj.addBeneficiaryAnimation(\"lblAddressBank\");",
            "parentId": null,
            "callbackType": null
        }]
    }
}