{
    "AS_TextField_gb94d096b4284d7fac57e02f0b33bb42": {
        "id": "AS_TextField_gb94d096b4284d7fac57e02f0b33bb42",
        "type": "ACTION_SEQUENCE",
        "name": "AS_onTextChangeSearchPayee",
        "params": [{
            "datatype": "collection",
            "name": "eventobject"
        }, {
            "datatype": "string",
            "name": "changedtext"
        }],
        "contextObj": {
            "name": "frmManagePayeeKA",
            "type": "forms",
            "platform": "",
            "KUID": "794f84071c7c4320866cf3978ca5357e"
        },
        "language": "js",
        "actions": [{
            "id": "ADD_SNIPPET__a72bb9ef314a4b71acbb4a7c67ed40b8",
            "type": "ADD_SNIPPET",
            "codeSnippet": "kony.boj.searchPayee(frmManagePayeeKA.tbxSearch.text);",
            "parentId": null,
            "callbackType": null
        }]
    }
}