{
    "AS_TextField_cca2cfd66d634eefbb30b90c9384d455": {
        "id": "AS_TextField_cca2cfd66d634eefbb30b90c9384d455",
        "type": "ACTION_SEQUENCE",
        "name": "AS_onEndEditingBeneDetailsAndroid",
        "params": [{
            "datatype": "collection",
            "name": "eventobject"
        }, {
            "datatype": "string",
            "name": "changedtext"
        }],
        "language": "js",
        "actions": [{
            "id": "ADD_SNIPPET_ide_onEndEditing_b0877b306a994b5dbcbeffb44d29e844",
            "type": "ADD_SNIPPET",
            "codeSnippet": "if(frmAddExternalAccountKA.tbxBeneRelation.text !== \"\"){\n  frmAddExternalAccountKA.flxUnderlineBeneRelation.skin = \"sknFlxGreenLine\";\n}else{\n  frmAddExternalAccountKA.flxUnderlineBeneRelation.skin = \"sknFlxOrangeLine\";\n}\n\nanimateLabel(\"DOWN\", \"lblBeneRelation\", frmAddExternalAccountKA.tbxBeneRelation.text);",
            "callbackType": null
        }]
    }
}