{
    "AS_TextField_fac8df2dc4af48f7895969d86fa85f15": {
        "id": "AS_TextField_fac8df2dc4af48f7895969d86fa85f15",
        "type": "ACTION_SEQUENCE",
        "name": "AS_ontouchstarbillernum",
        "params": [{
            "datatype": "collection",
            "name": "eventobject"
        }, {
            "datatype": "string",
            "name": "x"
        }, {
            "datatype": "string",
            "name": "y"
        }],
        "contextObj": {
            "name": "frmNewBillKA",
            "type": "forms",
            "platform": "",
            "KUID": "94b57de480514c9f98e1f6979b71a37b"
        },
        "language": "js",
        "actions": [{
            "id": "ADD_SNIPPET__def443c7171440ae8298a8b8f990b91c",
            "type": "ADD_SNIPPET",
            "codeSnippet": "animateLabel(\"UP\",\"lblBillerNumber\", frmNewBillKA.tbxBillerNumber.text);",
            "parentId": null,
            "callbackType": null
        }]
    }
}