{
    "AS_TextField_d9f0946327a24ab99ec7c765670c2071": {
        "id": "AS_TextField_d9f0946327a24ab99ec7c765670c2071",
        "type": "ACTION_SEQUENCE",
        "name": "AS_onTextChangeSearchDetailsBene",
        "params": [{
            "datatype": "collection",
            "name": "eventobject"
        }, {
            "datatype": "string",
            "name": "changedtext"
        }],
        "language": "js",
        "actions": [{
            "id": "ADD_SNIPPET_ide_onTextChange_e190cd6d3d42403dbba75428310b5c96",
            "type": "ADD_SNIPPET",
            "codeSnippet": "kony.boj.searchDetailsBene(frmSelectDetailsBene.tbxSearch.text);",
            "callbackType": null
        }]
    }
}