{
    "AS_TextField_j79cec333d1a412fbe4debcf27b03175": {
        "id": "AS_TextField_j79cec333d1a412fbe4debcf27b03175",
        "type": "ACTION_SEQUENCE",
        "name": "AS_onDoneNickNameAddBiller",
        "params": [{
            "datatype": "collection",
            "name": "eventobject"
        }, {
            "datatype": "string",
            "name": "changedtext"
        }],
        "contextObj": {
            "name": "frmAddNewPayeeKA",
            "type": "forms",
            "platform": "",
            "KUID": "22b994296d374ff48427012b2b05feb7"
        },
        "language": "js",
        "actions": [{
            "id": "ADD_SNIPPET__c1af25fb237e41a9be62fa3e299a4e3a",
            "type": "ADD_SNIPPET",
            "codeSnippet": "animateLabel(\"DOWN\", \"lblNickName\",frmAddNewPayeeKA.tbxNickName.text);\nanimateLabel(\"UP\", \"lblBillerNumber\",frmAddNewPayeeKA.tbxBillerNumber.text);\nfrmAddNewPayeeKA.tbxNickName.text = frmAddNewPayeeKA.tbxNickName.text.trim();\nif (frmAddNewPayeeKA.tbxNickName.text !== null && frmAddNewPayeeKA.tbxNickName.text !== \"\") {\n  frmAddNewPayeeKA.flxUnderlineNickName.skin = \"sknFlxGreenLine\";\n} else {\n  frmAddNewPayeeKA.flxUnderlineNickName.skin = \"sknFlxOrangeLine\";\n}",
            "parentId": null,
            "callbackType": null
        }]
    }
}