{
    "AS_TextField_eae0377a2efe45b9ae291b672fd54c0e": {
        "id": "AS_TextField_eae0377a2efe45b9ae291b672fd54c0e",
        "type": "ACTION_SEQUENCE",
        "name": "AS_onDoneBenficiryName",
        "params": [{
            "datatype": "collection",
            "name": "eventobject"
        }, {
            "datatype": "string",
            "name": "changedtext"
        }],
        "language": "js",
        "actions": [{
            "id": "ADD_SNIPPET_ide_onDone_c879da8c38a84254bafb64a095333485",
            "type": "ADD_SNIPPET",
            "codeSnippet": "kony.boj.addBeneficiaryAnimation(\"lblAccountNumber\");",
            "callbackType": null
        }]
    }
}