{
    "AS_TextField_j85da92a09c34e6f8317f10a23bc39a6": {
        "id": "AS_TextField_j85da92a09c34e6f8317f10a23bc39a6",
        "type": "ACTION_SEQUENCE",
        "name": "AS_onDoneToSI",
        "params": [{
            "datatype": "collection",
            "name": "eventobject"
        }, {
            "datatype": "string",
            "name": "changedtext"
        }],
        "contextObj": {
            "name": "frmFilterSI",
            "type": "forms",
            "platform": null,
            "KUID": "ic4b1b46f1f740f3aa18d23b3648b743"
        },
        "language": "js",
        "actions": [{
            "id": "ADD_SNIPPET_ide_onDone_c16eca8982474461b6b4566689eb4b11",
            "type": "ADD_SNIPPET",
            "codeSnippet": "check_AmountDecimal(frmFilterSI.txtAmountRangeTo,frmFilterSI.lblCurrency.text,frmFilterSI.flxAmountMaxLine);\nif(isNaN(frmFilterSI.txtAmountRangeTo.text))\n  frmFilterSI.txtAmountRangeTo.text = \"\";",
            "callbackType": null
        }]
    }
}