{
    "AS_TextField_h9d810c1660b4a039f40f20733af9c7c": {
        "id": "AS_TextField_h9d810c1660b4a039f40f20733af9c7c",
        "type": "ACTION_SEQUENCE",
        "name": "AS_onDoneNickNameAddBene",
        "params": [{
            "datatype": "collection",
            "name": "eventobject"
        }, {
            "datatype": "string",
            "name": "changedtext"
        }],
        "contextObj": {
            "name": "frmAddExternalAccountKA",
            "type": "forms",
            "platform": "",
            "KUID": "4943cca5d62d4f0ca6f2e9ab47274db5"
        },
        "language": "js",
        "actions": [{
            "id": "ADD_SNIPPET_ide_onDone_a416c5ae0c7141a1bd07cd3d69e5b97e",
            "type": "ADD_SNIPPET",
            "codeSnippet": "if(kony.boj.addBeneVar.selectedType === \"BOJ\")\n  kony.boj.addBeneficiaryAnimation(\"lblAccountNumber\");\nelse\n  kony.boj.addBeneficiaryAnimation(\"lblAddressBene\");",
            "callbackType": null
        }]
    }
}