{
    "AS_TextField_afb8098dd86646adb2bd2750f8645807": {
        "id": "AS_TextField_afb8098dd86646adb2bd2750f8645807",
        "type": "ACTION_SEQUENCE",
        "name": "AS_onDoneBillerList",
        "params": [{
            "datatype": "collection",
            "name": "eventobject"
        }, {
            "datatype": "string",
            "name": "changedtext"
        }],
        "language": "js",
        "actions": [{
            "id": "ADD_SNIPPET_ide_onDone_h4bf24717bcd461db8406ca01b47f9a4",
            "type": "ADD_SNIPPET",
            "codeSnippet": "kony.boj.searchBillerList(frmBillerListForm.tbxSearch.text);",
            "callbackType": null
        }]
    }
}