{
    "AS_Label_e46b27eb484249c2bddce8b9fd0df56f": {
        "id": "AS_Label_e46b27eb484249c2bddce8b9fd0df56f",
        "type": "ACTION_SEQUENCE",
        "name": "AS_onTouchEndCountry",
        "params": [{
            "datatype": "collection",
            "name": "eventobject"
        }, {
            "datatype": "string",
            "name": "x"
        }, {
            "datatype": "string",
            "name": "y"
        }],
        "contextObj": {
            "name": "frmAddExternalAccountKA",
            "type": "forms",
            "platform": "",
            "KUID": "4943cca5d62d4f0ca6f2e9ab47274db5"
        },
        "language": "js",
        "actions": [{
            "id": "ADD_SNIPPET__i1d7a8c7f6aa4eddbeabd9700a6c5b6d",
            "type": "ADD_SNIPPET",
            "codeSnippet": "kony.boj.showSelectedDetailsFromBene(\"Country\", \"lblCountryNameKA\", \"\");",
            "parentId": null,
            "callbackType": null
        }]
    }
}