{
    "AS_Form_i3ac710f7a8f4fceb3457bab86ec45d3": {
        "id": "AS_Form_i3ac710f7a8f4fceb3457bab86ec45d3",
        "type": "ACTION_SEQUENCE",
        "name": "AS_OnDeviceBackOfFrmAccountTypeToOrignalForms",
        "params": [{
            "datatype": "collection",
            "name": "eventobject"
        }],
        "contextObj": {
            "name": "frmAccountType",
            "type": "forms",
            "platform": "",
            "KUID": "g66cdae5633b442dbe43e8cfa5f5a5a6"
        },
        "language": "js",
        "actions": [{
            "id": "ADD_SNIPPET__f669f227c67d47b0856667a66b7410d1",
            "type": "ADD_SNIPPET",
            "codeSnippet": "backToOrignalFormFromFrmAccountType();",
            "parentId": null,
            "callbackType": null
        }]
    }
}