{
    "AS_TextField_g7b302fd4ef845969deaa12147f337f9": {
        "id": "AS_TextField_g7b302fd4ef845969deaa12147f337f9",
        "type": "ACTION_SEQUENCE",
        "name": "AS_onTextChangeNickNameAddBiller",
        "params": [{
            "datatype": "collection",
            "name": "eventobject"
        }, {
            "datatype": "string",
            "name": "changedtext"
        }],
        "contextObj": {
            "name": "frmAddNewPayeeKA",
            "type": "forms",
            "platform": "",
            "KUID": "22b994296d374ff48427012b2b05feb7"
        },
        "language": "js",
        "actions": [{
            "id": "ADD_SNIPPET__c99524e91f0a4e999ece2b9378b8f393",
            "type": "ADD_SNIPPET",
            "codeSnippet": "kony.boj.storeDetailsAddBiller(\"NickName\", frmAddNewPayeeKA.tbxNickName.text);\nif(frmAddNewPayeeKA.tbxNickName.text.match(/^[\\s]/g) !== null){\n  frmAddNewPayeeKA.tbxNickName.text = frmAddNewPayeeKA.tbxNickName.text.replace(/\\s/g, \"\");\n}\nif(kony.boj.isNextEnabledBiller())\n  frmAddNewPayeeKA.lblNext.skin = \"sknLblNextEnabled\";\nelse\n  frmAddNewPayeeKA.lblNext.skin = \"sknLblNextDisabled\";",
            "parentId": null,
            "callbackType": null
        }]
    }
}