{
    "AS_Form_b3e6802028754e74b6dc6462fb6840f8": {
        "id": "AS_Form_b3e6802028754e74b6dc6462fb6840f8",
        "type": "ACTION_SEQUENCE",
        "name": "AS_ondevicebackofRequestStatment",
        "params": [{
            "datatype": "collection",
            "name": "eventobject"
        }],
        "contextObj": {
            "name": "frmRequestStatementAccounts",
            "type": "forms",
            "platform": null,
            "KUID": "gfecebeb3e284d22b50f99352c826586"
        },
        "language": "js",
        "actions": [{
            "id": "ADD_SNIPPET__cab9ae4ba6ee47bbae5a6ac4f20398ec",
            "type": "ADD_SNIPPET",
            "codeSnippet": "//frmAccountInfoKA.show();",
            "parentId": null,
            "callbackType": null
        }]
    }
}