{
    "AS_TextField_cefda326474e480aac594724c468c4d6": {
        "id": "AS_TextField_cefda326474e480aac594724c468c4d6",
        "type": "ACTION_SEQUENCE",
        "name": "AS_onTouchEndNickNameAddBiller",
        "params": [{
            "datatype": "collection",
            "name": "eventobject"
        }, {
            "datatype": "string",
            "name": "x"
        }, {
            "datatype": "string",
            "name": "y"
        }],
        "contextObj": {
            "name": "frmAddNewPayeeKA",
            "type": "forms",
            "platform": "",
            "KUID": "22b994296d374ff48427012b2b05feb7"
        },
        "language": "js",
        "actions": [{
            "id": "ADD_SNIPPET__d261c7c956c24c2ba03c83da7214a7a9",
            "type": "ADD_SNIPPET",
            "codeSnippet": "animateLabel(\"DOWN\", \"lblBillerNumber\",frmAddNewPrePayeeKA.tbxBillerNumber.text);\nanimateLabel(\"DOWN\", \"lblBillerID\",frmAddNewPayeeKA.tbxBillerID.text);\nanimateLabel(\"DOWN\", \"lblAddress\",frmAddNewPayeeKA.tbxAddress.text);\nanimateLabel(\"UP\", \"lblNickName\",frmAddNewPayeeKA.tbxNickName.text);",
            "parentId": null,
            "callbackType": null
        }]
    }
}