{
    "AS_FlexContainer_h89e6f66b987455381664216d7a88a58": {
        "id": "AS_FlexContainer_h89e6f66b987455381664216d7a88a58",
        "type": "ACTION_SEQUENCE",
        "name": "AS_onclickAccountstoListboxOrder",
        "params": [{
            "datatype": "collection",
            "name": "eventobject"
        }],
        "language": "js",
        "actions": [{
            "id": "ADD_SNIPPET__d61ad2cf270f47e18431b539ad95186d",
            "type": "ADD_SNIPPET",
            "codeSnippet": "gblsubacclist=\"AccountOrder\";\nfrmAccountType.show();",
            "parentId": null,
            "disabled": false
        }]
    }
}