{
    "AS_TextField_ac70cace2d8d4c09b1542711af09a37b": {
        "id": "AS_TextField_ac70cace2d8d4c09b1542711af09a37b",
        "type": "ACTION_SEQUENCE",
        "name": "AS_onTouchEndBillerIDAddBiller",
        "params": [{
            "datatype": "collection",
            "name": "eventobject"
        }, {
            "datatype": "string",
            "name": "x"
        }, {
            "datatype": "string",
            "name": "y"
        }],
        "contextObj": {
            "name": "frmAddNewPayeeKA",
            "type": "forms",
            "platform": "",
            "KUID": "22b994296d374ff48427012b2b05feb7"
        },
        "language": "js",
        "actions": [{
            "id": "ADD_SNIPPET__dbc136cacaa2443db8ab61fa3290a028",
            "type": "ADD_SNIPPET",
            "codeSnippet": "animateLabel(\"DOWN\", \"lblBillerNumber\",frmAddNewPayeeKA.tbxBillerNumber.text);\nanimateLabel(\"UP\", \"lblBillerID\",frmAddNewPayeeKA.tbxBillerID.text);\nanimateLabel(\"DOWN\", \"lblAddress\",frmAddNewPayeeKA.tbxAddress.text);\nanimateLabel(\"DOWN\", \"lblNickName\",frmAddNewPayeeKA.tbxNickName.text);",
            "parentId": null,
            "callbackType": null
        }]
    }
}