{
    "AS_FlexContainer_iecb56689d7a494e8507f0358d52da26": {
        "id": "AS_FlexContainer_iecb56689d7a494e8507f0358d52da26",
        "type": "ACTION_SEQUENCE",
        "name": "AS_onBackFromTransfer",
        "params": [{
            "datatype": "collection",
            "name": "eventobject"
        }],
        "contextObj": {
            "name": "frmNewTransferKA",
            "type": "forms",
            "platform": "",
            "KUID": "2ac343500306428da0ceef91a3b44d18"
        },
        "language": "js",
        "actions": [{
            "id": "ADD_SNIPPET__h777651ff7d9441c863a954a57582d60",
            "type": "ADD_SNIPPET",
            "codeSnippet": "if(kony.retailBanking.util.validation.isTransferChanged()){\n\tcustomAlertPopup(geti18Value(\"i18n.cards.Confirmation\"), \n                 geti18Value(\"i18n.transfers.eraseAllAlert\"),\n                 userResponse, onClickNoBack, \n                 geti18Value(\"i18n.common.YES\"),\n                 geti18Value(\"i18n.common.NO\"));\n}else{\n\tuserResponse();\n}\nfunction onClickNoBack(){\n  popupCommonAlertDimiss();\n}\n\nfunction userResponse(){\n  gblLaunchModeOBJ.lauchMode = false;\n  kony.print(\"loadBillerDetails \"+loadBillerDetails);\n  if(loadBillerDetails === true){\n  \tgblTModule = \"send\";\n    getAllAccounts();\n  }else{\n    if(gblTModule===\"own\"){\n      frmPaymentDashboard.show();\n    }else{\n      frmShowAllBeneficiary.show();\n    }\n    removeDatafrmTransfersform();\n    makeInlineErrorsTransfersInvisible();\n    popupCommonAlertDimiss();\n    //frmNewTransferKA.destroy();\n  }\n}",
            "parentId": null,
            "callbackType": null
        }]
    }
}