{
    "AS_Form_c0412af2d68c4c6589c8ca4f2ea7f006": {
        "id": "AS_Form_c0412af2d68c4c6589c8ca4f2ea7f006",
        "type": "ACTION_SEQUENCE",
        "name": "AS_preShowCardDetails",
        "params": [{
            "datatype": "collection",
            "name": "eventobject"
        }],
        "contextObj": {
            "name": "frmRegisterUser",
            "type": "forms",
            "platform": "",
            "KUID": "cd7432ec5087404590338186c94e35d2"
        },
        "language": "js",
        "actions": [{
            "id": "ADD_SNIPPET__b11940266a3c4187ae46c29e458e8343",
            "type": "ADD_SNIPPET",
            "codeSnippet": "frmRegisterUser.flxDebitCard.setVisibility(true);\nfrmRegisterUser.flxNationalIDContainer.setVisibility(false);\nif(gblFromModule == \"RegisterUser\"){\n  frmRegisterUser.flxNationalIDButton.setVisibility(true);\n}else{\n  frmRegisterUser.flxNationalIDButton.setVisibility(false);\n}\nregisteruserPreshow();\nSetupRegistrationTalkbackFeature();\nSetupKeyPadsForTxtBoxs(); //Edit by ahmad 12-17-2020",
            "parentId": null,
            "callbackType": null
        }]
    }
}