{
    "AS_Form_baa193bbe45e4e41bf0e36abc4258a68": {
        "id": "AS_Form_baa193bbe45e4e41bf0e36abc4258a68",
        "type": "ACTION_SEQUENCE",
        "name": "AS_preShowCurrency",
        "params": [{
            "datatype": "collection",
            "name": "eventobject"
        }],
        "contextObj": {
            "name": "frmCurrency",
            "type": "forms",
            "platform": null,
            "KUID": "ad97ea383c7f4e06ae53164a57723f84"
        },
        "language": "js",
        "actions": [{
            "id": "ADD_SNIPPET__j2d3d16860ba4e979c2741bd78c653af",
            "type": "ADD_SNIPPET",
            "codeSnippet": "preShowCurrency();",
            "parentId": null,
            "callbackType": null
        }]
    }
}