{
    "AS_Segment_fb93a0efd7e844b2b2557186d223741c": {
        "id": "AS_Segment_fb93a0efd7e844b2b2557186d223741c",
        "type": "ACTION_SEQUENCE",
        "params": [{
            "datatype": "collection",
            "name": "eventobject"
        }, {
            "datatype": "number",
            "name": "sectionNumber"
        }, {
            "datatype": "number",
            "name": "rowNumber"
        }],
        "language": "js",
        "actions": [{
            "id": "ADD_SNIPPET_ide_onRowClick_h46aa477bbe54b68b15784551aecd075",
            "type": "ADD_SNIPPET",
            "codeSnippet": "accountLandingPopup();",
            "callbackType": null
        }]
    }
}