{
    "AS_Segment_b9ea11a775c048119a0cd1b6efcdc021": {
        "id": "AS_Segment_b9ea11a775c048119a0cd1b6efcdc021",
        "type": "ACTION_SEQUENCE",
        "params": [{
            "datatype": "collection",
            "name": "eventobject"
        }, {
            "datatype": "number",
            "name": "sectionNumber"
        }, {
            "datatype": "number",
            "name": "rowNumber"
        }],
        "contextObj": {
            "type": "forms",
            "platform": "",
            "KUID": "a7e7b33553484e9c83559a91d27212e3"
        },
        "language": "js",
        "actions": [{
            "id": "ADD_SNIPPET__j2877882672b44528f578d4dbc02449c",
            "type": "ADD_SNIPPET",
            "codeSnippet": "frmCheckingJoint.show();",
            "parentId": null,
            "callbackType": null
        }]
    }
}