{
    "AS_Segment_a2cd3c562a474ae0a00edfc5b56dbf8e": {
        "id": "AS_Segment_a2cd3c562a474ae0a00edfc5b56dbf8e",
        "type": "ACTION_SEQUENCE",
        "params": [{
            "datatype": "collection",
            "name": "eventobject"
        }],
        "contextObj": {
            "type": "forms",
            "platform": "",
            "KUID": "ac09c32a534449b3b0961f8e48e26015"
        },
        "language": "js",
        "actions": [{
            "id": "ADD_SNIPPET__93c276c0018b4082b8ec53c0254a7f1a",
            "type": "ADD_SNIPPET",
            "codeSnippet": "getTransactionDataPageUp();",
            "parentId": null,
            "callbackType": null
        }]
    }
}