{
    "AS_Segment_1431ada5916c4d218dd62d9b9b4062a9": {
        "id": "AS_Segment_1431ada5916c4d218dd62d9b9b4062a9",
        "type": "ACTION_SEQUENCE",
        "params": [{
            "datatype": "collection",
            "name": "eventobject"
        }, {
            "datatype": "number",
            "name": "sectionNumber"
        }, {
            "datatype": "number",
            "name": "rowNumber"
        }],
        "contextObj": {
            "type": "forms",
            "platform": null,
            "KUID": "6eb320a5ff4c42d8bf0ce564370c64ff"
        },
        "language": "js",
        "actions": [{
            "id": "ADD_SNIPPET__b34c2fc0834f4df4af52c8d2f930f432",
            "type": "ADD_SNIPPET",
            "codeSnippet": "navigateToUncategoriseTransactionDetails();",
            "parentId": null,
            "callbackType": null
        }]
    }
}