{
    "AS_Segment_eadcb7dbb6934e51a7ae671d4adfeccb": {
        "id": "AS_Segment_eadcb7dbb6934e51a7ae671d4adfeccb",
        "type": "ACTION_SEQUENCE",
        "params": [{
            "datatype": "collection",
            "name": "eventobject"
        }, {
            "datatype": "number",
            "name": "sectionNumber"
        }, {
            "datatype": "number",
            "name": "rowNumber"
        }],
        "language": "js",
        "actions": [{
            "id": "ADD_SNIPPET_ide_onRowClick_da01923cb37d4d3baea54b230a2bd172",
            "type": "ADD_SNIPPET",
            "codeSnippet": "//Need Bank Name For External Account\n//frmNewTransferKA.lblToAccountBankNameKA.text= \"\";\n//onclicksegment(\"to\");\n//selectAccountCard(frmNewTransferKA, \"to\", 1);\nsetExtrenalToAccountTransfer(\"frmNewTransferKA\");\nsetContainerState(frmNewTransferKA,\"to\",\"ANIMATION_COLLAPSE\", defaultCardHeight);\n",
            "callbackType": null
        }]
    }
}