{
    "AS_Segment_ea52e46df9844535973783210331c96d": {
        "id": "AS_Segment_ea52e46df9844535973783210331c96d",
        "type": "ACTION_SEQUENCE",
        "name": "AS_Segment_OnRowClickSegmentBillList",
        "params": [{
            "datatype": "collection",
            "name": "eventobject"
        }, {
            "datatype": "number",
            "name": "sectionNumber"
        }, {
            "datatype": "number",
            "name": "rowNumber"
        }],
        "contextObj": {
            "name": "frmPalpayBillInformation",
            "type": "forms",
            "platform": "",
            "KUID": "e22e028272e9470bb4d04f1c672b7496"
        },
        "language": "js",
        "actions": [{
            "id": "ADD_SNIPPET__bb05ada390724e9aae2ee73fdc3e4fcb",
            "type": "ADD_SNIPPET",
            "codeSnippet": "onSelectDetail(frmPalpayBillInformation.SegmentBillsList.selectedRowItems[0]);",
            "parentId": null,
            "callbackType": null
        }]
    }
}