{
    "AS_Segment_67855cf862424a208f6d790620760b60": {
        "id": "AS_Segment_67855cf862424a208f6d790620760b60",
        "type": "ACTION_SEQUENCE",
        "params": [{
            "datatype": "collection",
            "name": "eventobject"
        }, {
            "datatype": "number",
            "name": "sectionNumber"
        }, {
            "datatype": "number",
            "name": "rowNumber"
        }],
        "contextObj": {
            "name": "frmNewTransferKA",
            "type": "forms",
            "platform": "",
            "KUID": "2ac343500306428da0ceef91a3b44d18"
        },
        "language": "js",
        "actions": [{
            "id": "ADD_SNIPPET__5cd7ce15264e4b1e987f1f181c2eee7d",
            "type": "ADD_SNIPPET",
            "codeSnippet": "onclicksegment(\"from\");\nselectAccountCard(frmNewTransferKA, \"from\", 1);\nvar index = getSegInternalAccountsKARecordClick(\"segInternalFromAccountsKA\",\"frmNewTransferKA\",\"fromNamePick\",\"fromAmountPick\", \"fromlblAccountNumberKA\",\"fromAccountColorPick\");\nsetToTransferAccountsAfterSelectionOfFromAccount(\"frmNewTransferKA\",\"segInternalTOAccountsKA\",index);\nunSelectSameAccount();",
            "parentId": null,
            "callbackType": null
        }]
    }
}