{
    "AS_Segment_9032cf7905794b79a7870c2ca9f51c2d": {
        "id": "AS_Segment_9032cf7905794b79a7870c2ca9f51c2d",
        "type": "ACTION_SEQUENCE",
        "params": [{
            "datatype": "collection",
            "name": "eventobject"
        }, {
            "datatype": "number",
            "name": "sectionNumber"
        }, {
            "datatype": "number",
            "name": "rowNumber"
        }],
        "language": "js",
        "actions": [{
            "id": "INVOKE_FUNCTION__ide_onRowClick_b8d4b7ec95184710be17833afd81ab72",
            "type": "INVOKE_FUNCTION",
            "sequenceKUID": "moreResourcesSegmentClick",
            "display": "moreResourcesSegmentClick",
            "inputparams": [],
            "callbackType": null,
            "source": "module"
        }]
    }
}