{
    "AS_Segment_d6dda1de5c674a6481ff4c6914d16d8e": {
        "id": "AS_Segment_d6dda1de5c674a6481ff4c6914d16d8e",
        "type": "ACTION_SEQUENCE",
        "name": "AS_Segment_NavigateToCardsdetails",
        "params": [{
            "name": "eventobject",
            "datatype": "collection"
        }, {
            "name": "sectionNumber",
            "datatype": "number"
        }, {
            "name": "rowNumber",
            "datatype": "number"
        }],
        "language": "js",
        "actions": [{
            "id": "ADD_SNIPPET_ide_onRowClick_f6a8e8fb9c5446c2bac890a34b12bf21",
            "type": "ADD_SNIPPET",
            "codeSnippet": "onClickCardsSegNavigateToDetails(rowNumber);"
        }]
    }
}