{
    "AS_Segment_c73bcf85038b44b78938c9747aca2b0f": {
        "id": "AS_Segment_c73bcf85038b44b78938c9747aca2b0f",
        "type": "ACTION_SEQUENCE",
        "params": [{
            "datatype": "collection",
            "name": "eventobject"
        }, {
            "datatype": "number",
            "name": "sectionNumber"
        }, {
            "datatype": "number",
            "name": "rowNumber"
        }],
        "contextObj": {
            "name": "frmAccountType",
            "type": "forms",
            "platform": null,
            "KUID": "g66cdae5633b442dbe43e8cfa5f5a5a6"
        },
        "language": "js",
        "actions": [{
            "id": "ADD_SNIPPET__j9561ad1837a464089884e4a033ef83a",
            "type": "ADD_SNIPPET",
            "codeSnippet": "selectAccounttype();",
            "parentId": null,
            "callbackType": null
        }]
    }
}