{
    "AS_Segment_acd8a1b3073047cfb6169ab315aafb7c": {
        "id": "AS_Segment_acd8a1b3073047cfb6169ab315aafb7c",
        "type": "ACTION_SEQUENCE",
        "params": [{
            "datatype": "collection",
            "name": "eventobject"
        }, {
            "datatype": "number",
            "name": "sectionNumber"
        }, {
            "datatype": "number",
            "name": "rowNumber"
        }],
        "contextObj": {
            "type": "forms",
            "platform": "",
            "KUID": "he1d62b4711f4c5abdcb97f4fa0c8653"
        },
        "language": "js",
        "actions": [{
            "id": "NAVIGATE_TO_FORM___h16264c0f8974bc686375d4f8cfd96ac",
            "type": "NAVIGATE_TO_FORM",
            "formKUID": "c61ad12e0ab14a518f43b91ce1670e1d",
            "mappings": {},
            "mappingsOrder": [],
            "parentId": "",
            "callbackType": null,
            "enableMappingEditor": true,
            "navigationObj": "{\n    \"_meta_\": {\n        \"eventName\": \"\",\n        \"widgetId\": \"\"\n    }\n}",
            "isCustomInput": false
        }]
    }
}