{
    "AS_Segment_bfc100fb39be4403ab64ad39fe497641": {
        "id": "AS_Segment_bfc100fb39be4403ab64ad39fe497641",
        "type": "ACTION_SEQUENCE",
        "params": [{
            "datatype": "collection",
            "name": "eventobject"
        }, {
            "datatype": "number",
            "name": "sectionNumber"
        }, {
            "datatype": "number",
            "name": "rowNumber"
        }],
        "contextObj": {
            "name": "frmAccountDetailKA",
            "type": "forms",
            "platform": "",
            "KUID": "5ed703cad63c441882fc4a36f5ea0c28"
        },
        "language": "js",
        "actions": [{
            "id": "ADD_SNIPPET__bb84ee7f6ed147ef9ee4cf334657eac9",
            "type": "ADD_SNIPPET",
            "codeSnippet": "kony.print(\"asdas\");",
            "parentId": null,
            "callbackType": null
        }]
    }
}