{
    "AS_Segment_fc65cf55a1564f90b081b95f5e64122f": {
        "id": "AS_Segment_fc65cf55a1564f90b081b95f5e64122f",
        "type": "ACTION_SEQUENCE",
        "params": [{
            "datatype": "collection",
            "name": "eventobject"
        }, {
            "datatype": "number",
            "name": "sectionNumber"
        }, {
            "datatype": "number",
            "name": "rowNumber"
        }],
        "contextObj": {
            "name": "frmNewBillDetails",
            "type": "forms",
            "platform": null,
            "KUID": "c2132c3b91ec4677ab952b729de9fc0e"
        },
        "language": "js",
        "actions": [{
            "id": "ADD_SNIPPET_ide_onRowClick_b03b1ed7670b4dc59539b1ee3f523592",
            "type": "ADD_SNIPPET",
            "codeSnippet": "//onclicksegment(\"from\");\n//selectAccountCard(frmNewTransferKA, \"from\", 1);\nvar index = getSegInternalAccountsKARecordClick(\"segInternalFromAccountsKA\",\"frmNewBillKA\", frmNewBillKA, \"from\");\n//setToTransferAccountsAfterSelectionOfFromAccount(\"frmNewTransferKA\",\"segInternalTOAccountsKA\",index);\nsetContainerState(frmNewBillKA,\"from\",\"ANIMATION_COLLAPSE\", defaultCardHeight);\n//unSelectSameAccount();",
            "callbackType": null
        }]
    }
}