{
    "AS_Segment_95cd757f69f442a8b4639504b34eb23f": {
        "id": "AS_Segment_95cd757f69f442a8b4639504b34eb23f",
        "type": "ACTION_SEQUENCE",
        "params": [{
            "datatype": "collection",
            "name": "eventobject"
        }, {
            "datatype": "number",
            "name": "sectionNumber"
        }, {
            "datatype": "number",
            "name": "rowNumber"
        }],
        "language": "js",
        "actions": [{
            "id": "NAVIGATE_TO_FORM__ide_onRowClick_baab07046a8c4e228789958f64e245b9",
            "type": "NAVIGATE_TO_FORM",
            "formId": "frmLocatorBranchDetailsKA",
            "formKUID": "413f08375ca14d89a7755001885d1014",
            "mappings": {},
            "mappingsOrder": [],
            "parentId": "",
            "callbackType": null,
            "enableMappingEditor": true,
            "package": "",
            "navigationObj": "{\n    \"_meta_\": {\n        \"eventName\": \"\",\n        \"widgetId\": \"\"\n    }\n}",
            "isCustomInput": false
        }]
    }
}