{
    "AS_Segment_d867d20abc7b48fca3fc78ee7b719de5": {
        "id": "AS_Segment_d867d20abc7b48fca3fc78ee7b719de5",
        "type": "ACTION_SEQUENCE",
        "params": [{
            "datatype": "collection",
            "name": "eventobject"
        }, {
            "datatype": "number",
            "name": "sectionNumber"
        }, {
            "datatype": "number",
            "name": "rowNumber"
        }],
        "contextObj": {
            "name": "frmNewBillDetails",
            "type": "forms",
            "platform": null,
            "KUID": "c2132c3b91ec4677ab952b729de9fc0e"
        },
        "language": "js",
        "actions": [{
            "id": "ADD_SNIPPET_ide_onRowClick_cbc3d0217f5a42d5a7fc9ded4b88613d",
            "type": "ADD_SNIPPET",
            "codeSnippet": "setPayeeIntoToCard();\nsetContainerState(frmNewBillKA,\"to\",\"ANIMATION_COLLAPSE\", defaultCardHeight);",
            "callbackType": null
        }]
    }
}