{
    "AS_Segment_9c488c1d867842b8a96e03293ba7ea7d": {
        "id": "AS_Segment_9c488c1d867842b8a96e03293ba7ea7d",
        "type": "ACTION_SEQUENCE",
        "params": [{
            "datatype": "collection",
            "name": "eventobject"
        }],
        "language": "js",
        "actions": [{
            "id": "ADD_SNIPPET_ide_onReachingEnd_7c5e14d5d336424ba6ddac76d021e2d2",
            "type": "ADD_SNIPPET",
            "codeSnippet": "searchResults(frmSearchResultsKA[\"segSearchResultsKA\"].data.length);",
            "callbackType": null
        }]
    }
}