{
    "AS_Switch_850d3aeb153d4c4fac6360140d9369d2": {
        "id": "AS_Switch_850d3aeb153d4c4fac6360140d9369d2",
        "type": "ACTION_SEQUENCE",
        "params": [{
            "datatype": "collection",
            "name": "eventobject"
        }],
        "contextObj": {
            "type": "forms",
            "platform": "",
            "KUID": "ac09c32a534449b3b0961f8e48e26015"
        },
        "language": "js",
        "actions": [{
            "id": "ADD_SNIPPET__1bc595043a504e5c929007bf33421fde",
            "type": "ADD_SNIPPET",
            "codeSnippet": "selectCheckNumbers();",
            "parentId": null,
            "callbackType": null
        }]
    }
}