{
    "AS_TextField_df5a7b5a247c4012bde3d737a5ec01e0": {
        "id": "AS_TextField_df5a7b5a247c4012bde3d737a5ec01e0",
        "type": "ACTION_SEQUENCE",
        "name": "AS_TextField_NationalIDRegistration_CardNumber_onBeginEditingAnd",
        "params": [{
            "datatype": "collection",
            "name": "eventobject"
        }, {
            "datatype": "string",
            "name": "changedtext"
        }],
        "contextObj": {
            "name": "frmRegisterUser",
            "type": "forms",
            "platform": "",
            "KUID": "cd7432ec5087404590338186c94e35d2"
        },
        "language": "js",
        "actions": [{
            "id": "ADD_SNIPPET__b1d01b622a6d4b6e80c3681877854308",
            "type": "ADD_SNIPPET",
            "codeSnippet": "animateLabel(\"UP\", \"lblIDCardNumberTitle\", frmRegisterUser.txtIDCardNumber.text);",
            "parentId": null,
            "callbackType": null
        }]
    }
}