{
    "AS_TextField_ced6ad8d95474e1d913217ef2768783b": {
        "id": "AS_TextField_ced6ad8d95474e1d913217ef2768783b",
        "type": "ACTION_SEQUENCE",
        "params": [{
            "datatype": "collection",
            "name": "eventobject"
        }, {
            "datatype": "string",
            "name": "changedtext"
        }],
        "language": "js",
        "actions": [{
            "id": "ADD_SNIPPET_ide_onBeginEditing_a1793733ed5544d3ab7af1215e993f94",
            "type": "ADD_SNIPPET",
            "codeSnippet": "animate_NEWCARDSOPTIOS(\"UP\", \"lblBeneficiaryMobileTitle\", frmJOMOPayAddBiller.txtBeneficiaryMobile.text);"
        }]
    }
}