{
    "AS_TextField_fa38a523be7c4346800f378f116ab4bb": {
        "id": "AS_TextField_fa38a523be7c4346800f378f116ab4bb",
        "type": "ACTION_SEQUENCE",
        "params": [{
            "datatype": "collection",
            "name": "eventobject"
        }, {
            "datatype": "string",
            "name": "changedtext"
        }],
        "language": "js",
        "actions": [{
            "id": "ADD_SNIPPET_ide_onDone_ea749dd834654c93b65be18d0c449b1b",
            "type": "ADD_SNIPPET",
            "codeSnippet": "kony.boj.addBeneficiaryAnimation(\"lblBenficiryNickName\");",
            "callbackType": null
        }]
    }
}