{
    "AS_TextField_c3b866ae003f414a98628c7dfc56a1d7": {
        "id": "AS_TextField_c3b866ae003f414a98628c7dfc56a1d7",
        "type": "ACTION_SEQUENCE",
        "params": [{
            "datatype": "collection",
            "name": "eventobject"
        }, {
            "datatype": "string",
            "name": "changedtext"
        }],
        "contextObj": {
            "name": "frmEnrolluserLandingKA",
            "type": "forms",
            "platform": "",
            "KUID": "de724966138b4e7c9bfdd35033a0bdb3"
        },
        "language": "js",
        "actions": [{
            "id": "ADD_SNIPPET_ide_onTextChange_d006cd2f18a44de99802ab6bf4b60b28",
            "type": "ADD_SNIPPET",
            "codeSnippet": "if(kony.retailBanking.util.validation.isValidUsername(frmEnrolluserLandingKA.tbxUsernameKA.text)){\n  frmEnrolluserLandingKA.flxUnderlineUsername.skin = \"sknFlxGreenLine\";\n  usernameFlag = true;\n}else{\n  frmEnrolluserLandingKA.flxUnderlineUsername.skin = \"sknFlxOrangeLine\";\n  usernameFlag = false;\n}\n\nif(usernameFlag === true && passwordFlag === true && confrmPasswordFlag === true){\n  frmEnrolluserLandingKA.lblNext.skin = \"sknLblNextEnabled\";\n  frmEnrolluserLandingKA.flxProgress1.left = \"80%\";\n}\nelse{\n  frmEnrolluserLandingKA.lblNext.skin = \"sknLblNextDisabled\";\n  frmEnrolluserLandingKA.flxProgress1.left = \"65%\";\n}\n\nisClearButtonVisible(frmEnrolluserLandingKA.tbxUsernameKA,frmEnrolluserLandingKA.lblClose);\n",
            "callbackType": null
        }]
    }
}