{
    "AS_TextField_h56ce890e77a43058e0c441254cb13f1": {
        "id": "AS_TextField_h56ce890e77a43058e0c441254cb13f1",
        "type": "ACTION_SEQUENCE",
        "params": [{
            "datatype": "collection",
            "name": "eventobject"
        }, {
            "datatype": "string",
            "name": "changedtext"
        }],
        "contextObj": {
            "name": "frmAddExternalAccountKA",
            "type": "forms",
            "platform": "",
            "KUID": "4943cca5d62d4f0ca6f2e9ab47274db5"
        },
        "language": "js",
        "actions": [{
            "id": "ADD_SNIPPET_ide_onTextChange_ea3fc9b6fe5d40e3a20ac4b86b7de0a0",
            "type": "ADD_SNIPPET",
            "codeSnippet": "if(kony.retailBanking.util.validation.isValidUsername(frmEnrolluserLandingKA.tbxUsernameKA.text)){\n  frmEnrolluserLandingKA.flxUnderlineUsername.skin = \"sknFlxGreenLine\";\n  usernameFlag = true;\n}else{\n  frmEnrolluserLandingKA.flxUnderlineUsername.skin = \"sknFlxOrangeLine\";\n  usernameFlag = false;\n}\n\nif(usernameFlag === true && passwordFlag === true && confrmPasswordFlag === true){\n  frmEnrolluserLandingKA.lblNext.skin = \"sknLblNextEnabled\";\n  frmEnrolluserLandingKA.flxProgress1.left = \"80%\";\n}\nelse{\n  frmEnrolluserLandingKA.lblNext.skin = \"sknLblNextDisabled\";\n  frmEnrolluserLandingKA.flxProgress1.left = \"65%\";\n}\n",
            "callbackType": null
        }]
    }
}