{
    "AS_TextField_e6e37b97a4d340d68de1be4bea0b94c2": {
        "id": "AS_TextField_e6e37b97a4d340d68de1be4bea0b94c2",
        "type": "ACTION_SEQUENCE",
        "params": [{
            "datatype": "collection",
            "name": "eventobject"
        }, {
            "datatype": "string",
            "name": "changedtext"
        }],
        "language": "js",
        "actions": [{
            "id": "ADD_SNIPPET_ide_onEndEditing_aab140e16d044cceac142f9a2d3a1a84",
            "type": "ADD_SNIPPET",
            "codeSnippet": "try{\n  if(frmEstatementLandingKA.txtEmail1.text!==null && frmEstatementLandingKA.txtEmail1.text!==\"\")\n  {\n    frmEstatementLandingKA.borderBottom1.skin=\"skntextFieldDividerGreen\";\n  }\n  else\n  {\n    frmEstatementLandingKA.borderBottom1.skin=\"skntextFieldDivider\";\n  }\n  animateLabel(\"DOWN\",\"lblEmail1\",frmEstatementLandingKA.txtEmail1.text);\n  animateLabel(\"DOWN\",\"lblEmail2\",frmEstatementLandingKA.txtEmail2.text);\n}catch(err){\n  kony.print( \"err in pwd::\"+err);\n}",
            "callbackType": null
        }]
    }
}