{
    "AS_TextField_ib0d5dff72414cc98b068784423fe5d0": {
        "id": "AS_TextField_ib0d5dff72414cc98b068784423fe5d0",
        "type": "ACTION_SEQUENCE",
        "params": [{
            "datatype": "collection",
            "name": "eventobject"
        }, {
            "datatype": "string",
            "name": "changedtext"
        }],
        "language": "js",
        "actions": [{
            "id": "ADD_SNIPPET_ide_onDone_ce0d017994614a27bb61b4c9c4bf7d7f",
            "type": "ADD_SNIPPET",
            "codeSnippet": "animateLabel(\"DOWN\", \"lblBillerNumber\",frmAddNewPrePayeeKA.tbxBillerNumber.text);\nanimateLabel(\"UP\",\"lblAmount\", frmAddNewPrePayeeKA.tbxAmount.text);",
            "callbackType": null
        }]
    }
}