{
    "AS_TextField_db34fd42b9ab4c8b94888984ff493856": {
        "id": "AS_TextField_db34fd42b9ab4c8b94888984ff493856",
        "type": "ACTION_SEQUENCE",
        "params": [{
            "datatype": "collection",
            "name": "eventobject"
        }, {
            "datatype": "string",
            "name": "changedtext"
        }],
        "contextObj": {
            "type": "forms",
            "platform": "",
            "KUID": "400a0ee97eb04e5897318084b1271b8a"
        },
        "language": "js",
        "actions": [{
            "id": "ADD_SNIPPET__61581f14077b4255b657aff7aceeef47",
            "type": "ADD_SNIPPET",
            "codeSnippet": "compareAmountFields();",
            "parentId": null,
            "callbackType": null
        }]
    }
}