{
    "AS_TextField_2a143766e38840ed9a5fa42a1b7871fb": {
        "id": "AS_TextField_2a143766e38840ed9a5fa42a1b7871fb",
        "type": "ACTION_SEQUENCE",
        "params": [{
            "datatype": "collection",
            "name": "eventobject"
        }, {
            "datatype": "string",
            "name": "changedtext"
        }],
        "contextObj": {
            "name": "frmLoginKA",
            "type": "forms",
            "platform": "",
            "KUID": "7b1aa8fceb6b4070833e9eab879b0e5e"
        },
        "language": "js",
        "actions": [{
            "id": "ADD_SNIPPET__a0f0d409f8dd4a07ab4152e60166285e",
            "type": "ADD_SNIPPET",
            "codeSnippet": "frmLoginKA.passwordTextField.text = \"\";\nfrmLoginKA.passwordTextField.secureTextEntry = true;\nfrmLoginKA.lblShowPass.text = \"A\";\nfrmLoginKA.lblInvalidCredentialsKA.isVisible = false;",
            "parentId": null,
            "callbackType": null
        }]
    }
}