{
    "AS_TextField_h968e35fdbe645158069a76df967ad26": {
        "id": "AS_TextField_h968e35fdbe645158069a76df967ad26",
        "type": "ACTION_SEQUENCE",
        "params": [{
            "datatype": "collection",
            "name": "eventobject"
        }, {
            "datatype": "string",
            "name": "changedtext"
        }],
        "contextObj": {
            "name": "frmLanguageChange",
            "type": "forms",
            "platform": "",
            "KUID": "gf87c4f80b864112b53423e6a7ad3af8"
        },
        "language": "js",
        "actions": [{
            "id": "ADD_SNIPPET_ide_onDone_aa2df9fca7f84896a71b43321b328e20",
            "type": "ADD_SNIPPET",
            "codeSnippet": "if(!isEmpty(frmLanguageChange.tbxusernameTextField.text))\nfrmLanguageChange.tbxusernameTextField.text=frmLanguageChange.tbxusernameTextField.text.trim();\n\nif(frmLanguageChange.tbxusernameTextField.text!==null&&frmLanguageChange.tbxusernameTextField.text!==\"\")\n{\n  frmLanguageChange.borderBottom.skin=\"skntextFieldDividerGreen\";\n}\nelse\n  {\n    frmLanguageChange.borderBottom.skin=\"skntextFieldDivider\";\n  }\n// loginKeyboardInactive();",
            "callbackType": null
        }]
    }
}