{
    "AS_TextField_c391ba3cc45c4db9b7632d2b9dff7893": {
        "id": "AS_TextField_c391ba3cc45c4db9b7632d2b9dff7893",
        "type": "ACTION_SEQUENCE",
        "params": [{
            "datatype": "collection",
            "name": "eventobject"
        }, {
            "datatype": "string",
            "name": "changedtext"
        }],
        "contextObj": {
            "name": "frmLoginKA",
            "type": "forms",
            "platform": "",
            "KUID": "7b1aa8fceb6b4070833e9eab879b0e5e"
        },
        "language": "js",
        "actions": [{
            "id": "ADD_SNIPPET__g36c598e92aa482e88726d57a60c2197",
            "type": "ADD_SNIPPET",
            "codeSnippet": "//frmLoginKA.borderBottom.skin=\"skntextFieldDividerBlue\";\nkony.print(\"Commented for testing by Afwan\");",
            "parentId": null,
            "callbackType": null
        }]
    }
}