{
    "AS_TextField_fe06d306ae5c46799a32f0f516891ef1": {
        "id": "AS_TextField_fe06d306ae5c46799a32f0f516891ef1",
        "type": "ACTION_SEQUENCE",
        "params": [{
            "datatype": "collection",
            "name": "eventobject"
        }, {
            "datatype": "string",
            "name": "changedtext"
        }],
        "language": "js",
        "actions": [{
            "id": "ADD_SNIPPET_ide_onTextChange_ge97660091004e709aaf07113165a570",
            "type": "ADD_SNIPPET",
            "codeSnippet": "// if(frmAddExternalAccountKA.txtBenficiryNameKA.text !== \"\"){\n//   frmAddExternalAccountKA.flxUnderlineBenficiryNameKA.skin = \"sknFlxGreenLine\";\n// }else{\n//   frmAddExternalAccountKA.flxUnderlineBenficiryNameKA.skin = \"sknFlxOrangeLine\";\n// }\nkony.boj.addBeneNextStatus();\n",
            "callbackType": null
        }]
    }
}