{
    "AS_TextField_de2516fe81e24bf8b2bed2eb3f8bd174": {
        "id": "AS_TextField_de2516fe81e24bf8b2bed2eb3f8bd174",
        "type": "ACTION_SEQUENCE",
        "name": "AS_TextField_NationalIDRegistration_CardNumber_onTextChange",
        "params": [{
            "datatype": "collection",
            "name": "eventobject"
        }, {
            "datatype": "string",
            "name": "changedtext"
        }],
        "contextObj": {
            "name": "frmRegisterUser",
            "type": "forms",
            "platform": "",
            "KUID": "cd7432ec5087404590338186c94e35d2"
        },
        "language": "js",
        "actions": [{
            "id": "ADD_SNIPPET__d12c5f16ca46459eb50e0a85bde247b4",
            "type": "ADD_SNIPPET",
            "codeSnippet": "if(frmRegisterUser.txtIDCardNumber.text ===null || frmRegisterUser.txtIDCardNumber.text === \"\" || frmRegisterUser.txtIDCardNumber.text.trim() === \"\")\n  frmRegisterUser.flxBorderIDCardNumber.skin = \"skntextFieldDividerOrange\";\nelse \n  frmRegisterUser.flxBorderIDCardNumber.skin = \"skntextFieldDividerGreen\";\n\n",
            "parentId": null,
            "callbackType": null
        }]
    }
}