{
    "AS_TextField_859eb378012c461ab8a4ab64a94a57e4": {
        "id": "AS_TextField_859eb378012c461ab8a4ab64a94a57e4",
        "type": "ACTION_SEQUENCE",
        "params": [{
            "datatype": "collection",
            "name": "eventobject"
        }, {
            "datatype": "string",
            "name": "changedtext"
        }],
        "contextObj": {
            "name": "frmNewTransferKA",
            "type": "forms",
            "platform": "",
            "KUID": "2ac343500306428da0ceef91a3b44d18"
        },
        "language": "js",
        "actions": [{
            "id": "ADD_SNIPPET__062fc36eca134718bf42a25df196076b",
            "type": "ADD_SNIPPET",
            "codeSnippet": "RecurringChanges(\"5\");",
            "parentId": null,
            "callbackType": null
        }]
    }
}