{
    "AS_TextField_a986d7c97fe4444d82b80d281c919f66": {
        "id": "AS_TextField_a986d7c97fe4444d82b80d281c919f66",
        "type": "ACTION_SEQUENCE",
        "params": [{
            "datatype": "collection",
            "name": "eventobject"
        }, {
            "datatype": "string",
            "name": "changedtext"
        }],
        "language": "js",
        "actions": [{
            "id": "ADD_SNIPPET_ide_onDone_c461e1b42bed43039e603c222f1a197c",
            "type": "ADD_SNIPPET",
            "codeSnippet": "try{\n  frmEstatementLandingKA.txtEmail1.text=frmEstatementLandingKA.txtEmail1.text.trim();\n  if(frmEstatementLandingKA.txtEmail1.text!==null && frmEstatementLandingKA.txtEmail1.text!==\"\" && isValidEmaill(frmEstatementLandingKA.txtEmail1.text))\n  {\n    frmEstatementLandingKA.borderBottom1.skin=\"skntextFieldDividerGreen\";\n    frmEstatementLandingKA.lblInvalidEmail1.setVisibility(false);\n    if(frmEstatementLandingKA.flxSwitchOnTouchLogin.isVisible && frmEstatementLandingKA.lblTermsandConditionsCheckBox.text === \"p\")\n      frmEstatementLandingKA.lblNext.skin = \"sknLblNextEnabled\";\n    else\n      frmEstatementLandingKA.lblNext.skin = \"sknLblNextDisabled\"; \n  }\n  else\n  {\n    frmEstatementLandingKA.borderBottom1.skin=\"skntextFieldDivider\";\n    frmEstatementLandingKA.lblInvalidEmail1.text=geti18Value(\"i18n.Estmt.invalidEmail\");\n    frmEstatementLandingKA.lblInvalidEmail1.setVisibility(true);\n    frmEstatementLandingKA.lblNext.skin = \"sknLblNextDisabled\";\n  }\n\n}catch(err){\n  kony.print( \"err in pwd::\"+err);\n}",
            "callbackType": null
        }]
    }
}