{
    "AS_TextField_a4535d3db1f646d1aad1ae40cd9e49b1": {
        "id": "AS_TextField_a4535d3db1f646d1aad1ae40cd9e49b1",
        "type": "ACTION_SEQUENCE",
        "params": [{
            "datatype": "collection",
            "name": "eventobject"
        }, {
            "datatype": "string",
            "name": "changedtext"
        }],
        "language": "js",
        "actions": [{
            "id": "ADD_SNIPPET_ide_onEndEditing_j385965cd4604cc58d1ab90ecfc03118",
            "type": "ADD_SNIPPET",
            "codeSnippet": "animateLabel(\"DOWN\", \"lblNickName\",frmAddNewPrePayeeKA.tbxNickName.text);",
            "callbackType": null
        }]
    }
}