{
    "AS_TextField_acd5740226ed4651a9fbd9eeb3b817cf": {
        "id": "AS_TextField_acd5740226ed4651a9fbd9eeb3b817cf",
        "type": "ACTION_SEQUENCE",
        "params": [{
            "datatype": "collection",
            "name": "eventobject"
        }, {
            "datatype": "string",
            "name": "x"
        }, {
            "datatype": "string",
            "name": "y"
        }],
        "contextObj": {
            "name": "frmEstatementLandingKA",
            "type": "forms",
            "platform": "",
            "KUID": "d1dcb94f4a054dda97d66cbdc216d96a"
        },
        "language": "js",
        "actions": [{
            "id": "ADD_SNIPPET__ba25b82807a54990a205e9776874da97",
            "type": "ADD_SNIPPET",
            "codeSnippet": "try{\nanimateLabel(\"UP\",\"lblEmail1\",frmEstatementLandingKA.txtEmail1.text);\n}catch(err){\n  kony.print( \"err in pwd::\"+err);\n}",
            "parentId": null,
            "callbackType": null
        }]
    }
}