{
    "AS_TextField_e8385dbfddc248f0b1f07c5877a0b5b8": {
        "id": "AS_TextField_e8385dbfddc248f0b1f07c5877a0b5b8",
        "type": "ACTION_SEQUENCE",
        "params": [{
            "datatype": "collection",
            "name": "eventobject"
        }, {
            "datatype": "string",
            "name": "changedtext"
        }],
        "contextObj": {
            "name": "frmNewBillDetails",
            "type": "forms",
            "platform": null,
            "KUID": "c2132c3b91ec4677ab952b729de9fc0e"
        },
        "language": "js",
        "actions": [{
            "id": "ADD_SNIPPET_ide_onDone_edeba22af56142e897cece360c701754",
            "type": "ADD_SNIPPET",
            "codeSnippet": "onDoneBillerNum();\nanimateLabel(\"UP\",\"lblAmount\", frmNewBillKA.tbxAmount.text);",
            "callbackType": null
        }]
    }
}