{
    "AS_TextField_a1be2d7364d34cd8a995c577c026c74b": {
        "id": "AS_TextField_a1be2d7364d34cd8a995c577c026c74b",
        "type": "ACTION_SEQUENCE",
        "params": [{
            "datatype": "collection",
            "name": "eventobject"
        }, {
            "datatype": "string",
            "name": "changedtext"
        }],
        "language": "js",
        "actions": [{
            "id": "ADD_SNIPPET_ide_onBeginEditing_d353af396cec4ed780a13fac33b2da11",
            "type": "ADD_SNIPPET",
            "codeSnippet": "frmCardlessTransaction.flxBorderAmount.skin=\"skntextFieldDividerBlue\";",
            "callbackType": null
        }]
    }
}