{
    "AS_TextField_d78db9d0c5da40419893631c2882d611": {
        "id": "AS_TextField_d78db9d0c5da40419893631c2882d611",
        "type": "ACTION_SEQUENCE",
        "params": [{
            "datatype": "collection",
            "name": "eventobject"
        }, {
            "datatype": "string",
            "name": "changedtext"
        }],
        "language": "js",
        "actions": [{
            "id": "ADD_SNIPPET_ide_onDone_d4620b25287e408cb85b3d2bee24631d",
            "type": "ADD_SNIPPET",
            "codeSnippet": "validateLblNext();",
            "callbackType": null
        }]
    }
}