{
    "AS_TextField_f0cd8e2ff51b48928476065fbb1a50ce": {
        "id": "AS_TextField_f0cd8e2ff51b48928476065fbb1a50ce",
        "type": "ACTION_SEQUENCE",
        "params": [{
            "datatype": "collection",
            "name": "eventobject"
        }, {
            "datatype": "string",
            "name": "changedtext"
        }],
        "language": "js",
        "actions": [{
            "id": "ADD_SNIPPET_ide_onTextChange_dc74fb1740d3443f93974ea3b342a3c4",
            "type": "ADD_SNIPPET",
            "codeSnippet": "/*if(checkNextCardless())\n  frmCardlessTransaction.btnSubmit.setEnabled(true);\nelse\n  frmCardlessTransaction.btnSubmit.setEnabled(false);*/\ncheckNextCardless();\n\nfrmCardlessTransaction.lblHiddenAmount.text=frmCardlessTransaction.txtFieldAmount.text;\nfrmCardlessTransaction.txtFieldAmount.text = fixDecimal(frmCardlessTransaction.txtFieldAmount.text,getDecimalNumForCurr(frmCardlessTransaction.lblCurrencyCode.text));",
            "callbackType": null
        }]
    }
}