{
    "AS_TextField_f5ce4076c1914ae1b76fe485b21b0d93": {
        "id": "AS_TextField_f5ce4076c1914ae1b76fe485b21b0d93",
        "type": "ACTION_SEQUENCE",
        "name": "AS_TextField_passwordCardlessOnTextChange",
        "params": [{
            "datatype": "collection",
            "name": "eventobject"
        }, {
            "datatype": "string",
            "name": "changedtext"
        }],
        "language": "js",
        "actions": [{
            "id": "ADD_SNIPPET_ide_onTextChange_aa325842c882479abebc6b7656c78ce0",
            "type": "ADD_SNIPPET",
            "codeSnippet": "frmCardlessTransaction.tbxPassword.text=frmCardlessTransaction.tbxPassword.text.toString().replace(/\\./g,\"\");\ncheckNextCardless();",
            "callbackType": null
        }]
    }
}