{
    "AS_TextField_a5c36e346cfd47e887200766cc5e770d": {
        "id": "AS_TextField_a5c36e346cfd47e887200766cc5e770d",
        "type": "ACTION_SEQUENCE",
        "params": [{
            "datatype": "collection",
            "name": "eventobject"
        }, {
            "datatype": "string",
            "name": "x"
        }, {
            "datatype": "string",
            "name": "y"
        }],
        "contextObj": {
            "name": "frmLoginKA",
            "type": "forms",
            "platform": "",
            "KUID": "7b1aa8fceb6b4070833e9eab879b0e5e"
        },
        "language": "js",
        "actions": [{
            "id": "ADD_SNIPPET__d173187141de4886b62a16924a94e143",
            "type": "ADD_SNIPPET",
            "codeSnippet": "try{\nanimateLabel(\"UP\",\"lblUserName\",frmLoginKA.tbxusernameTextField.text);\n}catch(err){\n  kony.print( \"err in pwd::\"+err);\n}",
            "parentId": null
        }]
    }
}