{
    "AS_TextField_a34f756eb3464d5ab8d671a25d8c9076": {
        "id": "AS_TextField_a34f756eb3464d5ab8d671a25d8c9076",
        "type": "ACTION_SEQUENCE",
        "name": "AS_TextField_AmountFldCardLessOnEndEditing",
        "params": [{
            "datatype": "collection",
            "name": "eventobject"
        }, {
            "datatype": "string",
            "name": "changedtext"
        }],
        "language": "js",
        "actions": [{
            "id": "ADD_SNIPPET_ide_onEndEditing_d11baa0ad2a94a58921ce99c1b6e2dd9",
            "type": "ADD_SNIPPET",
            "codeSnippet": "onendeditingCaredless();\nfrmCardlessTransaction.txtFieldAmount.maxTextLength = 20;\nfrmCardlessTransaction.txtFieldAmount.text=formatAmountwithcomma(frmCardlessTransaction.lblHiddenAmount.text,getDecimalNumForCurr(frmCardlessTransaction.lblCurrencyCode.text));",
            "callbackType": null
        }]
    }
}