{
    "AS_TextField_dfe775b86b6c4f369e3ea4499f38c28e": {
        "id": "AS_TextField_dfe775b86b6c4f369e3ea4499f38c28e",
        "type": "ACTION_SEQUENCE",
        "params": [{
            "datatype": "collection",
            "name": "eventobject"
        }, {
            "datatype": "string",
            "name": "changedtext"
        }],
        "contextObj": {
            "name": "frmAddNewPrePayeeKA",
            "type": "forms",
            "platform": null,
            "KUID": "a843292d9c674ff7ba10a9b594b7e7e5"
        },
        "language": "js",
        "actions": [{
            "id": "ADD_SNIPPET_ide_onEndEditing_aa65744e4c264f57a26b60d4ea762362",
            "type": "ADD_SNIPPET",
            "codeSnippet": "animateLabel(\"DOWN\", \"lblBillerID\",frmAddNewPayeeKA.tbxBillerID.text);",
            "callbackType": null
        }]
    }
}