{
    "AS_TextField_j137f271c36848378826dbb90f54f70d": {
        "id": "AS_TextField_j137f271c36848378826dbb90f54f70d",
        "type": "ACTION_SEQUENCE",
        "params": [{
            "datatype": "collection",
            "name": "eventobject"
        }, {
            "datatype": "string",
            "name": "changedtext"
        }],
        "contextObj": {
            "name": "frmEstatementLandingKA",
            "type": "forms",
            "platform": "",
            "KUID": "d1dcb94f4a054dda97d66cbdc216d96a"
        },
        "language": "js",
        "actions": [{
            "id": "ADD_SNIPPET__ie211ac4af144bf6895c68c67a74b19a",
            "type": "ADD_SNIPPET",
            "codeSnippet": "try{\n  if(frmEstatementLandingKA.txtEmail1.text!==null && frmEstatementLandingKA.txtEmail1.text!==\"\")\n  {\n    frmEstatementLandingKA.borderBottom1.skin=\"skntextFieldDividerGreen\";\n  }\n  else\n  {\n    frmEstatementLandingKA.borderBottom1.skin=\"skntextFieldDivider\";\n  }\n  animateLabel(\"DOWN\",\"lblEmail1\",frmEstatementLandingKA.txtEmail1.text);\n  animateLabel(\"DOWN\",\"lblEmail2\",frmEstatementLandingKA.txtEmail2.text);\n}catch(err){\n  kony.print( \"err in pwd::\"+err);\n}\n",
            "parentId": null,
            "callbackType": null
        }]
    }
}