{
    "AS_TextField_f847b669e34c4482a914f6ba17fc14d7": {
        "id": "AS_TextField_f847b669e34c4482a914f6ba17fc14d7",
        "type": "ACTION_SEQUENCE",
        "params": [{
            "datatype": "collection",
            "name": "eventobject"
        }, {
            "datatype": "string",
            "name": "changedtext"
        }],
        "language": "js",
        "actions": [{
            "id": "ADD_SNIPPET_ide_onTextChange_ec758bc0fd6149d38db4a38e5f8393a9",
            "type": "ADD_SNIPPET",
            "codeSnippet": "onTextChangeOTP(false);"
        }]
    }
}