{
    "AS_TextField_e3244cdda11440d58b74d7110a589278": {
        "id": "AS_TextField_e3244cdda11440d58b74d7110a589278",
        "type": "ACTION_SEQUENCE",
        "params": [{
            "datatype": "collection",
            "name": "eventobject"
        }, {
            "datatype": "string",
            "name": "changedtext"
        }],
        "contextObj": {
            "name": "frmEditPayeeKA",
            "type": "forms",
            "platform": "",
            "KUID": "acf9bb71b94d4dc3ac913d05db7ddee3"
        },
        "language": "js",
        "actions": [{
            "id": "ADD_SNIPPET__h55e007b86e7497387a266a9d85c01c0",
            "type": "ADD_SNIPPET",
            "codeSnippet": "frmEditPayeeKA.txtBillerName.text = frmEditPayeeKA.txtBillerName.text.trim();\nif (frmEditPayeeKA.txtBillerName.text !== null && frmEditPayeeKA.txtBillerName.text !== \"\") {\n  frmEditPayeeKA.lblUnderline.skin = \"sknFlxGreenLine\";\n} else {\n  frmEditPayeeKA.lblUnderline.skin = \"sknFlxOrangeLine\";\n}",
            "parentId": null,
            "callbackType": null
        }]
    }
}