{
    "AS_TextField_b57335955b5a47fc85b052226f26adff": {
        "id": "AS_TextField_b57335955b5a47fc85b052226f26adff",
        "type": "ACTION_SEQUENCE",
        "name": "AS_TextField_OnTextChangeIBANBeneName",
        "params": [{
            "datatype": "collection",
            "name": "eventobject"
        }, {
            "datatype": "string",
            "name": "changedtext"
        }],
        "contextObj": {
            "name": "frmEPS",
            "type": "forms",
            "platform": "",
            "KUID": "c49bbb3175be499d86d933cee301b3c4"
        },
        "language": "js",
        "actions": [{
            "id": "ADD_SNIPPET__i4255d317e5848c19a1eb5c17f61a6e5",
            "type": "ADD_SNIPPET",
            "codeSnippet": "validateLblNext();",
            "parentId": null,
            "callbackType": null
        }]
    }
}