{
    "AS_TextField_hc786c9aadb542338dee53528d5c8bf7": {
        "id": "AS_TextField_hc786c9aadb542338dee53528d5c8bf7",
        "type": "ACTION_SEQUENCE",
        "params": [{
            "datatype": "collection",
            "name": "eventobject"
        }, {
            "datatype": "string",
            "name": "changedtext"
        }],
        "language": "js",
        "actions": [{
            "id": "ADD_SNIPPET_ide_onDone_i8f80181ac584409b0ebdd74afbb57e3",
            "type": "ADD_SNIPPET",
            "codeSnippet": "validateLblNext();",
            "callbackType": null
        }]
    }
}