{
    "AS_TextField_a12f15d09b1f4411ab64809e7c3379ce": {
        "id": "AS_TextField_a12f15d09b1f4411ab64809e7c3379ce",
        "type": "ACTION_SEQUENCE",
        "params": [{
            "datatype": "collection",
            "name": "eventobject"
        }, {
            "datatype": "string",
            "name": "changedtext"
        }],
        "contextObj": {
            "type": "forms",
            "platform": "",
            "KUID": "3ef26f9acd5b475cb1fdad0f87db5781"
        },
        "language": "js",
        "actions": [{
            "id": "ADD_SNIPPET__afc607b7620647439e39ba2fbc5080ed",
            "type": "ADD_SNIPPET",
            "codeSnippet": "onDoneAmountEntered();",
            "parentId": null,
            "callbackType": null
        }]
    }
}