{
    "AS_TextField_d25fa37340e644698f2b589bec6dc52a": {
        "id": "AS_TextField_d25fa37340e644698f2b589bec6dc52a",
        "type": "ACTION_SEQUENCE",
        "name": "AS_TextField_onEndEditing",
        "params": [{
            "datatype": "collection",
            "name": "eventobject"
        }, {
            "datatype": "string",
            "name": "changedtext"
        }],
        "language": "js",
        "actions": [{
            "id": "ADD_SNIPPET_ide_onEndEditing_f62c1c1ce91e4f02824ffcd599fc55d1",
            "type": "ADD_SNIPPET",
            "codeSnippet": "animateLabel(\"DOWN\",\"lblAddNickName\",frmEditAccountSettings.txtAddNickName.text);",
            "callbackType": null
        }]
    }
}