{
    "AS_TextField_b3996fe6ba2b424d925c542af97cb61e": {
        "id": "AS_TextField_b3996fe6ba2b424d925c542af97cb61e",
        "type": "ACTION_SEQUENCE",
        "params": [{
            "datatype": "collection",
            "name": "eventobject"
        }, {
            "datatype": "string",
            "name": "changedtext"
        }],
        "contextObj": {
            "name": "frmEstatementLandingKA",
            "type": "forms",
            "platform": "",
            "KUID": "d1dcb94f4a054dda97d66cbdc216d96a"
        },
        "language": "js",
        "actions": [{
            "id": "ADD_SNIPPET__g4a6782f5ad24de6baffc50dc9465b2f",
            "type": "ADD_SNIPPET",
            "codeSnippet": "try{\n  frmEstatementLandingKA.borderBottom2.skin=\"skntextFieldDividerBlue\";\n}catch(err){\n  kony.print( \"err in pwd::\"+err);\n}",
            "parentId": null,
            "callbackType": null
        }]
    }
}