{
    "AS_TextField_i97ee0fd2f6743eeb32656f36f78a519": {
        "id": "AS_TextField_i97ee0fd2f6743eeb32656f36f78a519",
        "type": "ACTION_SEQUENCE",
        "params": [{
            "datatype": "collection",
            "name": "eventobject"
        }, {
            "datatype": "string",
            "name": "changedtext"
        }],
        "language": "js",
        "actions": [{
            "id": "ADD_SNIPPET_ide_onEndEditing_c923b7f158684e2da63081c5a03ae84f",
            "type": "ADD_SNIPPET",
            "codeSnippet": "// animateLabel(\"DOWN\",\"lblBeneficiaryStaticText\",frmJoMoPay.txtPhoneNo.text);\nanimate_NEWCARDSOPTIOS(\"DOWN\",\"lblBeneficiaryStaticText\",frmJoMoPay.txtPhoneNo.text);\nfrmJoMoPay.flxBorderBenificiary.skin=\"skntextFieldDividerGreen\";",
            "callbackType": null
        }]
    }
}