{
    "AS_TextField_e9c586fa1e6a477a92f66b9d7f4fb480": {
        "id": "AS_TextField_e9c586fa1e6a477a92f66b9d7f4fb480",
        "type": "ACTION_SEQUENCE",
        "params": [{
            "datatype": "collection",
            "name": "eventobject"
        }, {
            "datatype": "string",
            "name": "changedtext"
        }],
        "contextObj": {
            "name": "frmEstatementLandingKA",
            "type": "forms",
            "platform": "",
            "KUID": "d1dcb94f4a054dda97d66cbdc216d96a"
        },
        "language": "js",
        "actions": [{
            "id": "ADD_SNIPPET__b998ff8befd640eab33f0463d72a3f70",
            "type": "ADD_SNIPPET",
            "codeSnippet": "try{\n  frmEstatementLandingKA.txtEmail2.text=frmEstatementLandingKA.txtEmail2.text.trim();\n  if(frmEstatementLandingKA.txtEmail2.text!==null && frmEstatementLandingKA.txtEmail2.text!==\"\" && isValidEmaill(frmEstatementLandingKA.txtEmail2.text))\n  {\n    frmEstatementLandingKA.borderBottom2.skin=\"skntextFieldDividerGreen\";\n    frmEstatementLandingKA.lblInvalidEmail2.setVisibility(false);\n\n  }\n  else\n  {\n    frmEstatementLandingKA.borderBottom2.skin=\"skntextFieldDivider\";\n    frmEstatementLandingKA.lblInvalidEmail2.text=geti18Value(\"i18n.Estmt.invalidEmail\");\n    frmEstatementLandingKA.lblInvalidEmail2.setVisibility(true);\n\n  }\n  frmEstatementLandingKA.btn.setFocus(true);\n}catch(err){\n  kony.print( \"err in pwd::\"+err);\n  frmEstatementLandingKA.btn.setFocus(true);\n}",
            "parentId": null,
            "callbackType": null
        }]
    }
}