{
    "AS_TextField_b534c7deef744bc1bbcac36b27711bf1": {
        "id": "AS_TextField_b534c7deef744bc1bbcac36b27711bf1",
        "type": "ACTION_SEQUENCE",
        "params": [{
            "datatype": "collection",
            "name": "eventobject"
        }, {
            "datatype": "string",
            "name": "changedtext"
        }],
        "language": "js",
        "actions": [{
            "id": "ADD_SNIPPET_ide_onEndEditing_abe778e3f39342c0a2f8cbf4fb677514",
            "type": "ADD_SNIPPET",
            "codeSnippet": "animateLabel(\"DOWN\", \"lblPassword\",frmCardlessTransaction.tbxPassword.text);",
            "callbackType": null
        }]
    }
}