{
    "AS_TextField_ab7969a1ba47470c83b2dc29cd982d32": {
        "id": "AS_TextField_ab7969a1ba47470c83b2dc29cd982d32",
        "type": "ACTION_SEQUENCE",
        "params": [{
            "datatype": "collection",
            "name": "eventobject"
        }, {
            "datatype": "string",
            "name": "changedtext"
        }],
        "language": "js",
        "actions": [{
            "id": "ADD_SNIPPET_ide_onDone_a15afc4f43e94b2da24ac58939cc917f",
            "type": "ADD_SNIPPET",
            "codeSnippet": "try {\n  animateLabel(\"UP\",\"lblEmail1\",frmUserSettingsSIRILIMIT.txtEmail1.text);\n  var currency = getDefaultTransferCurr();\n  kony.print(\"currency\"+currency );\n  if(kony.string.equalsIgnoreCase(currency,\"JOD\") || kony.string.equalsIgnoreCase(currency,\"BHD\")){\n    limit =3;\n  }  else{\n    limit = 2;\n  }\n\n  var value = fixDecimal(frmUserSettingsSIRILIMIT.txtEmail1.text,limit);\n  if (value.indexOf(\".\") == -1 && value.length >5){\n    frmUserSettingsSIRILIMIT.txtEmail1.text  = value.substring(0, 5);\n  }else{\n    frmUserSettingsSIRILIMIT.txtEmail1.text  = value;\n  }\n\n} catch (err) {\n  kony.print(\"err in pwd::\" + err);\n}",
            "callbackType": null
        }]
    }
}