{
    "AS_TextArea_412c55e92aa94cf5b32ad55612e98f5b": {
        "id": "AS_TextArea_412c55e92aa94cf5b32ad55612e98f5b",
        "type": "ACTION_SEQUENCE",
        "params": [{
            "datatype": "collection",
            "name": "eventobject"
        }],
        "contextObj": {
            "type": "forms",
            "platform": "",
            "KUID": "595170e0ad324e3699d120dae6f9e312"
        },
        "language": "js",
        "actions": [{
            "id": "ADD_SNIPPET__cdba30c0942f49a9b56bbae034d15ed1",
            "type": "ADD_SNIPPET",
            "codeSnippet": "kony.print(\"Deleted\");",
            "parentId": null,
            "callbackType": null
        }]
    }
}