{
    "AS_TextField_ea78439fbfd542a28e95b59b1527a967": {
        "id": "AS_TextField_ea78439fbfd542a28e95b59b1527a967",
        "type": "ACTION_SEQUENCE",
        "params": [{
            "datatype": "collection",
            "name": "eventobject"
        }, {
            "datatype": "string",
            "name": "changedtext"
        }],
        "contextObj": {
            "name": "frmLoginKA",
            "type": "forms",
            "platform": "",
            "KUID": "7b1aa8fceb6b4070833e9eab879b0e5e"
        },
        "language": "js",
        "actions": [{
            "id": "ADD_SNIPPET__acc41f81c010485b92829f185d2904f8",
            "type": "ADD_SNIPPET",
            "codeSnippet": "try{\n  //animateLabel(\"DOWN\",\"lblUserName\",frmLoginKA.tbxusernameTextField.text);\n  //animateLabel(\"UP\",\"lblPassword\",frmLoginKA.passwordTextField.text);\n\n  frmLoginKA.tbxusernameTextField.text=frmLoginKA.tbxusernameTextField.text.trim();\n  if(frmLoginKA.tbxusernameTextField.text!==null&&frmLoginKA.tbxusernameTextField.text!==\"\")\n  {\n    frmLoginKA.borderBottom.skin=\"skntextFieldDividerGreen\";\n  }\n  else\n  {\n    frmLoginKA.borderBottom.skin=\"skntextFieldDivider\";\n  }\n  loginKeyboardInactive();\n}catch(err){\n  kony.print( \"err in pwd::\"+err);\n}",
            "parentId": null
        }]
    }
}