{
    "AS_TextField_d89b9bc0ea7842c78f82648c3880e596": {
        "id": "AS_TextField_d89b9bc0ea7842c78f82648c3880e596",
        "type": "ACTION_SEQUENCE",
        "name": "AS_TextField_onBeginEditingDepositeAmountAndroid",
        "params": [{
            "datatype": "collection",
            "name": "eventobject"
        }, {
            "datatype": "string",
            "name": "changedtext"
        }],
        "contextObj": {
            "name": "frmOpenTermDeposit",
            "type": "forms",
            "platform": "",
            "KUID": "fec6fddbcf8543f2b30114c87e1a7e99"
        },
        "language": "js",
        "actions": [{
            "id": "ADD_SNIPPET__c576091f7bc54c01be2bc0f71dd97df5",
            "type": "ADD_SNIPPET",
            "codeSnippet": "animate_NEWCARDSOPTIOS(\"UP\",\"lblDepositAmountTitle\",frmOpenTermDeposit.txtDepositAmount.text);",
            "parentId": null,
            "callbackType": null
        }]
    }
}