{
    "AS_Label_gb1a2f5c5cf441a8bfbb50dca315092f": {
        "id": "AS_Label_gb1a2f5c5cf441a8bfbb50dca315092f",
        "type": "ACTION_SEQUENCE",
        "name": "asonclickaccountoptionsdetailstabsviewr",
        "params": [{
            "datatype": "collection",
            "name": "eventobject"
        }, {
            "datatype": "string",
            "name": "x"
        }, {
            "datatype": "string",
            "name": "y"
        }],
        "language": "js",
        "actions": [{
            "id": "ADD_SNIPPET_ide_onTouchEnd_fa368ba64a7a4fe3af95199d90b6a9fb",
            "type": "ADD_SNIPPET",
            "codeSnippet": "frmAccountDetailKA.lblListView.skin = \"lblListOff\"; \nfrmAccountDetailKA.imgIndicator.setVisibility(false);\n\n\nfrmAccountDetailKA.lblAccountOptions.skin = \"lblFontSettIconsFont2oN\";\nfrmAccountDetailKA.imgDivSett.setVisibility(true);\nfrmAccountDetailKA.flxOrderCheckBook.setVisibility(false);\nif(kony.retailBanking.globalData.accountsDashboardData.accountsData[parseInt(customerAccountDetails.currentIndex)].accountType === \"C\" &&\n   kony.retailBanking.globalData.accountsDashboardData.accountsData[parseInt(customerAccountDetails.currentIndex)].producttype !== \"303\"){\n  frmAccountDetailKA.flxOrderCheckBook.setVisibility(true);\n}\nfrmAccountDetailKA.flxAccountOptions.setVisibility(true);\nfrmAccountDetailKA.flxSegmentWrapper.setVisibility(false);\nfrmAccountDetailKA.flxAccountOptions.setVisibility(true);\nfrmAccountDetailKA.forceLayout();\n",
            "callbackType": null
        }]
    }
}