{
    "AS_FlexContainer_j6e230313d3344d8917bcf33ee0d9bfb": {
        "id": "AS_FlexContainer_j6e230313d3344d8917bcf33ee0d9bfb",
        "type": "ACTION_SEQUENCE",
        "name": "BackOnNewBillDetails",
        "params": [{
            "datatype": "collection",
            "name": "eventobject"
        }],
        "contextObj": {
            "name": "frmNewBillDetails",
            "type": "forms",
            "platform": null,
            "KUID": "c2132c3b91ec4677ab952b729de9fc0e"
        },
        "language": "js",
        "actions": [{
            "id": "ADD_SNIPPET_ide_onClick_a9e9d5ef848f456ea6b78d1fd42d2dc9",
            "type": "ADD_SNIPPET",
            "codeSnippet": "back_NEWBILLS();\n// customAlertPopup(geti18Value(\"i18n.cards.Confirmation\"), \n//                    geti18Value(\"i18n.Bene.backFromBeneError\"),\n//                    onClickYesClose, onClickNoClose, \n//                  geti18Value(\"i18n.common.YES\"),\n//                  geti18Value(\"i18n.common.NO\"));\n\n// function onClickYesClose(){\n//   frmNewBillKA.show();\n//   clearNewDetailsScreen();\n//   popupCommonAlertDimiss();\n// }\n\n// function onClickNoClose(){\n//   popupCommonAlertDimiss();\n// }",
            "callbackType": null
        }]
    }
}