{
    "AS_Label_a1928eebf22847b9bbcce0ec29acd050": {
        "id": "AS_Label_a1928eebf22847b9bbcce0ec29acd050",
        "type": "ACTION_SEQUENCE",
        "name": "backToaccountDashboardfromAccountDetailDeals",
        "params": [{
            "datatype": "collection",
            "name": "eventobject"
        }, {
            "datatype": "string",
            "name": "x"
        }, {
            "datatype": "string",
            "name": "y"
        }],
        "contextObj": {
            "name": "frmAccountDetailKA",
            "type": "forms",
            "platform": "",
            "KUID": "5ed703cad63c441882fc4a36f5ea0c28"
        },
        "language": "js",
        "actions": [{
            "id": "ADD_SNIPPET__h56fee0e1da34017a49564331529fb7a",
            "type": "ADD_SNIPPET",
            "codeSnippet": "dealsAnimation();\nfrmAccountsLandingKA.show();",
            "parentId": null,
            "callbackType": null
        }]
    }
}