{
    "AS_AppEvents_b70e24eaba84433d9d1808d9ee81b773": {
        "id": "AS_AppEvents_b70e24eaba84433d9d1808d9ee81b773",
        "type": "ACTION_SEQUENCE",
        "name": "BOJPreAppInitAction",
        "params": [{
            "datatype": "collection",
            "name": "eventobject"
        }],
        "language": "js",
        "actions": [{
            "id": "ADD_SNIPPET__ff53ffd715cc44629b2dc80436dcf510",
            "type": "ADD_SNIPPET",
            "codeSnippet": "//Added on 05-07-2019, removed old function call and added code\nkony.print(\"Inside of BOJPreAppInitAction :: \");\n//fetchApplicationProperties();\n\nvar callbacksObj = {\n  onactive: onactiveCallback,\n  oninactive: oninactiveCallback,\n  onbackground: onbackgroundCallback,\n  onforeground: onforegroundCallback\n};\nkony.application.setApplicationCallbacks(callbacksObj);\nkony.application.setApplicationCallbacks({onwatchrequest:watchCallback});\n",
            "parentId": null,
            "callbackType": null
        }]
    }
}