{
    "AS_Button_2b6802318f874b53abd83abdb115149a": {
        "id": "AS_Button_2b6802318f874b53abd83abdb115149a",
        "type": "ACTION_SEQUENCE",
        "name": "btn3_frmLoginKA",
        "params": [{
            "datatype": "collection",
            "name": "eventobject"
        }],
        "contextObj": {
            "name": "frmLoginKA",
            "type": "forms",
            "platform": "",
            "KUID": "7b1aa8fceb6b4070833e9eab879b0e5e"
        },
        "language": "js",
        "actions": [{
            "id": "ADD_SNIPPET__8ae9fae41ed343eab093b6c49be3d083",
            "type": "ADD_SNIPPET",
            "codeSnippet": "check_Login_Pin(3);",
            "parentId": null,
            "callbackType": null
        }]
    }
}