{
    "AS_Button_e1cc8824bb3c4400878a97763ea0832a": {
        "id": "AS_Button_e1cc8824bb3c4400878a97763ea0832a",
        "type": "ACTION_SEQUENCE",
        "name": "btnEnrollOnClick",
        "params": [{
            "datatype": "collection",
            "name": "eventobject"
        }],
        "language": "js",
        "actions": [{
            "id": "ADD_SNIPPET__bcb02844d42a4cbe817120cc04eb0a0a",
            "type": "ADD_SNIPPET",
            "codeSnippet": "isAlternateLoginEnabled(\"P\");",
            "parentId": null,
            "callbackType": null
        }]
    }
}