{
    "AS_Button_9ff39542cc8549fe8b6a54a3dd27c45d": {
        "id": "AS_Button_9ff39542cc8549fe8b6a54a3dd27c45d",
        "type": "ACTION_SEQUENCE",
        "name": "btnSubmitSettingsUsername",
        "params": [{
            "datatype": "collection",
            "name": "eventobject"
        }],
        "contextObj": {
            "type": "forms",
            "platform": "",
            "KUID": "e7bc6db3364a42289149a87eda940604"
        },
        "language": "js",
        "actions": [{
            "id": "ADD_SNIPPET__9cb6066135a94a2e9cfc95823d193f71",
            "type": "ADD_SNIPPET",
            "codeSnippet": "kony.print(\"Deleted\");",
            "parentId": null,
            "callbackType": null
        }]
    }
}