{
    "AS_FlexContainer_df0ac5b7810d4183862e6b79a2d4fbc4": {
        "id": "AS_FlexContainer_df0ac5b7810d4183862e6b79a2d4fbc4",
        "type": "ACTION_SEQUENCE",
        "name": "callBOJCustomerCare",
        "params": [{
            "datatype": "collection",
            "name": "eventobject"
        }],
        "contextObj": {
            "name": "frmInformationKA",
            "type": "forms",
            "platform": "",
            "KUID": "f18169832ba24ba09c8780278abfc207"
        },
        "language": "js",
        "actions": [{
            "id": "ADD_SNIPPET__d1e055b1347146fcaf5d16f0d64ab4f8",
            "type": "ADD_SNIPPET",
            "codeSnippet": "callBOJ();",
            "parentId": null,
            "callbackType": null
        }]
    }
}