{
    "AS_Form_b63d28f27b8a48e6b1d1a639991f4c35": {
        "id": "AS_Form_b63d28f27b8a48e6b1d1a639991f4c35",
        "type": "ACTION_SEQUENCE",
        "name": "DevBackFrmBills",
        "params": [{
            "datatype": "collection",
            "name": "eventobject"
        }],
        "contextObj": {
            "name": "frmBills",
            "type": "forms",
            "platform": "",
            "KUID": "ade6df6ecf3c4acba302ea54bc0a2e56"
        },
        "language": "js",
        "actions": [{
            "id": "ADD_SNIPPET__i806c26bfa2e48edad49899141e69bc0",
            "type": "ADD_SNIPPET",
            "codeSnippet": "frmPayeeDetailsKA.show();",
            "parentId": null,
            "callbackType": null
        }]
    }
}