{
    "AS_FlexContainer_jb28c050cc2740d58d6b0f06aa21f286": {
        "id": "AS_FlexContainer_jb28c050cc2740d58d6b0f06aa21f286",
        "type": "ACTION_SEQUENCE",
        "name": "DisableFeatireQB",
        "params": [{
            "datatype": "collection",
            "name": "eventobject"
        }],
        "contextObj": {
            "name": "frmLoginKA",
            "type": "forms",
            "platform": "",
            "KUID": "7b1aa8fceb6b4070833e9eab879b0e5e"
        },
        "language": "js",
        "actions": [{
            "id": "ADD_SNIPPET__ha21075798a04409be7c7849bc8b3e10",
            "type": "ADD_SNIPPET",
            "codeSnippet": "DiableQBPLFeature();",
            "parentId": null,
            "callbackType": null
        }]
    }
}