{
    "AS_Button_4b3ee9c658354600a5eb36eb7b1a1553": {
        "id": "AS_Button_4b3ee9c658354600a5eb36eb7b1a1553",
        "type": "ACTION_SEQUENCE",
        "name": "enterPersonalDetailsProceed",
        "params": [{
            "datatype": "collection",
            "name": "eventobject"
        }],
        "contextObj": {
            "name": "frmEnterPersonalDetailsKA",
            "type": "forms",
            "platform": null,
            "KUID": "0cbef5cf059f4b04b869b2345da27f26"
        },
        "language": "js",
        "actions": [{
            "id": "ADD_SNIPPET__5d4bae26d7fe43198cf2f88445ac824c",
            "type": "ADD_SNIPPET",
            "codeSnippet": "PersonalDetailsOnClick();",
            "parentId": null,
            "callbackType": null
        }]
    }
}