{
    "AS_Form_h4a72ae8ec0c49f4a7ad4909a08d695b": {
        "id": "AS_Form_h4a72ae8ec0c49f4a7ad4909a08d695b",
        "type": "ACTION_SEQUENCE",
        "name": "frmBillerListFormPal_preShow",
        "params": [{
            "datatype": "collection",
            "name": "eventobject"
        }],
        "contextObj": {
            "name": "frmBillerListFormPal",
            "type": "forms",
            "platform": "",
            "KUID": "f7ed127bee9149d699518eb0d3efb536"
        },
        "language": "js",
        "actions": [{
            "id": "ADD_SNIPPET__ee4542ffbcea469299c6959ca030d862",
            "type": "ADD_SNIPPET",
            "codeSnippet": "frmBillerListFormPal.tbxSearch.text = \"\";",
            "parentId": null,
            "callbackType": null
        }]
    }
}