{
    "AS_FlexContainer_a8283ac7a61f40249bca5dc4c1000c06": {
        "id": "AS_FlexContainer_a8283ac7a61f40249bca5dc4c1000c06",
        "type": "ACTION_SEQUENCE",
        "name": "frmConfirmPayBillPal_btnBack_onClick",
        "params": [{
            "datatype": "collection",
            "name": "eventobject"
        }],
        "contextObj": {
            "type": "forms",
            "platform": "",
            "KUID": "a59e2a0bf71c46b6817be5c664e14a0d"
        },
        "language": "js",
        "actions": [{
            "id": "ADD_SNIPPET__if24c2a4c39145d19f551d10d245a3d4",
            "type": "ADD_SNIPPET",
            "codeSnippet": "// if(fromEdit){\n//   show edit screen\n// }else if (fromAddNewBill || fromPayOtherBills){\n  frmPalpayBillInformation.show();\n// }",
            "parentId": null,
            "callbackType": null
        }]
    }
}