{
    "AS_Button_8adc168be0d74413a10901ecc852b113": {
        "id": "AS_Button_8adc168be0d74413a10901ecc852b113",
        "type": "ACTION_SEQUENCE",
        "name": "frmDeviceRegSuccess_noThanks",
        "params": [{
            "datatype": "collection",
            "name": "eventobject"
        }],
        "language": "js",
        "actions": [{
            "id": "ADD_SNIPPET__ee908903907c4a5fa8dc46fd2ec329dd",
            "type": "ADD_SNIPPET",
            "codeSnippet": "if(defaultPage == \"frmAccountsLandingKA\")\n{\n  var adsPC = applicationManager.getAdsPresentationController();\n  adsPC.ShowPostLoginAdvertisementform(); \n}\nelse\n{\n  showFormOrderList();\n}",
            "parentId": null,
            "callbackType": null
        }]
    }
}