{
    "AS_Form_i292849c65b243f6a349cd8c25b8e8d4": {
        "id": "AS_Form_i292849c65b243f6a349cd8c25b8e8d4",
        "type": "ACTION_SEQUENCE",
        "name": "frmManagePayeePal_onDeviceBack_And",
        "params": [{
            "datatype": "collection",
            "name": "eventobject"
        }],
        "contextObj": {
            "name": "frmPalpayHome",
            "type": "forms",
            "platform": "",
            "KUID": "b6f7ffc24d504a0c8c3f0516afca9e87"
        },
        "language": "js",
        "actions": [{
            "id": "ADD_SNIPPET__f4be35e27f704500a67154108683ba82",
            "type": "ADD_SNIPPET",
            "codeSnippet": "frmPaymentDashboard.show();",
            "parentId": null,
            "callbackType": null
        }]
    }
}