{
    "AS_TextField_hc52f904d1164b2fb79e8ac2e10c3274": {
        "id": "AS_TextField_hc52f904d1164b2fb79e8ac2e10c3274",
        "type": "ACTION_SEQUENCE",
        "name": "frmNewBillPal_tbxBillerNumber_onBeginEditing_IOS",
        "params": [{
            "datatype": "collection",
            "name": "eventobject"
        }, {
            "datatype": "string",
            "name": "changedtext"
        }],
        "contextObj": {
            "name": "frmPalpayBillInformation",
            "type": "forms",
            "platform": "",
            "KUID": "e22e028272e9470bb4d04f1c672b7496"
        },
        "language": "js",
        "actions": [{
            "id": "ADD_SNIPPET__c801ed9d26584155a08620ba9b4c2059",
            "type": "ADD_SNIPPET",
            "codeSnippet": "animateLabel(\"UP\",\"lblBillerNumber\",frmPalpayBillInformation.tbxBillerNumber.text);",
            "parentId": null,
            "callbackType": null
        }]
    }
}