{
    "AS_TextField_e6c57ac540c84a0388eac7b2f83b0e29": {
        "id": "AS_TextField_e6c57ac540c84a0388eac7b2f83b0e29",
        "type": "ACTION_SEQUENCE",
        "name": "frmNewBillPal_tbxNickName_onBeginEditing_IOS",
        "params": [{
            "datatype": "collection",
            "name": "eventobject"
        }, {
            "datatype": "string",
            "name": "changedtext"
        }],
        "contextObj": {
            "name": "frmPalpayBillInformation",
            "type": "forms",
            "platform": "",
            "KUID": "e22e028272e9470bb4d04f1c672b7496"
        },
        "language": "js",
        "actions": [{
            "id": "ADD_SNIPPET__h12a01324e564ab5985f4c72e2b3553b",
            "type": "ADD_SNIPPET",
            "codeSnippet": "animateLabel(\"UP\",\"blNickName\",frmPalpayBillInformation.tbxNickName);",
            "parentId": null,
            "callbackType": null
        }]
    }
}