{
    "AS_TextField_dff05d86739e4ccaba0a20f87b39b6e2": {
        "id": "AS_TextField_dff05d86739e4ccaba0a20f87b39b6e2",
        "type": "ACTION_SEQUENCE",
        "name": "frmNewBillPal_tbxAmount_onTextChange",
        "params": [{
            "datatype": "collection",
            "name": "eventobject"
        }, {
            "datatype": "string",
            "name": "changedtext"
        }],
        "contextObj": {
            "name": "frmPalpayBillInformation",
            "type": "forms",
            "platform": "",
            "KUID": "e22e028272e9470bb4d04f1c672b7496"
        },
        "language": "js",
        "actions": [{
            "id": "ADD_SNIPPET__ie1843eaecb54145a9f59d3ca4de9137",
            "type": "ADD_SNIPPET",
            "codeSnippet": "if(!isEmpty(frmPalpayBillInformation.tbxAmount.text)){\n  frmPalpayBillInformation.lblAmountNote.setVisibility(true);\n  gblVendorDetails.totalamount = frmPalpayBillInformation.tbxAmount.text;\n}else{\n  frmPalpayBillInformation.lblAmountNote.setVisibility(false);\n  frmPalpayBillInformation.flxConversionAmtBillDetailsPre.setVisibility(false);\n  gblVendorDetails.totalamount = frmPalpayBillInformation.lblDenomination.text;\n}\n//fetchBillsCommissions();",
            "parentId": null,
            "callbackType": null
        }]
    }
}