{
    "AS_TextField_aede424c32084eca8305d1d39bcade3f": {
        "id": "AS_TextField_aede424c32084eca8305d1d39bcade3f",
        "type": "ACTION_SEQUENCE",
        "name": "frmNewBillPal_tbxAmountBillDetails_onBeginEditing_And",
        "params": [{
            "datatype": "collection",
            "name": "eventobject"
        }, {
            "datatype": "string",
            "name": "changedtext"
        }],
        "contextObj": {
            "name": "frmPalpayBillInformation",
            "type": "forms",
            "platform": "",
            "KUID": "e22e028272e9470bb4d04f1c672b7496"
        },
        "language": "js",
        "actions": [{
            "id": "ADD_SNIPPET__db3888a905ce4dd8b42bc8ad49f17f58",
            "type": "ADD_SNIPPET",
            "codeSnippet": "animateLabel(\"UP\",\"lblAmountBillDetails\",frmPalpayBillInformation.tbxAmountBillDetails.text);",
            "parentId": null,
            "callbackType": null
        }]
    }
}