{
    "AS_TextField_d3a4c169f50f46a3b0af0fc9d2fa2f01": {
        "id": "AS_TextField_d3a4c169f50f46a3b0af0fc9d2fa2f01",
        "type": "ACTION_SEQUENCE",
        "name": "frmNewBillPal_tbxAmount_onEndEditing_IOS",
        "params": [{
            "datatype": "collection",
            "name": "eventobject"
        }, {
            "datatype": "string",
            "name": "changedtext"
        }],
        "contextObj": {
            "name": "frmPalpayBillInformation",
            "type": "forms",
            "platform": "",
            "KUID": "e22e028272e9470bb4d04f1c672b7496"
        },
        "language": "js",
        "actions": [{
            "id": "ADD_SNIPPET__h7ed980e4bcd4042b84a696fd51c1bb2",
            "type": "ADD_SNIPPET",
            "codeSnippet": "if(isEmpty(frmPalpayBillInformation.tbxAmount.text)){\n  animateLabel(\"DOWN\", \"lblAmount\", \"\");\n  frmPalpayBillInformation.flxUnderlineAmount.skin = \"sknFlxOrangeLine\";\n}else{\n  frmPalpayBillInformation.flxUnderlineAmount.skin = \"sknFlxGreenLine\";\n}\nfieldsValidation();",
            "parentId": null,
            "callbackType": null
        }]
    }
}