{
    "AS_FlexContainer_a34ee4f91bd146bba3c45d681491d7a3": {
        "id": "AS_FlexContainer_a34ee4f91bd146bba3c45d681491d7a3",
        "type": "ACTION_SEQUENCE",
        "name": "frmNewBillPal_flxBillerCategoryHolder_onClick",
        "params": [{
            "datatype": "collection",
            "name": "eventobject"
        }],
        "contextObj": {
            "name": "frmPalpayBillInformation",
            "type": "forms",
            "platform": "",
            "KUID": "e22e028272e9470bb4d04f1c672b7496"
        },
        "language": "js",
        "actions": [{
            "id": "ADD_SNIPPET__h154f437a83f40d1ac5d321ff710f3af",
            "type": "ADD_SNIPPET",
            "codeSnippet": "fetchBillsPal();",
            "parentId": null,
            "callbackType": null
        }]
    }
}