{
    "AS_TextField_aaeb7a0bf564402dbca1d154c572db63": {
        "id": "AS_TextField_aaeb7a0bf564402dbca1d154c572db63",
        "type": "ACTION_SEQUENCE",
        "name": "frmNewBillPal_tbxBillerNumber_onDone",
        "params": [{
            "datatype": "collection",
            "name": "eventobject"
        }, {
            "datatype": "string",
            "name": "changedtext"
        }],
        "contextObj": {
            "name": "frmPalpayBillInformation",
            "type": "forms",
            "platform": "",
            "KUID": "e22e028272e9470bb4d04f1c672b7496"
        },
        "language": "js",
        "actions": [{
            "id": "ADD_SNIPPET__f45773adb59a4d999b9225a628047987",
            "type": "ADD_SNIPPET",
            "codeSnippet": "if(isEmpty(frmPalpayBillInformation.tbxBillerNumber.text)){\n  frmPalpayBillInformation.flxUnderlineBillerNumber.skin = \"sknFlxOrangeLine\";\n}else{\n  frmPalpayBillInformation.flxUnderlineBillerNumber.skin = \"sknFlxGreenLine\";\n}\nfieldsValidation();",
            "parentId": null,
            "callbackType": null
        }]
    }
}