{
    "AS_Button_ae0f9133ac4a44e7a852959a8e5800dc": {
        "id": "AS_Button_ae0f9133ac4a44e7a852959a8e5800dc",
        "type": "ACTION_SEQUENCE",
        "name": "frmPayBillHomePal_addBillbtn_onClick",
        "params": [{
            "datatype": "collection",
            "name": "eventobject"
        }],
        "contextObj": {
            "name": "frmPayBillHomePal",
            "type": "forms",
            "platform": "",
            "KUID": "bf694c30662c4209b9b7db3200a090c4"
        },
        "language": "js",
        "actions": [{
            "id": "ADD_SNIPPET__g50b0bbe55114c9bbe6b9e82058c3295",
            "type": "ADD_SNIPPET",
            "codeSnippet": "gblFlow = \"PayPalAddFlow\";\naddBillFlow();\nfrmPalpayBillInformation.show();",
            "parentId": null,
            "callbackType": null
        }]
    }
}