{
    "AS_FlexContainer_bef50443c4b6467bbf7acaa917cda756": {
        "id": "AS_FlexContainer_bef50443c4b6467bbf7acaa917cda756",
        "type": "ACTION_SEQUENCE",
        "name": "frmPalpayBillInformation_backButtonContainerOTPOnQuery_onClick",
        "params": [{
            "datatype": "collection",
            "name": "eventobject"
        }],
        "language": "js",
        "actions": [{
            "id": "ADD_SNIPPET_ide_onClick_de1d9bafc9cd497da7321db393c7ff31",
            "type": "ADD_SNIPPET",
            "codeSnippet": "frmPalpayBillInformation.mainInputContainer.setVisibility(true);\nfrmPalpayBillInformation.mainOTPOnQuery.setVisibility(false);",
            "callbackType": null
        }]
    }
}