{
    "AS_TextField_ba959f1e52564bbb885b9fe80cab94ad": {
        "id": "AS_TextField_ba959f1e52564bbb885b9fe80cab94ad",
        "type": "ACTION_SEQUENCE",
        "name": "frmPalpayBillInformation_tbxAmountBillDetails_onTextChange",
        "params": [{
            "datatype": "collection",
            "name": "eventobject"
        }, {
            "datatype": "string",
            "name": "changedtext"
        }],
        "contextObj": {
            "name": "frmPalpayBillInformation",
            "type": "forms",
            "platform": "",
            "KUID": "e22e028272e9470bb4d04f1c672b7496"
        },
        "language": "js",
        "actions": [{
            "id": "ADD_SNIPPET__bbfb1826aa3540dc88d601e9ca2c67cc",
            "type": "ADD_SNIPPET",
            "codeSnippet": "gblVendorDetails.totalamount = frmPalpayBillInformation.tbxAmountBillDetails.text;\nif(!isEmpty(frmPalpayBillInformation.tbxAmountBillDetails)){\n  frmPalpayBillInformation.lblCurrencyAmt.setVisibility(true);\n}else{\n  frmPalpayBillInformation.lblCurrencyAmt.setVisibility(false);\n}",
            "parentId": null,
            "callbackType": null
        }]
    }
}