{
    "AS_Form_a0597fc5103f41ccae71cafc7e97afc7": {
        "id": "AS_Form_a0597fc5103f41ccae71cafc7e97afc7",
        "type": "ACTION_SEQUENCE",
        "name": "frmPinEntryStep2_preShow",
        "params": [{
            "datatype": "collection",
            "name": "eventobject"
        }],
        "contextObj": {
            "type": "forms",
            "platform": "",
            "KUID": "78ac9be9e6894bc09709d37253728ec4"
        },
        "language": "js",
        "actions": [{
            "id": "ADD_SNIPPET__5c8a5f508df245c9b363fcbab7ea7dd9",
            "type": "ADD_SNIPPET",
            "codeSnippet": "pinEntry2PreShow();",
            "parentId": null,
            "callbackType": null
        }]
    }
}