{
    "AS_Form_0df516c7d7ea4e5d9a093631d469e3ea": {
        "id": "AS_Form_0df516c7d7ea4e5d9a093631d469e3ea",
        "type": "ACTION_SEQUENCE",
        "name": "frmUserSettingsPasswordKAdeviceback",
        "params": [{
            "datatype": "collection",
            "name": "eventobject"
        }],
        "contextObj": {
            "type": "forms",
            "platform": "",
            "KUID": "9c08fa794eaf4f9abfb952f0487f97ac"
        },
        "language": "js",
        "actions": [{
            "id": "ADD_SNIPPET__924dccf77c874da080a15a58f5c93b15",
            "type": "ADD_SNIPPET",
            "codeSnippet": "kony.print(\"Device Back\");",
            "parentId": null,
            "callbackType": null
        }]
    }
}