{
    "AS_Button_43fbcd8830844f1bbebdc9c59e23a06f": {
        "id": "AS_Button_43fbcd8830844f1bbebdc9c59e23a06f",
        "type": "ACTION_SEQUENCE",
        "name": "gotofrmEditPayee",
        "params": [{
            "datatype": "collection",
            "name": "eventobject"
        }],
        "language": "js",
        "actions": [{
            "id": "ADD_SNIPPET__b7c73d5cda5349a7b2ac63592044d3e3",
            "type": "ADD_SNIPPET",
            "codeSnippet": "navigateToPayeeEdit();",
            "parentId": null,
            "callbackType": null
        }]
    }
}