{
    "AS_Form_bcfc048b07974938b46a8457b03339aa": {
        "id": "AS_Form_bcfc048b07974938b46a8457b03339aa",
        "type": "ACTION_SEQUENCE",
        "name": "initAccountDetailKA",
        "params": [{
            "datatype": "collection",
            "name": "eventobject"
        }],
        "contextObj": {
            "name": "frmAccountDetailKA",
            "type": "forms",
            "platform": "",
            "KUID": "5ed703cad63c441882fc4a36f5ea0c28"
        },
        "language": "js",
        "actions": [{
            "id": "ADD_SNIPPET__c9589933c12e4a139ae7fdb100d99033",
            "type": "ADD_SNIPPET",
            "codeSnippet": "// create_PageIndicator(frmAccountDetailKA, 50, 5);\nfrmAccountDetailKA.lblExport.setEnabled(true);\nfrmAccountDetailKA.CopylblFilter0f7770a92cff247.setEnabled(true);\ngesture_AccountAnimation();",
            "parentId": null,
            "callbackType": null
        }]
    }
}