{
    "AS_TextField_d7ae597713984b5eb36c253f1b8d4104": {
        "id": "AS_TextField_d7ae597713984b5eb36c253f1b8d4104",
        "type": "ACTION_SEQUENCE",
        "name": "jomopayonDonePhoneText",
        "params": [{
            "datatype": "collection",
            "name": "eventobject"
        }, {
            "datatype": "string",
            "name": "changedtext"
        }],
        "contextObj": {
            "name": "frmJoMoPay",
            "type": "forms",
            "platform": "",
            "KUID": "d41a38dfc97d4e0a8f3b1db96d6a1ca0"
        },
        "language": "js",
        "actions": [{
            "id": "ADD_SNIPPET_ide_onDone_aa382f6f9d334689b31c9e63349f8163",
            "type": "ADD_SNIPPET",
            "codeSnippet": "// animateLabel(\"DOWN\",\"lblBeneficiaryStaticText\",frmJoMoPay.txtPhoneNo.text);\nanimate_NEWCARDSOPTIOS(\"DOWN\",\"lblBeneficiaryStaticText\",frmJoMoPay.txtPhoneNo.text);\nfrmJoMoPay.flxBorderBenificiary.skin=\"skntextFieldDividerGreen\";",
            "callbackType": null
        }]
    }
}