{
    "AS_AppMenu_ee9788e07a994553a63e1833f76dcc63": {
        "id": "AS_AppMenu_ee9788e07a994553a63e1833f76dcc63",
        "type": "ACTION_SEQUENCE",
        "name": "loginiPhoneonBeginEditing",
        "params": [],
        "language": "js",
        "actions": [{
            "id": "NAVIGATE_TO_FORM___b37f331ea7e14d38935c0005c40fe4d2",
            "type": "NAVIGATE_TO_FORM",
            "formId": "frmAccountsLandingKA",
            "formKUID": "d62a2a0906c64d2281addc95893a6544",
            "mappings": {},
            "mappingsOrder": [],
            "parentId": "",
            "callbackType": null,
            "enableMappingEditor": true,
            "package": "",
            "navigationObj": "{\n    \"_meta_\": {\n        \"eventName\": \"\",\n        \"widgetId\": \"\"\n    }\n}",
            "isCustomInput": false
        }]
    }
}