{
    "AS_Button_e28e2e4de4964da89c434f2a785bda2c": {
        "id": "AS_Button_e28e2e4de4964da89c434f2a785bda2c",
        "type": "ACTION_SEQUENCE",
        "name": "onBackSetpin",
        "params": [{
            "datatype": "collection",
            "name": "eventobject"
        }],
        "contextObj": {
            "name": "frmSetUpPinSettings",
            "type": "forms",
            "platform": "",
            "KUID": "6ebea87c8b5546a49f1f308f1cf84489"
        },
        "language": "js",
        "actions": [{
            "id": "ADD_SNIPPET__b0e59407eff74e3e8e2825bd354de0d9",
            "type": "ADD_SNIPPET",
            "codeSnippet": "kony.print(\"Deleted\");",
            "parentId": null,
            "callbackType": null
        }]
    }
}