{
    "AS_TextField_acdce5469bee41b98cca02e58c8559e4": {
        "id": "AS_TextField_acdce5469bee41b98cca02e58c8559e4",
        "type": "ACTION_SEQUENCE",
        "name": "onBeginEditingProfessionAndroid",
        "params": [{
            "datatype": "collection",
            "name": "eventobject"
        }, {
            "datatype": "string",
            "name": "changedtext"
        }],
        "contextObj": {
            "name": "frmApplyNewCardsKA",
            "type": "forms",
            "platform": "",
            "KUID": "a05ce8d2e4404e40bfbc8dad585d28dc"
        },
        "language": "js",
        "actions": [{
            "id": "ADD_SNIPPET__hbf9ad0d62534c6280b88ef7cb04301f",
            "type": "ADD_SNIPPET",
            "codeSnippet": "animate_NEWCARDSOPTIOS(\"UP\", \"lblProfessionTitle\", frmApplyNewCardsKA.txtProfession.text);",
            "parentId": null
        }]
    }
}