{
    "AS_TextField_c7c9b2f1ab154f789b19300379eca59e": {
        "id": "AS_TextField_c7c9b2f1ab154f789b19300379eca59e",
        "type": "ACTION_SEQUENCE",
        "name": "onbeginandroidmobileRegJP",
        "params": [{
            "datatype": "collection",
            "name": "eventobject"
        }, {
            "datatype": "string",
            "name": "changedtext"
        }],
        "language": "js",
        "actions": [{
            "id": "ADD_SNIPPET_ide_onBeginEditing_c94d0b750ac242019f55918db5c3b0fb",
            "type": "ADD_SNIPPET",
            "codeSnippet": "frmJoMoPayRegistration.flxBorderMobileNumber.skin=\"skntextFieldDividerBlue\";",
            "callbackType": null
        }]
    }
}