{
    "AS_Button_c11204deb8c14301bee2383f69bc1383": {
        "id": "AS_Button_c11204deb8c14301bee2383f69bc1383",
        "type": "ACTION_SEQUENCE",
        "name": "onclickbtnuserdetials",
        "params": [{
            "datatype": "collection",
            "name": "eventobject"
        }],
        "language": "js",
        "actions": [{
            "id": "ADD_SNIPPET_ide_onClick_60014e2c5c06434485bd8f3611d7cb0e",
            "type": "ADD_SNIPPET",
            "codeSnippet": "userdetailsTabSelected();",
            "callbackType": null
        }]
    }
}