{
    "AS_Button_f966a395ea004d248ce601391db1ef8b": {
        "id": "AS_Button_f966a395ea004d248ce601391db1ef8b",
        "type": "ACTION_SEQUENCE",
        "name": "onClickPaymentTransactionListCardsFooter",
        "params": [{
            "datatype": "collection",
            "name": "eventobject"
        }],
        "language": "js",
        "actions": [{
            "id": "ADD_SNIPPET_ide_onClick_i2104b75db50442ab5fe0c8852f7f0f2",
            "type": "ADD_SNIPPET",
            "codeSnippet": "onClickCardsMenu();"
        }]
    }
}