{
    "AS_Button_bd01a1585c0043d7aa328e33372dbb35": {
        "id": "AS_Button_bd01a1585c0043d7aa328e33372dbb35",
        "type": "ACTION_SEQUENCE",
        "name": "onClickSuplementryCardTypeApplyCards",
        "params": [{
            "datatype": "collection",
            "name": "eventobject"
        }],
        "contextObj": {
            "name": "frmApplyNewCardsKA",
            "type": "forms",
            "platform": "",
            "KUID": "a05ce8d2e4404e40bfbc8dad585d28dc"
        },
        "language": "js",
        "actions": [{
            "id": "ADD_SNIPPET__e8292b2eec1d475e81cf7a9111e57ba5",
            "type": "ADD_SNIPPET",
            "codeSnippet": "onChoose_OPTIONS_APPLYNEWCARDS(\"SuplementryCardType\");",
            "parentId": null,
            "callbackType": null
        }]
    }
}