{
    "AS_FlexContainer_i0ea18370d53442e891526e350260641": {
        "id": "AS_FlexContainer_i0ea18370d53442e891526e350260641",
        "type": "ACTION_SEQUENCE",
        "name": "onClickSortSIAmntAscending",
        "params": [{
            "datatype": "collection",
            "name": "eventobject"
        }],
        "language": "js",
        "actions": [{
            "id": "ADD_SNIPPET__ec69cf07a417459d8bb5f73636fd1ac7",
            "type": "ADD_SNIPPET",
            "codeSnippet": "amountSortSI(frmStandingInstructions.segSIList,\"Amount\",\"ascending\");",
            "parentId": null,
            "callbackType": null
        }]
    }
}