{
    "AS_Button_a7821492960f4fcfb7b0f997485d2f95": {
        "id": "AS_Button_a7821492960f4fcfb7b0f997485d2f95",
        "type": "ACTION_SEQUENCE",
        "name": "onclickp2plandingback",
        "params": [{
            "datatype": "collection",
            "name": "eventobject"
        }],
        "language": "js",
        "actions": [{
            "id": "ADD_SNIPPET__ff20891b2fe14551a8a3acd4a741639d",
            "type": "ADD_SNIPPET",
            "codeSnippet": "kony.print(\"Removed\");",
            "parentId": null,
            "callbackType": null
        }]
    }
}