{
    "AS_Button_j8c267b87d2d408391bc5583057c0373": {
        "id": "AS_Button_j8c267b87d2d408391bc5583057c0373",
        "type": "ACTION_SEQUENCE",
        "name": "onclickmorefromcards",
        "params": [{
            "datatype": "collection",
            "name": "eventobject"
        }],
        "contextObj": {
            "name": "frmCardsLandingKA",
            "type": "forms",
            "platform": "",
            "KUID": "d077415ce83a4f0096a87719325e288d"
        },
        "language": "js",
        "actions": [{
            "id": "ADD_SNIPPET__a2592e3024c24a17aebadcf41edc3d89",
            "type": "ADD_SNIPPET",
            "codeSnippet": "frmMore.show();",
            "parentId": null,
            "callbackType": null
        }]
    }
}