{
    "AS_Button_e2704891ac6742b099ba732c3f6483aa": {
        "id": "AS_Button_e2704891ac6742b099ba732c3f6483aa",
        "type": "ACTION_SEQUENCE",
        "name": "onclickbackbtnmanagepayeelandandrd",
        "params": [{
            "datatype": "collection",
            "name": "eventobject"
        }],
        "contextObj": {
            "type": "forms",
            "platform": "",
            "KUID": "44daf1a4ec9741588d44f98b878a7745"
        },
        "language": "js",
        "actions": [{
            "id": "ADD_SNIPPET__ed4f5607c0174abf9b5adfedfec2ea94",
            "type": "ADD_SNIPPET",
            "codeSnippet": "kony.print(\"Removed\");",
            "parentId": null,
            "callbackType": null
        }]
    }
}