{
    "AS_FlexContainer_d094b0e6223f4040a09552eea41509a3": {
        "id": "AS_FlexContainer_d094b0e6223f4040a09552eea41509a3",
        "type": "ACTION_SEQUENCE",
        "name": "onClickEnglishSwitchOffSettings",
        "params": [{
            "datatype": "collection",
            "name": "eventobject"
        }],
        "contextObj": {
            "name": "frmSettingsKA",
            "type": "forms",
            "platform": "",
            "KUID": "hb0fb66c0c224ed284a1334d78669bfa"
        },
        "language": "js",
        "actions": [{
            "id": "ADD_SNIPPET__d6efbb35dec54822bcac9cc34bc368e8",
            "type": "ADD_SNIPPET",
            "codeSnippet": "onclickEnglishSwitchOff();",
            "parentId": null,
            "callbackType": null
        }]
    }
}