{
    "AS_Button_iee0fe973fe9429d9d58a8dd99374807": {
        "id": "AS_Button_iee0fe973fe9429d9d58a8dd99374807",
        "type": "ACTION_SEQUENCE",
        "name": "onClickConfirmApplyNewCard",
        "params": [{
            "datatype": "collection",
            "name": "eventobject"
        }],
        "contextObj": {
            "name": "frmApplyNewCardsConfirmKA",
            "type": "forms",
            "platform": null,
            "KUID": "f25354a4fc4e472da6c697e8a8382592"
        },
        "language": "js",
        "actions": [{
            "id": "ADD_SNIPPET__cc0fc96c3dea4a178f494a56caed1f12",
            "type": "ADD_SNIPPET",
            "codeSnippet": "if(frmApplyNewCardsConfirmKA.lblTermsandConditionsCheckBox.text === \"p\")\n\tserv_APPLYCARDS();\nelse\n\tcustomAlertPopup(geti18Value(\"i18n.maps.Info\"), geti18Value(\"i18n.tnc.checkerrormsg\"),popupCommonAlertDimiss, \"\");",
            "parentId": null,
            "callbackType": null
        }]
    }
}