{
    "AS_Button_b512ecc4dbf64ed7a40485194cc63f4b": {
        "id": "AS_Button_b512ecc4dbf64ed7a40485194cc63f4b",
        "type": "ACTION_SEQUENCE",
        "name": "onClickBtnDone",
        "params": [{
            "datatype": "collection",
            "name": "eventobject"
        }],
        "contextObj": {
            "name": "frmLanguageChange",
            "type": "forms",
            "platform": "",
            "KUID": "gf87c4f80b864112b53423e6a7ad3af8"
        },
        "language": "js",
        "actions": [{
            "id": "ADD_SNIPPET__a43f9d76eff04199ab86eea5234029c5",
            "type": "ADD_SNIPPET",
            "codeSnippet": "onClickDone();",
            "parentId": null,
            "callbackType": null
        }]
    }
}