{
    "AS_FlexContainer_c64d866ecd01409a8745624b1c18e24b": {
        "id": "AS_FlexContainer_c64d866ecd01409a8745624b1c18e24b",
        "type": "ACTION_SEQUENCE",
        "name": "onClickRegisteredPayee",
        "params": [{
            "datatype": "collection",
            "name": "eventobject"
        }, {
            "datatype": "collection",
            "name": "context"
        }],
        "contextObj": {
            "name": "segmanagepayeetmplt",
            "type": "templates",
            "platform": "",
            "KUID": "16a264b35c494e74a2589ee452044566"
        },
        "language": "js",
        "actions": [{
            "id": "ADD_SNIPPET__i45ed7d5d2b0437e937076383592bfca",
            "type": "ADD_SNIPPET",
            "codeSnippet": "kony.boj.managePayeeOnTap(eventobject,context);",
            "parentId": null,
            "callbackType": null
        }]
    }
}