{
    "AS_Button_i74fd9160e664557be82d7d8e352f1a3": {
        "id": "AS_Button_i74fd9160e664557be82d7d8e352f1a3",
        "type": "ACTION_SEQUENCE",
        "name": "onClickclose",
        "params": [{
            "datatype": "collection",
            "name": "eventobject"
        }],
        "language": "js",
        "actions": [{
            "id": "ADD_SNIPPET_ide_onClick_f7ec26fefc774c62b2b2964420b53dde",
            "type": "ADD_SNIPPET",
            "codeSnippet": "customAlertPopup(geti18Value(\"i18n.cards.Confirmation\"), \n                 geti18Value(\"i18n.creditcard.discarddata\"),\n                navigatetomanagecard, popupCommonAlertDimiss, \n                geti18Value(\"i18n.common.Yess\"),\n                geti18Value(\"i18n.comon.Noo\"));",
            "callbackType": null
        }]
    }
}