{
    "AS_Button_efd7a2e2b78940c2b651b3503ada7e27": {
        "id": "AS_Button_efd7a2e2b78940c2b651b3503ada7e27",
        "type": "ACTION_SEQUENCE",
        "name": "onClickApplyEmploymentStatus",
        "params": [{
            "datatype": "collection",
            "name": "eventobject"
        }],
        "contextObj": {
            "name": "frmApplyNewCardsKA",
            "type": "forms",
            "platform": "",
            "KUID": "a05ce8d2e4404e40bfbc8dad585d28dc"
        },
        "language": "js",
        "actions": [{
            "id": "ADD_SNIPPET__h265d76f3c494cc7a6f6f0cc3a8978b8",
            "type": "ADD_SNIPPET",
            "codeSnippet": "onChoose_OPTIONS_APPLYNEWCARDS(\"EmploymentStatus\");",
            "parentId": null,
            "callbackType": null
        }]
    }
}