{
    "AS_Button_i0a78597c4b64619b770e0d5c9b43bbb": {
        "id": "AS_Button_i0a78597c4b64619b770e0d5c9b43bbb",
        "type": "ACTION_SEQUENCE",
        "name": "onClickConfirmInstantCash",
        "params": [{
            "datatype": "collection",
            "name": "eventobject"
        }],
        "contextObj": {
            "name": "frmInstantCash",
            "type": "forms",
            "platform": "",
            "KUID": "e4cbb34fffb6463894c6ceaa9b9831c9"
        },
        "language": "js",
        "actions": [{
            "id": "ADD_SNIPPET__j014ceac96894ada900bca73836959c5",
            "type": "ADD_SNIPPET",
            "codeSnippet": "serv_INSTANTCASHBACKCONFIRM();",
            "parentId": null,
            "callbackType": null
        }]
    }
}