{
    "AS_Button_g11c77bb14e64b9181ff06e51a921648": {
        "id": "AS_Button_g11c77bb14e64b9181ff06e51a921648",
        "type": "ACTION_SEQUENCE",
        "name": "onClickConfirmEStmt",
        "params": [{
            "datatype": "collection",
            "name": "eventobject"
        }],
        "language": "js",
        "actions": [{
            "id": "ADD_SNIPPET_ide_onClick_bfd384eb44ae45e0adddc2a87839cd6c",
            "type": "ADD_SNIPPET",
            "codeSnippet": "alert(\"CofirmClicked\");",
            "callbackType": null
        }]
    }
}