{
    "AS_Button_a7bc5540955d45ef9e50f6d9d87db20b": {
        "id": "AS_Button_a7bc5540955d45ef9e50f6d9d87db20b",
        "type": "ACTION_SEQUENCE",
        "name": "onClickPaymentTransactionListAccountssFooter",
        "params": [{
            "datatype": "collection",
            "name": "eventobject"
        }],
        "language": "js",
        "actions": [{
            "id": "ADD_SNIPPET_ide_onClick_d71ccbd269d64691ac6aae4870f510fd",
            "type": "ADD_SNIPPET",
            "codeSnippet": "var currForm = kony.application.getCurrentForm().id;\nif(currForm !== \"frmAccountsLandingKA\"){\n  if(kony.sdk.isNetworkAvailable()){\n    frmAccountsLandingKA.flxDeals.setVisibility(false);\n    frmAccountsLandingKA.flxAccountsMain.setVisibility(true);\n    frmAccountsLandingKA.flxAccountsMain.left = \"0%\"\n    frmAccountsLandingKA.flxLoans.setVisibility(false);\n    frmAccountsLandingKA.flxAccountsMain.zIndex = 1;\n    frmAccountsLandingKA.flxDeals.zIndex = 1;\n    frmAccountsLandingKA.flxLoans.zIndex = 1;\n    frmAccountsLandingKA.forceLayout();\n\n    var INSTANCE = kony.sdk.mvvm.KonyApplicationContext.getAppInstance();\n    var controller = INSTANCE.getFormController(\"frmAccountsLandingKA\");\n    var navObject = new kony.sdk.mvvm.NavigationObject();\n    navObject.setRequestOptions(\"segAccountsKA\",{\"headers\":{\"session_token\":kony.retailBanking.globalData.session_token}});\n    controller.loadDataAndShowForm(navObject);\n    kony.print(\"Nav accounts Dadhboard:::\");\n  }else{\n    kony.sdk.mvvm.KonyApplicationContext.dismissLoadingScreen();\n    customAlertPopup(\"\", kony.i18n.getLocalizedString(\"i18n.errorMsg.deviceConnectionError\"), popupCommonAlertDimiss, \"\");\n  }\n}else{\n  kony.print(\"same form:::\");\n}",
            "callbackType": null
        }]
    }
}