{
    "AS_Button_ac0cdcbada414be9884b89344478de37": {
        "id": "AS_Button_ac0cdcbada414be9884b89344478de37",
        "type": "ACTION_SEQUENCE",
        "name": "onClickManageCardsSettings",
        "params": [{
            "datatype": "collection",
            "name": "eventobject"
        }],
        "contextObj": {
            "name": "frmManageCardsKA",
            "type": "forms",
            "platform": "",
            "KUID": "75db60b6b4944b7faf9c556f4dbcaf8d"
        },
        "language": "js",
        "actions": [{
            "id": "ADD_SNIPPET__g0aa425363404e0a83ce42e5a6fb71d3",
            "type": "ADD_SNIPPET",
            "codeSnippet": "frmManageCardsKA.btnTransactions.skin = \"btnCardsScreen\";\nfrmManageCardsKA.btnSettings.skin = \"btnCardFoc\";\nfrmManageCardsKA.btnInfo.skin = \"btnCardsScreen\";\nfrmManageCardsKA.flxInfo.isVisible = false;\nfrmManageCardsKA.flxTransactions.isVisible = false;\nfrmManageCardsKA.flxSettings.isVisible = true;",
            "parentId": null
        }]
    }
}