{
    "AS_FlexContainer_b23ead388c17437793c9a13cd8427db7": {
        "id": "AS_FlexContainer_b23ead388c17437793c9a13cd8427db7",
        "type": "ACTION_SEQUENCE",
        "name": "onClickSortDateAsc",
        "params": [{
            "datatype": "collection",
            "name": "eventobject"
        }],
        "contextObj": {
            "name": "frmAccountDetailKA",
            "type": "forms",
            "platform": "",
            "KUID": "5ed703cad63c441882fc4a36f5ea0c28"
        },
        "language": "js",
        "actions": [{
            "id": "INVOKE_FUNCTION___fe5c284f34c942868704228d01e2b1b9",
            "type": "INVOKE_FUNCTION",
            "sequenceKUID": "accountInfoSorting",
            "display": "accountInfoSorting",
            "inputparams": [{
                "name": "widget",
                "value": "frmAccountDetailKA.imgSortDateAsc"
            }, {
                "name": "sortby",
                "value": "\"Date\""
            }, {
                "name": "type",
                "value": "\"ascending\""
            }],
            "parentId": null,
            "callbackType": null,
            "disabled": null,
            "source": "module"
        }]
    }
}