{
    "AS_Button_ba043f4abef044cbaecabba6ee0ec1eb": {
        "id": "AS_Button_ba043f4abef044cbaecabba6ee0ec1eb",
        "type": "ACTION_SEQUENCE",
        "name": "onClickBranchApplyCards",
        "params": [{
            "datatype": "collection",
            "name": "eventobject"
        }],
        "contextObj": {
            "name": "frmApplyNewCardsKA",
            "type": "forms",
            "platform": "",
            "KUID": "a05ce8d2e4404e40bfbc8dad585d28dc"
        },
        "language": "js",
        "actions": [{
            "id": "ADD_SNIPPET__f786568f910a4632ac0aaa8ef092d683",
            "type": "ADD_SNIPPET",
            "codeSnippet": "onChoose_OPTIONS_APPLYNEWCARDS(\"Branch\");",
            "parentId": null
        }]
    }
}