{
    "AS_FlexContainer_d8060831cca84749893a5d07dfafc280": {
        "id": "AS_FlexContainer_d8060831cca84749893a5d07dfafc280",
        "type": "ACTION_SEQUENCE",
        "name": "onClickDisableChequeClearedAlert",
        "params": [{
            "datatype": "collection",
            "name": "eventobject"
        }],
        "contextObj": {
            "name": "frmAlertsKA",
            "type": "forms",
            "platform": "",
            "KUID": "8f4fb6ef80f34f5f861f12908e1a5309"
        },
        "language": "js",
        "actions": [{
            "id": "ADD_SNIPPET__e34016308c7a46469d8c77bd3ad7483e",
            "type": "ADD_SNIPPET",
            "codeSnippet": "show_optalert(\"chequecleared\",frmAlertsKA.lblChequeClearedFlag);",
            "parentId": null
        }]
    }
}