{
    "AS_Button_e45160893b7e4428b3bdc1dafff97403": {
        "id": "AS_Button_e45160893b7e4428b3bdc1dafff97403",
        "type": "ACTION_SEQUENCE",
        "name": "onclickAllaccount",
        "params": [{
            "datatype": "collection",
            "name": "eventobject"
        }],
        "contextObj": {
            "name": "frmMyMoneyListKA",
            "type": "forms",
            "platform": "",
            "KUID": "4c6f3d4dd57b4bc3a51ee85d32b7cd14"
        },
        "language": "js",
        "actions": [{
            "id": "ADD_SNIPPET__adee51e48774478d89d83a2127b6eb7c",
            "type": "ADD_SNIPPET",
            "codeSnippet": "frmMyMoneyListKA.btnAllAccount.skin=\"slButtonWhiteTab\";\nfrmMyMoneyListKA.btnAllAccount.focusSkin=\"slButtonWhiteTabFocus\";\nfrmMyMoneyListKA.btnSpendPerMonth.skin=\"slButtonWhiteTabDisabled\";\nfrmMyMoneyListKA.flxPieChart.setVisibility(false);\nfrmMyMoneyListKA.flxLineChart.setVisibility(true);\nfrmMyMoneyListKA.lblNoChart.setVisibility(false);\ngetstatistics();\n// var line =\"\";\n// frmMyMoneyListKA.flxLineChart.remove(line);\n// line =line_createChartWidget();\n// frmMyMoneyListKA.flxLineChart.add(line);",
            "parentId": null,
            "callbackType": null
        }]
    }
}