{
    "AS_Button_e3c6eee298c44f14a44cd8fc1fce382c": {
        "id": "AS_Button_e3c6eee298c44f14a44cd8fc1fce382c",
        "type": "ACTION_SEQUENCE",
        "name": "onclickbackfromrecentrans",
        "params": [{
            "datatype": "collection",
            "name": "eventobject"
        }],
        "contextObj": {
            "name": "frmRecentTransactionDetailsKA",
            "type": "forms",
            "platform": "",
            "KUID": "3e75bf63a2d4443486447188bb14c36b"
        },
        "language": "js",
        "actions": [{
            "id": "ADD_SNIPPET__b76e8546aa0b46b288911df392dd3ca2",
            "type": "ADD_SNIPPET",
            "codeSnippet": "var previousForm = kony.application.getPreviousForm().id;\nif(previousForm==\"frmAccountDetailKA\"){\n kony.sdk.mvvm.KonyApplicationContext.showLoadingScreen();\n var INSTANCE = kony.sdk.mvvm.KonyApplicationContext.getAppInstance();\n var controller = INSTANCE.getFormController(\"frmAccountDetailKA\");\n controller.getFormModel().showView();\n kony.sdk.mvvm.KonyApplicationContext.dismissLoadingScreen(); \n}else{\nbackToTransferPayLandingPage(\"frmRecentTransactionDetailsKA\");\n}",
            "parentId": null,
            "callbackType": null
        }]
    }
}