{
    "AS_Button_5a73fcae07b7488ba5a01de40fa1fda2": {
        "id": "AS_Button_5a73fcae07b7488ba5a01de40fa1fda2",
        "type": "ACTION_SEQUENCE",
        "name": "onclicktitlebarbackip",
        "params": [{
            "datatype": "collection",
            "name": "eventobject"
        }],
        "language": "js",
        "actions": [{
            "id": "ADD_SNIPPET_ide_onClick_45848bf66f9e4148bde4ffbf382d02ff",
            "type": "ADD_SNIPPET",
            "codeSnippet": "onclickbackenrolluserbtn();",
            "callbackType": null
        }]
    }
}