{
    "AS_Button_c7b6b465849d4afe8ef1b6b15b4f492f": {
        "id": "AS_Button_c7b6b465849d4afe8ef1b6b15b4f492f",
        "type": "ACTION_SEQUENCE",
        "name": "onClickMonthsLoanPostponeDelete",
        "params": [{
            "datatype": "collection",
            "name": "eventobject"
        }],
        "contextObj": {
            "name": "frmLoanPostpone",
            "type": "forms",
            "platform": "",
            "KUID": "c4f50ee093794ef7af792ffce1e5562c"
        },
        "language": "js",
        "actions": [{
            "id": "ADD_SNIPPET__ceb1ccbbbe394d7a8a1f0a1d100a6a12",
            "type": "ADD_SNIPPET",
            "codeSnippet": "gblTModule = \"loanPostpone\";\nfrmCurrency.show();",
            "parentId": null,
            "callbackType": null
        }]
    }
}