{
    "AS_Button_a7000baf54c74e8d9742c2568dd37703": {
        "id": "AS_Button_a7000baf54c74e8d9742c2568dd37703",
        "type": "ACTION_SEQUENCE",
        "name": "onClickSwitchLanguageLanguageChange",
        "params": [{
            "datatype": "collection",
            "name": "eventobject"
        }],
        "language": "js",
        "actions": [{
            "id": "ADD_SNIPPET_ide_onClick_de0e5887b49c4685a1eeb2eccacad4a6",
            "type": "ADD_SNIPPET",
            "codeSnippet": "switch_LANGUAGE(\"language\");",
            "callbackType": null
        }]
    }
}