{
    "AS_Button_e75b018148194370b044537315afece2": {
        "id": "AS_Button_e75b018148194370b044537315afece2",
        "type": "ACTION_SEQUENCE",
        "name": "onClickTransactionDetailsConfirm",
        "params": [{
            "datatype": "collection",
            "name": "eventobject"
        }],
        "contextObj": {
            "name": "frmTransactionDetails",
            "type": "forms",
            "platform": "",
            "KUID": "e1f76b0a13c54f48ae72b42e827c45c2"
        },
        "language": "js",
        "actions": [{
            "id": "ADD_SNIPPET__eff4c1a00e804263a0f9003e3436dcba",
            "type": "ADD_SNIPPET",
            "codeSnippet": "frmJoMoPayLanding.show();",
            "parentId": null,
            "callbackType": null
        }]
    }
}