{
    "AS_Button_c88e1f1560c14989b710135776ef94e1": {
        "id": "AS_Button_c88e1f1560c14989b710135776ef94e1",
        "type": "ACTION_SEQUENCE",
        "name": "onClilckEditBeneficiaryDetails",
        "params": [{
            "name": "eventobject",
            "datatype": "collection"
        }, {
            "name": "context",
            "datatype": "collection"
        }],
        "contextObj": {
            "name": "segShowAcc",
            "type": "templates",
            "platform": "",
            "KUID": "c795aaa82a6f432cbc2e70d251355a55"
        },
        "language": "js",
        "actions": [{
            "id": "ADD_SNIPPET__d91010084a294e3295ce5b916a553831",
            "type": "ADD_SNIPPET",
            "codeSnippet": "kony.print(\"eventobject ::\"+JSON.stringify(eventobject));\nkony.print(\"context ::\"+JSON.stringify(context));\nset_EDIT_BENEFICIARY_SCREEN(context.widgetInfo.selectedRowItems[0]);",
            "parentId": null,
            "callbackType": null
        }]
    }
}