{
    "AS_Button_a435f6204edc483b855d839d16f932fc": {
        "id": "AS_Button_a435f6204edc483b855d839d16f932fc",
        "type": "ACTION_SEQUENCE",
        "name": "onClickNextInstantCash",
        "params": [{
            "datatype": "collection",
            "name": "eventobject"
        }, {
            "datatype": "string",
            "name": "x"
        }, {
            "datatype": "string",
            "name": "y"
        }],
        "contextObj": {
            "name": "frmInstantCash",
            "type": "forms",
            "platform": "",
            "KUID": "e4cbb34fffb6463894c6ceaa9b9831c9"
        },
        "language": "js",
        "actions": [{
            "id": "ADD_SNIPPET__da06e013eac34150a1b081e22fbe48ea",
            "type": "ADD_SNIPPET",
            "codeSnippet": "onClick_NEXT_INSTANTCASHFORM();",
            "parentId": null,
            "callbackType": null
        }]
    }
}