{
    "AS_Button_77fffa78d2c24a69b000545c7d45fc81": {
        "id": "AS_Button_77fffa78d2c24a69b000545c7d45fc81",
        "type": "ACTION_SEQUENCE",
        "name": "onclickbacktermsiphone",
        "params": [{
            "datatype": "collection",
            "name": "eventobject"
        }],
        "contextObj": {
            "type": "forms",
            "platform": null,
            "KUID": "4b4204e832a54ea3abf1cbb0a2c48717"
        },
        "language": "js",
        "actions": [{
            "id": "ADD_SNIPPET__bf0ba7ecdddf413dab90e707eaceb996",
            "type": "ADD_SNIPPET",
            "codeSnippet": "removeSwipe();\nfrmLoginKA.show();",
            "parentId": null,
            "callbackType": null
        }]
    }
}