{
    "AS_FlexContainer_i8a509918c444012bb3e54ec56613f00": {
        "id": "AS_FlexContainer_i8a509918c444012bb3e54ec56613f00",
        "type": "ACTION_SEQUENCE",
        "name": "onClickAlertSwitchOn",
        "params": [{
            "datatype": "collection",
            "name": "eventobject"
        }],
        "contextObj": {
            "name": "frmSettingsKA",
            "type": "forms",
            "platform": "",
            "KUID": "hb0fb66c0c224ed284a1334d78669bfa"
        },
        "language": "js",
        "actions": [{
            "id": "ADD_SNIPPET__h3c85d5c4b294446b2ed8daa58a34eb8",
            "type": "ADD_SNIPPET",
            "codeSnippet": "onselection_ALERTANDNOTIFICATIONTOGGLE(\"ALERT\");",
            "parentId": null,
            "callbackType": null
        }]
    }
}