{
    "AS_Button_j805f01b6a654ec3af09f89febed4776": {
        "id": "AS_Button_j805f01b6a654ec3af09f89febed4776",
        "type": "ACTION_SEQUENCE",
        "name": "onClickBtnArabic",
        "params": [{
            "datatype": "collection",
            "name": "eventobject"
        }],
        "contextObj": {
            "name": "frmLanguageChange",
            "type": "forms",
            "platform": "",
            "KUID": "gf87c4f80b864112b53423e6a7ad3af8"
        },
        "language": "js",
        "actions": [{
            "id": "ADD_SNIPPET__a86dbf69af9846159cb0b90b862c5be9",
            "type": "ADD_SNIPPET",
            "codeSnippet": "onClickArabic();",
            "parentId": null,
            "callbackType": null
        }]
    }
}