{
    "AS_Button_i046426053974873847de36e776ab98d": {
        "id": "AS_Button_i046426053974873847de36e776ab98d",
        "type": "ACTION_SEQUENCE",
        "name": "onclickofaccountweb",
        "params": [{
            "datatype": "collection",
            "name": "eventobject"
        }],
        "language": "js",
        "actions": [{
            "id": "ADD_SNIPPET_ide_onClick_a3c61366585e447aa6d5a1aec2e64a64",
            "type": "ADD_SNIPPET",
            "codeSnippet": "var fromAccounts = kony.retailBanking.globalData.accountsDashboardData.accountsData;\ngblTModule=\"web\";\nkony.boj.accounttype(fromAccounts,gblTModule);",
            "callbackType": null
        }]
    }
}