{
    "AS_Button_f8f5f87b783b455caa73172bd1d69462": {
        "id": "AS_Button_f8f5f87b783b455caa73172bd1d69462",
        "type": "ACTION_SEQUENCE",
        "name": "onclickmap",
        "params": [{
            "datatype": "collection",
            "name": "eventobject"
        }],
        "language": "js",
        "actions": [{
            "id": "ADD_SNIPPET_ide_onClick_i65e1bea58624c649496644dccdca2a2",
            "type": "ADD_SNIPPET",
            "codeSnippet": "locatorMapViewEnabled();",
            "callbackType": null
        }]
    }
}