{
    "AS_FlexContainer_d00f0cea3a7b4b6886c49f0b83c6a7d9": {
        "id": "AS_FlexContainer_d00f0cea3a7b4b6886c49f0b83c6a7d9",
        "type": "ACTION_SEQUENCE",
        "name": "onclickbackconfirmweb",
        "params": [{
            "datatype": "collection",
            "name": "eventobject"
        }],
        "contextObj": {
            "name": "frmWebCharge",
            "type": "forms",
            "platform": "",
            "KUID": "i9ea7101c04f4b03aabeac1fe8d65589"
        },
        "language": "js",
        "actions": [{
            "id": "ADD_SNIPPET__g2d7f0d59a18458eaea48c0d88879889",
            "type": "ADD_SNIPPET",
            "codeSnippet": "frmWebCharge.flxConfirmPopup.setVisibility(false);\nfrmWebCharge.flxBodyWeb.setVisibility(true);",
            "parentId": null,
            "callbackType": null
        }]
    }
}