{
    "AS_RichText_he340b8241e3466eb1e0049dacd979c2": {
        "id": "AS_RichText_he340b8241e3466eb1e0049dacd979c2",
        "type": "ACTION_SEQUENCE",
        "name": "onClickTermsandConditionSubAccounts",
        "params": [{
            "datatype": "collection",
            "name": "eventobject"
        }, {
            "datatype": "string",
            "name": "linktext"
        }, {
            "datatype": "string",
            "name": "attributes"
        }],
        "language": "js",
        "actions": [{
            "id": "ADD_SNIPPET_ide_onClick_j538cad3e16c4af7a825f6615120f845",
            "type": "ADD_SNIPPET",
            "codeSnippet": "navigate_TERMSANDCONDITIONS_INTERNAL(kony.application.getCurrentForm(),geti18Value(\"i18n.account.subCheck1\"));",
            "callbackType": null
        }]
    }
}