{
    "AS_Button_c115dc2e244d45609aade97c46ff0db4": {
        "id": "AS_Button_c115dc2e244d45609aade97c46ff0db4",
        "type": "ACTION_SEQUENCE",
        "name": "onConfirmregisterEstmt",
        "params": [{
            "datatype": "collection",
            "name": "eventobject"
        }],
        "contextObj": {
            "name": "frmEstatementConfirmKA",
            "type": "forms",
            "platform": "",
            "KUID": "jeebb130131d44348829571f3a6ba9c8"
        },
        "language": "js",
        "actions": [{
            "id": "ADD_SNIPPET__b81fcbb4216443939924e90141454eec",
            "type": "ADD_SNIPPET",
            "codeSnippet": "registerEstmt();",
            "parentId": null,
            "callbackType": null
        }]
    }
}