{
    "AS_Button_i2d725944f6a469da9acde0682c13ac9": {
        "id": "AS_Button_i2d725944f6a469da9acde0682c13ac9",
        "type": "ACTION_SEQUENCE",
        "name": "onconfirmCreditCard",
        "params": [{
            "datatype": "collection",
            "name": "eventobject"
        }],
        "contextObj": {
            "name": "frmCreditCardPayment",
            "type": "forms",
            "platform": "",
            "KUID": "ifc6e17e00ef473bb51f2718c349cfba"
        },
        "language": "js",
        "actions": [{
            "id": "ADD_SNIPPET__a97946a3d8bb4e09b9348347ac70607f",
            "type": "ADD_SNIPPET",
            "codeSnippet": "if(kony.sdk.isNetworkAvailable())\n{ \n  gblToOTPFrom = \"credit\";\n  ShowLoadingScreen();\n  //callRequestOTP(); \n  payFromCreditCard();\n}else{\n  kony.sdk.mvvm.KonyApplicationContext.dismissLoadingScreen();\n  customAlertPopup(\"\", kony.i18n.getLocalizedString(\"i18n.errorMsg.deviceConnectionError\"), popupCommonAlertDimiss, \"\");\n}",
            "parentId": null,
            "callbackType": null
        }]
    }
}