{
    "AS_Form_ge8a3321bf124014a80f3232ac6aac88": {
        "id": "AS_Form_ge8a3321bf124014a80f3232ac6aac88",
        "type": "ACTION_SEQUENCE",
        "name": "onDeviceBackFromEstmtLanding",
        "params": [{
            "datatype": "collection",
            "name": "eventobject"
        }],
        "contextObj": {
            "name": "frmEstatementLandingKA",
            "type": "forms",
            "platform": null,
            "KUID": "d1dcb94f4a054dda97d66cbdc216d96a"
        },
        "language": "js",
        "actions": [{
            "id": "ADD_SNIPPET__a0edbcd13b45440c94733bd52a9b8dba",
            "type": "ADD_SNIPPET",
            "codeSnippet": "frmSettingsKA.show();",
            "parentId": null,
            "callbackType": null
        }]
    }
}