{
    "AS_TextField_e59de8c02998442899f89a1dc1de84aa": {
        "id": "AS_TextField_e59de8c02998442899f89a1dc1de84aa",
        "type": "ACTION_SEQUENCE",
        "name": "ondoneamountweb",
        "params": [{
            "datatype": "collection",
            "name": "eventobject"
        }, {
            "datatype": "string",
            "name": "changedtext"
        }],
        "language": "js",
        "actions": [{
            "id": "ADD_SNIPPET_ide_onDone_ed5b70710ccc4204b2a9f985ae274acf",
            "type": "ADD_SNIPPET",
            "codeSnippet": "frmWebCharge.flxBorderAmount.skin=\"skntextFieldDividerGreen\";\nfrmWebCharge.lblHiddenAmount.text=frmWebCharge.txtFieldAmount.text;\nfrmWebCharge.txtFieldAmount.maxTextLength = 20;\nfrmWebCharge.txtFieldAmount.text = formatAmountwithcomma(frmWebCharge.lblHiddenAmount.text,getDecimalNumForCurr(frmWebCharge.lblCurrencyCode.text));",
            "callbackType": null
        }]
    }
}