{
    "AS_TextField_a2a3bd6e53b144f79cec73b66257114e": {
        "id": "AS_TextField_a2a3bd6e53b144f79cec73b66257114e",
        "type": "ACTION_SEQUENCE",
        "name": "onDoneAccountSearchTransaction",
        "params": [{
            "datatype": "collection",
            "name": "eventobject"
        }, {
            "datatype": "string",
            "name": "changedtext"
        }],
        "contextObj": {
            "name": "frmAccountDetailKA",
            "type": "forms",
            "platform": "",
            "KUID": "5ed703cad63c441882fc4a36f5ea0c28"
        },
        "language": "js",
        "actions": [{
            "id": "ADD_SNIPPET__ac3fbf46af9d44ec81dc215f4a8d65a4",
            "type": "ADD_SNIPPET",
            "codeSnippet": "if(kony.retailBanking.globalData.accountsTransactionList.transaction !== undefined && kony.retailBanking.globalData.accountsTransactionList.transaction.length > 0){\nsearchTransation();\n}",
            "parentId": null,
            "callbackType": null
        }]
    }
}