{
    "AS_TextField_f0797600ac284aa3ab9f5d23f3cc5fa4": {
        "id": "AS_TextField_f0797600ac284aa3ab9f5d23f3cc5fa4",
        "type": "ACTION_SEQUENCE",
        "name": "OndoneofJomooayAmountTxt",
        "params": [{
            "datatype": "collection",
            "name": "eventobject"
        }, {
            "datatype": "string",
            "name": "changedtext"
        }],
        "contextObj": {
            "name": "frmJoMoPay",
            "type": "forms",
            "platform": "",
            "KUID": "d41a38dfc97d4e0a8f3b1db96d6a1ca0"
        },
        "language": "js",
        "actions": [{
            "id": "ADD_SNIPPET__ac48443f09d94ef582639e9ac0a9daa2",
            "type": "ADD_SNIPPET",
            "codeSnippet": "animate_NEWCARDSOPTIOS(\"UP\",\"lblstaticdescription\",frmJoMoPay.txtDescription.text);\nfrmJoMoPay.flxBorderAmount.skin=\"skntextFieldDividerGreen\";",
            "parentId": null,
            "callbackType": null
        }]
    }
}