{
    "AS_TextField_f90e3e7870cb4f458642b979aa9a9434": {
        "id": "AS_TextField_f90e3e7870cb4f458642b979aa9a9434",
        "type": "ACTION_SEQUENCE",
        "name": "onDonefromAmntEntered",
        "params": [{
            "datatype": "collection",
            "name": "eventobject"
        }, {
            "datatype": "string",
            "name": "changedtext"
        }],
        "contextObj": {
            "type": "forms",
            "platform": "",
            "KUID": "400a0ee97eb04e5897318084b1271b8a"
        },
        "language": "js",
        "actions": [{
            "id": "ADD_SNIPPET__b7b8d9712cd14099be2e25afd92ea47c",
            "type": "ADD_SNIPPET",
            "codeSnippet": "compareAmountFields();",
            "parentId": null,
            "callbackType": null
        }]
    }
}