{
    "AS_TextField_h0e808c2fc4e46a1912da97efc484743": {
        "id": "AS_TextField_h0e808c2fc4e46a1912da97efc484743",
        "type": "ACTION_SEQUENCE",
        "name": "onEEiphoneemailRegJP",
        "params": [{
            "datatype": "collection",
            "name": "eventobject"
        }, {
            "datatype": "string",
            "name": "changedtext"
        }],
        "language": "js",
        "actions": [{
            "id": "ADD_SNIPPET_ide_onEndEditing_be839344dd8e4baeae6fa253b9c76c8b",
            "type": "ADD_SNIPPET",
            "codeSnippet": "animate_NEWCARDSOPTIOS(\"DOWN\",\"lblEmailStatic\",frmJoMoPayRegistration.txtEmail.text);\nif(frmJoMoPayRegistration.txtEmail.text!==\"\"&&frmJoMoPayRegistration.txtEmail.text!==null)\n  {\nfrmJoMoPayRegistration.flxBorderEmail.skin=\"skntextFieldDividerGreen\";\n  }\nelse\n  {\n    frmJoMoPayRegistration.flxBorderEmail.skin=\"skntextFieldDividerJomoPay\";\n  }",
            "callbackType": null
        }]
    }
}