{
    "AS_TextField_a114ddfa993a49a3bac129e464ba5bbe": {
        "id": "AS_TextField_a114ddfa993a49a3bac129e464ba5bbe",
        "type": "ACTION_SEQUENCE",
        "name": "onendeditingcard",
        "params": [{
            "datatype": "collection",
            "name": "eventobject"
        }, {
            "datatype": "string",
            "name": "changedtext"
        }],
        "contextObj": {
            "name": "frmCreditCardPayment",
            "type": "forms",
            "platform": null,
            "KUID": "ifc6e17e00ef473bb51f2718c349cfba"
        },
        "language": "js",
        "actions": [{
            "id": "ADD_SNIPPET__j2118b09bf1048479f54e4dd87b6d73f",
            "type": "ADD_SNIPPET",
            "codeSnippet": "onendeditingiphone();\nfrmCreditCardPayment.txtFieldAmount.maxTextLength = 20;\n if(frmCreditCardPayment.lblCurrency.text === \"JOD\")\n      {\n        kony.print(\"JOD currency \"+frmCreditCardPayment.lblCurrency.text);\n        frmCreditCardPayment.txtFieldAmount.text = fixDecimal(frmCreditCardPayment.txtFieldAmount.text,3);\n      }\n      else\n      {\n        kony.print(\"Other currency \"+frmCreditCardPayment.lblCurrency.text);\n        frmCreditCardPayment.txtFieldAmount.text = fixDecimal(frmCreditCardPayment.txtFieldAmount.text,2);\n      }\n//frmCreditCardPayment.txtFieldAmount.text=formatAmountwithcomma(frmCreditCardPayment.lblHiddenAmount.text,3);",
            "parentId": null,
            "callbackType": null
        }]
    }
}