{
    "AS_TextField_e13fd592e51e4ebcbb00fe5c665c148e": {
        "id": "AS_TextField_e13fd592e51e4ebcbb00fe5c665c148e",
        "type": "ACTION_SEQUENCE",
        "name": "onEndEditingUsernameLangAndroid",
        "params": [{
            "datatype": "collection",
            "name": "eventobject"
        }, {
            "datatype": "string",
            "name": "changedtext"
        }],
        "language": "js",
        "actions": [{
            "id": "ADD_SNIPPET_ide_onEndEditing_faaac3fbe7714b278d7350118911b357",
            "type": "ADD_SNIPPET",
            "codeSnippet": "if(frmLanguageChange.tbxusernameTextField.text!==null&&frmLanguageChange.tbxusernameTextField.text!==\"\")\n{\n  frmLanguageChange.borderBottom.skin=\"skntextFieldDividerGreen\";\n}\nelse\n  {\n    frmLanguageChange.borderBottom.skin=\"skntextFieldDivider\";\n  }\nanimateLabel(\"DOWN\",\"lblUserName\",frmLanguageChange.tbxusernameTextField.text);\nanimateLabel(\"UP\",\"lblPassword\",frmLanguageChange.passwordTextField.text);",
            "callbackType": null
        }]
    }
}