{
    "AS_Segment_cf199c9c63a947d783bda36c45d0e0b7": {
        "id": "AS_Segment_cf199c9c63a947d783bda36c45d0e0b7",
        "type": "ACTION_SEQUENCE",
        "name": "onRowClickSegMessagesKA",
        "params": [{
            "datatype": "collection",
            "name": "eventobject"
        }, {
            "datatype": "number",
            "name": "sectionNumber"
        }, {
            "datatype": "number",
            "name": "rowNumber"
        }],
        "contextObj": {
            "type": "forms",
            "platform": "",
            "KUID": "2e63134c7cd34ec9801fa53d362efd33"
        },
        "language": "js",
        "actions": [{
            "id": "ADD_SNIPPET__i4a49f0199dc4928b76bf7191fadca23",
            "type": "ADD_SNIPPET",
            "codeSnippet": "kony.print(\"Deleted\");",
            "parentId": null,
            "callbackType": null
        }]
    }
}