{
    "AS_Segment_deb4f0068ba64070990ba54222f1ad3a": {
        "id": "AS_Segment_deb4f0068ba64070990ba54222f1ad3a",
        "type": "ACTION_SEQUENCE",
        "name": "onRowClickSelectCountryRegJP",
        "params": [{
            "datatype": "collection",
            "name": "eventobject"
        }, {
            "datatype": "number",
            "name": "sectionNumber"
        }, {
            "datatype": "number",
            "name": "rowNumber"
        }],
        "language": "js",
        "actions": [{
            "id": "ADD_SNIPPET_ide_onRowClick_fc8ad11858df436ca0edc11420dd02aa",
            "type": "ADD_SNIPPET",
            "codeSnippet": "//alert(frmSelectDetailsBene.segDetails.selectedRowItems[0]);\nkony.boj.updateLabelJP(frmJomopayRegCountry.segDetails.selectedRowItems[0]);",
            "callbackType": null
        }]
    }
}