{
    "AS_Calendar_c7cdb7f5cb6548a3b1052ad5355e3d60": {
        "id": "AS_Calendar_c7cdb7f5cb6548a3b1052ad5355e3d60",
        "type": "ACTION_SEQUENCE",
        "name": "onSelectionFromDateRetriveCardStatement",
        "params": [{
            "datatype": "collection",
            "name": "eventobject"
        }, {
            "datatype": "boolean",
            "name": "isValidDateSelected"
        }],
        "language": "js",
        "actions": [{
            "id": "ADD_SNIPPET_ide_onSelection_b5ec1b5a42ee46f89e4062c07e3750a3",
            "type": "ADD_SNIPPET",
            "codeSnippet": "frmCardStatementKA.lblDateFrom.text = frmCardStatementKA.calDatefrom.dateComponents[0] + \"/\" + frmCardStatementKA.calDatefrom.dateComponents[1] + \"/\" + frmCardStatementKA.calDatefrom.dateComponents[2];",
            "callbackType": null
        }]
    }
}