{
    "AS_Calendar_jf673df577164fdebe31173c2bf394ec": {
        "id": "AS_Calendar_jf673df577164fdebe31173c2bf394ec",
        "type": "ACTION_SEQUENCE",
        "name": "onSelectionDateToRetriveStatement",
        "params": [{
            "datatype": "collection",
            "name": "eventobject"
        }, {
            "datatype": "boolean",
            "name": "isValidDateSelected"
        }],
        "language": "js",
        "actions": [{
            "id": "ADD_SNIPPET_ide_onSelection_eabccff38195499f9e69abd1d9e7cef2",
            "type": "ADD_SNIPPET",
            "codeSnippet": "frmCardStatementKA.lblDateTo.text = frmCardStatementKA.calDateTo.dateComponents[0] + \"/\" + frmCardStatementKA.calDateTo.dateComponents[1] + \"/\" + frmCardStatementKA.calDateTo.dateComponents[2];",
            "callbackType": null
        }]
    }
}