{
    "AS_Calendar_e7dffb8d961e42bf8f4cf3cb6f458de7": {
        "id": "AS_Calendar_e7dffb8d961e42bf8f4cf3cb6f458de7",
        "type": "ACTION_SEQUENCE",
        "name": "onSelectionDOBCalenderJoMoPayRegistration",
        "params": [{
            "datatype": "collection",
            "name": "eventobject"
        }, {
            "datatype": "boolean",
            "name": "isValidDateSelected"
        }],
        "contextObj": {
            "name": "frmJoMoPayRegistration",
            "type": "forms",
            "platform": "",
            "KUID": "h0b4f51069c74c7bbbbd6798301d77d6"
        },
        "language": "js",
        "actions": [{
            "id": "ADD_SNIPPET__g43c431572ea46a48a2b23c379ef7d41",
            "type": "ADD_SNIPPET",
            "codeSnippet": "animate_NEWCARDSOPTIOS(\"UP\",\"lblDateOfBirthstatic\",frmJoMoPayRegistration.lblDateOfBirth.text);\nvar field = frmJoMoPayRegistration.calDateDOB;\nvar date = field.dateComponents[0]<10?\"0\"+field.dateComponents[0]:field.dateComponents[0];\nvar month = field.dateComponents[1]<10?\"0\"+field.dateComponents[1]:field.dateComponents[1];\nfrmJoMoPayRegistration.lblDateOfBirth.text = date+\"/\"+month+\"/\"+field.dateComponents[2];",
            "parentId": null,
            "callbackType": null
        }]
    }
}