{
    "AS_TextField_c9d555dc789740f289489033bf621acb": {
        "id": "AS_TextField_c9d555dc789740f289489033bf621acb",
        "type": "ACTION_SEQUENCE",
        "name": "onTextChangeNickNameAddBillerJomopay",
        "params": [{
            "datatype": "collection",
            "name": "eventobject"
        }, {
            "datatype": "string",
            "name": "changedtext"
        }],
        "contextObj": {
            "name": "frmJOMOPayAddBiller",
            "type": "forms",
            "platform": null,
            "KUID": "df7e7935cb6a4e5c8a9dad110f300c3c"
        },
        "language": "js",
        "actions": [{
            "id": "ADD_SNIPPET__g9210b8d2f274df79fd08455aa40a123",
            "type": "ADD_SNIPPET",
            "codeSnippet": "if(new RegExp(/[^A-Za-z0-9\\s]/g).test(frmJOMOPayAddBiller.txtNickName.text)){\n\tfrmJOMOPayAddBiller.flxBorderNickName.skin = \"skntextFieldDividerOrange\";\n}else{\n\tfrmJOMOPayAddBiller.flxBorderNickName.skin = \"skntextFieldDividerGreen\";\n}",
            "parentId": null
        }]
    }
}