{
    "AS_TextField_bb622a4caa0a48f59fa65a4cfb6f51d6": {
        "id": "AS_TextField_bb622a4caa0a48f59fa65a4cfb6f51d6",
        "type": "ACTION_SEQUENCE",
        "name": "onTextChangeNameAddBillerJomopay",
        "params": [{
            "datatype": "collection",
            "name": "eventobject"
        }, {
            "datatype": "string",
            "name": "changedtext"
        }],
        "contextObj": {
            "name": "frmJOMOPayAddBiller",
            "type": "forms",
            "platform": null,
            "KUID": "df7e7935cb6a4e5c8a9dad110f300c3c"
        },
        "language": "js",
        "actions": [{
            "id": "ADD_SNIPPET__e2c3bb18881446889fbcfc4df9b924b4",
            "type": "ADD_SNIPPET",
            "codeSnippet": "if(new RegExp(/[^A-Za-z0-9\\s]/g).test(frmJOMOPayAddBiller.txtName.text)){\n\tfrmJOMOPayAddBiller.flxBorderName.skin = \"skntextFieldDividerOrange\";\n}else{\n\tfrmJOMOPayAddBiller.flxBorderName.skin = \"skntextFieldDividerGreen\";\n}",
            "parentId": null,
            "callbackType": null
        }]
    }
}