{
    "AS_TextField_f03949e0730e462893219cfb3c75e89f": {
        "id": "AS_TextField_f03949e0730e462893219cfb3c75e89f",
        "type": "ACTION_SEQUENCE",
        "name": "onTextChangefrmSI",
        "params": [{
            "datatype": "collection",
            "name": "eventobject"
        }, {
            "datatype": "string",
            "name": "changedtext"
        }],
        "contextObj": {
            "name": "frmStandingInstructions",
            "type": "forms",
            "platform": null,
            "KUID": "cf89335dd93d4b46a77376646c7657ea"
        },
        "language": "js",
        "actions": [{
            "id": "ADD_SNIPPET__ff2647a464e649108fda463503d9ae8f",
            "type": "ADD_SNIPPET",
            "codeSnippet": "searchSIData(frmStandingInstructions.tbxSearch.text);",
            "parentId": null,
            "callbackType": null
        }]
    }
}