{
    "AS_TextField_i05cf399f855467196971f73bfec6fbe": {
        "id": "AS_TextField_i05cf399f855467196971f73bfec6fbe",
        "type": "ACTION_SEQUENCE",
        "name": "ontextchangeofdescriptionJompay",
        "params": [{
            "datatype": "collection",
            "name": "eventobject"
        }, {
            "datatype": "string",
            "name": "changedtext"
        }],
        "contextObj": {
            "name": "frmJoMoPay",
            "type": "forms",
            "platform": "",
            "KUID": "d41a38dfc97d4e0a8f3b1db96d6a1ca0"
        },
        "language": "js",
        "actions": [{
            "id": "ADD_SNIPPET__e6e9384255984a15b1c56b79b806d232",
            "type": "ADD_SNIPPET",
            "codeSnippet": "// animateLabel(\"UP\",\"lblstaticdescription\",frmJoMoPay.txtDescription.text);\nanimate_NEWCARDSOPTIOS(\"UP\",\"lblstaticdescription\",frmJoMoPay.txtDescription.text);",
            "parentId": null,
            "callbackType": null
        }]
    }
}