{
    "AS_Label_ef8f60d0181644608e9aa14338643fb6": {
        "id": "AS_Label_ef8f60d0181644608e9aa14338643fb6",
        "type": "ACTION_SEQUENCE",
        "name": "onTouchEndLoanPostPoneTermsandConditions",
        "params": [{
            "datatype": "collection",
            "name": "eventobject"
        }, {
            "datatype": "string",
            "name": "x"
        }, {
            "datatype": "string",
            "name": "y"
        }],
        "contextObj": {
            "name": "frmLoanPostpone",
            "type": "forms",
            "platform": "",
            "KUID": "c4f50ee093794ef7af792ffce1e5562c"
        },
        "language": "js",
        "actions": [{
            "id": "ADD_SNIPPET__ffc63059ed84412d8119ba4bdc96ebd7",
            "type": "ADD_SNIPPET",
            "codeSnippet": "if(frmLoanPostpone.lblTermsandConditionsCheckBox.text === \"p\"){\n  frmLoanPostpone.lblTermsandConditionsCheckBox.text = \"q\";\n}else{\n  frmLoanPostpone.lblTermsandConditionsCheckBox.text = \"p\";\n}",
            "parentId": null,
            "callbackType": null
        }]
    }
}