{
    "AS_TextField_cae44c40e5cb40ffbb8818574a92f8ec": {
        "id": "AS_TextField_cae44c40e5cb40ffbb8818574a92f8ec",
        "type": "ACTION_SEQUENCE",
        "name": "onTouchEndPrimaryEmail",
        "params": [{
            "datatype": "collection",
            "name": "eventobject"
        }, {
            "datatype": "string",
            "name": "x"
        }, {
            "datatype": "string",
            "name": "y"
        }],
        "contextObj": {
            "name": "frmUserSettingsMyProfileKA",
            "type": "forms",
            "platform": "",
            "KUID": "469d331305a541b8b65c6d8bdf903828"
        },
        "language": "js",
        "actions": [{
            "id": "ADD_SNIPPET__cdd452f135dd47e2b3c10156fbf090dc",
            "type": "ADD_SNIPPET",
            "codeSnippet": "animateLabel(\"UP\",\"lblPrimaryEmail\",frmUserSettingsMyProfileKA.txtPrimaryEmail.text);",
            "parentId": null
        }]
    }
}