{
    "AS_Label_g3dd86dcbb12497bb870ac8d291e0144": {
        "id": "AS_Label_g3dd86dcbb12497bb870ac8d291e0144",
        "type": "ACTION_SEQUENCE",
        "name": "onTouchEndAccountDetailsLoanFilter",
        "params": [{
            "datatype": "collection",
            "name": "eventobject"
        }, {
            "datatype": "string",
            "name": "x"
        }, {
            "datatype": "string",
            "name": "y"
        }],
        "contextObj": {
            "name": "frmAccountDetailKA",
            "type": "forms",
            "platform": "",
            "KUID": "5ed703cad63c441882fc4a36f5ea0c28"
        },
        "language": "js",
        "actions": [{
            "id": "ADD_SNIPPET__b37a7dc3221848c88fd7825ab4af5fac",
            "type": "ADD_SNIPPET",
            "codeSnippet": "frmFilterTransaction.show();",
            "parentId": null,
            "callbackType": null
        }]
    }
}