{
    "AS_Label_i0a600fccf2c4408a0e9d1d6ada231dc": {
        "id": "AS_Label_i0a600fccf2c4408a0e9d1d6ada231dc",
        "type": "ACTION_SEQUENCE",
        "name": "onTouchEndInstagram",
        "params": [{
            "datatype": "collection",
            "name": "eventobject"
        }, {
            "datatype": "string",
            "name": "x"
        }, {
            "datatype": "string",
            "name": "y"
        }],
        "language": "js",
        "actions": [{
            "id": "ADD_SNIPPET_ide_onTouchEnd_i5c4711d37c0441d9dce266292a053a3",
            "type": "ADD_SNIPPET",
            "codeSnippet": "open_SOCIALMEDIA(INSTAGRAM);"
        }]
    }
}