{
    "AS_Label_i58ea91b1b4c4554aa1aeadbf8ec8b28": {
        "id": "AS_Label_i58ea91b1b4c4554aa1aeadbf8ec8b28",
        "type": "ACTION_SEQUENCE",
        "name": "onTouchEndFilterIncomming",
        "params": [{
            "datatype": "collection",
            "name": "eventobject"
        }, {
            "datatype": "string",
            "name": "x"
        }, {
            "datatype": "string",
            "name": "y"
        }],
        "contextObj": {
            "name": "frmFilterTransaction",
            "type": "forms",
            "platform": null,
            "KUID": "ff5ea79e22414b03ba4cca716d18a58c"
        },
        "language": "js",
        "actions": [{
            "id": "ADD_SNIPPET__e8769c7c078d40489842b7717061264e",
            "type": "ADD_SNIPPET",
            "codeSnippet": "if(frmFilterTransaction.lblIncommingTick.isVisible == false)\n\tfrmFilterTransaction.lblIncommingTick.isVisible = true;\nelse\n  frmFilterTransaction.lblIncommingTick.isVisible = false;",
            "parentId": null
        }]
    }
}