{
    "AS_Label_h5fe92477a3a47bbac91fa121e90efea": {
        "id": "AS_Label_h5fe92477a3a47bbac91fa121e90efea",
        "type": "ACTION_SEQUENCE",
        "name": "onTouchEndYouTube",
        "params": [{
            "datatype": "collection",
            "name": "eventobject"
        }, {
            "datatype": "string",
            "name": "x"
        }, {
            "datatype": "string",
            "name": "y"
        }],
        "language": "js",
        "actions": [{
            "id": "ADD_SNIPPET_ide_onTouchEnd_d74fc8eec15c4082a4529c115351ae6e",
            "type": "ADD_SNIPPET",
            "codeSnippet": "open_SOCIALMEDIA(YOUTUBE);"
        }]
    }
}