{
    "AS_TextField_d2229fa273bd413eba11f1095589221d": {
        "id": "AS_TextField_d2229fa273bd413eba11f1095589221d",
        "type": "ACTION_SEQUENCE",
        "name": "onTouchEndSuplementryCardLimitApplyCards",
        "params": [{
            "datatype": "collection",
            "name": "eventobject"
        }, {
            "datatype": "string",
            "name": "x"
        }, {
            "datatype": "string",
            "name": "y"
        }],
        "contextObj": {
            "name": "frmApplyNewCardsKA",
            "type": "forms",
            "platform": "",
            "KUID": "a05ce8d2e4404e40bfbc8dad585d28dc"
        },
        "language": "js",
        "actions": [{
            "id": "ADD_SNIPPET__g6c250a97d6b4d21979e5a73b721f3c8",
            "type": "ADD_SNIPPET",
            "codeSnippet": "animateLabel(\"UP\",kony.newCARD.fields.SuplementryCardLimit[0],frmApplyNewCardsKA[kony.newCARD.fields.SuplementryCardLimit[1]].text);",
            "parentId": null,
            "callbackType": null
        }]
    }
}