{
    "AS_TextField_j95497a30be94c3f96a09b920c5a1d67": {
        "id": "AS_TextField_j95497a30be94c3f96a09b920c5a1d67",
        "type": "ACTION_SEQUENCE",
        "name": "onTouchEndApplyCardRequestLimit",
        "params": [{
            "datatype": "collection",
            "name": "eventobject"
        }, {
            "datatype": "string",
            "name": "x"
        }, {
            "datatype": "string",
            "name": "y"
        }],
        "contextObj": {
            "name": "frmApplyNewCardsKA",
            "type": "forms",
            "platform": "",
            "KUID": "a05ce8d2e4404e40bfbc8dad585d28dc"
        },
        "language": "js",
        "actions": [{
            "id": "ADD_SNIPPET__de619cfd33b5476a8b342ce40c2f5213",
            "type": "ADD_SNIPPET",
            "codeSnippet": "animate_NEWCARDSOPTIOS(\"UP\", \"lblRequestLimitTitle\", frmApplyNewCardsKA.txtRequestLimit.text);",
            "parentId": null,
            "callbackType": null
        }]
    }
}