{
    "AS_Label_a7d225c2afcb450ab75711b0dd7214bd": {
        "id": "AS_Label_a7d225c2afcb450ab75711b0dd7214bd",
        "type": "ACTION_SEQUENCE",
        "name": "onTouchEndCardStatementSort",
        "params": [{
            "datatype": "collection",
            "name": "eventobject"
        }, {
            "datatype": "string",
            "name": "x"
        }, {
            "datatype": "string",
            "name": "y"
        }],
        "contextObj": {
            "name": "frmCardStatementKA",
            "type": "forms",
            "platform": null,
            "KUID": "ebef3c7798e64ac49c7cc83d9df0b4f2"
        },
        "language": "js",
        "actions": [{
            "id": "ADD_SNIPPET__hac58d669c9a4df8aa1f19c28f11c52d",
            "type": "ADD_SNIPPET",
            "codeSnippet": "if(frmCardStatementKA.transactionSegment.isVisible)\nanimatePopup_Sort();",
            "parentId": null,
            "callbackType": null
        }]
    }
}