{
    "AS_Label_c50d3f14e0f9409c8754f5db31e86013": {
        "id": "AS_Label_c50d3f14e0f9409c8754f5db31e86013",
        "type": "ACTION_SEQUENCE",
        "name": "onTouchEndFilterManageCards",
        "params": [{
            "datatype": "collection",
            "name": "eventobject"
        }, {
            "datatype": "string",
            "name": "x"
        }, {
            "datatype": "string",
            "name": "y"
        }],
        "contextObj": {
            "name": "frmManageCardsKA",
            "type": "forms",
            "platform": "",
            "KUID": "75db60b6b4944b7faf9c556f4dbcaf8d"
        },
        "language": "js",
        "actions": [{
            "id": "ADD_SNIPPET__c4723b8703e144979966549d96af7ddb",
            "type": "ADD_SNIPPET",
            "codeSnippet": "fromAccounts = false;\nfromCards = true;\nfrmFilterTransaction.show();",
            "parentId": null,
            "callbackType": null
        }]
    }
}