{
    "AS_TextField_fc5e20ff942742e5bdc5c4df915ba81e": {
        "id": "AS_TextField_fc5e20ff942742e5bdc5c4df915ba81e",
        "type": "ACTION_SEQUENCE",
        "name": "onTxtChangeBillerNumber",
        "params": [{
            "datatype": "collection",
            "name": "eventobject"
        }, {
            "datatype": "string",
            "name": "changedtext"
        }],
        "contextObj": {
            "name": "frmNewBillKA",
            "type": "forms",
            "platform": "",
            "KUID": "94b57de480514c9f98e1f6979b71a37b"
        },
        "language": "js",
        "actions": [{
            "id": "ADD_SNIPPET__e99744a5230346839d08fff403466bae",
            "type": "ADD_SNIPPET",
            "codeSnippet": "if(frmNewBillKA.tbxBillerNumber.text.match(/[^A-Za-z0-9]/g) !== \"null\" && frmNewBillKA.tbxBillerNumber.text.match(/[^A-Za-z0-9]/g) !== null){\n  frmNewBillKA.tbxBillerNumber.text = frmNewBillKA.tbxBillerNumber.text.replace(/[^A-Za-z0-9]/g, \"\");\n}\nnextFromNewBillScreen();\nchangeUnderlineskin();",
            "parentId": null,
            "callbackType": null
        }]
    }
}