{
    "AS_Form_dc224ad09c6d4c558953826240e0efca": {
        "id": "AS_Form_dc224ad09c6d4c558953826240e0efca",
        "type": "ACTION_SEQUENCE",
        "name": "preshowfrmMyMoney",
        "params": [{
            "datatype": "collection",
            "name": "eventobject"
        }],
        "contextObj": {
            "name": "frmMyMoneyListKA",
            "type": "forms",
            "platform": "",
            "KUID": "4c6f3d4dd57b4bc3a51ee85d32b7cd14"
        },
        "language": "js",
        "actions": [{
            "id": "ADD_SNIPPET__db12e25d53d54079b9ee392d38c01426",
            "type": "ADD_SNIPPET",
            "codeSnippet": "frmMyMoneyListKA.btnSpendPerMonth.skin=\"slButtonWhiteTab\";\nfrmMyMoneyListKA.btnSpendPerMonth.focusSkin=\"slButtonWhiteTabFocus\";\nfrmMyMoneyListKA.btnAllAccount.skin=\"slButtonWhiteTabDisabled\";\nfrmMyMoneyListKA.flxPieChart.setVisibility(true);\nfrmMyMoneyListKA.flxLineChart.setVisibility(false);\ngesture_pieChartSwipe();\n// frmMyMoneyListKA.lblNoChart.setVisibility(false);\n// Pie_createChartWidget();",
            "parentId": null,
            "callbackType": null
        }]
    }
}