{
    "AS_Form_be1d5e3a340845749d2d333a89ba9606": {
        "id": "AS_Form_be1d5e3a340845749d2d333a89ba9606",
        "type": "ACTION_SEQUENCE",
        "name": "preshowAccountDetail",
        "params": [{
            "datatype": "collection",
            "name": "eventobject"
        }],
        "contextObj": {
            "name": "frmAccountDetailKA",
            "type": "forms",
            "platform": "",
            "KUID": "5ed703cad63c441882fc4a36f5ea0c28"
        },
        "language": "js",
        "actions": [{
            "id": "ADD_SNIPPET__23994aa5f7d94e48b909d3f4c29dac2c",
            "type": "ADD_SNIPPET",
            "codeSnippet": " /* populateAccountDetailsinAccountDetails(\"frmAccountDetailKA\");\n animationReset();*/\n// if(no){\n// var segData = [\n// \t{\"transactionName\":\"vadivel\",\"date\":\"01/19/2018\",\"transactionAmount\":\"1000\",\"transactionDate\":\"JAN 19, 2018 - Recurring Monthly\",\"Mode\":\"debit\"},\n//     {\"transactionName\":\"vadivel\",\"date\":\"01/23/2018\",\"transactionAmount\":\"542\",\"transactionDate\":\"JAN 23, 2018 - Recurring Monthly\",\"Mode\":\"credit\"},\n// \t{\"transactionName\":\"anandh\",\"date\":\"01/18/2018\",\"transactionAmount\":\"542\",\"transactionDate\":\"JAN 18, 2018 - Recurring Monthly\",\"Mode\":\"debit\"},\n//     {\"transactionName\":\"anandh\",\"date\":\"01/19/2018\",\"transactionAmount\":\"9482\",\"transactionDate\":\"JAN 19, 2018 - Recurring Monthly\",\"Mode\":\"credit\"},\n// \t{\"transactionName\":\"asif\",\"date\":\"01/23/2018\",\"transactionAmount\":\"9482\",\"transactionDate\":\"JAN 23, 2018 - Recurring Monthly\",\"Mode\":\"debit\"},\n//     {\"transactionName\":\"asif\",\"date\":\"01/18/2018\",\"transactionAmount\":\"1000\",\"transactionDate\":\"JAN 18, 2018 - Recurring Monthly\",\"Mode\":\"credit\"}];\n// frmAccountDetailKA.transactionSegment.setData(segData);\n// frmAccountDetailKA.dealsTransactionSeg.setData(segData);\n// frmAccountDetailKA.loanTransactionSeg.setData(segData);\n//   no = false;\n// }\nflagUnclear=0;\nkony.print(\"Nothing\");\nfrmAccountDetailKA.accountDetailsScrollContainer.showFadingEdges = false;\nfrmAccountDetailKA.flxPageIndicator.showFadingEdges = false;\n\nfrmAccountDetailKA.tabsWrapper.setVisibility(true);\n//mai\nfrmAccountDetailKA.flxSSCInformation.setVisibility(false);\n// frmAccountDetailKA.flxSSCInformation.setVisibility(false);",
            "parentId": null,
            "callbackType": null
        }]
    }
}