{
    "AS_Segment_5bf19c884ae249f5ba76b158d294c006": {
        "id": "AS_Segment_5bf19c884ae249f5ba76b158d294c006",
        "type": "ACTION_SEQUENCE",
        "name": "recentDepositTransactionRowClick",
        "params": [{
            "datatype": "collection",
            "name": "eventobject"
        }, {
            "datatype": "number",
            "name": "sectionNumber"
        }, {
            "datatype": "number",
            "name": "rowNumber"
        }],
        "contextObj": {
            "name": "frmDepositPayLandingKA",
            "type": "forms",
            "platform": null,
            "KUID": "dd44156e890e4ee28360f50ee6c67184"
        },
        "language": "js",
        "actions": [{
            "id": "ADD_SNIPPET__ac38f73185b54fce826674c226fc2e77",
            "type": "ADD_SNIPPET",
            "codeSnippet": "navigateToDepositDetails();\nrecentDepositPreshow();\nfrmRecentDepositKA.skin = \"sknmainGradient\";\nfrmRecentDepositKA.titleBarWrapper.skin = \"skncontainerBkgNone\";\n",
            "parentId": null,
            "callbackType": null
        }]
    }
}