{
    "AS_Segment_00c94ac0b7e34594b0fed09e700ec3e6": {
        "id": "AS_Segment_00c94ac0b7e34594b0fed09e700ec3e6",
        "type": "ACTION_SEQUENCE",
        "name": "segChangeDataRowClickAction",
        "params": [{
            "datatype": "collection",
            "name": "eventobject"
        }, {
            "datatype": "number",
            "name": "sectionNumber"
        }, {
            "datatype": "number",
            "name": "rowNumber"
        }],
        "contextObj": {
            "type": "forms",
            "platform": "",
            "KUID": "ac09c32a534449b3b0961f8e48e26015"
        },
        "language": "js",
        "actions": [{
            "id": "INVOKE_FUNCTION___eb4b8493638c4f289bcdfdbf2f17172b",
            "type": "INVOKE_FUNCTION",
            "display": "changeDateRangeClick",
            "inputparams": [],
            "parentId": null,
            "callbackType": null,
            "source": "module"
        }]
    }
}