{
    "AS_Button_8c1390dc8c564c3da66e4c642531ea5a": {
        "id": "AS_Button_8c1390dc8c564c3da66e4c642531ea5a",
        "type": "ACTION_SEQUENCE",
        "name": "submitNewAccountApplication",
        "params": [{
            "datatype": "collection",
            "name": "eventobject"
        }],
        "contextObj": {
            "type": "forms",
            "platform": null,
            "KUID": "50dfa337455447979963bb1be4aa7b7b"
        },
        "language": "js",
        "actions": [{
            "id": "ADD_SNIPPET__97ccd8ed8f41421380b926f309d64e27",
            "type": "ADD_SNIPPET",
            "codeSnippet": "//submitApplication();\nkony.print(\"myString\");",
            "parentId": null,
            "callbackType": null
        }]
    }
}