{
    "@class": "com.kony.gen.viz.model.component.KVizLabel",
    "DNDConfig": null,
    "__parentReadjusting__": false,
    "_height_": {
        "type": "ref",
        "value": "preferred"
    },
    "_left_": {
        "type": "string",
        "value": "17.52%"
    },
    "_margin_": [
        1,
        1,
        1,
        1
    ],
    "_padding_": [
        0,
        0,
        0,
        0
    ],
    "_skin_": "s25eaab7a17f44c2a4d4448a03130788",
    "_text_": "You do not have any Check Requests",
    "_top_": {
        "type": "string",
        "value": "30dp"
    },
    "_width_": {
        "type": "string",
        "value": "65%"
    },
    "_wrapping_": 2,
    "canUpdateUI": true,
    "centerx": {
        "type": "string",
        "value": "50%"
    },
    "centery": {
        "type": "string",
        "value": "35.519999999999996%"
    },
    "containerweight": 100,
    "contentalignment": 5,
    "enabled": false,
    "id": "LabelNoRecordsKA",
    "info": null,
    "ipad": {
        "psp": {
            "wrapping": 2
        }
    },
    "iphone": {
        "psp": {
            "wrapping": 2
        }
    },
    "isvisible": false,
    "kuid": "70b67153a75749c6a01c203106da8dd9",
    "name": "kony.ui.Label",
    "parent": "mainContent",
    "pf": "frmCheckReOrderListKA",
    "texti18n": "i18n.checkReOrder.NoRecords",
    "tooltip": "",
    "wType": "Label",
    "zindex": 1
}