{
    "AS_Button_h5ab524ddf884c8ab8d0e64c8ae1e857": {
        "id": "AS_Button_h5ab524ddf884c8ab8d0e64c8ae1e857",
        "type": "ACTION_SEQUENCE",
        "params": [{
            "datatype": "FormController",
            "name": "form"
        }],
        "contextObj": {
            "name": "frmWatMenu",
            "type": "forms",
            "platform": null,
            "KUID": "ea59f4de6a074958ad1b469a50249501"
        },
        "language": "swift",
        "actions": [{
            "id": "ADD_SNIPPET__a9c101fe96d14f58b2151d92444c40b7",
            "type": "ADD_SNIPPET",
            "codeSnippet": "let context = [\"token\": \"2\"]\nform.pushController(withName: \"frmWatMenuItemList\", context: context);",
            "parentId": null,
            "callbackType": null
        }]
    }
}