{
    "AS_Form_d6af3aaa00174348a85d105d40f704b9": {
        "id": "AS_Form_d6af3aaa00174348a85d105d40f704b9",
        "type": "ACTION_SEQUENCE",
        "params": [{
            "datatype": "FormController",
            "name": "form"
        }, {
            "datatype": "AnyObject?",
            "name": "context"
        }],
        "contextObj": {
            "name": "frmWatMenuItemList",
            "type": "forms",
            "platform": null,
            "KUID": "cac2a5493c024985820ea814ab8675af"
        },
        "language": "swift",
        "actions": [{
            "id": "ADD_SNIPPET__e6a2a61cfea94406b50b1ceb641e0ee1",
            "type": "ADD_SNIPPET",
            "codeSnippet": "activateSeesion();\nonFrmMenuItemListAwake(form: form, context: context!);",
            "parentId": null,
            "callbackType": null
        }]
    }
}