{
    "AS_Group_bca880057c2d4a5ba12ce479455ccb96": {
        "id": "AS_Group_bca880057c2d4a5ba12ce479455ccb96",
        "type": "ACTION_SEQUENCE",
        "params": [{
            "datatype": "FormController",
            "name": "form"
        }],
        "contextObj": {
            "name": "frmWatMenu",
            "type": "forms",
            "platform": "",
            "KUID": "ea59f4de6a074958ad1b469a50249501"
        },
        "language": "swift",
        "actions": [{
            "id": "ADD_SNIPPET__f974288880c84d13bd72cf52317f3458",
            "type": "ADD_SNIPPET",
            "codeSnippet": "let context = [\"token\": \"1\"]\nform.pushController(withName: \"frmWatMenuItemList\", context: context);",
            "parentId": null,
            "callbackType": null
        }]
    }
}