{
    "AS_WatchDynamicNotificationForm_id48d7bbc6774ada91240109574075b6": {
        "id": "AS_WatchDynamicNotificationForm_id48d7bbc6774ada91240109574075b6",
        "type": "ACTION_SEQUENCE",
        "params": [{
            "datatype": "FormController",
            "name": "form"
        }, {
            "datatype": "[NSObject: AnyObject]",
            "name": "dict"
        }, {
            "datatype": "((WKUserNotificationInterfaceType) -> Void)",
            "name": "completionHandler"
        }],
        "contextObj": {
            "name": "AppNotification",
            "type": "notifications",
            "KUID": "f3fefab384f54a6282a01309fe06974e"
        },
        "language": "swift",
        "actions": []
    }
}