{
    "@class": "com.kony.gen.viz.model.container.KVizSegment2",
    "DNDConfig": null,
    "__markedForDelete__": true,
    "__parentReadjusting__": false,
    "_data_": [
        {
            "lblArrow": {
                "@class": "com.viz.ide.model.segment.SimpleTextSegmentData",
                "text": "Label"
            },
            "lblCardNum": {
                "@class": "com.viz.ide.model.segment.SimpleTextSegmentData",
                "text": "00123458746"
            },
            "lblDescription": {
                "@class": "com.viz.ide.model.segment.SimpleTextSegmentData",
                "text": "00123458746"
            },
            "lblLoanName": {
                "@class": "com.viz.ide.model.segment.SimpleTextSegmentData",
                "text": "Saving Account"
            },
            "lblNumber": {
                "@class": "com.viz.ide.model.segment.SimpleTextSegmentData",
                "text": "60,005.0 JOB"
            }
        },
        {
            "lblArrow": {
                "@class": "com.viz.ide.model.segment.SimpleTextSegmentData",
                "text": "Label"
            },
            "lblCardNum": {
                "@class": "com.viz.ide.model.segment.SimpleTextSegmentData",
                "text": "00123458746"
            },
            "lblDescription": {
                "@class": "com.viz.ide.model.segment.SimpleTextSegmentData",
                "text": "00123458746"
            },
            "lblLoanName": {
                "@class": "com.viz.ide.model.segment.SimpleTextSegmentData",
                "text": "Saving Account"
            },
            "lblNumber": {
                "@class": "com.viz.ide.model.segment.SimpleTextSegmentData",
                "text": "60,005.0 JOB"
            }
        },
        {
            "lblArrow": {
                "@class": "com.viz.ide.model.segment.SimpleTextSegmentData",
                "text": "Label"
            },
            "lblCardNum": {
                "@class": "com.viz.ide.model.segment.SimpleTextSegmentData",
                "text": "00123458746"
            },
            "lblDescription": {
                "@class": "com.viz.ide.model.segment.SimpleTextSegmentData",
                "text": "00123458746"
            },
            "lblLoanName": {
                "@class": "com.viz.ide.model.segment.SimpleTextSegmentData",
                "text": "Saving Account"
            },
            "lblNumber": {
                "@class": "com.viz.ide.model.segment.SimpleTextSegmentData",
                "text": "60,005.0 JOB"
            }
        }
    ],
    "_enabled_": true,
    "_height_": {
        "type": "ref",
        "value": "preferred"
    },
    "_indicator_": "none",
    "_left_": 0,
    "_margin_": [
        0,
        0,
        0,
        0
    ],
    "_opacity_": 100,
    "_orientation_": 2,
    "_padding_": [
        0,
        0,
        0,
        0
    ],
    "_top_": 0,
    "_width_": {
        "type": "ref",
        "value": "preferred"
    },
    "autogrowmode": 1,
    "canUpdateUI": true,
    "containerweight": 100,
    "counter": "02",
    "focusedindex": null,
    "focuseditem": null,
    "groupcells": false,
    "hasSections": false,
    "id": "segList",
    "ide_onRowClick": "AS_Segment_c8074ea632f24f90baf678de1a4c7e2e",
    "info": null,
    "ipad": {
        "psp": {
            "indicator": "rowselect"
        }
    },
    "iphone": {
        "psp": {
            "indicator": "rowselect"
        }
    },
    "isvisible": true,
    "kuid": "bd1d2b705ae94c3bb3081ced15a9c335",
    "masterdata": {},
    "name": "kony.ui.SegmentedUI2",
    "needpageindicator": true,
    "paddinginpixel": true,
    "pageoffdotimage": "pageoffdot.png",
    "pageondotimage": "pageondot.png",
    "paginationconfig": {
        "position": "bottom"
    },
    "parent": "frmWatMenuItemList",
    "pf": "frmWatMenuItemList",
    "retainselection": false,
    "rowTemplateId": "a14d61e712414f038632a94eb8b8bd1b",
    "rowcounter": 2,
    "rowtemplate": "grpMIMain",
    "screenlevelwidget": false,
    "seccounter": 0,
    "selectedRows": null,
    "selectedState": false,
    "selectedindex": null,
    "selectedindices": null,
    "selecteditems": null,
    "selectedsectionindex": 0,
    "selectionbehavior": "default",
    "separatorcolor": "64646400",
    "separatorrequired": true,
    "separatorthickness": 1,
    "showscrollbars": false,
    "viewtype": "tableview",
    "wType": "Segment",
    "widgetalignment": 2,
    "widgetdatamap": {
        "grpContent": "grpContent",
        "grpMContent": "grpMContent",
        "grpMIMain": "grpMIMain",
        "grpSymbol": "grpSymbol",
        "lblArrow": "lblArrow",
        "lblCardNum": "lblCardNum",
        "lblDescription": "lblDescription",
        "lblLoanName": "lblLoanName",
        "lblNumber": "lblNumber"
    },
    "widgetskin": "s91aaf68d2604cdc9081ab992188a9a4"
}