{
    "DNDConfig": null,
    "__parentReadjusting__": false,
    "_height_": {
        "type": "ref",
        "value": "preferred"
    },
    "_left_": {
        "type": "string",
        "value": "0dp"
    },
    "_margin_": [
        0,
        0,
        0,
        0
    ],
    "_orientation_": 6,
    "_padding_": [
        0,
        0,
        0,
        0
    ],
    "_percent_": true,
    "_skin_": "s388f0c575ef4d08ac3a5ed0a4b90085",
    "_top_": {
        "type": "string",
        "value": "0dp"
    },
    "_width_": {
        "type": "string",
        "value": "100%"
    },
    "allboxes": [],
    "autogrowmode": 1,
    "canUpdateUI": true,
    "children": [
        "lblTitle",
        "flxBeneNameIBAN",
        "flxAmountIBAN",
        "flxIbanDetails",
        "lblHintIBAN",
        "flxIbanBeneName",
        "flxAddress",
        "flxBank",
        "flxBankName"
    ],
    "clipbounds": true,
    "containerweight": 100,
    "enablescrolling": true,
    "id": "flxDetailsIBAN",
    "info": null,
    "isvisible": false,
    "kuid": "e6953b04ccea4345b27675c04eccfa7a",
    "layouttype": 4,
    "name": "kony.ui.FlexContainer",
    "parent": "FlexScrollContainer0f98b54f0d87740",
    "pf": "frmEPS",
    "snapgridsize": 10,
    "snaptogrid": true,
    "wType": "FlexContainer",
    "widgetalignment": 1,
    "zindex": 1
}