{
    "DNDConfig": null,
    "__parentReadjusting__": false,
    "_height_": {
        "type": "string",
        "value": "31dp"
    },
    "_margin_": [
        0,
        0,
        0,
        0
    ],
    "_orientation_": 6,
    "_padding_": [
        0,
        0,
        0,
        0
    ],
    "_percent_": true,
    "_right_": {
        "type": "string",
        "value": "2.04%"
    },
    "_skin_": "s388f0c575ef4d08ac3a5ed0a4b90085",
    "_top_": {
        "type": "string",
        "value": "11.75%"
    },
    "_width_": {
        "type": "string",
        "value": "17.33%"
    },
    "allboxes": [],
    "autogrowmode": 0,
    "canUpdateUI": true,
    "children": [
        "lblNext"
    ],
    "clipbounds": true,
    "containerweight": 100,
    "enablescrolling": true,
    "id": "flxNext",
    "ide_onClick": "AS_FlexContainer_d64ab074007848f6abcf6adebb95166f",
    "info": null,
    "iscustomlayout": true,
    "isvisible": true,
    "kuid": "j6cd467577a548cda4a31ff8d6ce24e5",
    "layouttype": 2,
    "name": "kony.ui.FlexContainer",
    "parent": "flxHead",
    "pf": "frmNewUserOnboardVerificationKA",
    "retainflexpositionproperties": true,
    "snapgridsize": 10,
    "snaptogrid": true,
    "wType": "FlexContainer",
    "widgetalignment": 1,
    "zindex": 1
}