{
    "DNDConfig": null,
    "__parentReadjusting__": false,
    "_height_": {
        "type": "string",
        "value": "6%"
    },
    "_margin_": [
        0,
        0,
        0,
        0
    ],
    "_orientation_": 6,
    "_padding_": [
        0,
        0,
        0,
        0
    ],
    "_percent_": true,
    "_right_": {
        "type": "string",
        "value": "2%"
    },
    "_skin_": "s07f15b80d324be2969aa6a3a995f62e",
    "_top_": {
        "type": "string",
        "value": "54%"
    },
    "_width_": {
        "type": "string",
        "value": "45%"
    },
    "allboxes": [],
    "autogrowmode": 0,
    "canUpdateUI": true,
    "children": [
        "lblLocationIcon",
        "lblVisitNearestBranch"
    ],
    "clipbounds": true,
    "containerweight": 100,
    "enablescrolling": true,
    "id": "flxVisitNearestBranch",
    "ide_onClick": "AS_FlexContainer_idbbf915bd574d3288113fd76f1823c8",
    "info": null,
    "isvisible": false,
    "kuid": "db7a6aa7c86b4347acf60ac3e93cce47",
    "layouttype": 2,
    "name": "kony.ui.FlexContainer",
    "parent": "flxOTP",
    "pf": "frmNewUserOnboardVerificationKA",
    "snapgridsize": 10,
    "snaptogrid": true,
    "wType": "FlexContainer",
    "widgetalignment": 1,
    "zindex": 1
}