{
    "@class": "com.kony.gen.viz.model.component.KVizTextBox2",
    "DNDConfig": null,
    "__parentReadjusting__": false,
    "_height_": {
        "type": "string",
        "value": "100%"
    },
    "_left_": {
        "type": "string",
        "value": "0dp"
    },
    "_margin_": [
        0,
        0,
        0,
        0
    ],
    "_padding_": [
        3,
        0,
        0,
        0
    ],
    "_placeholder_": "",
    "_skin_": "s52180c6450b4093917b43821ead97dc",
    "_text_": "",
    "_top_": {
        "type": "string",
        "value": "0dp"
    },
    "_width_": {
        "type": "string",
        "value": "0%"
    },
    "accessibilityconfig": {
        "a11yLabel": "Enter your One Time Password and click next"
    },
    "android": {
        "psp": {
            "keyboardActionLabel": 1
        }
    },
    "autocapitalize": "none",
    "autocomplete": false,
    "autocorrect": false,
    "autofilter": false,
    "canUpdateUI": true,
    "containerheight": "",
    "containerheightmode": 1,
    "containerweight": 100,
    "contentalignment": 5,
    "focusskin": "s029998596d3421892d0917ea7492e1d",
    "id": "txtOTP1",
    "ide_onTextChange": "AS_TextField_fbe9a7f7dc3248ad87ba6f652c6fc478",
    "info": null,
    "iphone": {
        "psp": {
            "pasteboardType": 1
        }
    },
    "isvisible": false,
    "keyboardactionlabel": 1,
    "keyboardstyle": "digitpad",
    "keyboardtype": "A",
    "kuid": "acb3be367e714bb8bc85999c0104beab",
    "mode": "N",
    "name": "kony.ui.TextBox2",
    "parent": "flxEnterOTP",
    "pf": "frmNewUserOnboardVerificationKA",
    "securetextentry": false,
    "textinputmode": "N",
    "viewtype": "default",
    "wType": "TextField",
    "zindex": 10
}