{
    "@class": "com.kony.gen.viz.model.component.KVizButton",
    "DNDConfig": null,
    "__parentReadjusting__": false,
    "_height_": {
        "type": "string",
        "value": "100%"
    },
    "_left_": {
        "type": "string",
        "value": "0%"
    },
    "_margin_": [
        6,
        6,
        6,
        6
    ],
    "_padding_": [
        0,
        0,
        0,
        0
    ],
    "_skin_": "sd040b329a574e1c88bcd726f03b952c",
    "_text_": "G",
    "_top_": {
        "type": "string",
        "value": "0%"
    },
    "_width_": {
        "type": "string",
        "value": "100%"
    },
    "canUpdateUI": true,
    "containerweight": 100,
    "contentalignment": 5,
    "disabledSkins": {},
    "displaytext": true,
    "focusskin": "sd040b329a574e1c88bcd726f03b952c",
    "id": "btnCardReg",
    "info": null,
    "isvisible": true,
    "kuid": "ce4b294b1acb4f4e92060bc3bab7a83f",
    "name": "kony.ui.Button",
    "parent": "flxCard",
    "pf": "frmRegisterUser",
    "wType": "Button",
    "zindex": 1
}