{
    "@class": "com.kony.gen.viz.model.component.KVizLabel",
    "DNDConfig": null,
    "__parentReadjusting__": false,
    "_height_": {
        "type": "ref",
        "value": "preferred"
    },
    "_margin_": [
        1,
        1,
        1,
        1
    ],
    "_padding_": [
        0,
        0,
        0,
        0
    ],
    "_skin_": "s99689caf92844ffbf0e045a503921a4",
    "_text_": "Current Mobile Number 962790407197",
    "_top_": {
        "type": "string",
        "value": "2%"
    },
    "_width_": {
        "type": "string",
        "value": "100%"
    },
    "_wrapping_": 2,
    "android": {
        "textStyle": {
            "letterSpacing": 0,
            "strikeThrough": false
        }
    },
    "canUpdateUI": true,
    "centerx": {
        "type": "string",
        "value": "50%"
    },
    "containerweight": 100,
    "contentalignment": 5,
    "id": "lblEnterMobileNumber",
    "info": null,
    "ipad": {
        "psp": {
            "wrapping": 2
        }
    },
    "iphone": {
        "psp": {
            "wrapping": 2
        }
    },
    "isvisible": true,
    "kuid": "d9d45549d51c4bc8b531478d103e9d97",
    "name": "kony.ui.Label",
    "parent": "flxTxtMobileNukber",
    "pf": "frmRegisterUser",
    "texti18n": "i18n.settings.enterYourMobileNumberPlh",
    "textstyle": {},
    "tooltip": "",
    "wType": "Label",
    "zindex": 1
}