{
    "@class": "com.kony.gen.viz.model.container.KVizSegment2",
    "DNDConfig": null,
    "__parentReadjusting__": false,
    "_data_": [
        {
            "lblAliasSeg": {
                "@class": "com.viz.ide.model.segment.SimpleTextSegmentData",
                "text": ""
            },
            "lblAliasTitleSeg": {
                "@class": "com.viz.ide.model.segment.SimpleTextSegmentData",
                "i18nkey": "i18n.jomopay.aliastype",
                "text": "Alias"
            },
            "lblAliasTypeSeg": {
                "@class": "com.viz.ide.model.segment.SimpleTextSegmentData",
                "text": ""
            },
            "lblAliasTypeTitleSeg": {
                "@class": "com.viz.ide.model.segment.SimpleTextSegmentData",
                "text": "Alias Type"
            }
        },
        {
            "lblAliasSeg": {
                "@class": "com.viz.ide.model.segment.SimpleTextSegmentData",
                "text": ""
            },
            "lblAliasTitleSeg": {
                "@class": "com.viz.ide.model.segment.SimpleTextSegmentData",
                "i18nkey": "i18n.jomopay.aliastype",
                "text": "Alias"
            },
            "lblAliasTypeSeg": {
                "@class": "com.viz.ide.model.segment.SimpleTextSegmentData",
                "text": ""
            },
            "lblAliasTypeTitleSeg": {
                "@class": "com.viz.ide.model.segment.SimpleTextSegmentData",
                "text": "Alias Type"
            }
        },
        {
            "lblAliasSeg": {
                "@class": "com.viz.ide.model.segment.SimpleTextSegmentData",
                "text": ""
            },
            "lblAliasTitleSeg": {
                "@class": "com.viz.ide.model.segment.SimpleTextSegmentData",
                "i18nkey": "i18n.jomopay.aliastype",
                "text": "Alias"
            },
            "lblAliasTypeSeg": {
                "@class": "com.viz.ide.model.segment.SimpleTextSegmentData",
                "text": ""
            },
            "lblAliasTypeTitleSeg": {
                "@class": "com.viz.ide.model.segment.SimpleTextSegmentData",
                "text": "Alias Type"
            }
        }
    ],
    "_height_": {
        "type": "ref",
        "value": "preferred"
    },
    "_indicator_": "none",
    "_left_": {
        "type": "string",
        "value": "0dp"
    },
    "_margin_": [
        0,
        0,
        0,
        0
    ],
    "_orientation_": 2,
    "_padding_": [
        0,
        0,
        0,
        0
    ],
    "_top_": {
        "type": "string",
        "value": "0dp"
    },
    "_width_": {
        "type": "string",
        "value": "100%"
    },
    "autogrowmode": 1,
    "canUpdateUI": true,
    "containerweight": 100,
    "counter": "02",
    "focusedindex": null,
    "focuseditem": null,
    "groupcells": false,
    "hasSections": false,
    "id": "segGetAllIPSAliases",
    "info": null,
    "ipad": {
        "psp": {
            "indicator": "rowselect"
        }
    },
    "iphone": {
        "psp": {
            "indicator": "none"
        }
    },
    "iscustomlayout": false,
    "isvisible": true,
    "kuid": "a4271643a9cb4daf951799addb07b05b",
    "masterdata": {},
    "name": "kony.ui.SegmentedUI2",
    "needpageindicator": true,
    "pageoffdotimage": "pageoffdot.png",
    "pageondotimage": "pageondot.png",
    "paginationconfig": {
        "position": "bottom"
    },
    "parent": "flxMain",
    "pf": "frmGetIPSAlias",
    "retainflexpositionproperties": false,
    "retainselection": false,
    "rowTemplateId": "g95db8a1fe4b4fcbaceaa4b7ef7f574d",
    "rowcounter": 2,
    "rowfocusskin": "s5fa38be22fb4f22b7c642b08276ab82",
    "rowskin": "sf50ddbd75934159ae5d26fc1d954683",
    "rowtemplate": "flxMainSeg",
    "screenlevelwidget": false,
    "seccounter": 0,
    "sectionheaderskin": "s67621b8a82d49f285da06b4f5a0c993",
    "selectedRows": null,
    "selectedState": false,
    "selectedindex": null,
    "selectedindices": null,
    "selecteditems": null,
    "selectedsectionindex": 0,
    "selectionbehavior": "default",
    "separatorrequired": true,
    "separatorthickness": 1,
    "showscrollbars": false,
    "viewtype": "tableview",
    "vizProps": {},
    "wType": "Segment",
    "widgetalignment": 5,
    "widgetdatamap": {
        "flxIPSAlias": "flxIPSAlias",
        "flxMainSeg": "flxMainSeg",
        "lblAliasSeg": "lblAliasSeg",
        "lblAliasTitleSeg": "lblAliasTitleSeg",
        "lblAliasTypeSeg": "lblAliasTypeSeg",
        "lblAliasTypeTitleSeg": "lblAliasTypeTitleSeg"
    },
    "zindex": 1
}