{
    "@class": "com.kony.gen.viz.model.component.KVizButton",
    "DNDConfig": null,
    "__parentReadjusting__": false,
    "_height_": {
        "type": "string",
        "value": "100%"
    },
    "_left_": {
        "type": "string",
        "value": "50%"
    },
    "_margin_": [
        6,
        6,
        6,
        6
    ],
    "_padding_": [
        0,
        0,
        0,
        0
    ],
    "_skin_": "sb28f0acc58c4fb192640c4d30c89058",
    "_text_": "u",
    "_top_": {
        "type": "string",
        "value": "0%"
    },
    "_width_": {
        "type": "string",
        "value": "50%"
    },
    "canUpdateUI": true,
    "containerweight": 100,
    "contentalignment": 5,
    "displaytext": true,
    "focusskin": "s3a2dbead7cc4c83984735a2417af7b9",
    "id": "btnAdd",
    "ide_onClick": "AS_Button_be4a1fb4a0af49fc870353544264f3ef",
    "info": null,
    "isvisible": true,
    "kuid": "a623861596774911b699209794ac1043",
    "name": "kony.ui.Button",
    "parent": "flxIcons",
    "pf": "frmPalpayHome",
    "wType": "Button",
    "zindex": 1
}