{
    "@class": "com.kony.gen.viz.model.component.KVizButton",
    "DNDConfig": null,
    "__parentReadjusting__": false,
    "_height_": {
        "type": "ref",
        "value": "preferred"
    },
    "_left_": {
        "type": "string",
        "value": "5%"
    },
    "_margin_": [
        6,
        6,
        6,
        6
    ],
    "_padding_": [
        0,
        0,
        0,
        0
    ],
    "_skin_": "s1858dc0a19e403a93a532b59571c961",
    "_text_": "t",
    "_width_": {
        "type": "ref",
        "value": "preferred"
    },
    "canUpdateUI": true,
    "centery": {
        "type": "string",
        "value": "50%"
    },
    "containerweight": 100,
    "contentalignment": 5,
    "displaytext": true,
    "focusskin": "s1858dc0a19e403a93a532b59571c961",
    "id": "btnBillsPayAccountsBulk",
    "ide_onClick": "AS_Button_h747df0691b5458fbfb9036cd74b888e",
    "info": null,
    "isvisible": true,
    "kuid": "i5eba6506b244a34abeee0a036cb8e90",
    "name": "kony.ui.Button",
    "parent": "flxRadioAccCardsSelectionBulk",
    "pf": "frmBulkPaymentKA",
    "wType": "Button",
    "zindex": 2
}