{
    "@class": "com.kony.gen.viz.model.component.KVizButton",
    "DNDConfig": null,
    "__parentReadjusting__": false,
    "_height_": {
        "type": "ref",
        "value": "preferred"
    },
    "_left_": {
        "type": "string",
        "value": "55%"
    },
    "_margin_": [
        6,
        6,
        6,
        6
    ],
    "_padding_": [
        0,
        0,
        0,
        0
    ],
    "_skin_": "s1858dc0a19e403a93a532b59571c961",
    "_text_": "s",
    "_width_": {
        "type": "ref",
        "value": "preferred"
    },
    "canUpdateUI": true,
    "centery": {
        "type": "string",
        "value": "50%"
    },
    "containerweight": 100,
    "contentalignment": 5,
    "displaytext": true,
    "focusskin": "s1858dc0a19e403a93a532b59571c961",
    "id": "btnBillsPayCards",
    "ide_onClick": "AS_Button_adcaf2ce408a427091f721a2e8c00eab",
    "info": null,
    "isvisible": false,
    "kuid": "hda02d75d9514d498ab748f78b4e3279",
    "name": "kony.ui.Button",
    "parent": "flxRadioAccCardsSelection",
    "pf": "frmBulkPaymentKA",
    "wType": "Button",
    "zindex": 2
}