{
    "DNDConfig": null,
    "_height_": {
        "type": "string",
        "value": "80dp"
    },
    "_margin_": [
        0,
        0,
        0,
        0
    ],
    "_padding_": [
        0,
        0,
        0,
        0
    ],
    "_skin_": "s9c14c5cfa624594965bca8fa71d4023",
    "allboxes": [],
    "autogrowmode": 0,
    "canUpdateUI": true,
    "children": [
        "lblTransactionDateKA",
        "lblTransactionNameKA",
        "lblTransactionAmountKA",
        "lblSepKA",
        "ImgWithDraw",
        "lblExpiryTime"
    ],
    "clipbounds": true,
    "containerId": true,
    "containerweight": 100,
    "disabledSkins": {},
    "enabled": false,
    "enablescrolling": true,
    "id": "CopyFlexContainer0125626bedd894d",
    "info": null,
    "isTemplate": true,
    "isvisible": true,
    "kuid": "8f085d19685c41ecbee68f4047ed0c66",
    "layouttype": 2,
    "name": "kony.ui.FlexContainer",
    "orientation": 6,
    "parent": "tmpSearchResultsKA",
    "percent": true,
    "pf": "tmpSearchResultsKA",
    "snapgridsize": 10,
    "snaptogrid": true,
    "wType": "FlexContainer",
    "widgetalignment": 1
}