{
    "@class": "com.kony.gen.viz.model.component.KVizButton",
    "DNDConfig": null,
    "__parentReadjusting__": false,
    "_height_": {
        "type": "string",
        "value": "32dp"
    },
    "_left_": {
        "type": "number",
        "value": "92"
    },
    "_margin_": [
        6,
        6,
        6,
        6
    ],
    "_padding_": [
        0,
        0,
        0,
        0
    ],
    "_skin_": "sde4a55c47df404896417e957396ff0a",
    "_text_": "New Check Deposit",
    "_top_": {
        "type": "string",
        "value": "55dp"
    },
    "_width_": {
        "type": "string",
        "value": "177dp"
    },
    "canUpdateUI": true,
    "centerx": {
        "type": "string",
        "value": "50%"
    },
    "containerweight": 100,
    "contentalignment": 5,
    "displaytext": true,
    "focusskin": "s2162c4236184af099eaa8f84fd624da",
    "id": "btnNewDepositKA",
    "ide_onClick": "AS_Button_3986869d0ba24f5091be37dc4b612b64",
    "info": null,
    "isvisible": true,
    "kuid": "ae940b544d494a64a0e9e4e9d1a9a711",
    "name": "kony.ui.Button",
    "parent": "topWrapper",
    "pf": "frmDepositPayLandingKA",
    "texti18n": "i18n.deposit.newCheckDeposit",
    "wType": "Button",
    "zindex": 1
}