{
    "@class": "com.kony.gen.viz.model.container.KVizSegment2",
    "DNDConfig": null,
    "__parentReadjusting__": false,
    "_bounces_": false,
    "_data_": [
        {
            "ImgRecurrence": {
                "@class": "com.viz.ide.model.segment.ImageSegmentData",
                "src": "recuurencebox.png"
            },
            "ImgTransactionFail": {
                "@class": "com.viz.ide.model.segment.ImageSegmentData",
                "src": "failedimage.png"
            },
            "chevron": {
                "@class": "com.viz.ide.model.segment.ImageSegmentData",
                "src": ""
            },
            "lblAccountTypeKA": {
                "@class": "com.viz.ide.model.segment.SimpleTextSegmentData",
                "text": ""
            },
            "lblNotesKA": {
                "@class": "com.viz.ide.model.segment.SimpleTextSegmentData",
                "text": "Label"
            },
            "lblSepKA": {
                "@class": "com.viz.ide.model.segment.SimpleTextSegmentData",
                "text": ""
            },
            "transactionAmount": {
                "@class": "com.viz.ide.model.segment.SimpleTextSegmentData",
                "text": ""
            },
            "transactionDate": {
                "@class": "com.viz.ide.model.segment.SimpleTextSegmentData",
                "text": ""
            },
            "transactionName": {
                "@class": "com.viz.ide.model.segment.SimpleTextSegmentData",
                "text": ""
            }
        }
    ],
    "_height_": {
        "type": "string",
        "value": "100%"
    },
    "_indicator_": "none",
    "_left_": {
        "type": "string",
        "value": "50%"
    },
    "_margin_": [
        0,
        0,
        0,
        0
    ],
    "_orientation_": 2,
    "_padding_": [
        0,
        0,
        0,
        0
    ],
    "_top_": {
        "type": "string",
        "value": "0dp"
    },
    "_width_": {
        "type": "string",
        "value": "50%"
    },
    "autogrowmode": 0,
    "canUpdateUI": true,
    "containerweight": 100,
    "counter": "00",
    "focusedindex": null,
    "focuseditem": null,
    "groupcells": false,
    "hasSections": false,
    "id": "scheduledTransactions",
    "ide_onRowClick": "AS_Segment_cf0c86e7eb8f443ab4e6c3470d28ca2e",
    "info": null,
    "ipad": {
        "psp": {
            "indicator": "rowselect"
        }
    },
    "iphone": {
        "psp": {
            "bounces": false,
            "indicator": "none"
        }
    },
    "isvisible": true,
    "kuid": "94894adb62ff4092bd5bde81fdff1277",
    "masterdata": {},
    "name": "kony.ui.SegmentedUI2",
    "needpageindicator": true,
    "onrowclick": "AS_Segment_496427d7f0e947b29cff94953bfb2f20",
    "pageoffdotimage": "pageoffdot.png",
    "pageondotimage": "pageondot.png",
    "paginationconfig": {
        "position": "bottom"
    },
    "parent": "transactionListsContainer",
    "pf": "frmDepositPayLandingKA",
    "retainselection": false,
    "rowTemplateId": "c6c8be9b17234c119b5aa78886071c3b",
    "rowcounter": 0,
    "rowfocusskin": "sd637e0f4cfa4026ba5ae8c9a2292000",
    "rowskin": "s188360adf7c445da91ce74d44371e05",
    "rowtemplate": "CopyFlexContainer047db9e4d3aaf43",
    "screenlevelwidget": false,
    "seccounter": 0,
    "sectionheaderskin": "s166bbed35d04ad1b28badead9d39877",
    "selectedRows": null,
    "selectedState": false,
    "selectedindex": null,
    "selectedindices": null,
    "selecteditems": null,
    "selectedsectionindex": 0,
    "selectionbehavior": "default",
    "separatorcolor": "f7f7f700",
    "separatorrequired": true,
    "separatorthickness": 1,
    "showscrollbars": false,
    "viewtype": "tableview",
    "wType": "Segment",
    "widgetalignment": 5,
    "widgetdatamap": {
        "AccountTypeKA": "AccountTypeKA",
        "CopyFlexContainer047db9e4d3aaf43": "CopyFlexContainer047db9e4d3aaf43",
        "FlexContainer093a8eea8c55f4a": "FlexContainer093a8eea8c55f4a",
        "FlexContainer0c2ca3ef38dbd43": "FlexContainer0c2ca3ef38dbd43",
        "ImgRecurrence": "ImgRecurrence",
        "ImgTransactionFail": "ImgTransactionFail",
        "chevron": "chevron",
        "lblAccountType": "lblAccountType",
        "lblAccountTypeKA": "lblAccountTypeKA",
        "lblNotesKA": "lblNotesKA",
        "lblSepKA": "lblSepKA",
        "transactionAmount": "transactionAmount",
        "transactionDate": "transactionDate",
        "transactionName": "transactionName"
    },
    "zindex": 1
}