{
    "@class": "com.kony.gen.viz.model.component.KVizButton",
    "DNDConfig": null,
    "__parentReadjusting__": false,
    "_height_": {
        "type": "string",
        "value": "96%"
    },
    "_margin_": [
        6,
        6,
        6,
        6
    ],
    "_padding_": [
        0,
        0,
        0,
        0
    ],
    "_right_": {
        "type": "string",
        "value": "3%"
    },
    "_skin_": "scba750aa7f9473cadaf087f2356ea10",
    "_text_": "w",
    "_top_": {
        "type": "string",
        "value": "0%"
    },
    "_width_": {
        "type": "string",
        "value": "15%"
    },
    "canUpdateUI": true,
    "containerweight": 100,
    "contentalignment": 5,
    "displaytext": true,
    "focusskin": "scba750aa7f9473cadaf087f2356ea10",
    "id": "btnDeleteAlertHistory",
    "ide_onClick": "AS_Button_ed3a4a7981f94c63ac67ab2cf256168e",
    "info": null,
    "iscustomlayout": true,
    "isvisible": true,
    "kuid": "ae0c98f0ec6c4e509ae3217cc153bbce",
    "name": "kony.ui.Button",
    "parent": "flxAlertHeader",
    "pf": "frmAlertHistory",
    "retainflexpositionproperties": true,
    "wType": "Button",
    "zindex": 1
}