{
    "DNDConfig": null,
    "__parentReadjusting__": false,
    "_height_": {
        "type": "string",
        "value": "86%"
    },
    "_left_": {
        "type": "string",
        "value": "0%"
    },
    "_margin_": [
        0,
        0,
        0,
        0
    ],
    "_orientation_": 6,
    "_padding_": [
        0,
        0,
        0,
        0
    ],
    "_percent_": true,
    "_skin_": "s388f0c575ef4d08ac3a5ed0a4b90085",
    "_top_": {
        "type": "string",
        "value": "0%"
    },
    "_width_": {
        "type": "string",
        "value": "95%"
    },
    "allboxes": [],
    "autogrowmode": 0,
    "canUpdateUI": true,
    "children": [
        "flxTop1",
        "lblName",
        "lblAddress",
        "lblLat",
        "lblLong",
        "lblIcon1",
        "lblIcon2",
        "btnReserveQueue",
        "flxBottom"
    ],
    "clipbounds": true,
    "containerId": true,
    "containerweight": 100,
    "enablescrolling": true,
    "id": "flxTopDetails",
    "info": null,
    "isvisible": true,
    "kuid": "2f1ae8a384d747578aae450515943405",
    "layouttype": 4,
    "name": "kony.ui.FlexContainer",
    "parent": "flxMapATMBranchWithoutLocation",
    "pf": "mapATMBranchWithoutLocation",
    "snapgridsize": 10,
    "snaptogrid": true,
    "wType": "FlexContainer",
    "widgetalignment": 1,
    "zindex": 1
}