{
    "DNDConfig": null,
    "__parentReadjusting__": false,
    "_height_": {
        "type": "string",
        "value": "60%"
    },
    "_margin_": [
        0,
        0,
        0,
        0
    ],
    "_orientation_": 6,
    "_padding_": [
        0,
        0,
        0,
        0
    ],
    "_percent_": true,
    "_right_": {
        "type": "string",
        "value": "22%"
    },
    "_skin_": "s5384c55ad894841ae78a8cff35309bf",
    "_top_": {
        "type": "string",
        "value": "0%"
    },
    "_width_": {
        "type": "string",
        "value": "5%"
    },
    "allboxes": [],
    "autogrowmode": 0,
    "canUpdateUI": true,
    "centery": {
        "type": "string",
        "value": "50%"
    },
    "children": [],
    "clipbounds": true,
    "containerweight": 100,
    "enablescrolling": true,
    "id": "CopyflxNaveenbhaiKiLakeer0h80f8ceb396a49",
    "info": null,
    "isvisible": false,
    "kuid": "ffc220fbdfae4c6b8a1aea6011524607",
    "layouttype": 2,
    "name": "kony.ui.FlexContainer",
    "parent": "CopyflxTouchIDSwitchOff0e66d0041dba045",
    "pf": "frmManageCardsKA",
    "snapgridsize": 10,
    "snaptogrid": true,
    "wType": "FlexContainer",
    "widgetalignment": 1,
    "zindex": 1
}