{
    "DNDConfig": null,
    "__parentReadjusting__": false,
    "_height_": {
        "type": "string",
        "value": "22%"
    },
    "_left_": {
        "type": "string",
        "value": "0%"
    },
    "_margin_": [
        0,
        0,
        0,
        0
    ],
    "_orientation_": 6,
    "_padding_": [
        0,
        0,
        0,
        0
    ],
    "_percent_": true,
    "_skin_": "s388f0c575ef4d08ac3a5ed0a4b90085",
    "_top_": {
        "type": "string",
        "value": "0%"
    },
    "_width_": {
        "type": "string",
        "value": "100%"
    },
    "allboxes": [],
    "autogrowmode": 0,
    "canUpdateUI": true,
    "children": [
        "lblATMPOSIcon",
        "lblATMPOSLimitTitle",
        "Copydivider0e2383c368c2e42"
    ],
    "clipbounds": true,
    "containerweight": 100,
    "enablescrolling": true,
    "id": "flxATMPOSLimit",
    "ide_onClick": "AS_FlexContainer_f886c30dfe664bcbaec73e5b0b270b12",
    "info": null,
    "isvisible": false,
    "kuid": "ab6928ad126a4270b1b4e3afd083939b",
    "layouttype": 2,
    "name": "kony.ui.FlexContainer",
    "parent": "accountsOuterScroll",
    "pf": "frmManageCardsKA",
    "snapgridsize": 10,
    "snaptogrid": true,
    "wType": "FlexContainer",
    "widgetalignment": 1,
    "zindex": 1
}