{
    "DNDConfig": null,
    "__parentReadjusting__": false,
    "_height_": {
        "type": "string",
        "value": "22%"
    },
    "_left_": {
        "type": "string",
        "value": "0%"
    },
    "_margin_": [
        0,
        0,
        0,
        0
    ],
    "_orientation_": 6,
    "_padding_": [
        0,
        0,
        0,
        0
    ],
    "_percent_": true,
    "_skin_": "s388f0c575ef4d08ac3a5ed0a4b90085",
    "_top_": {
        "type": "string",
        "value": "0%"
    },
    "_width_": {
        "type": "string",
        "value": "100%"
    },
    "allboxes": [],
    "autogrowmode": 0,
    "canUpdateUI": true,
    "children": [
        "lblDebitCardLinkedAccountsIcon",
        "lblDebitCardLinkedAccountsTitle",
        "Copydivider0afb9160ce36541"
    ],
    "clipbounds": true,
    "containerweight": 100,
    "enablescrolling": true,
    "id": "flxDebitCardLinkedAccounts",
    "ide_onClick": "AS_FlexContainer_cd6e9834e0e046619e9ac2870a6ae06a",
    "info": null,
    "isvisible": false,
    "kuid": "ec030248f5b0406183c5e8f13e3df69e",
    "layouttype": 2,
    "name": "kony.ui.FlexContainer",
    "parent": "accountsOuterScroll",
    "pf": "frmManageCardsKA",
    "snapgridsize": 10,
    "snaptogrid": true,
    "wType": "FlexContainer",
    "widgetalignment": 1,
    "zindex": 1
}