{
    "DNDConfig": null,
    "__parentReadjusting__": false,
    "_height_": {
        "type": "string",
        "value": "8%"
    },
    "_left_": {
        "type": "string",
        "value": "-1%"
    },
    "_margin_": [
        0,
        0,
        0,
        0
    ],
    "_padding_": [
        0,
        0,
        0,
        0
    ],
    "_skin_": "s893a5b92922415588fa443075e1d94a",
    "_top_": {
        "type": "string",
        "value": "-2%"
    },
    "_width_": {
        "type": "string",
        "value": "101%"
    },
    "allboxes": [],
    "autogrowmode": 0,
    "canUpdateUI": true,
    "children": [
        "iosTitleBar",
        "flxAndroidTittleBarKA"
    ],
    "clipbounds": true,
    "containerweight": 100,
    "enabled": false,
    "enablescrolling": true,
    "id": "titleBarAccountInfo",
    "info": null,
    "isvisible": false,
    "kuid": "2f534c0088f54499ba81edec9cbd699e",
    "layouttype": 2,
    "name": "kony.ui.FlexContainer",
    "orientation": 6,
    "parent": "overview",
    "percent": true,
    "pf": "frmManageCardsKA",
    "snapgridsize": 10,
    "snaptogrid": true,
    "wType": "FlexContainer",
    "widgetalignment": 1,
    "zindex": 1
}