{
    "DNDConfig": null,
    "__parentReadjusting__": false,
    "_height_": {
        "type": "string",
        "value": "90%"
    },
    "_left_": {
        "type": "string",
        "value": "0%"
    },
    "_margin_": [
        0,
        0,
        0,
        0
    ],
    "_orientation_": 6,
    "_padding_": [
        0,
        0,
        0,
        0
    ],
    "_percent_": true,
    "_skin_": "s388f0c575ef4d08ac3a5ed0a4b90085",
    "_top_": {
        "type": "string",
        "value": "10%"
    },
    "_width_": {
        "type": "string",
        "value": "100%"
    },
    "allboxes": [],
    "autogrowmode": 0,
    "canUpdateUI": true,
    "children": [
        "lblNoOfRewardPointsAvailableTitle",
        "lblNoOfRewardPointsAvailable",
        "lblPointsToBeRedeemedTitle",
        "lblPointsToBeRedeemed",
        "lblRedeemedAmountTitle",
        "lblRedeemedAmountValue",
        "btnConfirmInstantCash"
    ],
    "clipbounds": true,
    "containerweight": 100,
    "enablescrolling": true,
    "id": "flxInstantCashPreConfirm",
    "info": null,
    "isvisible": false,
    "kuid": "i2af4dede55c4a83b87bbbd30dbd4eee",
    "layouttype": 2,
    "name": "kony.ui.FlexContainer",
    "parent": "flxInstantCash",
    "pf": "frmInstantCash",
    "snapgridsize": 10,
    "snaptogrid": true,
    "wType": "FlexContainer",
    "widgetalignment": 1,
    "zindex": 1
}