{
    "@class": "com.kony.gen.viz.model.component.KVizLabel",
    "DNDConfig": null,
    "__parentReadjusting__": false,
    "_height_": {
        "type": "ref",
        "value": "preferred"
    },
    "_margin_": [
        1,
        1,
        1,
        1
    ],
    "_padding_": [
        0,
        0,
        0,
        0
    ],
    "_right_": {
        "type": "string",
        "value": "5%"
    },
    "_skin_": "sf4f3ab74d4b47c4bc2feb4215497f1b",
    "_text_": "Maximum allowed redemption is 31,250 points",
    "_top_": {
        "type": "string",
        "value": "50%"
    },
    "_width_": {
        "type": "ref",
        "value": "preferred"
    },
    "_wrapping_": 2,
    "android": {
        "textStyle": {
            "letterSpacing": 0,
            "strikeThrough": false
        }
    },
    "canUpdateUI": true,
    "containerweight": 100,
    "contentalignment": 4,
    "id": "lblExceedPointLimit",
    "info": null,
    "ipad": {
        "psp": {
            "wrapping": 2
        }
    },
    "iphone": {
        "psp": {
            "wrapping": 2
        }
    },
    "isvisible": false,
    "kuid": "h88b9a2d51844edc8e74da117c59866b",
    "name": "kony.ui.Label",
    "parent": "flxInstantCashBody",
    "pf": "frmInstantCash",
    "texti18n": "i18n.instantcash.maxredemptionpointhint",
    "textstyle": {},
    "tooltip": "",
    "wType": "Label",
    "zindex": 1
}