{
    "DNDConfig": null,
    "__parentReadjusting__": false,
    "_height_": {
        "type": "string",
        "value": "25dp"
    },
    "_margin_": [
        0,
        0,
        0,
        0
    ],
    "_orientation_": 6,
    "_padding_": [
        0,
        0,
        0,
        0
    ],
    "_percent_": true,
    "_right_": {
        "type": "string",
        "value": "3%"
    },
    "_skin_": "s8cee9ddcb344024afcc0f0e0d2a9e37",
    "_width_": {
        "type": "string",
        "value": "44dp"
    },
    "allboxes": [],
    "autogrowmode": 0,
    "canUpdateUI": true,
    "centery": {
        "type": "string",
        "value": "50%"
    },
    "children": [
        "CopyflxRoundDBlueOff0j3222bd94cbc49",
        "CopyflxNaveenbhaiKiLakeer0ee7fe15950b44b"
    ],
    "clipbounds": true,
    "containerweight": 100,
    "enablescrolling": true,
    "id": "flxSwitchOnTouchLogin",
    "ide_onClick": "AS_FlexContainer_d856355e89594d518c952fbacaeae3e6",
    "info": null,
    "isvisible": false,
    "kuid": "d5cac0bd14a840a7bbe0c0962b8ef3d2",
    "layouttype": 2,
    "name": "kony.ui.FlexContainer",
    "parent": "flxAlterAuthTouchID",
    "pf": "frmUserSettingsTouchIdKA",
    "snapgridsize": 10,
    "snaptogrid": true,
    "wType": "FlexContainer",
    "widgetalignment": 1,
    "zindex": 1
}