{
    "DNDConfig": null,
    "__parentReadjusting__": false,
    "_height_": {
        "type": "string",
        "value": "100%"
    },
    "_left_": {
        "type": "string",
        "value": "0dp"
    },
    "_margin_": [
        0,
        0,
        0,
        0
    ],
    "_orientation_": 6,
    "_padding_": [
        0,
        0,
        0,
        0
    ],
    "_percent_": true,
    "_skin_": "s3a5a6ee63ce478fb4cb15be21bea3e8",
    "_top_": {
        "type": "string",
        "value": "0dp"
    },
    "_width_": {
        "type": "string",
        "value": "100%"
    },
    "allboxes": [],
    "autogrowmode": 0,
    "canUpdateUI": true,
    "children": [
        "flxAndrdTouchAlert"
    ],
    "clipbounds": true,
    "containerweight": 100,
    "enablescrolling": true,
    "id": "flxtouchIdAndrd",
    "ide_onClick": "AS_FlexContainer_gc27fc186a9341cc8fff454eedbc81ff",
    "info": null,
    "isvisible": false,
    "kuid": "c40afc6093644a68a25e7fb28ab2a2ac",
    "layouttype": 2,
    "name": "kony.ui.FlexContainer",
    "parent": "frmUserSettingsTouchIdKA",
    "pf": "frmUserSettingsTouchIdKA",
    "snapgridsize": 10,
    "snaptogrid": true,
    "wType": "FlexContainer",
    "widgetalignment": 1,
    "zindex": 50
}