{
    "@class": "com.kony.gen.viz.model.component.KVizButton",
    "DNDConfig": null,
    "__parentReadjusting__": false,
    "_height_": {
        "type": "string",
        "value": "90%"
    },
    "_left_": {
        "type": "string",
        "value": "0%"
    },
    "_margin_": [
        6,
        6,
        6,
        6
    ],
    "_padding_": [
        2,
        0,
        0,
        0
    ],
    "_skin_": "s184a9f68e834d6aa017819b71ff5ad4",
    "_text_": "j",
    "_top_": {
        "type": "string",
        "value": "0.00%"
    },
    "_width_": {
        "type": "string",
        "value": "20%"
    },
    "canUpdateUI": true,
    "containerweight": 100,
    "contentalignment": 4,
    "disabledSkins": {},
    "displaytext": true,
    "focusskin": "s184a9f68e834d6aa017819b71ff5ad4",
    "id": "btnBack",
    "ide_onClick": "AS_Button_e36a8f2af41e4d5f9a345d1b4399891e",
    "info": null,
    "iscustomlayout": true,
    "isvisible": true,
    "kuid": "he3b375d322544748b6271a1ad7d795a",
    "name": "kony.ui.Button",
    "paddinginpixel": false,
    "parent": "flxSettingsHeader",
    "pf": "frmMyAccountSettingsKA",
    "retaincontentalignment": true,
    "retainflexpositionproperties": true,
    "texti18n": "i18n.common.back",
    "wType": "Button",
    "zindex": 4
}