{
    "@class": "com.kony.gen.viz.model.container.KVizSegment2",
    "DNDConfig": null,
    "__parentReadjusting__": false,
    "_data_": [
        {
            "Symbol": {
                "@class": "com.viz.ide.model.segment.SimpleTextSegmentData",
                "text": "o"
            },
            "lblACCHideShow": {
                "@class": "com.viz.ide.model.segment.SimpleTextSegmentData",
                "text": "Salary Account"
            },
            "lblAccName": {
                "@class": "com.viz.ide.model.segment.SimpleTextSegmentData",
                "text": "Salary Account"
            },
            "lblAccNickname": {
                "@class": "com.viz.ide.model.segment.SimpleTextSegmentData",
                "text": "Salary Account"
            },
            "lblAccountName": {
                "@class": "com.viz.ide.model.segment.SimpleTextSegmentData",
                "text": "Salary Account"
            },
            "lblAccountNumber": {
                "@class": "com.viz.ide.model.segment.SimpleTextSegmentData",
                "text": "***777"
            },
            "lblAmount": {
                "@class": "com.viz.ide.model.segment.SimpleTextSegmentData",
                "text": "2,7453 JOD"
            },
            "lblDefaultAccPayment": {
                "@class": "com.viz.ide.model.segment.SimpleTextSegmentData",
                "text": "Balance"
            },
            "lblDefaultAccTransfer": {
                "@class": "com.viz.ide.model.segment.SimpleTextSegmentData",
                "text": "Salary Account"
            }
        },
        {
            "Symbol": {
                "@class": "com.viz.ide.model.segment.SimpleTextSegmentData",
                "text": "o"
            },
            "lblACCHideShow": {
                "@class": "com.viz.ide.model.segment.SimpleTextSegmentData",
                "text": "Salary Account"
            },
            "lblAccName": {
                "@class": "com.viz.ide.model.segment.SimpleTextSegmentData",
                "text": "Salary Account"
            },
            "lblAccNickname": {
                "@class": "com.viz.ide.model.segment.SimpleTextSegmentData",
                "text": "Salary Account"
            },
            "lblAccountName": {
                "@class": "com.viz.ide.model.segment.SimpleTextSegmentData",
                "text": "Savings Account"
            },
            "lblAccountNumber": {
                "@class": "com.viz.ide.model.segment.SimpleTextSegmentData",
                "text": "***145"
            },
            "lblAmount": {
                "@class": "com.viz.ide.model.segment.SimpleTextSegmentData",
                "text": "2,7453 JOD"
            },
            "lblDefaultAccPayment": {
                "@class": "com.viz.ide.model.segment.SimpleTextSegmentData",
                "text": "Balance"
            },
            "lblDefaultAccTransfer": {
                "@class": "com.viz.ide.model.segment.SimpleTextSegmentData",
                "text": "Salary Account"
            }
        },
        {
            "Symbol": {
                "@class": "com.viz.ide.model.segment.SimpleTextSegmentData",
                "text": "o"
            },
            "lblACCHideShow": {
                "@class": "com.viz.ide.model.segment.SimpleTextSegmentData",
                "text": "Salary Account"
            },
            "lblAccName": {
                "@class": "com.viz.ide.model.segment.SimpleTextSegmentData",
                "text": "Salary Account"
            },
            "lblAccNickname": {
                "@class": "com.viz.ide.model.segment.SimpleTextSegmentData",
                "text": "Salary Account"
            },
            "lblAccountName": {
                "@class": "com.viz.ide.model.segment.SimpleTextSegmentData",
                "text": "Current Account"
            },
            "lblAccountNumber": {
                "@class": "com.viz.ide.model.segment.SimpleTextSegmentData",
                "text": "***0014"
            },
            "lblAmount": {
                "@class": "com.viz.ide.model.segment.SimpleTextSegmentData",
                "text": "2,7453 JOD"
            },
            "lblDefaultAccPayment": {
                "@class": "com.viz.ide.model.segment.SimpleTextSegmentData",
                "text": "Balance"
            },
            "lblDefaultAccTransfer": {
                "@class": "com.viz.ide.model.segment.SimpleTextSegmentData",
                "text": "Salary Account"
            }
        }
    ],
    "_height_": {
        "type": "ref",
        "value": "preferred"
    },
    "_indicator_": "none",
    "_left_": {
        "type": "string",
        "value": "0%"
    },
    "_margin_": [
        0,
        0,
        0,
        0
    ],
    "_orientation_": 2,
    "_padding_": [
        0,
        0,
        0,
        0
    ],
    "_top_": {
        "type": "string",
        "value": "0%"
    },
    "_width_": {
        "type": "string",
        "value": "100%"
    },
    "autogrowmode": 1,
    "canUpdateUI": true,
    "containerweight": 100,
    "counter": "02",
    "focusedindex": null,
    "focuseditem": null,
    "groupcells": false,
    "hasSections": false,
    "id": "segChooseAccounts",
    "ide_onRowClick": "AS_Segment_bf63ae0736d5495a8572d59e7bb49193",
    "info": null,
    "ipad": {
        "psp": {
            "indicator": "rowselect"
        }
    },
    "iphone": {
        "psp": {
            "indicator": "none",
            "showProgressIndicator": false
        }
    },
    "isvisible": true,
    "kuid": "bc065cd1af7f441a959e2bb5349ebabb",
    "masterdata": {},
    "name": "kony.ui.SegmentedUI2",
    "needpageindicator": true,
    "pageoffdotimage": "pageoffdot.png",
    "pageondotimage": "pageondot.png",
    "paginationconfig": {
        "position": "bottom"
    },
    "parent": "FlexScrollContainer0aaefdaacee1040",
    "pf": "frmMyAccountSettingsKA",
    "retainselection": false,
    "rowTemplateId": "d1170f99117d4c62bc5e5901ef7fcfd6",
    "rowcounter": 2,
    "rowfocusskin": "s27c76e85b844e03945d12f1113a8f87",
    "rowskin": "s27c76e85b844e03945d12f1113a8f87",
    "rowtemplate": "flxSegChooseAccounts",
    "screenlevelwidget": false,
    "seccounter": 0,
    "sectionheaderskin": "s67621b8a82d49f285da06b4f5a0c993",
    "selectedRows": null,
    "selectedState": false,
    "selectedindex": null,
    "selectedindices": null,
    "selecteditems": null,
    "selectedsectionindex": 0,
    "selectionbehavior": "default",
    "separatorcolor": "ffffff50",
    "separatorrequired": true,
    "separatorthickness": 2,
    "showprogressindicator": false,
    "showscrollbars": false,
    "viewtype": "tableview",
    "vizProps": {},
    "wType": "Segment",
    "widgetalignment": 5,
    "widgetdatamap": {
        "Symbol": "Symbol",
        "flxSegChooseAccounts": "flxSegChooseAccounts",
        "lblACCHideShow": "lblACCHideShow",
        "lblAccName": "lblAccName",
        "lblAccNickname": "lblAccNickname",
        "lblAccountName": "lblAccountName",
        "lblAccountNumber": "lblAccountNumber",
        "lblAmount": "lblAmount",
        "lblDefaultAccPayment": "lblDefaultAccPayment",
        "lblDefaultAccTransfer": "lblDefaultAccTransfer"
    },
    "zindex": 1
}