{
    "@class": "com.kony.gen.viz.model.component.KVizButton",
    "DNDConfig": null,
    "__parentReadjusting__": false,
    "_height_": {
        "type": "string",
        "value": "50%"
    },
    "_margin_": [
        6,
        6,
        6,
        6
    ],
    "_padding_": [
        0,
        0,
        0,
        0
    ],
    "_skin_": "s184a9f68e834d6aa017819b71ff5ad4",
    "_text_": "j",
    "_width_": {
        "type": "string",
        "value": "8%"
    },
    "canUpdateUI": true,
    "centerx": {
        "type": "string",
        "value": "5%"
    },
    "centery": {
        "type": "string",
        "value": "50%"
    },
    "containerweight": 100,
    "contentalignment": 5,
    "displaytext": true,
    "focusskin": "s184a9f68e834d6aa017819b71ff5ad4",
    "id": "btnBack",
    "ide_onClick": "AS_Button_e6aec81914a34c2d8219b98e431aaffe",
    "info": null,
    "isvisible": true,
    "kuid": "f0ce885b9a1f407ebf2016660121a8a8",
    "name": "kony.ui.Button",
    "parent": "flxTransactionDetailsHeader",
    "pf": "frmTransactionDetails",
    "wType": "Button",
    "zindex": 1
}