{
    "@class": "com.kony.gen.viz.model.component.KVizButton",
    "DNDConfig": null,
    "__parentReadjusting__": false,
    "_bottom_": {
        "type": "number",
        "value": "0"
    },
    "_height_": {
        "type": "string",
        "value": "10%"
    },
    "_margin_": [
        6,
        6,
        6,
        6
    ],
    "_padding_": [
        0,
        0,
        0,
        0
    ],
    "_skin_": "s51d68053cae4eba826625de179be4ae",
    "_text_": "Stop Payment",
    "_width_": {
        "type": "string",
        "value": "70%"
    },
    "canUpdateUI": true,
    "centerx": {
        "type": "string",
        "value": "50%"
    },
    "centery": {
        "type": "string",
        "value": "10%"
    },
    "containerweight": 100,
    "contentalignment": 5,
    "displaytext": true,
    "focusskin": "s9dd8fe1ab7b4f26aad257d210a41f6e",
    "id": "Button0dedb1d35bd4c4b",
    "ide_onClick": "AS_Button_e75b018148194370b044537315afece2",
    "info": null,
    "isvisible": true,
    "kuid": "j6038a3bf9e64fa8bb3410c212906953",
    "name": "kony.ui.Button",
    "paddinginpixel": false,
    "parent": "flxTransactionDetailsContent",
    "pf": "frmTransactionDetails",
    "wType": "Button",
    "zindex": 1
}