{
    "@class": "com.kony.gen.viz.model.container.KVizSegment2",
    "DNDConfig": null,
    "__parentReadjusting__": false,
    "_data_": [
        {
            "lblDeviceTitle": {
                "@class": "com.viz.ide.model.segment.SimpleTextSegmentData",
                "text": "Samsung Galaxy S6"
            }
        },
        {
            "lblDeviceTitle": {
                "@class": "com.viz.ide.model.segment.SimpleTextSegmentData",
                "text": "OnePlus 3t"
            }
        },
        {
            "lblDeviceTitle": {
                "@class": "com.viz.ide.model.segment.SimpleTextSegmentData",
                "text": "iPhone 6s"
            }
        }
    ],
    "_height_": {
        "type": "ref",
        "value": "preferred"
    },
    "_indicator_": "none",
    "_left_": {
        "type": "string",
        "value": "0dp"
    },
    "_margin_": [
        0,
        0,
        0,
        0
    ],
    "_orientation_": 2,
    "_padding_": [
        0,
        0,
        0,
        0
    ],
    "_top_": {
        "type": "string",
        "value": "5%"
    },
    "_width_": {
        "type": "string",
        "value": "92%"
    },
    "autogrowmode": 1,
    "canUpdateUI": true,
    "centerx": {
        "type": "string",
        "value": "50%"
    },
    "containerweight": 100,
    "counter": "02",
    "focusedindex": null,
    "focuseditem": null,
    "groupcells": false,
    "hasSections": false,
    "id": "segRegisteredDevices",
    "ide_onRowClick": "AS_Segment_af4054e07e9149c780af5df1c11d9b23",
    "info": null,
    "ipad": {
        "psp": {
            "indicator": "rowselect"
        }
    },
    "iphone": {
        "psp": {
            "indicator": "none"
        }
    },
    "isvisible": true,
    "kuid": "h005b521dadf43bc85c764cccb002c7a",
    "masterdata": {},
    "name": "kony.ui.SegmentedUI2",
    "needpageindicator": true,
    "paddinginpixel": false,
    "pageoffdotimage": "pageoffdot.png",
    "pageondotimage": "pageondot.png",
    "paginationconfig": {
        "position": "bottom"
    },
    "parent": "mainContent",
    "pf": "frmDeviceRegistration",
    "retainselection": false,
    "rowTemplateId": "f52cd4fe7404429b87d2ebc1e498a9d0",
    "rowcounter": 2,
    "rowfocusskin": "s5fa38be22fb4f22b7c642b08276ab82",
    "rowskin": "s7c67eb8df91485793ae652819d8b54b",
    "rowtemplate": "flxDeviceDetailsEnabled",
    "screenlevelwidget": false,
    "seccounter": 0,
    "sectionheaderskin": "s67621b8a82d49f285da06b4f5a0c993",
    "selectedRows": null,
    "selectedState": false,
    "selectedindex": null,
    "selectedindices": null,
    "selecteditems": null,
    "selectedsectionindex": 0,
    "selectionbehavior": "default",
    "separatorcolor": "052b4900",
    "separatorrequired": true,
    "separatorthickness": 5,
    "showscrollbars": false,
    "viewtype": "tableview",
    "vizProps": {},
    "wType": "Segment",
    "widgetalignment": 5,
    "widgetdatamap": {
        "CopyflxNaveenbhaiKiLakeer0cb72155c61834c": "CopyflxNaveenbhaiKiLakeer0cb72155c61834c",
        "CopyflxRoundDBlue0bbc73e3c0fb041": "CopyflxRoundDBlue0bbc73e3c0fb041",
        "CopyflxRoundDBlueOff0a5e3eddfada24b": "CopyflxRoundDBlueOff0a5e3eddfada24b",
        "Copyflxlakeer0h4a3ac20cf6948": "Copyflxlakeer0h4a3ac20cf6948",
        "flxDeviceDetailsEnabled": "flxDeviceDetailsEnabled",
        "flxThisDeviceSwitchOff": "flxThisDeviceSwitchOff",
        "flxThisDeviceSwitchOn": "flxThisDeviceSwitchOn",
        "lblDeviceTitle": "lblDeviceTitle"
    },
    "zindex": 1
}