{
    "DNDConfig": null,
    "_height_": {
        "type": "string",
        "value": "105dp"
    },
    "_margin_": [
        0,
        0,
        0,
        0
    ],
    "_orientation_": 6,
    "_padding_": [
        0,
        0,
        0,
        0
    ],
    "_percent_": true,
    "_skin_": "s388f0c575ef4d08ac3a5ed0a4b90085",
    "allboxes": [],
    "autogrowmode": 0,
    "canUpdateUI": true,
    "children": [
        "flxIcon1",
        "flxTransactionStatusDetails",
        "contactListDivider"
    ],
    "clipbounds": true,
    "containerId": true,
    "containerweight": 100,
    "enablescrolling": true,
    "id": "flxTransactionStatusSegDetails",
    "info": null,
    "isTemplate": true,
    "isvisible": true,
    "kuid": "e1ea76aba2dc45d6b9a4d2172114205f",
    "layouttype": 2,
    "name": "kony.ui.FlexContainer",
    "parent": "tmpTransactionStatus",
    "pf": "tmpTransactionStatus",
    "snapgridsize": 10,
    "snaptogrid": true,
    "wType": "FlexContainer",
    "widgetalignment": 1
}