{
    "@class": "com.kony.gen.viz.model.component.KVizLabel",
    "DNDConfig": null,
    "__markedForDelete__": true,
    "__parentReadjusting__": false,
    "_height_": {
        "type": "ref",
        "value": "preferred"
    },
    "_margin_": [
        1,
        1,
        1,
        1
    ],
    "_padding_": [
        0,
        0,
        0,
        0
    ],
    "_right_": {
        "type": "string",
        "value": "1%"
    },
    "_skin_": "sc8de2343ebf4d8890c3d6c451007094",
    "_text_": "",
    "_width_": {
        "type": "string",
        "value": "24%"
    },
    "_wrapping_": 2,
    "canUpdateUI": true,
    "centery": {
        "type": "string",
        "value": "25%"
    },
    "containerId": true,
    "containerweight": 100,
    "contentalignment": 1,
    "enabled": false,
    "id": "lblDate",
    "info": null,
    "ipad": {
        "psp": {
            "wrapping": 2
        }
    },
    "iphone": {
        "psp": {
            "wrapping": 2
        }
    },
    "isvisible": true,
    "kuid": "haaf1119e80a4cc095d9c6c7e2422cbf",
    "maxnumberoflines": 1,
    "name": "kony.ui.Label",
    "parent": "flxTransactionStatusDetails",
    "pf": "tmpTransactionStatus",
    "texttruncateposition": 3,
    "tooltip": "",
    "wType": "Label",
    "zindex": 1
}