{
    "@class": "com.kony.gen.viz.model.component.KVizButton",
    "DNDConfig": null,
    "__parentReadjusting__": false,
    "_height_": {
        "type": "string",
        "value": "50dp"
    },
    "_left_": {
        "type": "string",
        "value": "0dp"
    },
    "_margin_": [
        6,
        6,
        6,
        6
    ],
    "_padding_": [
        0,
        0,
        0,
        0
    ],
    "_skin_": "s1b558d5a76c4e74aa712819f5be63d1",
    "_text_": "",
    "_top_": {
        "type": "string",
        "value": "0dp"
    },
    "_width_": {
        "type": "string",
        "value": "50dp"
    },
    "canUpdateUI": true,
    "containerweight": 100,
    "contentalignment": 5,
    "disabledSkins": {
        "focusSkin": "sb803869ef8f4c42a3233b6ac9dce91b"
    },
    "displaytext": true,
    "id": "androidBack",
    "ide_onClick": "AS_Button_d4298955af8c41aabda75c59ed4c67d5",
    "info": null,
    "iphone": {
        "psp": {
            "showProgressIndicator": false
        }
    },
    "isvisible": true,
    "kuid": "2b897532a8e549f8bce3252338686c33",
    "name": "kony.ui.Button",
    "onclick": "AS_Button_c1b0592cc36843d8a00759de4d6e2cbb",
    "parent": "androidTitleBar",
    "pf": "frmLocatorBranchDetailsKA",
    "showprogressindicator": false,
    "texti18n": "i18n.common.back",
    "wType": "Button",
    "zindex": 10
}