{
  "operationConfig" : {
    "name" : "getApplicationProp3119",
    "type" : "MappedToBackend",
    "cachable" : false,
    "smsEnabled" : false,
    "security" : "public",
    "responseEncoding" : "UTF-8",
    "httpMethod" : "GET",
    "decodeResponseBody" : false,
    "iMapping" : "<?xml version=\"1.0\" encoding=\"UTF-8\" standalone=\"yes\"?><mapper xmlns=\"http://www.kony.com/ns/mapper\">  <map inputpath=\"request_in\" outputpath=\"request_out\">    <set-param inputpath=\"AppVersion\" outputpath=\"AppVersion\"/>    <set-param inputpath=\"OSversion\" outputpath=\"OSversion\"/>    <set-param inputpath=\"OSType\" outputpath=\"OSType\"/>  </map></mapper>",
    "oMapping" : "<?xml version=\"1.0\" encoding=\"UTF-8\" standalone=\"yes\"?><mapper xmlns=\"http://www.kony.com/ns/mapper\">  <map inputpath=\"response_in\" outputpath=\"response_out\">    <set-param inputpath=\"errmsg\" outputpath=\"errmsg\"/>    <map inputpath=\"Application\" outputpath=\"Application\">      <set-param inputpath=\"MainBranchServices\" outputpath=\"MainBranchServices\"/>      <set-param inputpath=\"distanceUnit\" outputpath=\"distanceUnit\"/>      <set-param inputpath=\"MainBranchaddressLine1\" outputpath=\"MainBranchaddressLine1\"/>      <set-param inputpath=\"MainBranchaddressLine2\" outputpath=\"MainBranchaddressLine2\"/>      <set-param inputpath=\"bannerURL\" outputpath=\"bannerURL\"/>      <set-param inputpath=\"MainBranchCity\" outputpath=\"MainBranchCity\"/>      <set-param inputpath=\"MainBranchLatitude\" outputpath=\"MainBranchLatitude\"/>      <set-param inputpath=\"businessDays\" outputpath=\"businessDays\"/>      <set-param inputpath=\"bankName\" outputpath=\"bankName\"/>      <set-param inputpath=\"MainBranchState\" outputpath=\"MainBranchState\"/>      <set-param inputpath=\"MainBranchLongitude\" outputpath=\"MainBranchLongitude\"/>      <set-param inputpath=\"MainBranchzipCode\" outputpath=\"MainBranchzipCode\"/>      <set-param inputpath=\"isUpdateMandatory\" outputpath=\"isUpdateMandatory\"/>      <set-param inputpath=\"MainBranchWorkingHours\" outputpath=\"MainBranchWorkingHours\"/>      <set-param inputpath=\"branchType\" outputpath=\"branchType\"/>      <set-param inputpath=\"versionLink\" outputpath=\"versionLink\"/>      <set-param inputpath=\"currencyCode\" outputpath=\"currencyCode\"/>      <set-param inputpath=\"MainBranchPhone\" outputpath=\"MainBranchPhone\"/>      <set-param inputpath=\"isUpdate\" outputpath=\"isUpdate\"/>    </map>  </map></mapper>",
    "applyCommonMapping" : true,
    "backendMeta" : {
      "serviceVersion" : "1.0",
      "operationName" : "getApplicationProp",
      "serviceName" : "RetailBankingBEServices"
    },
    "relationshipHierarchyMapping" : {
      "children" : [ ],
      "name" : "Application",
      "selected" : true
    },
    "requestXmlMappingOverride" : false,
    "responseXmlMappingOverride" : false
  }
}