{
    "@class": "com.kony.gen.viz.model.component.KVizListBox",
    "DNDConfig": null,
    "__parentReadjusting__": false,
    "_height_": {
        "type": "ref",
        "value": "preferred"
    },
    "_left_": {
        "type": "string",
        "value": "4dp"
    },
    "_margin_": [
        0,
        0,
        0,
        0
    ],
    "_padding_": [
        0,
        0,
        0,
        0
    ],
    "_skin_": "s89eb521a8664df69d428f4b5f59ab90",
    "_top_": {
        "type": "string",
        "value": "1dp"
    },
    "_width_": {
        "type": "string",
        "value": "92%"
    },
    "canUpdateUI": true,
    "containerweight": 100,
    "contentalignment": 4,
    "context": {
        "channel": "mobile",
        "formID": "frmStopCardKA",
        "platform": "iphone",
        "templateType": "forms",
        "topLevelBox": null
    },
    "dropdownimage": "dropdown.png",
    "groupcells": false,
    "id": "lstCardReason",
    "info": null,
    "isvisible": false,
    "kuid": "i105e194fa824c26b42a61347e875b61",
    "masterdata": [
        [
            "lb1",
            "Select a Reason"
        ],
        [
            "lb2",
            "Card Lost"
        ],
        [
            "lb3",
            "Card Damaged"
        ]
    ],
    "name": "kony.ui.ListBox",
    "parent": "flxCardReason",
    "pf": "frmStopCardKA",
    "selectedkey": "lb1",
    "selectedkeys": null,
    "selectedkeyvalue": [
        "lb1",
        "Select a Reason"
    ],
    "selectedkeyvalues": null,
    "size": 18,
    "viewconfig": {
        "toggleViewConfig": {
            "viewStyle": 0
        }
    },
    "viewtype": 0,
    "wType": "ListBox",
    "zindex": 2
}