{
    "@class": "com.kony.gen.viz.model.component.KVizButton",
    "DNDConfig": null,
    "__parentReadjusting__": false,
    "_height_": {
        "type": "string",
        "value": "100%"
    },
    "_margin_": [
        6,
        6,
        6,
        6
    ],
    "_padding_": [
        0,
        0,
        0,
        0
    ],
    "_skin_": "sf7766faf6e34d0789442a84c1e76e1a",
    "_text_": "",
    "_width_": {
        "type": "string",
        "value": "70%"
    },
    "canUpdateUI": true,
    "centerx": {
        "type": "string",
        "value": "50%"
    },
    "centery": {
        "type": "string",
        "value": "50%"
    },
    "containerweight": 100,
    "contentalignment": 5,
    "displaytext": true,
    "focusskin": "sad5d6d4890b44858a39e4bf8a290332",
    "id": "btnPayNow",
    "ide_onClick": "AS_Button_d4425b3e3ba642e3bb88c950c5cab78f",
    "info": null,
    "isvisible": true,
    "kuid": "hf40738c400044d7935b6cc3b1b55c8b",
    "name": "kony.ui.Button",
    "parent": "FlexContainer0f1418ee9e2994a",
    "pf": "frmManagePayeeKA",
    "texti18n": "i18n.billsPay.PayNow",
    "wType": "Button",
    "zindex": 12
}