{
  "operationConfig" : {
    "name" : "prGetCrCardHistTrans3582",
    "type" : "MappedToBackend",
    "cachable" : false,
    "smsEnabled" : false,
    "security" : "public",
    "responseEncoding" : "UTF-8",
    "httpMethod" : "GET",
    "decodeResponseBody" : false,
    "iMapping" : "<?xml version=\"1.0\" encoding=\"UTF-8\" standalone=\"yes\"?><mapper xmlns=\"http://www.kony.com/ns/mapper\">    <map inputpath=\"request_in\" outputpath=\"request_out\">        <set-param inputpath=\"p_trn_nbr\" outputpath=\"p_trn_nbr\"/>        <set-param inputpath=\"custId\" outputpath=\"custId\"/>        <set-param inputpath=\"DateTo\" outputpath=\"DateTo\"/>        <set-param inputpath=\"DateFrom\" outputpath=\"DateFrom\"/>        <set-param inputpath=\"usr\" outputpath=\"usr\"/>        <set-param inputpath=\"CardNum\" outputpath=\"CardNum\"/>        <set-param inputpath=\"pass\" outputpath=\"pass\"/>    </map></mapper>",
    "oMapping" : "<?xml version=\"1.0\" encoding=\"UTF-8\" standalone=\"yes\"?><mapper xmlns=\"http://www.kony.com/ns/mapper\">                    <map inputpath=\"response_in\" outputpath=\"response_out\">                                                                  <set-param inputpath=\"History\" outputpath=\"History\"/>                      </map></mapper>",
    "applyCommonMapping" : false,
    "backendMeta" : {
      "serviceVersion" : "1.0",
      "operationName" : "prGetCrCardHistTrans",
      "serviceName" : "BOJGetCrCardHistTrans"
    },
    "relationshipHierarchyMapping" : {
      "children" : [ ],
      "name" : "Cards",
      "selected" : true
    },
    "requestXmlMappingOverride" : true,
    "responseXmlMappingOverride" : true
  }
}