{
    "@class": "com.kony.gen.viz.model.component.KVizButton",
    "DNDConfig": null,
    "__parentReadjusting__": false,
    "_height_": {
        "type": "string",
        "value": "9%"
    },
    "_margin_": [
        6,
        6,
        6,
        6
    ],
    "_padding_": [
        0,
        0,
        0,
        0
    ],
    "_skin_": "sf7766faf6e34d0789442a84c1e76e1a",
    "_text_": "",
    "_top_": {
        "type": "string",
        "value": "10%"
    },
    "_width_": {
        "type": "string",
        "value": "80%"
    },
    "canUpdateUI": true,
    "centerx": {
        "type": "string",
        "value": "50%"
    },
    "containerweight": 100,
    "contentalignment": 5,
    "displaytext": true,
    "focusskin": "sad5d6d4890b44858a39e4bf8a290332",
    "id": "btnPayNowBillDetails",
    "ide_onClick": "AS_Button_a403f54c86924edf8bea9e6b03ae5532",
    "info": null,
    "isvisible": true,
    "kuid": "f47fec42397c4ccca7b1c08dab8ac66b",
    "name": "kony.ui.Button",
    "parent": "submainBillDetailsContainer",
    "pf": "frmPalpayBillInformation",
    "texti18n": "i18n.cards.paynow",
    "wType": "Button",
    "zindex": 1
}