{
    "@class": "com.kony.gen.viz.model.component.KVizTextBox2",
    "DNDConfig": null,
    "__parentReadjusting__": false,
    "_bottom_": {
        "type": "string",
        "value": "22%"
    },
    "_height_": {
        "type": "string",
        "value": "40%"
    },
    "_left_": {
        "type": "string",
        "value": "0%"
    },
    "_margin_": [
        0,
        0,
        0,
        0
    ],
    "_padding_": [
        3,
        0,
        0,
        0
    ],
    "_placeholder_": "",
    "_skin_": "s029998596d3421892d0917ea7492e1d",
    "_text_": "",
    "_width_": {
        "type": "string",
        "value": "100%"
    },
    "android": {
        "ide_onBeginEditing": "AS_TextField_f4b0940fcac546f5ad9bedb2f000a1ba",
        "ide_onEndEditing": "AS_TextField_f646fd9ec94c4e74a796ca48d8e428ee"
    },
    "autocapitalize": "none",
    "autocomplete": false,
    "autocorrect": false,
    "autofilter": false,
    "canUpdateUI": true,
    "centerx": {
        "type": "string",
        "value": "50%"
    },
    "containerheight": "",
    "containerheightmode": 1,
    "containerweight": 100,
    "contentalignment": 4,
    "disabledSkins": {},
    "focusskin": "s029998596d3421892d0917ea7492e1d",
    "id": "tbxBillerNumber",
    "ide_onDone": "AS_TextField_aaeb7a0bf564402dbca1d154c572db63",
    "ide_onTextChange": "AS_TextField_gd79eaf602654d949b462d2d91402f11",
    "info": null,
    "iphone": {
        "ide_onBeginEditing": "AS_TextField_hc52f904d1164b2fb79e8ac2e10c3274",
        "ide_onEndEditing": "AS_TextField_i27c9770e0fa4cc0bc58950a7142390b"
    },
    "isvisible": true,
    "keyboardtype": "A",
    "kuid": "hb30d03917794ec9916c21b7c1fc1dd6",
    "maxtextlength": 35,
    "mode": "A",
    "name": "kony.ui.TextBox2",
    "parent": "flxBillerNumber",
    "pf": "frmPalpayBillInformation",
    "securetextentry": false,
    "textinputmode": "A",
    "viewtype": "default",
    "wType": "TextField",
    "zindex": 1
}