{
    "@class": "com.kony.gen.viz.model.component.KVizTextBox2",
    "DNDConfig": null,
    "__parentReadjusting__": false,
    "_height_": {
        "type": "string",
        "value": "1px"
    },
    "_left_": {
        "type": "string",
        "value": "0dp"
    },
    "_margin_": [
        0,
        0,
        0,
        0
    ],
    "_padding_": [
        3,
        0,
        0,
        0
    ],
    "_placeholder_": "",
    "_skin_": "s52180c6450b4093917b43821ead97dc",
    "_text_": "",
    "_top_": {
        "type": "string",
        "value": "0dp"
    },
    "_width_": {
        "type": "string",
        "value": "1px"
    },
    "android": {
        "psp": {
            "keyboardActionLabel": 1
        }
    },
    "autocapitalize": "none",
    "autocomplete": false,
    "autocorrect": false,
    "autofilter": false,
    "canUpdateUI": true,
    "containerheight": "",
    "containerheightmode": 1,
    "containerweight": 100,
    "contentalignment": 4,
    "id": "txtOTP",
    "ide_onTextChange": "AS_TextField_f847b669e34c4482a914f6ba17fc14d7",
    "info": null,
    "iphone": {
        "psp": {
            "pasteboardType": 1
        }
    },
    "isvisible": true,
    "keyboardstyle": "digitpad",
    "keyboardtype": "A",
    "kuid": "cae25f54c3ba483da11029cf2214793e",
    "mode": "N",
    "name": "kony.ui.TextBox2",
    "parent": "flxEnterOTP",
    "pasteboardtype": 1,
    "pf": "frmPalpayBillInformation",
    "securetextentry": false,
    "textinputmode": "N",
    "viewtype": "default",
    "wType": "TextField",
    "zindex": 1
}