{
    "DNDConfig": null,
    "_height_": {
        "type": "string",
        "value": "50dp"
    },
    "_margin_": [
        0,
        0,
        0,
        0
    ],
    "_orientation_": 6,
    "_padding_": [
        0,
        0,
        0,
        0
    ],
    "_percent_": true,
    "_skin_": "s77117634aa14e58908cea4332c51ada",
    "allboxes": [],
    "autogrowmode": 0,
    "canUpdateUI": true,
    "children": [
        "lblMenuItem",
        "flxLineDividerNavOptKA"
    ],
    "clipbounds": true,
    "containerId": true,
    "containerweight": 100,
    "enablescrolling": true,
    "id": "flxNavigationOptKA",
    "info": null,
    "isTemplate": true,
    "isvisible": true,
    "kuid": "d986bc9fbdd44ee8909b415774c167b7",
    "layouttype": 2,
    "name": "kony.ui.FlexContainer",
    "parent": "tmpNavigationOptKA",
    "pf": "tmpNavigationOptKA",
    "snapgridsize": 10,
    "snaptogrid": true,
    "wType": "FlexContainer",
    "widgetalignment": 2
}