{
    "DNDConfig": null,
    "__parentReadjusting__": false,
    "_height_": {
        "type": "string",
        "value": "25dp"
    },
    "_margin_": [
        0,
        0,
        0,
        0
    ],
    "_orientation_": 6,
    "_padding_": [
        0,
        0,
        0,
        0
    ],
    "_percent_": true,
    "_right_": {
        "type": "string",
        "value": "5%"
    },
    "_skin_": "s5384c55ad894841ae78a8cff35309bf",
    "_top_": {
        "type": "string",
        "value": "0dp"
    },
    "_width_": {
        "type": "string",
        "value": "44dp"
    },
    "allboxes": [],
    "autogrowmode": 0,
    "canUpdateUI": true,
    "centery": {
        "type": "string",
        "value": "50%"
    },
    "children": [
        "CopyflxRoundDBlueOff0a5e3eddfada24b",
        "CopyflxNaveenbhaiKiLakeer0cb72155c61834c"
    ],
    "clipbounds": true,
    "containerweight": 100,
    "enablescrolling": true,
    "id": "flxShowHideSwitchOff",
    "ide_onClick": "AS_FlexContainer_e8f141384b4f4c5f9266a61d58c1edc5",
    "info": null,
    "isvisible": true,
    "kuid": "eff398c961e143bd9e166d61e65adfbe",
    "layouttype": 2,
    "name": "kony.ui.FlexContainer",
    "parent": "flxShowHide",
    "pf": "frmEditAccountSettings",
    "snapgridsize": 10,
    "snaptogrid": true,
    "wType": "FlexContainer",
    "widgetalignment": 1,
    "zindex": 1
}