{
    "@class": "com.kony.gen.viz.model.component.KVizButton",
    "DNDConfig": null,
    "__parentReadjusting__": false,
    "_height_": {
        "type": "string",
        "value": "9%"
    },
    "_margin_": [
        6,
        6,
        6,
        6
    ],
    "_padding_": [
        0,
        0,
        0,
        0
    ],
    "_skin_": "s51d68053cae4eba826625de179be4ae",
    "_text_": "Login to Mobile Bank",
    "_top_": {
        "type": "string",
        "value": "7%"
    },
    "_width_": {
        "type": "string",
        "value": "75%"
    },
    "canUpdateUI": true,
    "centerx": {
        "type": "string",
        "value": "50.03%"
    },
    "containerweight": 100,
    "contentalignment": 5,
    "disabledSkins": {},
    "displaytext": true,
    "focusskin": "s51d68053cae4eba826625de179be4ae",
    "id": "signInButton",
    "ide_onClick": "AS_Button_a8786ffcf5b9418f9b9f41e9e689e598",
    "info": null,
    "iphone": {
        "psp": {
            "showProgressIndicator": false
        }
    },
    "isvisible": true,
    "kuid": "d06f63ecd3f742d1a61c3f08de8141da",
    "name": "kony.ui.Button",
    "onclick": "AS_Button_5be6fadb298145d7b15d8be4b19e6dc9",
    "parent": "flxScrollBody",
    "pf": "frmEditAccountSettings",
    "showprogressindicator": false,
    "texti18n": "i18n.common.save",
    "wType": "Button",
    "zindex": 5
}